<?xml version="1.0" encoding="UTF-8"?>
<kml xmlns="http://earth.google.com/kml/2.0">
    <NetworkLinkControl>
        <minRefreshPeriod>60</minRefreshPeriod>
        <linkName>M 4.2 - 5km NNE of Crescent, Oklahoma</linkName>
        <linkSnippet maxLines="2">Updated: 2016-04-03 11:46:39 UTC</linkSnippet>
    </NetworkLinkControl>
    <Document>
        <LookAt>
            <longitude>-97.575</longitude>
            <latitude>35.9951</latitude>
            <range>500000</range>
            <tilt>0</tilt>
            <heading>0</heading>
        </LookAt>
        <open>1</open>
        <Placemark id="feed">
            <name>Epicenter</name>
            <description>
                <![CDATA[<h2>M 4.2 - 5km NNE of Crescent, Oklahoma</h2><p class="quicksummary"><a href="http://earthquake.usgs.gov/earthquakes/eventpage/us20005d3n#pager" title="PAGER estimated impact alert level" class="pager-green">PAGER - <strong class="roman">GREEN</strong></a> <a href="http://earthquake.usgs.gov/earthquakes/eventpage/us20005d3n#shakemap" title="ShakeMap maximum estimated intensity" class="mmi-V">ShakeMap - <strong class="roman">V</strong></a> <a href="http://earthquake.usgs.gov/earthquakes/eventpage/us20005d3n#dyfi" class="mmi-V" title="Did You Feel It? maximum reported intensity (719 reports)">DYFI? - <strong class="roman">V</strong></a></p><dl><dt>Time</dt><dd>2016-03-29 04:53:01 UTC</dd><dd>2016-03-28 23:53:01 -05:00 at epicenter</dd><dt>Location</dt><dd>35.995&deg;N 97.575&deg;W</dd><dt>Depth</dt><dd>4.94 km (3.07 mi)</dd></dl><p class="links"><a href="http://earthquake.usgs.gov/earthquakes/eventpage/us20005d3n">Details from USGS web site</a><br/><a href="http://earthquake.usgs.gov/earthquakes/feed/">Get Real-time Data Sent to You</a></p>]]></description>
            <Snippet maxLines="0"></Snippet>
            <LookAt>
                <longitude>-97.575</longitude>
                <latitude>35.9951</latitude>
                <range>50000</range>
                <tilt>0</tilt>
                <heading>0</heading>
            </LookAt>
            <Style>
                <IconStyle>
                    <Icon>
                        <href>http://earthquake.usgs.gov/earthquakes/feed/v1.0/images/kml_star.png</href>
                    </Icon>
                    <scale>1</scale>
                </IconStyle>
                <LabelStyle>
                    <scale>1</scale>
                </LabelStyle>
                <BalloonStyle>
                    <text>
                        <![CDATA[<style>h2{margin-bottom:0;font-size:16px;font-weight:bold;}.quicksummary{float:left;}.quicksummary>a{float:left;display:block;padding:4px;margin-right:8px;text-decoration:none;border:1pxsolid#333;}.quicksummary>a.tsunamilogo{padding:0;}.roman{font-family:Georgia,Times,serif;}.pager-pending{background-color:#FFF;color:#000;}.pager-green{background-color:#00b04f;color:#fff;}.pager-yellow{background-color:#ff0;color:#000;}.pager-orange{background-color:#f90;color:#000;}.pager-red{background-color:#f00;color:#fff;}.mmi-I{color:#000;background-color:#FFFFFF;}.mmi-II{color:#000;background-color:#ACD8E9;}.mmi-III{color:#000;background-color:#ACD8E9;}.mmi-IV{color:#000;background-color:#83D0DA;}.mmi-V{color:#000;background-color:#7BC87F;}.mmi-VI{color:#000;background-color:#F9F518;}.mmi-VII{color:#000;background-color:#FAC611;}.mmi-VIII{color:#000;background-color:#FA8A11;}.mmi-IX{color:#FFF;background-color:#F7100C;}.mmi-X{color:#FFF;background-color:#C80F0A;}.mmi-XI{color:#FFF;background-color:#C80F0A;}.mmi-XII{color:#FFF;background-color:#C80F0A;}dl{clear:left;font-family:Helvetica;line-height:1.3;}dt{color:#999;margin-top:.5em;}dd{margin:0;}.links{clear:both;line-height:1.3;}</style><img src="http://earthquake.usgs.gov/earthquakes/feed/v1.0/images/kml_banner.jpg" alt="USGS" width="400" height="40"/>$[description]<img src="http://earthquake.usgs.gov/earthquakes/feed/v1.0/images/anss.gif" alt="ANSS" width="100" height="31"/>]]></text>
                </BalloonStyle>
            </Style>
            <Point>
                <coordinates>-97.575,35.9951,0</coordinates>
            </Point>
        </Placemark>
        <Folder>
            <name>Impact Estimates</name>
            <open>1</open>
            <Style>
                <ListStyle>
                    <listItemType>radioFolder</listItemType>
                </ListStyle>
            </Style>
            <Folder>
                <name>DYFI - V</name>
                <LookAt>
                    <longitude>-97.575</longitude>
                    <latitude>35.9951</latitude>
                    <range>500000</range>
                    <tilt>0</tilt>
                    <heading>0</heading>
                </LookAt>
                <visibility>0</visibility>
                <Folder>
                    <name>Reported Intensity</name>
                    <visibility>0</visibility>
                    <Style>
                        <ListStyle>
                            <listItemType>radioFolder</listItemType>
                        </ListStyle>
                    </Style>
                    <NetworkLink>
                        <name>ZIP codes / Cities</name>
                        <visibility>0</visibility>
                        <Link>
                            <href>
                                http://earthquake.usgs.gov/realtime/product/dyfi/us20005d3n/us/1459683999957/dyfi_zip.kmz
                            </href>
                            <refreshMode>onExpire</refreshMode>
                        </Link>
                    </NetworkLink>
                    <NetworkLink>
                        <name>Geocoded locations</name>
                        <visibility>0</visibility>
                        <Link>
                            <href>
                                http://earthquake.usgs.gov/realtime/product/dyfi/us20005d3n/us/1459683999957/dyfi_geo.kmz
                            </href>
                            <refreshMode>onExpire</refreshMode>
                        </Link>
                    </NetworkLink>
                </Folder>
                <ScreenOverlay>
                    <name>DYFI Intensity Legend</name>
                    <visibility>0</visibility>
                    <Icon>
                        <href>http://earthquake.usgs.gov/earthquakes/feed/v1.0/images/kml_dyfi_legend.png</href>
                    </Icon>
                    <overlayXY x="0" y="90" xunits="pixels" yunits="pixels"/>
                    <screenXY x="5" y="1" xunits="pixels" yunits="fraction"/>
                    <size x="0" y="0" xunits="pixels" yunits="pixels"/>
                </ScreenOverlay>
            </Folder>
            <Folder>
                <name>ShakeMap - IV</name>
                <Folder>
                    <name>Contours</name>
                    <Style>
                        <ListStyle>
                            <listItemType>radioFolder</listItemType>
                        </ListStyle>
                    </Style>
                    <NetworkLink>
                        <name>Intensity</name>
                        <Link>
                            <href>
                                http://earthquake.usgs.gov/realtime/product/shakemap/us20005d3n/us/1459234483702/download/cont_mi.kmz
                            </href>
                            <viewRefreshMode>never</viewRefreshMode>
                        </Link>
                    </NetworkLink>
                    <NetworkLink>
                        <name>PGA (%g)</name>
                        <visibility>0</visibility>
                        <Link>
                            <href>
                                http://earthquake.usgs.gov/realtime/product/shakemap/us20005d3n/us/1459234483702/download/cont_pga.kmz
                            </href>
                            <viewRefreshMode>never</viewRefreshMode>
                        </Link>
                    </NetworkLink>
                    <NetworkLink>
                        <name>PGV (cm/s)</name>
                        <visibility>0</visibility>
                        <Link>
                            <href>
                                http://earthquake.usgs.gov/realtime/product/shakemap/us20005d3n/us/1459234483702/download/cont_pgv.kmz
                            </href>
                            <viewRefreshMode>never</viewRefreshMode>
                        </Link>
                    </NetworkLink>
                    <NetworkLink>
                        <name>PSA 0.30 (%g)</name>
                        <visibility>0</visibility>
                        <Link>
                            <href>
                                http://earthquake.usgs.gov/realtime/product/shakemap/us20005d3n/us/1459234483702/download/cont_psa03.kmz
                            </href>
                            <viewRefreshMode>never</viewRefreshMode>
                        </Link>
                    </NetworkLink>
                    <NetworkLink>
                        <name>PSA 1.00 (%g)</name>
                        <visibility>0</visibility>
                        <Link>
                            <href>
                                http://earthquake.usgs.gov/realtime/product/shakemap/us20005d3n/us/1459234483702/download/cont_psa10.kmz
                            </href>
                            <viewRefreshMode>never</viewRefreshMode>
                        </Link>
                    </NetworkLink>
                    <NetworkLink>
                        <name>PSA 3.00 (%g)</name>
                        <visibility>0</visibility>
                        <Link>
                            <href>
                                http://earthquake.usgs.gov/realtime/product/shakemap/us20005d3n/us/1459234483702/download/cont_psa30.kmz
                            </href>
                            <viewRefreshMode>never</viewRefreshMode>
                        </Link>
                    </NetworkLink>
                </Folder>
                <LookAt>
                    <longitude>-97.575</longitude>
                    <latitude>35.9951</latitude>
                    <range>500000</range>
                    <tilt>0</tilt>
                    <heading>0</heading>
                </LookAt>
                <GroundOverlay>
                    <name>Intensity Overlay</name>
                    <color>FFFFFFFF</color>
                    <visibility>0</visibility>
                    <drawOrder>0</drawOrder>
                    <Icon>
                        <refreshMode>onChange</refreshMode>
                        <href>
                            http://earthquake.usgs.gov/realtime/product/shakemap/us20005d3n/us/1459234483702/download/ii_overlay.png
                        </href>
                    </Icon>
                    <LatLonBox>
                        <north>37.2086</north>
                        <south>34.7816</south>
                        <east>-96.075</east>
                        <west>-99.075</west>
                    </LatLonBox>
                </GroundOverlay>
                <NetworkLink>
                    <name>Stations</name>
                    <visibility>0</visibility>
                    <Link>
                        <href>
                            http://earthquake.usgs.gov/realtime/product/shakemap/us20005d3n/us/1459234483702/download/stations.kmz
                        </href>
                        <refreshMode>onExpire</refreshMode>
                    </Link>
                </NetworkLink>
                <ScreenOverlay>
                    <name>ShakeMap Intensity Legend</name>
                    <visibility>0</visibility>
                    <Icon>
                        <href>http://earthquake.usgs.gov/earthquakes/feed/v1.0/images/kml_shakemap_legend.png</href>
                    </Icon>
                    <overlayXY x="0" y="90" xunits="pixels" yunits="pixels"/>
                    <screenXY x="5" y="1" xunits="pixels" yunits="fraction"/>
                    <size x="0" y="0" xunits="pixels" yunits="pixels"/>
                </ScreenOverlay>
            </Folder>
            <NetworkLink>
                <name>PAGER - Green</name>
                <visibility>0</visibility>
                <Link>
                    <href>
                        http://earthquake.usgs.gov/realtime/product/losspager/us20005d3n/us/1459234703942/pagerexpo.kmz
                    </href>
                    <viewRefreshMode>never</viewRefreshMode>
                </Link>
            </NetworkLink>
        </Folder>
        <ScreenOverlay>
            <name>USGS Logo</name>
            <Icon>
                <href>http://earthquake.usgs.gov/earthquakes/feed/v1.0/images/kml_usgs_logo.png</href>
            </Icon>
            <overlayXY x="1" y="0" xunits="fraction" yunits="pixels"/>
            <screenXY x=".82" y="30" xunits="fraction" yunits="pixels"/>
            <rotationXY x="0" y="0" xunits="pixels" yunits="pixels"/>
            <size x="0" y="0" xunits="pixels" yunits="pixels"/>
        </ScreenOverlay>
    </Document>
</kml>