<?xml version="1.0" encoding="UTF-8" standalone="yes"?>
<kml xmlns="http://www.opengis.net/kml/2.2" xmlns:gx="http://www.google.com/kml/ext/2.2" xmlns:kml="http://www.opengis.net/kml/2.2" xmlns:atom="http://www.w3.org/2005/Atom">
  <NetworkLinkControl>
    <minRefreshPeriod>3600</minRefreshPeriod>
  </NetworkLinkControl>
  <Document>
    <Style id="style_pgm">
      <IconStyle>
        <Icon>
        </Icon>
      </IconStyle>
      <LineStyle>
        <colorMode>normal</colorMode>
        <color>ffffffff</color>
        <width>6</width>
      </LineStyle>
      <LabelStyle>
        <color>ffffffff</color>
        <scale>1</scale>
      </LabelStyle>
      <BalloonStyle>
        <text>&lt;b&gt;$[name]&lt;/b&gt;</text>
      </BalloonStyle>
    </Style>
    <name>PGV Contours</name>
    <visibility>0</visibility>
    <Placemark>
      <name>pgv 0.025 cm/s Contour</name>
      <styleUrl>#style_pgm</styleUrl>
      <visibility>0</visibility>
      <Snippet maxLines="0">
      </Snippet>
      <open>0</open>
      <MultiGeometry>
        <LineString>
          <gx:drawOrder>5</gx:drawOrder>
          <extrude>0</extrude>
          <tessellate>1</tessellate>
          <altitudeMode>clampToGround</altitudeMode>
          <coordinates>-117.99080,37.83035,0 -117.98868,37.82867,0 -117.98865,37.82033,0 -117.99080,37.81660,0 -117.99568,37.81200,0 -117.99913,37.80686,0 -118.00134,37.80367,0 -118.00437,37.79533,0 -118.00713,37.78700,0 -118.00747,37.78656,0 -118.01580,37.77900,0 -118.01654,37.77867,0 -118.02413,37.77668,0 -118.03247,37.77416,0 -118.03759,37.77033,0 -118.04080,37.76747,0 -118.04495,37.76200,0 -118.04834,37.75367,0 -118.04913,37.75145,0 -118.05207,37.74533,0 -118.05315,37.73700,0 -118.05198,37.72867,0 -118.05020,37.72033,0 -118.04913,37.71594,0 -118.04796,37.71200,0 -118.04410,37.70367,0 -118.04080,37.69890,0 -118.03790,37.69533,0 -118.03247,37.69018,0 -118.02984,37.68700,0 -118.02413,37.68163,0 -118.02190,37.67867,0 -118.01580,37.67070,0 -118.01553,37.67033,0 -118.01008,37.66200,0 -118.00747,37.65718,0 -118.00462,37.65367,0 -117.99913,37.64737,0 -117.99686,37.64533,0 -117.99080,37.64061,0 -117.98673,37.63700,0 -117.98247,37.63351,0 -117.97752,37.62867,0 -117.97413,37.62522,0 -117.96927,37.62033,0 -117.96580,37.61642,0 -117.96158,37.61200,0 -117.95747,37.60725,0 -117.95426,37.60367,0 -117.94913,37.59760,0 -117.94710,37.59533,0 -117.94080,37.58768,0 -117.94009,37.58700,0 -117.93247,37.57908,0 -117.93193,37.57867,0 -117.92413,37.57179,0 -117.92169,37.57033,0 -117.91580,37.56581,0 -117.90966,37.56200,0 -117.90747,37.55975,0 -117.90338,37.55367,0 -117.89974,37.54533,0 -117.89913,37.54443,0 -117.89530,37.53700,0 -117.89080,37.52991,0 -117.88997,37.52867,0 -117.88332,37.52033,0 -117.88247,37.51942,0 -117.87541,37.51200,0 -117.87413,37.51087,0 -117.86580,37.50388,0 -117.86546,37.50367,0 -117.85747,37.49918,0 -117.84913,37.49655,0 -117.84080,37.49639,0 -117.83247,37.49728,0 -117.82413,37.49580,0 -117.82354,37.49533,0 -117.81580,37.48734,0 -117.81553,37.48700,0 -117.81072,37.47867,0 -117.80747,37.47372,0 -117.80527,37.47033,0 -117.80027,37.46200,0 -117.79913,37.45769,0 -117.79762,37.45367,0 -117.79913,37.44739,0 -117.79947,37.44533,0 -117.80191,37.43700,0 -117.80299,37.42867,0 -117.80289,37.42033,0 -117.80343,37.41200,0 -117.80494,37.40367,0 -117.80721,37.39533,0 -117.80747,37.39401,0 -117.80840,37.38700,0 -117.80747,37.38465,0 -117.80495,37.37867,0 -117.79913,37.37131,0 -117.79870,37.37033,0 -117.79523,37.36200,0 -117.79717,37.35367,0 -117.79913,37.35222,0 -117.80747,37.35212,0 -117.81093,37.35367,0 -117.81580,37.35625,0 -117.82413,37.36072,0 -117.83075,37.36200,0 -117.83247,37.36229,0 -117.83316,37.36200,0 -117.83424,37.35367,0 -117.83247,37.35025,0 -117.82980,37.34533,0 -117.82413,37.33862,0 -117.82241,37.33700,0 -117.81580,37.33365,0 -117.80747,37.33095,0 -117.79996,37.32867,0 -117.79913,37.32850,0 -117.79080,37.32674,0 -117.78247,37.32391,0 -117.77811,37.32033,0 -117.77413,37.31544,0 -117.77239,37.31200,0 -117.76890,37.30367,0 -117.76580,37.29663,0 -117.76512,37.29533,0 -117.76081,37.28700,0 -117.75747,37.28134,0 -117.75590,37.27867,0 -117.75075,37.27033,0 -117.74913,37.26779,0 -117.74590,37.26200,0 -117.74216,37.25367,0 -117.74080,37.24961,0 -117.73950,37.24533,0 -117.73791,37.23700,0 -117.73702,37.22867,0 -117.73707,37.22033,0 -117.73861,37.21200,0 -117.74066,37.20367,0 -117.74017,37.19533,0 -117.73664,37.18700,0 -117.73247,37.17907,0 -117.73223,37.17867,0 -117.72686,37.17033,0 -117.72413,37.16639,0 -117.72048,37.16200,0 -117.71580,37.15631,0 -117.71315,37.15367,0 -117.70747,37.14814,0 -117.70184,37.14533,0 -117.69913,37.14394,0 -117.69080,37.14139,0 -117.68247,37.13778,0 -117.68084,37.13700,0 -117.67413,37.13395,0 -117.66580,37.13044,0 -117.66239,37.12867,0 -117.65747,37.12546,0 -117.65212,37.12033,0 -117.64913,37.11572,0 -117.64748,37.11200,0 -117.64771,37.10367,0 -117.64913,37.09928,0 -117.65078,37.09533,0 -117.65331,37.08700,0 -117.65476,37.07867,0 -117.65747,37.07054,0 -117.65758,37.07033,0 -117.66580,37.06317,0 -117.66711,37.06200,0 -117.67413,37.05589,0 -117.67616,37.05367,0 -117.68141,37.04533,0 -117.68247,37.04327,0 -117.69080,37.04150,0 -117.69785,37.04533,0 -117.69913,37.04594,0 -117.70747,37.05149,0 -117.71166,37.05367,0 -117.71580,37.05574,0 -117.72413,37.05645,0 -117.73247,37.05995,0 -117.73420,37.06200,0 -117.74023,37.07033,0 -117.74080,37.07102,0 -117.74686,37.07867,0 -117.74913,37.08208,0 -117.75282,37.08700,0 -117.75747,37.09475,0 -117.75804,37.09533,0 -117.76526,37.10367,0 -117.76580,37.10438,0 -117.77413,37.10406,0 -117.77464,37.10367,0 -117.78247,37.09754,0 -117.78474,37.09533,0 -117.79018,37.08700,0 -117.79080,37.08569,0 -117.79327,37.07867,0 -117.79853,37.07033,0 -117.79913,37.06934,0 -117.80555,37.06200,0 -117.80747,37.05772,0 -117.80932,37.05367,0 -117.81155,37.04533,0 -117.81457,37.03700,0 -117.81580,37.03381,0 -117.81815,37.02867,0 -117.82162,37.02033,0 -117.82413,37.01433,0 -117.82515,37.01200,0 -117.82890,37.00367,0 -117.83223,36.99533,0 -117.83247,36.99449,0 -117.83391,36.98700,0 -117.83508,36.97867,0 -117.83808,36.97033,0 -117.84080,36.96658,0 -117.84476,36.96200,0 -117.84913,36.95611,0 -117.84978,36.95367,0 -117.85099,36.94533,0 -117.85287,36.93700,0 -117.85588,36.92867,0 -117.85747,36.92116,0 -117.85762,36.92033,0 -117.85785,36.91200,0 -117.85760,36.90367,0 -117.85747,36.90292,0 -117.84913,36.89714,0 -117.84080,36.89729,0 -117.83813,36.89533,0 -117.83247,36.88971,0 -117.83106,36.88700,0 -117.82959,36.87867,0 -117.83038,36.87033,0 -117.83247,36.86411,0 -117.83286,36.86200,0 -117.83442,36.85367,0 -117.83572,36.84533,0 -117.83492,36.83700,0 -117.83247,36.83371,0 -117.82508,36.82867,0 -117.82413,36.82734,0 -117.82179,36.82033,0 -117.81804,36.81200,0 -117.81580,36.80943,0 -117.80796,36.80367,0 -117.80747,36.80331,0 -117.79913,36.80103,0 -117.79080,36.80200,0 -117.78672,36.80367,0 -117.78247,36.80504,0 -117.77413,36.80879,0 -117.76863,36.81200,0 -117.76580,36.81365,0 -117.75747,36.81834,0 -117.75439,36.82033,0 -117.74913,36.82180,0 -117.74599,36.82033,0 -117.74913,36.81687,0 -117.75273,36.81200,0 -117.75742,36.80367,0 -117.75747,36.80206,0 -117.75774,36.79533,0 -117.75747,36.79456,0 -117.75493,36.78700,0 -117.75191,36.77867,0 -117.75269,36.77033,0 -117.75747,36.76364,0 -117.75912,36.76200,0 -117.76580,36.75568,0 -117.76796,36.75367,0 -117.77413,36.74803,0 -117.77714,36.74533,0 -117.78247,36.74062,0 -117.78662,36.73700,0 -117.79080,36.73342,0 -117.79643,36.72867,0 -117.79913,36.72642,0 -117.80659,36.72033,0 -117.80747,36.71963,0 -117.81580,36.71303,0 -117.81741,36.71200,0 -117.82413,36.70899,0 -117.83247,36.71148,0 -117.83295,36.71200,0 -117.84080,36.71825,0 -117.84297,36.72033,0 -117.84913,36.72478,0 -117.85407,36.72867,0 -117.85747,36.73142,0 -117.86266,36.73700,0 -117.86580,36.73977,0 -117.87228,36.74533,0 -117.87413,36.74673,0 -117.88173,36.75367,0 -117.88247,36.75434,0 -117.88938,36.76200,0 -117.89080,36.76358,0 -117.89591,36.77033,0 -117.89913,36.77737,0 -117.89978,36.77867,0 -117.90300,36.78700,0 -117.90746,36.79533,0 -117.90747,36.79534,0 -117.91502,36.80367,0 -117.91580,36.80461,0 -117.92194,36.81200,0 -117.92413,36.81658,0 -117.92675,36.82033,0 -117.92984,36.82867,0 -117.93073,36.83700,0 -117.92949,36.84533,0 -117.92637,36.85367,0 -117.93247,36.85562,0 -117.94080,36.85503,0 -117.94884,36.85367,0 -117.94913,36.85352,0 -117.95747,36.84812,0 -117.96111,36.84533,0 -117.96580,36.84156,0 -117.97161,36.83700,0 -117.97413,36.83506,0 -117.98247,36.82882,0 -117.98268,36.82867,0 -117.99080,36.82281,0 -117.99434,36.82033,0 -117.99913,36.81703,0 -118.00668,36.81200,0 -118.00747,36.81148,0 -118.01580,36.80612,0 -118.01975,36.80367,0 -118.02413,36.80096,0 -118.03247,36.79601,0 -118.03363,36.79533,0 -118.04080,36.79120,0 -118.04633,36.78700,0 -118.04913,36.78400,0 -118.05012,36.77867,0 -118.05007,36.77033,0 -118.04913,36.76238,0 -118.04905,36.76200,0 -118.04611,36.75367,0 -118.04427,36.74533,0 -118.04271,36.73700,0 -118.04080,36.73129,0 -118.03938,36.72867,0 -118.03416,36.72033,0 -118.03247,36.71655,0 -118.03033,36.71200,0 -118.02878,36.70367,0 -118.02910,36.69533,0 -118.02977,36.68700,0 -118.02799,36.67867,0 -118.02413,36.67281,0 -118.02183,36.67033,0 -118.01580,36.66510,0 -118.01221,36.66200,0 -118.00747,36.65735,0 -118.00422,36.65367,0 -117.99921,36.64533,0 -117.99913,36.64482,0 -117.99823,36.63700,0 -117.99913,36.63276,0 -118.00018,36.62867,0 -118.00240,36.62033,0 -118.00313,36.61200,0 -118.00121,36.60367,0 -117.99913,36.60024,0 -117.99302,36.59533,0 -117.99080,36.59360,0 -117.98247,36.58981,0 -117.97962,36.58700,0 -117.97483,36.57867,0 -117.97413,36.57680,0 -117.97166,36.57033,0 -117.96926,36.56200,0 -117.97413,36.55425,0 -117.97547,36.55367,0 -117.98247,36.55194,0 -117.99080,36.55202,0 -117.99913,36.55252,0 -118.00747,36.55289,0 -118.01580,36.55331,0 -118.01956,36.55367,0 -118.02413,36.55418,0 -118.03247,36.55586,0 -118.04080,36.55888,0 -118.04557,36.56200,0 -118.04913,36.56438,0 -118.05641,36.57033,0 -118.05747,36.57126,0 -118.06405,36.57867,0 -118.06580,36.58076,0 -118.06951,36.58700,0 -118.07375,36.59533,0 -118.07413,36.59631,0 -118.07608,36.60367,0 -118.07796,36.61200,0 -118.08094,36.62033,0 -118.08247,36.62298,0 -118.08563,36.62867,0 -118.09068,36.63700,0 -118.09080,36.63720,0 -118.09501,36.64533,0 -118.09740,36.65367,0 -118.09913,36.65911,0 -118.10062,36.66200,0 -118.10747,36.66806,0 -118.11580,36.66954,0 -118.12413,36.66776,0 -118.13247,36.66230,0 -118.13273,36.66200,0 -118.13645,36.65367,0 -118.13700,36.64533,0 -118.13691,36.63700,0 -118.14035,36.62867,0 -118.14080,36.62818,0 -118.14913,36.62242,0 -118.15261,36.62033,0 -118.15747,36.61498,0 -118.15920,36.61200,0 -118.15812,36.60367,0 -118.15747,36.60262,0 -118.15026,36.59533,0 -118.14913,36.59444,0 -118.14080,36.59105,0 -118.13247,36.58787,0 -118.13126,36.58700,0 -118.12456,36.57867,0 -118.12413,36.57814,0 -118.11580,36.57319,0 -118.11105,36.57033,0 -118.10780,36.56200,0 -118.11580,36.55852,0 -118.12413,36.55634,0 -118.13247,36.55469,0 -118.14080,36.55412,0 -118.14913,36.55518,0 -118.15747,36.55860,0 -118.16232,36.56200,0 -118.16580,36.56501,0 -118.17009,36.57033,0 -118.17413,36.57515,0 -118.17685,36.57867,0 -118.18247,36.58397,0 -118.18632,36.58700,0 -118.19080,36.59016,0 -118.19786,36.59533,0 -118.19913,36.59635,0 -118.20639,36.60367,0 -118.20747,36.60485,0 -118.21333,36.61200,0 -118.21580,36.61469,0 -118.22180,36.62033,0 -118.22413,36.62249,0 -118.22953,36.62867,0 -118.23247,36.63482,0 -118.23363,36.63700,0 -118.23620,36.64533,0 -118.23825,36.65367,0 -118.24080,36.66100,0 -118.24137,36.66200,0 -118.24699,36.67033,0 -118.24913,36.67383,0 -118.25316,36.67867,0 -118.25738,36.68700,0 -118.25747,36.68720,0 -118.26351,36.69533,0 -118.26580,36.69926,0 -118.27079,36.70367,0 -118.27413,36.70766,0 -118.28159,36.71200,0 -118.28247,36.71273,0 -118.29080,36.71323,0 -118.29913,36.71252,0 -118.30534,36.71200,0 -118.30747,36.71182,0 -118.31580,36.71120,0 -118.32413,36.71069,0 -118.33247,36.71029,0 -118.34080,36.70998,0 -118.34913,36.70977,0 -118.35747,36.70966,0 -118.36580,36.70965,0 -118.37413,36.70973,0 -118.38247,36.70992,0 -118.39080,36.71021,0 -118.39913,36.71059,0 -118.40747,36.71108,0 -118.41580,36.71166,0 -118.41988,36.71200,0 -118.42413,36.71234,0 -118.43247,36.71311,0 -118.44080,36.71398,0 -118.44913,36.71495,0 -118.45747,36.71603,0 -118.46580,36.71721,0 -118.47413,36.71850,0 -118.48247,36.71990,0 -118.48484,36.72033,0 -118.49080,36.72139,0 -118.49913,36.72297,0 -118.50747,36.72467,0 -118.51580,36.72643,0 -118.52413,36.72818,0 -118.52659,36.72867,0 -118.53247,36.72946,0 -118.54080,36.72996,0 -118.54763,36.72867,0 -118.54468,36.72033,0 -118.54356,36.71200,0 -118.54759,36.70367,0 -118.54913,36.70259,0 -118.55747,36.70046,0 -118.56580,36.70279,0 -118.56733,36.70367,0 -118.57413,36.70857,0 -118.57913,36.71200,0 -118.58247,36.71539,0 -118.58943,36.72033,0 -118.59080,36.72281,0 -118.59392,36.72867,0 -118.59125,36.73700,0 -118.59080,36.74260,0 -118.59032,36.74533,0 -118.59080,36.74556,0 -118.59913,36.74996,0 -118.60682,36.75367,0 -118.60747,36.75389,0 -118.61580,36.75652,0 -118.62413,36.75880,0 -118.63247,36.76114,0 -118.63532,36.76200,0 -118.64080,36.76273,0 -118.64913,36.76383,0 -118.65747,36.76540,0 -118.66580,36.76867,0 -118.66880,36.77033,0 -118.67413,36.77245,0 -118.68247,36.77641,0 -118.68623,36.77867,0 -118.69080,36.78106,0 -118.69913,36.78672,0 -118.69958,36.78700,0 -118.70747,36.79186,0 -118.71328,36.79533,0 -118.71580,36.79745,0 -118.72204,36.80367,0 -118.72413,36.80751,0 -118.72746,36.81200,0 -118.73247,36.81817,0 -118.73512,36.82033,0 -118.74080,36.82461,0 -118.74641,36.82867,0 -118.74913,36.83066,0 -118.75747,36.83695,0 -118.75753,36.83700,0 -118.76580,36.84348,0 -118.76810,36.84533,0 -118.77413,36.85029,0 -118.77813,36.85367,0 -118.78247,36.85740,0 -118.78767,36.86200,0 -118.79080,36.86483,0 -118.79675,36.87033,0 -118.79913,36.87260,0 -118.80539,36.87867,0 -118.80747,36.88074,0 -118.81363,36.88700,0 -118.81580,36.88927,0 -118.82149,36.89533,0 -118.82413,36.89825,0 -118.82898,36.90367,0 -118.83247,36.90771,0 -118.83612,36.91200,0 -118.84080,36.91771,0 -118.84292,36.92033,0 -118.84913,36.92832,0 -118.84940,36.92867,0 -118.85559,36.93700,0 -118.85747,36.93964,0 -118.86149,36.94533,0 -118.86580,36.95175,0 -118.86708,36.95367,0 -118.87246,36.96200,0 -118.87413,36.96454,0 -118.87894,36.97033,0 -118.88247,36.97252,0 -118.89080,36.97436,0 -118.89913,36.97712,0 -118.90116,36.97867,0 -118.90747,36.98143,0 -118.91425,36.98700,0 -118.91580,36.98824,0 -118.92413,36.99254,0 -118.93247,36.99183,0 -118.94080,36.99172,0 -118.94913,36.99514,0 -118.94936,36.99533,0 -118.95345,37.00367,0 -118.94926,37.01200,0 -118.94913,37.01214,0 -118.94080,37.01663,0 -118.93247,37.01760,0 -118.92413,37.01842,0 -118.92001,37.02033,0 -118.91580,37.02558,0 -118.91332,37.02867,0 -118.91580,37.03028,0 -118.92151,37.03700,0 -118.92413,37.04017,0 -118.92739,37.04533,0 -118.92974,37.05367,0 -118.93197,37.06200,0 -118.93247,37.06234,0 -118.93465,37.06200,0 -118.94080,37.06090,0 -118.94913,37.06047,0 -118.95177,37.06200,0 -118.95747,37.06454,0 -118.96417,37.07033,0 -118.96580,37.07325,0 -118.97109,37.07867,0 -118.97160,37.08700,0 -118.97235,37.09533,0 -118.97337,37.10367,0 -118.97413,37.10606,0 -118.97955,37.11200,0 -118.98247,37.11320,0 -118.99080,37.11229,0 -118.99265,37.11200,0 -118.99913,37.11010,0 -119.00392,37.11200,0 -119.00747,37.11285,0 -119.01580,37.11568,0 -119.02387,37.12033,0 -119.02413,37.12061,0 -119.02911,37.12867,0 -119.03171,37.13700,0 -119.03161,37.14533,0 -119.02905,37.15367,0 -119.02811,37.16200,0 -119.03247,37.17023,0 -119.03255,37.17033,0 -119.04080,37.17714,0 -119.04359,37.17867,0 -119.04913,37.18289,0 -119.05617,37.18700,0 -119.05747,37.18870,0 -119.06128,37.19533,0 -119.05747,37.20240,0 -119.04913,37.19992,0 -119.04080,37.19955,0 -119.03247,37.20048,0 -119.02413,37.20175,0 -119.01580,37.20270,0 -119.00747,37.20146,0 -119.00028,37.19533,0 -118.99991,37.18700,0 -118.99964,37.17867,0 -118.99913,37.17718,0 -118.99329,37.17033,0 -118.99080,37.16931,0 -118.98855,37.17033,0 -118.98247,37.17403,0 -118.97867,37.17867,0 -118.97413,37.18558,0 -118.97338,37.18700,0 -118.97124,37.19533,0 -118.97413,37.20126,0 -118.98247,37.20228,0 -118.99080,37.20257,0 -118.99320,37.20367,0 -118.99473,37.21200,0 -118.99258,37.22033,0 -118.99080,37.22371,0 -118.98782,37.22867,0 -118.98247,37.23512,0 -118.97413,37.23609,0 -118.96580,37.23596,0 -118.95747,37.23631,0 -118.94913,37.23677,0 -118.94680,37.23700,0 -118.94080,37.23886,0 -118.93305,37.24533,0 -118.93788,37.25367,0 -118.94080,37.25920,0 -118.94219,37.26200,0 -118.94460,37.27033,0 -118.94637,37.27867,0 -118.94900,37.28700,0 -118.94913,37.28750,0 -118.95138,37.29533,0 -118.95154,37.30367,0 -118.94919,37.31200,0 -118.94913,37.31211,0 -118.94457,37.32033,0 -118.94080,37.32843,0 -118.94042,37.32867,0 -118.94080,37.32890,0 -118.94502,37.33700,0 -118.94599,37.34533,0 -118.94080,37.35298,0 -118.94008,37.35367,0 -118.93247,37.35818,0 -118.92413,37.36016,0 -118.91580,37.36040,0 -118.90747,37.35790,0 -118.90179,37.35367,0 -118.90031,37.34533,0 -118.90747,37.33717,0 -118.90766,37.33700,0 -118.91580,37.33066,0 -118.91939,37.32867,0 -118.91580,37.32701,0 -118.90747,37.32353,0 -118.89913,37.32322,0 -118.89306,37.32867,0 -118.89080,37.33289,0 -118.88880,37.33700,0 -118.88415,37.34533,0 -118.88247,37.34756,0 -118.87897,37.35367,0 -118.87413,37.36153,0 -118.87385,37.36200,0 -118.86857,37.37033,0 -118.86580,37.37448,0 -118.86299,37.37867,0 -118.85747,37.38650,0 -118.85711,37.38700,0 -118.85097,37.39533,0 -118.84913,37.39771,0 -118.84451,37.40367,0 -118.84080,37.40824,0 -118.83772,37.41200,0 -118.83247,37.41817,0 -118.83060,37.42033,0 -118.82413,37.42756,0 -118.82312,37.42867,0 -118.81580,37.43542,0 -118.81380,37.43700,0 -118.80747,37.43958,0 -118.79913,37.44184,0 -118.79080,37.44340,0 -118.78247,37.44464,0 -118.77785,37.44533,0 -118.77413,37.44567,0 -118.76580,37.44666,0 -118.75747,37.44871,0 -118.75053,37.45367,0 -118.74913,37.45457,0 -118.74265,37.46200,0 -118.74080,37.46427,0 -118.73542,37.47033,0 -118.73247,37.47400,0 -118.72435,37.47867,0 -118.72413,37.47876,0 -118.71580,37.47975,0 -118.71285,37.47867,0 -118.70747,37.47731,0 -118.69913,37.47346,0 -118.69103,37.47033,0 -118.69080,37.47023,0 -118.68680,37.47033,0 -118.68247,37.47047,0 -118.67413,37.47409,0 -118.66647,37.47867,0 -118.66580,37.47909,0 -118.65809,37.48700,0 -118.65747,37.48790,0 -118.65523,37.49533,0 -118.65317,37.50367,0 -118.65001,37.51200,0 -118.64913,37.51387,0 -118.64440,37.52033,0 -118.64080,37.52633,0 -118.63247,37.52833,0 -118.62942,37.52867,0 -118.62413,37.52971,0 -118.61861,37.53700,0 -118.61580,37.54101,0 -118.61398,37.54533,0 -118.61130,37.55367,0 -118.60908,37.56200,0 -118.60747,37.56929,0 -118.60720,37.57033,0 -118.60576,37.57867,0 -118.60490,37.58700,0 -118.60448,37.59533,0 -118.60429,37.60367,0 -118.60400,37.61200,0 -118.60302,37.62033,0 -118.59983,37.62867,0 -118.59913,37.62965,0 -118.59080,37.63386,0 -118.58247,37.63479,0 -118.57413,37.63615,0 -118.57222,37.63700,0 -118.56580,37.63924,0 -118.55747,37.64168,0 -118.54913,37.64326,0 -118.54232,37.64533,0 -118.54080,37.64572,0 -118.53247,37.64881,0 -118.52413,37.65138,0 -118.51580,37.65138,0 -118.50747,37.64721,0 -118.50222,37.64533,0 -118.49913,37.64457,0 -118.49614,37.64533,0 -118.49080,37.64733,0 -118.48247,37.65213,0 -118.47828,37.65367,0 -118.47413,37.65548,0 -118.46580,37.65790,0 -118.45747,37.66092,0 -118.45557,37.66200,0 -118.44913,37.66725,0 -118.44589,37.67033,0 -118.44656,37.67867,0 -118.44913,37.68462,0 -118.45000,37.68700,0 -118.45046,37.69533,0 -118.44913,37.69898,0 -118.44834,37.70367,0 -118.44648,37.71200,0 -118.44461,37.72033,0 -118.44248,37.72867,0 -118.44080,37.73392,0 -118.43546,37.73700,0 -118.43247,37.73818,0 -118.42901,37.73700,0 -118.42413,37.73571,0 -118.41580,37.73192,0 -118.40958,37.72867,0 -118.40747,37.72762,0 -118.39913,37.72290,0 -118.39588,37.72033,0 -118.39080,37.71603,0 -118.38768,37.71200,0 -118.38269,37.70367,0 -118.38247,37.70327,0 -118.37966,37.69533,0 -118.37640,37.68700,0 -118.37413,37.68251,0 -118.37206,37.67867,0 -118.36580,37.67052,0 -118.36561,37.67033,0 -118.35842,37.66200,0 -118.35747,37.65994,0 -118.35467,37.65367,0 -118.35231,37.64533,0 -118.35023,37.63700,0 -118.34913,37.63074,0 -118.34851,37.62867,0 -118.34623,37.62033,0 -118.34300,37.61200,0 -118.34080,37.60777,0 -118.33552,37.60367,0 -118.33247,37.60053,0 -118.32413,37.59740,0 -118.31658,37.59533,0 -118.31580,37.59509,0 -118.30747,37.59271,0 -118.29913,37.59103,0 -118.29080,37.58961,0 -118.28247,37.58815,0 -118.27550,37.58700,0 -118.27413,37.58678,0 -118.26580,37.58675,0 -118.26536,37.58700,0 -118.25747,37.59060,0 -118.25276,37.59533,0 -118.24913,37.59856,0 -118.24339,37.60367,0 -118.24080,37.60613,0 -118.23247,37.60532,0 -118.23028,37.60367,0 -118.22413,37.59964,0 -118.21580,37.59673,0 -118.21243,37.59533,0 -118.20747,37.59327,0 -118.19913,37.59022,0 -118.19080,37.58962,0 -118.18247,37.58776,0 -118.18124,37.58700,0 -118.17413,37.58324,0 -118.16728,37.57867,0 -118.16580,37.57773,0 -118.15747,37.57314,0 -118.15235,37.57033,0 -118.14913,37.56857,0 -118.14080,37.56459,0 -118.13618,37.56200,0 -118.13247,37.55964,0 -118.12413,37.55526,0 -118.12098,37.55367,0 -118.11580,37.55129,0 -118.10747,37.54928,0 -118.09913,37.54943,0 -118.09080,37.54989,0 -118.08247,37.54906,0 -118.07413,37.54538,0 -118.07406,37.54533,0 -118.06580,37.54021,0 -118.06253,37.53700,0 -118.05747,37.52968,0 -118.05667,37.52867,0 -118.05128,37.52033,0 -118.04913,37.51782,0 -118.04080,37.51394,0 -118.03247,37.51370,0 -118.02779,37.52033,0 -118.02579,37.52867,0 -118.02413,37.53255,0 -118.01580,37.53488,0 -118.00747,37.53121,0 -118.00154,37.52867,0 -117.99913,37.52788,0 -117.99471,37.52867,0 -117.99326,37.53700,0 -117.99873,37.54533,0 -117.99913,37.54581,0 -118.00747,37.55232,0 -118.00905,37.55367,0 -118.01580,37.56116,0 -118.01650,37.56200,0 -118.02413,37.56935,0 -118.02497,37.57033,0 -118.03247,37.57641,0 -118.03454,37.57867,0 -118.04080,37.58602,0 -118.04170,37.58700,0 -118.04742,37.59533,0 -118.04913,37.59714,0 -118.05669,37.60367,0 -118.05747,37.60410,0 -118.06580,37.61022,0 -118.06699,37.61200,0 -118.07187,37.62033,0 -118.07413,37.62587,0 -118.07495,37.62867,0 -118.07706,37.63700,0 -118.07862,37.64533,0 -118.07963,37.65367,0 -118.08119,37.66200,0 -118.08247,37.66517,0 -118.08460,37.67033,0 -118.08902,37.67867,0 -118.09080,37.68238,0 -118.09268,37.68700,0 -118.09470,37.69533,0 -118.09579,37.70367,0 -118.09571,37.71200,0 -118.09448,37.72033,0 -118.09326,37.72867,0 -118.09287,37.73700,0 -118.09305,37.74533,0 -118.09301,37.75367,0 -118.09230,37.76200,0 -118.09125,37.77033,0 -118.09080,37.77319,0 -118.08817,37.77867,0 -118.08247,37.78277,0 -118.07413,37.78186,0 -118.06580,37.78047,0 -118.05747,37.78200,0 -118.04913,37.78680,0 -118.04887,37.78700,0 -118.04080,37.79281,0 -118.03791,37.79533,0 -118.03247,37.79986,0 -118.02768,37.80367,0 -118.02413,37.80623,0 -118.01601,37.81200,0 -118.01580,37.81212,0 -118.00747,37.81957,0 -118.00692,37.82033,0 -117.99913,37.82810,0 -117.99807,37.82867,0 -117.99080,37.83035,0 </coordinates>
        </LineString>
      </MultiGeometry>
    </Placemark>
    <Placemark>
      <name>0.025</name>
      <styleUrl>#style_pgm</styleUrl>
      <visibility>0</visibility>
      <Point>
        <altitudeMode>clampToGround</altitudeMode>
        <coordinates>-117.99080,37.83035,0</coordinates>
      </Point>
    </Placemark>
    <Placemark>
      <name>0.025</name>
      <styleUrl>#style_pgm</styleUrl>
      <visibility>0</visibility>
      <Point>
        <altitudeMode>clampToGround</altitudeMode>
        <coordinates>-117.82179,36.82033,0</coordinates>
      </Point>
    </Placemark>
    <Placemark>
      <name>0.025</name>
      <styleUrl>#style_pgm</styleUrl>
      <visibility>0</visibility>
      <Point>
        <altitudeMode>clampToGround</altitudeMode>
        <coordinates>-118.40747,36.71108,0</coordinates>
      </Point>
    </Placemark>
    <Placemark>
      <name>0.025</name>
      <styleUrl>#style_pgm</styleUrl>
      <visibility>0</visibility>
      <Point>
        <altitudeMode>clampToGround</altitudeMode>
        <coordinates>-118.83772,37.41200,0</coordinates>
      </Point>
    </Placemark>
    <Placemark>
      <name>pgv 0.025 cm/s Contour</name>
      <styleUrl>#style_pgm</styleUrl>
      <visibility>0</visibility>
      <Snippet maxLines="0">
      </Snippet>
      <open>0</open>
      <MultiGeometry>
        <LineString>
          <gx:drawOrder>5</gx:drawOrder>
          <extrude>0</extrude>
          <tessellate>1</tessellate>
          <altitudeMode>clampToGround</altitudeMode>
          <coordinates>-118.84080,37.71676,0 -118.83247,37.71931,0 -118.82413,37.71672,0 -118.81580,37.71380,0 -118.80747,37.71335,0 -118.79913,37.71314,0 -118.79382,37.71200,0 -118.79080,37.71102,0 -118.78390,37.70367,0 -118.78247,37.69988,0 -118.78064,37.69533,0 -118.77413,37.68713,0 -118.77402,37.68700,0 -118.77146,37.67867,0 -118.77413,37.67214,0 -118.77480,37.67033,0 -118.78185,37.66200,0 -118.78247,37.66140,0 -118.79080,37.65590,0 -118.79897,37.65367,0 -118.79913,37.65361,0 -118.79922,37.65367,0 -118.80747,37.65788,0 -118.81111,37.66200,0 -118.81580,37.66561,0 -118.82413,37.66899,0 -118.83247,37.66847,0 -118.84080,37.66323,0 -118.84587,37.67033,0 -118.84550,37.67867,0 -118.84581,37.68700,0 -118.84910,37.69533,0 -118.84913,37.69554,0 -118.85020,37.70367,0 -118.84913,37.70672,0 -118.84540,37.71200,0 -118.84080,37.71676,0 </coordinates>
        </LineString>
      </MultiGeometry>
    </Placemark>
    <Placemark>
      <name>pgv 0.025 cm/s Contour</name>
      <styleUrl>#style_pgm</styleUrl>
      <visibility>0</visibility>
      <Snippet maxLines="0">
      </Snippet>
      <open>0</open>
      <MultiGeometry>
        <LineString>
          <gx:drawOrder>5</gx:drawOrder>
          <extrude>0</extrude>
          <tessellate>1</tessellate>
          <altitudeMode>clampToGround</altitudeMode>
          <coordinates>-118.97413,37.64618,0 -118.96580,37.64766,0 -118.95747,37.64632,0 -118.95501,37.64533,0 -118.94913,37.64251,0 -118.94260,37.63700,0 -118.94080,37.63446,0 -118.93700,37.62867,0 -118.93247,37.62430,0 -118.92413,37.62141,0 -118.91580,37.62117,0 -118.90747,37.62374,0 -118.90343,37.62867,0 -118.89913,37.63396,0 -118.89571,37.63700,0 -118.89080,37.64035,0 -118.88247,37.64247,0 -118.87468,37.64533,0 -118.87413,37.64548,0 -118.86580,37.64560,0 -118.85747,37.64682,0 -118.85505,37.64533,0 -118.85747,37.64371,0 -118.86580,37.64454,0 -118.87232,37.63700,0 -118.87034,37.62867,0 -118.86580,37.62524,0 -118.85747,37.62281,0 -118.85386,37.62033,0 -118.85747,37.61750,0 -118.86431,37.61200,0 -118.86580,37.61176,0 -118.87413,37.61031,0 -118.88247,37.60955,0 -118.89080,37.61026,0 -118.89913,37.61127,0 -118.90747,37.60944,0 -118.91362,37.60367,0 -118.91580,37.60191,0 -118.92413,37.59546,0 -118.92428,37.59533,0 -118.93096,37.58700,0 -118.93247,37.58385,0 -118.93856,37.57867,0 -118.94080,37.57740,0 -118.94191,37.57867,0 -118.94425,37.58700,0 -118.94513,37.59533,0 -118.94732,37.60367,0 -118.94913,37.60754,0 -118.95174,37.61200,0 -118.95747,37.61713,0 -118.96580,37.61920,0 -118.97413,37.62003,0 -118.97516,37.62033,0 -118.98247,37.62440,0 -118.98601,37.62867,0 -118.98402,37.63700,0 -118.98247,37.63912,0 -118.97517,37.64533,0 -118.97413,37.64618,0 </coordinates>
        </LineString>
      </MultiGeometry>
    </Placemark>
    <Placemark>
      <name>pgv 0.025 cm/s Contour</name>
      <styleUrl>#style_pgm</styleUrl>
      <visibility>0</visibility>
      <Snippet maxLines="0">
      </Snippet>
      <open>0</open>
      <MultiGeometry>
        <LineString>
          <gx:drawOrder>5</gx:drawOrder>
          <extrude>0</extrude>
          <tessellate>1</tessellate>
          <altitudeMode>clampToGround</altitudeMode>
          <coordinates>-119.00747,37.42103,0 -118.99913,37.42371,0 -118.99080,37.42270,0 -118.98305,37.42033,0 -118.98247,37.42013,0 -118.97413,37.41769,0 -118.96580,37.41662,0 -118.95747,37.41556,0 -118.95218,37.41200,0 -118.94917,37.40367,0 -118.94913,37.40356,0 -118.94634,37.39533,0 -118.94373,37.38700,0 -118.94655,37.37867,0 -118.94913,37.37634,0 -118.95546,37.37033,0 -118.95747,37.36840,0 -118.96247,37.36200,0 -118.96580,37.35794,0 -118.97102,37.35367,0 -118.97413,37.35183,0 -118.98247,37.35120,0 -118.99080,37.35338,0 -118.99130,37.35367,0 -118.99913,37.35840,0 -119.00311,37.36200,0 -119.00747,37.36633,0 -119.01247,37.37033,0 -119.01580,37.37340,0 -119.02350,37.37867,0 -119.02413,37.38054,0 -119.02557,37.38700,0 -119.02413,37.38981,0 -119.02087,37.39533,0 -119.01593,37.40367,0 -119.01580,37.40399,0 -119.01188,37.41200,0 -119.00810,37.42033,0 -119.00747,37.42103,0 </coordinates>
        </LineString>
      </MultiGeometry>
    </Placemark>
    <Placemark>
      <name>pgv 0.025 cm/s Contour</name>
      <styleUrl>#style_pgm</styleUrl>
      <visibility>0</visibility>
      <Snippet maxLines="0">
      </Snippet>
      <open>0</open>
      <MultiGeometry>
        <LineString>
          <gx:drawOrder>5</gx:drawOrder>
          <extrude>0</extrude>
          <tessellate>1</tessellate>
          <altitudeMode>clampToGround</altitudeMode>
          <coordinates>-118.99080,37.08692,0 -118.98247,37.08323,0 -118.97681,37.07867,0 -118.97413,37.07259,0 -118.97176,37.07033,0 -118.97387,37.06200,0 -118.97413,37.06154,0 -118.97632,37.05367,0 -118.97813,37.04533,0 -118.97826,37.03700,0 -118.97872,37.02867,0 -118.98197,37.02033,0 -118.98247,37.01966,0 -118.98878,37.01200,0 -118.99080,37.01036,0 -118.99913,37.00700,0 -119.00747,37.00725,0 -119.01580,37.01149,0 -119.01630,37.01200,0 -119.01730,37.02033,0 -119.01580,37.02447,0 -119.01448,37.02867,0 -119.01360,37.03700,0 -119.01561,37.04533,0 -119.01580,37.04591,0 -119.01938,37.05367,0 -119.01881,37.06200,0 -119.01580,37.06471,0 -119.00747,37.06946,0 -119.00626,37.07033,0 -118.99913,37.07805,0 -118.99848,37.07867,0 -118.99080,37.08692,0 </coordinates>
        </LineString>
      </MultiGeometry>
    </Placemark>
    <Placemark>
      <name>pgv 0.025 cm/s Contour</name>
      <styleUrl>#style_pgm</styleUrl>
      <visibility>0</visibility>
      <Snippet maxLines="0">
      </Snippet>
      <open>0</open>
      <MultiGeometry>
        <LineString>
          <gx:drawOrder>5</gx:drawOrder>
          <extrude>0</extrude>
          <tessellate>1</tessellate>
          <altitudeMode>clampToGround</altitudeMode>
          <coordinates>-117.79913,36.91603,0 -117.79080,36.91704,0 -117.78498,36.91200,0 -117.78247,36.90884,0 -117.77997,36.90367,0 -117.77913,36.89533,0 -117.78075,36.88700,0 -117.78247,36.88230,0 -117.78490,36.87867,0 -117.78929,36.87033,0 -117.79080,36.86780,0 -117.79452,36.86200,0 -117.79913,36.85513,0 -117.80108,36.85367,0 -117.80747,36.84922,0 -117.81203,36.85367,0 -117.81375,36.86200,0 -117.81115,36.87033,0 -117.80747,36.87412,0 -117.80198,36.87867,0 -117.79937,36.88700,0 -117.80097,36.89533,0 -117.80305,36.90367,0 -117.80226,36.91200,0 -117.79913,36.91603,0 </coordinates>
        </LineString>
      </MultiGeometry>
    </Placemark>
    <Placemark>
      <name>pgv 0.025 cm/s Contour</name>
      <styleUrl>#style_pgm</styleUrl>
      <visibility>0</visibility>
      <Snippet maxLines="0">
      </Snippet>
      <open>0</open>
      <MultiGeometry>
        <LineString>
          <gx:drawOrder>5</gx:drawOrder>
          <extrude>0</extrude>
          <tessellate>1</tessellate>
          <altitudeMode>clampToGround</altitudeMode>
          <coordinates>-119.05747,36.78919,0 -119.04913,36.79133,0 -119.04080,36.79298,0 -119.03247,36.79418,0 -119.02413,36.79496,0 -119.01580,36.79533,0 -119.00747,36.79529,0 -118.99913,36.79486,0 -118.99080,36.79404,0 -118.98247,36.79280,0 -118.97413,36.79110,0 -118.96580,36.78882,0 -118.96070,36.78700,0 -118.95747,36.78596,0 -118.94913,36.78279,0 -118.94085,36.77867,0 -118.94080,36.77864,0 -118.93247,36.77419,0 -118.92668,36.77033,0 -118.92413,36.76860,0 -118.91580,36.76202,0 -118.91577,36.76200,0 -118.90747,36.75424,0 -118.90691,36.75367,0 -118.89974,36.74533,0 -118.89913,36.74450,0 -118.89378,36.73700,0 -118.89080,36.73167,0 -118.88907,36.72867,0 -118.88536,36.72033,0 -118.88269,36.71200,0 -118.88247,36.71100,0 -118.88065,36.70367,0 -118.87952,36.69533,0 -118.87922,36.68700,0 -118.87971,36.67867,0 -118.88103,36.67033,0 -118.88247,36.66486,0 -118.88319,36.66200,0 -118.88612,36.65367,0 -118.89004,36.64533,0 -118.89080,36.64402,0 -118.89497,36.63700,0 -118.89913,36.63118,0 -118.90107,36.62867,0 -118.90747,36.62140,0 -118.90851,36.62033,0 -118.91580,36.61354,0 -118.91766,36.61200,0 -118.92413,36.60702,0 -118.92905,36.60367,0 -118.93247,36.60147,0 -118.94080,36.59681,0 -118.94380,36.59533,0 -118.94913,36.59284,0 -118.95747,36.58955,0 -118.96486,36.58700,0 -118.96580,36.58669,0 -118.97413,36.58450,0 -118.98247,36.58279,0 -118.99080,36.58153,0 -118.99913,36.58068,0 -119.00747,36.58024,0 -119.01580,36.58024,0 -119.02413,36.58070,0 -119.03247,36.58161,0 -119.04080,36.58292,0 -119.04913,36.58458,0 -119.05747,36.58656,0 -119.05898,36.58700,0 -119.06580,36.58948,0 -119.07413,36.59271,0 -119.08040,36.59533,0 -119.08247,36.59642,0 -119.09080,36.60104,0 -119.09530,36.60367,0 -119.09913,36.60635,0 -119.10714,36.61200,0 -119.10747,36.61227,0 -119.11580,36.61966,0 -119.11649,36.62033,0 -119.12413,36.62861,0 -119.12418,36.62867,0 -119.13020,36.63700,0 -119.13247,36.64037,0 -119.13530,36.64533,0 -119.13944,36.65367,0 -119.14080,36.65691,0 -119.14255,36.66200,0 -119.14463,36.67033,0 -119.14596,36.67867,0 -119.14652,36.68700,0 -119.14625,36.69533,0 -119.14516,36.70367,0 -119.14325,36.71200,0 -119.14080,36.71940,0 -119.14047,36.72033,0 -119.13663,36.72867,0 -119.13247,36.73603,0 -119.13189,36.73700,0 -119.12592,36.74533,0 -119.12413,36.74745,0 -119.11861,36.75367,0 -119.11580,36.75640,0 -119.10966,36.76200,0 -119.10747,36.76377,0 -119.09913,36.76992,0 -119.09854,36.77033,0 -119.09080,36.77509,0 -119.08423,36.77867,0 -119.08247,36.77958,0 -119.07413,36.78332,0 -119.06580,36.78648,0 -119.06422,36.78700,0 -119.05747,36.78919,0 </coordinates>
        </LineString>
      </MultiGeometry>
    </Placemark>
    <Placemark>
      <name>0.025</name>
      <styleUrl>#style_pgm</styleUrl>
      <visibility>0</visibility>
      <Point>
        <altitudeMode>clampToGround</altitudeMode>
        <coordinates>-119.05747,36.78919,0</coordinates>
      </Point>
    </Placemark>
    <Placemark>
      <name>0.025</name>
      <styleUrl>#style_pgm</styleUrl>
      <visibility>0</visibility>
      <Point>
        <altitudeMode>clampToGround</altitudeMode>
        <coordinates>-118.96580,36.58669,0</coordinates>
      </Point>
    </Placemark>
    <Placemark>
      <name>pgv 0.05 cm/s Contour</name>
      <styleUrl>#style_pgm</styleUrl>
      <visibility>0</visibility>
      <Snippet maxLines="0">
      </Snippet>
      <open>0</open>
      <MultiGeometry>
        <LineString>
          <gx:drawOrder>5</gx:drawOrder>
          <extrude>0</extrude>
          <tessellate>1</tessellate>
          <altitudeMode>clampToGround</altitudeMode>
          <coordinates>-118.36580,37.55372,0 -118.36574,37.55367,0 -118.35747,37.54630,0 -118.35679,37.54533,0 -118.35137,37.53700,0 -118.34913,37.53324,0 -118.34703,37.52867,0 -118.34298,37.52033,0 -118.34080,37.51666,0 -118.33822,37.51200,0 -118.33299,37.50367,0 -118.33247,37.50254,0 -118.32999,37.49533,0 -118.32824,37.48700,0 -118.32548,37.47867,0 -118.32413,37.47608,0 -118.32117,37.47033,0 -118.31716,37.46200,0 -118.31580,37.45919,0 -118.31249,37.45367,0 -118.30850,37.44533,0 -118.30747,37.44233,0 -118.30509,37.43700,0 -118.30190,37.42867,0 -118.29913,37.42077,0 -118.29885,37.42033,0 -118.29418,37.41200,0 -118.29080,37.40381,0 -118.29066,37.40367,0 -118.28400,37.39533,0 -118.28247,37.39302,0 -118.27413,37.38874,0 -118.26805,37.38700,0 -118.26580,37.38640,0 -118.25747,37.38449,0 -118.24913,37.38236,0 -118.24080,37.37923,0 -118.23956,37.37867,0 -118.23247,37.37561,0 -118.22413,37.37311,0 -118.21580,37.37081,0 -118.21483,37.37033,0 -118.20747,37.36668,0 -118.20064,37.36200,0 -118.19913,37.36097,0 -118.19080,37.35618,0 -118.18608,37.35367,0 -118.18247,37.35200,0 -118.17413,37.34811,0 -118.16757,37.34533,0 -118.16580,37.34441,0 -118.15747,37.34007,0 -118.15333,37.33700,0 -118.14913,37.33343,0 -118.14504,37.32867,0 -118.14080,37.32479,0 -118.13605,37.32033,0 -118.13247,37.31667,0 -118.12555,37.31200,0 -118.12413,37.31059,0 -118.12265,37.31200,0 -118.11580,37.31477,0 -118.11142,37.32033,0 -118.10747,37.32296,0 -118.09977,37.32867,0 -118.09913,37.32904,0 -118.09080,37.33331,0 -118.08247,37.33574,0 -118.07628,37.33700,0 -118.07413,37.33755,0 -118.06580,37.34004,0 -118.05747,37.34258,0 -118.04913,37.34353,0 -118.04080,37.34522,0 -118.04061,37.34533,0 -118.03247,37.35092,0 -118.02908,37.35367,0 -118.02413,37.35740,0 -118.01803,37.36200,0 -118.01580,37.36382,0 -118.00747,37.37019,0 -118.00710,37.37033,0 -117.99913,37.37397,0 -117.99239,37.37033,0 -117.99379,37.36200,0 -117.99562,37.35367,0 -117.99796,37.34533,0 -117.99913,37.34196,0 -118.00090,37.33700,0 -118.00309,37.32867,0 -118.00458,37.32033,0 -118.00628,37.31200,0 -118.00747,37.30870,0 -118.00933,37.30367,0 -118.01327,37.29533,0 -118.01580,37.28988,0 -118.01696,37.28700,0 -118.01926,37.27867,0 -118.02164,37.27033,0 -118.02413,37.26507,0 -118.02552,37.26200,0 -118.03025,37.25367,0 -118.03247,37.25025,0 -118.03576,37.24533,0 -118.04080,37.23889,0 -118.04279,37.23700,0 -118.04913,37.23049,0 -118.05158,37.22867,0 -118.05747,37.22165,0 -118.05899,37.22033,0 -118.06272,37.21200,0 -118.06330,37.20367,0 -118.06252,37.19533,0 -118.06169,37.18700,0 -118.06114,37.17867,0 -118.06125,37.17033,0 -118.06204,37.16200,0 -118.06226,37.15367,0 -118.05747,37.14948,0 -118.05016,37.14533,0 -118.04913,37.14515,0 -118.04080,37.14048,0 -118.03813,37.13700,0 -118.03460,37.12867,0 -118.03284,37.12033,0 -118.03257,37.11200,0 -118.03726,37.10367,0 -118.04080,37.10069,0 -118.04913,37.09645,0 -118.05185,37.09533,0 -118.05747,37.09163,0 -118.06415,37.08700,0 -118.06580,37.08542,0 -118.07413,37.08057,0 -118.08247,37.08009,0 -118.09080,37.08307,0 -118.09652,37.08700,0 -118.09913,37.08863,0 -118.10747,37.08996,0 -118.11580,37.08984,0 -118.12413,37.08971,0 -118.13247,37.08872,0 -118.13558,37.08700,0 -118.14080,37.08163,0 -118.14305,37.07867,0 -118.14913,37.07085,0 -118.14956,37.07033,0 -118.15693,37.06200,0 -118.15747,37.06142,0 -118.16325,37.05367,0 -118.16580,37.04978,0 -118.16714,37.04533,0 -118.16928,37.03700,0 -118.17048,37.02867,0 -118.17189,37.02033,0 -118.17413,37.01409,0 -118.17486,37.01200,0 -118.17861,37.00367,0 -118.18247,36.99788,0 -118.18335,36.99533,0 -118.18677,36.98700,0 -118.18809,36.97867,0 -118.18649,36.97033,0 -118.18409,36.96200,0 -118.18247,36.95704,0 -118.18044,36.95367,0 -118.17413,36.94693,0 -118.17073,36.94533,0 -118.16580,36.94324,0 -118.16021,36.93700,0 -118.15855,36.92867,0 -118.15886,36.92033,0 -118.15886,36.91200,0 -118.15747,36.90722,0 -118.15590,36.90367,0 -118.15185,36.89533,0 -118.14970,36.88700,0 -118.14913,36.88401,0 -118.14808,36.87867,0 -118.14688,36.87033,0 -118.14598,36.86200,0 -118.14464,36.85367,0 -118.14196,36.84533,0 -118.14080,36.84296,0 -118.13744,36.83700,0 -118.13247,36.83003,0 -118.13130,36.82867,0 -118.12488,36.82033,0 -118.12413,36.81917,0 -118.11823,36.81200,0 -118.11580,36.80845,0 -118.10854,36.80367,0 -118.10747,36.80169,0 -118.10223,36.79533,0 -118.10360,36.78700,0 -118.10705,36.77867,0 -118.10747,36.77815,0 -118.11580,36.77387,0 -118.12413,36.77251,0 -118.13247,36.77146,0 -118.14080,36.77086,0 -118.14913,36.77121,0 -118.15747,36.77160,0 -118.16580,36.77116,0 -118.17356,36.77033,0 -118.17413,36.77027,0 -118.18247,36.76962,0 -118.19080,36.76917,0 -118.19913,36.76850,0 -118.20747,36.76737,0 -118.21580,36.76591,0 -118.22413,36.76435,0 -118.23247,36.76282,0 -118.23780,36.76200,0 -118.24080,36.76154,0 -118.24335,36.76200,0 -118.24913,36.76300,0 -118.25524,36.77033,0 -118.25676,36.77867,0 -118.25747,36.78084,0 -118.25833,36.78700,0 -118.26156,36.79533,0 -118.26321,36.80367,0 -118.25747,36.81196,0 -118.25744,36.81200,0 -118.25473,36.82033,0 -118.25747,36.82671,0 -118.25810,36.82867,0 -118.26216,36.83700,0 -118.26580,36.84117,0 -118.27413,36.84222,0 -118.28086,36.84533,0 -118.28247,36.84688,0 -118.28578,36.85367,0 -118.29027,36.86200,0 -118.29080,36.86315,0 -118.29425,36.87033,0 -118.29448,36.87867,0 -118.29376,36.88700,0 -118.29291,36.89533,0 -118.29219,36.90367,0 -118.29347,36.91200,0 -118.29842,36.92033,0 -118.29913,36.92116,0 -118.30747,36.92485,0 -118.31580,36.92603,0 -118.32413,36.92530,0 -118.33247,36.92429,0 -118.34080,36.92346,0 -118.34913,36.92283,0 -118.35747,36.92240,0 -118.36580,36.92216,0 -118.37413,36.92211,0 -118.38247,36.92225,0 -118.39080,36.92258,0 -118.39913,36.92310,0 -118.40747,36.92382,0 -118.41580,36.92473,0 -118.42413,36.92585,0 -118.43247,36.92718,0 -118.44054,36.92867,0 -118.44080,36.92871,0 -118.44913,36.93041,0 -118.45747,36.93233,0 -118.46580,36.93449,0 -118.47413,36.93689,0 -118.47449,36.93700,0 -118.48247,36.93946,0 -118.49080,36.94230,0 -118.49894,36.94533,0 -118.49913,36.94541,0 -118.50747,36.94872,0 -118.51580,36.95234,0 -118.51866,36.95367,0 -118.52413,36.95622,0 -118.53247,36.96041,0 -118.53543,36.96200,0 -118.54080,36.96491,0 -118.54913,36.96977,0 -118.55007,36.97033,0 -118.55747,36.97495,0 -118.56317,36.97867,0 -118.56580,36.98045,0 -118.57413,36.98571,0 -118.57921,36.98700,0 -118.58247,36.98829,0 -118.58373,36.98700,0 -118.58843,36.97867,0 -118.59080,36.97678,0 -118.59913,36.97600,0 -118.60747,36.97867,0 -118.61580,36.97851,0 -118.62413,36.97559,0 -118.62634,36.97867,0 -118.62615,36.98700,0 -118.62413,36.99030,0 -118.61719,36.99533,0 -118.61580,36.99648,0 -118.60747,37.00025,0 -118.60192,37.00367,0 -118.60458,37.01200,0 -118.60747,37.01536,0 -118.61133,37.02033,0 -118.61580,37.02541,0 -118.61859,37.02867,0 -118.62413,37.03562,0 -118.62521,37.03700,0 -118.63127,37.04533,0 -118.63247,37.04712,0 -118.63679,37.05367,0 -118.64080,37.06033,0 -118.64179,37.06200,0 -118.64634,37.07033,0 -118.64913,37.07605,0 -118.65041,37.07867,0 -118.65407,37.08700,0 -118.65727,37.09533,0 -118.65747,37.09591,0 -118.66011,37.10367,0 -118.66254,37.11200,0 -118.66457,37.12033,0 -118.66580,37.12654,0 -118.66623,37.12867,0 -118.66754,37.13700,0 -118.66848,37.14533,0 -118.66905,37.15367,0 -118.66926,37.16200,0 -118.66911,37.17033,0 -118.66860,37.17867,0 -118.66773,37.18700,0 -118.66648,37.19533,0 -118.66580,37.19882,0 -118.66488,37.20367,0 -118.66291,37.21200,0 -118.66057,37.22033,0 -118.65924,37.22867,0 -118.66158,37.23700,0 -118.66400,37.24533,0 -118.66420,37.25367,0 -118.66191,37.26200,0 -118.65747,37.26932,0 -118.65705,37.27033,0 -118.65334,37.27867,0 -118.64933,37.28700,0 -118.64913,37.28755,0 -118.64812,37.29533,0 -118.64699,37.30367,0 -118.64500,37.31200,0 -118.64080,37.32023,0 -118.64076,37.32033,0 -118.63636,37.32867,0 -118.63247,37.33337,0 -118.63006,37.33700,0 -118.62538,37.34533,0 -118.62413,37.34938,0 -118.62343,37.35367,0 -118.62320,37.36200,0 -118.62413,37.37033,0 -118.62413,37.37034,0 -118.62950,37.37867,0 -118.63247,37.38208,0 -118.63642,37.38700,0 -118.64080,37.39315,0 -118.64235,37.39533,0 -118.64599,37.40367,0 -118.64573,37.41200,0 -118.64243,37.42033,0 -118.64080,37.42349,0 -118.63824,37.42867,0 -118.63566,37.43700,0 -118.63394,37.44533,0 -118.63269,37.45367,0 -118.63247,37.45764,0 -118.63207,37.46200,0 -118.63109,37.47033,0 -118.62413,37.47704,0 -118.61580,37.47357,0 -118.60803,37.47033,0 -118.60747,37.47012,0 -118.59913,37.46714,0 -118.59080,37.46232,0 -118.59041,37.46200,0 -118.58247,37.45490,0 -118.58108,37.45367,0 -118.57413,37.44775,0 -118.57117,37.44533,0 -118.56580,37.44060,0 -118.56176,37.43700,0 -118.55747,37.43260,0 -118.55296,37.42867,0 -118.54913,37.42505,0 -118.54234,37.42033,0 -118.54080,37.41945,0 -118.53247,37.41828,0 -118.52413,37.41889,0 -118.51580,37.41984,0 -118.51197,37.42033,0 -118.50747,37.42171,0 -118.49913,37.42451,0 -118.49080,37.42682,0 -118.48247,37.42844,0 -118.48101,37.42867,0 -118.47413,37.43065,0 -118.46580,37.43297,0 -118.45747,37.43511,0 -118.44913,37.43680,0 -118.44795,37.43700,0 -118.44080,37.43874,0 -118.43247,37.44052,0 -118.42413,37.44206,0 -118.41580,37.44418,0 -118.41296,37.44533,0 -118.40747,37.45189,0 -118.40575,37.45367,0 -118.40747,37.46035,0 -118.40763,37.46200,0 -118.41262,37.47033,0 -118.41580,37.47351,0 -118.41844,37.47867,0 -118.42049,37.48700,0 -118.41939,37.49533,0 -118.41580,37.50268,0 -118.41245,37.50367,0 -118.40747,37.50499,0 -118.40659,37.50367,0 -118.40332,37.49533,0 -118.40139,37.48700,0 -118.39950,37.47867,0 -118.39913,37.47664,0 -118.39779,37.47033,0 -118.39656,37.46200,0 -118.39262,37.45367,0 -118.39080,37.45256,0 -118.38247,37.45207,0 -118.38140,37.45367,0 -118.37829,37.46200,0 -118.37543,37.47033,0 -118.37413,37.47388,0 -118.37341,37.47867,0 -118.37258,37.48700,0 -118.37296,37.49533,0 -118.37413,37.50034,0 -118.37516,37.50367,0 -118.37790,37.51200,0 -118.37955,37.52033,0 -118.37994,37.52867,0 -118.37905,37.53700,0 -118.37688,37.54533,0 -118.37413,37.55176,0 -118.36610,37.55367,0 -118.36580,37.55372,0 </coordinates>
        </LineString>
      </MultiGeometry>
    </Placemark>
    <Placemark>
      <name>0.05</name>
      <styleUrl>#style_pgm</styleUrl>
      <visibility>0</visibility>
      <Point>
        <altitudeMode>clampToGround</altitudeMode>
        <coordinates>-118.36580,37.55372,0</coordinates>
      </Point>
    </Placemark>
    <Placemark>
      <name>0.05</name>
      <styleUrl>#style_pgm</styleUrl>
      <visibility>0</visibility>
      <Point>
        <altitudeMode>clampToGround</altitudeMode>
        <coordinates>-118.16580,37.04978,0</coordinates>
      </Point>
    </Placemark>
    <Placemark>
      <name>0.05</name>
      <styleUrl>#style_pgm</styleUrl>
      <visibility>0</visibility>
      <Point>
        <altitudeMode>clampToGround</altitudeMode>
        <coordinates>-118.60458,37.01200,0</coordinates>
      </Point>
    </Placemark>
    <Placemark>
      <name>pgv 0.075 cm/s Contour</name>
      <styleUrl>#style_pgm</styleUrl>
      <visibility>0</visibility>
      <Snippet maxLines="0">
      </Snippet>
      <open>0</open>
      <MultiGeometry>
        <LineString>
          <gx:drawOrder>5</gx:drawOrder>
          <extrude>0</extrude>
          <tessellate>1</tessellate>
          <altitudeMode>clampToGround</altitudeMode>
          <coordinates>-118.34913,37.45089,0 -118.34080,37.44774,0 -118.33868,37.44533,0 -118.33247,37.43825,0 -118.33171,37.43700,0 -118.32674,37.42867,0 -118.32413,37.42407,0 -118.32264,37.42033,0 -118.31943,37.41200,0 -118.31583,37.40367,0 -118.31580,37.40361,0 -118.31233,37.39533,0 -118.30835,37.38700,0 -118.30747,37.38530,0 -118.30447,37.37867,0 -118.30111,37.37033,0 -118.29913,37.36578,0 -118.29714,37.36200,0 -118.29080,37.35398,0 -118.29041,37.35367,0 -118.28247,37.34668,0 -118.28077,37.34533,0 -118.27642,37.33700,0 -118.27413,37.33286,0 -118.27096,37.32867,0 -118.26580,37.32529,0 -118.25976,37.32033,0 -118.25747,37.31810,0 -118.25262,37.31200,0 -118.24913,37.30566,0 -118.24754,37.30367,0 -118.24080,37.29641,0 -118.23942,37.29533,0 -118.23247,37.28791,0 -118.23165,37.28700,0 -118.22868,37.27867,0 -118.22717,37.27033,0 -118.22413,37.26509,0 -118.22138,37.26200,0 -118.21580,37.25885,0 -118.20747,37.25488,0 -118.20595,37.25367,0 -118.19913,37.24900,0 -118.19602,37.24533,0 -118.19205,37.23700,0 -118.19080,37.23133,0 -118.18967,37.22867,0 -118.18591,37.22033,0 -118.18247,37.21389,0 -118.18064,37.21200,0 -118.17413,37.20929,0 -118.16580,37.20861,0 -118.15747,37.20594,0 -118.15515,37.20367,0 -118.14913,37.19585,0 -118.14883,37.19533,0 -118.14430,37.18700,0 -118.14080,37.18200,0 -118.13759,37.17867,0 -118.13247,37.17413,0 -118.12755,37.17033,0 -118.12413,37.16731,0 -118.11795,37.16200,0 -118.11580,37.15978,0 -118.10828,37.15367,0 -118.10747,37.15284,0 -118.10214,37.14533,0 -118.09913,37.14004,0 -118.09758,37.13700,0 -118.09339,37.12867,0 -118.09894,37.12033,0 -118.09913,37.12029,0 -118.10747,37.12013,0 -118.10783,37.12033,0 -118.11580,37.12708,0 -118.11687,37.12867,0 -118.12413,37.13639,0 -118.12535,37.13700,0 -118.13247,37.13960,0 -118.14080,37.13852,0 -118.14913,37.13728,0 -118.15747,37.13922,0 -118.16580,37.14071,0 -118.17413,37.13956,0 -118.18247,37.13785,0 -118.18684,37.13700,0 -118.19080,37.13527,0 -118.19370,37.12867,0 -118.19434,37.12033,0 -118.19487,37.11200,0 -118.19609,37.10367,0 -118.19777,37.09533,0 -118.19895,37.08700,0 -118.19865,37.07867,0 -118.19705,37.07033,0 -118.19573,37.06200,0 -118.19833,37.05367,0 -118.19913,37.05294,0 -118.20747,37.04695,0 -118.20947,37.04533,0 -118.21544,37.03700,0 -118.21580,37.03558,0 -118.21798,37.02867,0 -118.21712,37.02033,0 -118.21580,37.01829,0 -118.21247,37.01200,0 -118.20747,37.00536,0 -118.20634,37.00367,0 -118.20460,36.99533,0 -118.20553,36.98700,0 -118.20594,36.97867,0 -118.20493,36.97033,0 -118.20274,36.96200,0 -118.19929,36.95367,0 -118.19913,36.95337,0 -118.19628,36.94533,0 -118.19147,36.93700,0 -118.19080,36.93604,0 -118.18430,36.92867,0 -118.18247,36.92585,0 -118.17956,36.92033,0 -118.17965,36.91200,0 -118.18028,36.90367,0 -118.18056,36.89533,0 -118.18243,36.88700,0 -118.18247,36.88694,0 -118.19080,36.87922,0 -118.19209,36.87867,0 -118.19913,36.87639,0 -118.20747,36.87626,0 -118.21580,36.87796,0 -118.21781,36.87867,0 -118.22413,36.88099,0 -118.23247,36.88399,0 -118.24080,36.88623,0 -118.24579,36.88700,0 -118.24913,36.88754,0 -118.25747,36.88816,0 -118.26580,36.88981,0 -118.26818,36.89533,0 -118.26983,36.90367,0 -118.27092,36.91200,0 -118.27222,36.92033,0 -118.27413,36.92740,0 -118.27434,36.92867,0 -118.27413,36.92969,0 -118.26580,36.93663,0 -118.26059,36.92867,0 -118.25747,36.92469,0 -118.25314,36.92033,0 -118.24913,36.91750,0 -118.24080,36.91830,0 -118.23860,36.92033,0 -118.23317,36.92867,0 -118.23305,36.93700,0 -118.23759,36.94533,0 -118.24080,36.94820,0 -118.24913,36.95078,0 -118.25336,36.95367,0 -118.25725,36.96200,0 -118.25747,36.96356,0 -118.25810,36.97033,0 -118.25747,36.97231,0 -118.24913,36.97581,0 -118.24080,36.97384,0 -118.23247,36.97573,0 -118.23027,36.97867,0 -118.22981,36.98700,0 -118.23247,36.99195,0 -118.23486,36.99533,0 -118.23990,37.00367,0 -118.23792,37.01200,0 -118.23490,37.02033,0 -118.23422,37.02867,0 -118.23398,37.03700,0 -118.23416,37.04533,0 -118.23757,37.05367,0 -118.24080,37.05641,0 -118.24913,37.06011,0 -118.25747,37.05837,0 -118.26097,37.05367,0 -118.26349,37.04533,0 -118.26580,37.03853,0 -118.26639,37.03700,0 -118.26943,37.02867,0 -118.26624,37.02033,0 -118.26580,37.01968,0 -118.25905,37.01200,0 -118.25747,37.00680,0 -118.25569,37.00367,0 -118.25747,37.00266,0 -118.26580,37.00116,0 -118.27413,37.00179,0 -118.28247,37.00190,0 -118.29080,37.00144,0 -118.29913,37.00077,0 -118.30747,36.99941,0 -118.31580,36.99625,0 -118.31760,36.99533,0 -118.32413,36.99097,0 -118.33247,36.98990,0 -118.34080,36.99270,0 -118.34477,36.99533,0 -118.34913,36.99878,0 -118.35474,37.00367,0 -118.35747,37.00694,0 -118.36435,37.01200,0 -118.36580,37.01307,0 -118.37413,37.01420,0 -118.38247,37.01272,0 -118.38897,37.01200,0 -118.39080,37.01179,0 -118.39519,37.01200,0 -118.39913,37.01218,0 -118.40747,37.01326,0 -118.41580,37.01474,0 -118.42413,37.01657,0 -118.43247,37.01877,0 -118.43757,37.02033,0 -118.44080,37.02132,0 -118.44913,37.02421,0 -118.45747,37.02754,0 -118.45999,37.02867,0 -118.46580,37.03128,0 -118.47413,37.03551,0 -118.47682,37.03700,0 -118.48247,37.04024,0 -118.49047,37.04533,0 -118.49080,37.04555,0 -118.49913,37.05152,0 -118.50190,37.05367,0 -118.50747,37.05827,0 -118.51167,37.06200,0 -118.51580,37.06596,0 -118.52011,37.07033,0 -118.52413,37.07482,0 -118.52743,37.07867,0 -118.53247,37.08525,0 -118.53376,37.08700,0 -118.53924,37.09533,0 -118.54080,37.09807,0 -118.54394,37.10367,0 -118.54790,37.11200,0 -118.54913,37.11510,0 -118.55121,37.12033,0 -118.55388,37.12867,0 -118.55592,37.13700,0 -118.55737,37.14533,0 -118.55747,37.14629,0 -118.55826,37.15367,0 -118.55860,37.16200,0 -118.55839,37.17033,0 -118.55756,37.17867,0 -118.55747,37.17913,0 -118.55620,37.18700,0 -118.55428,37.19533,0 -118.55178,37.20367,0 -118.54913,37.21037,0 -118.54858,37.21200,0 -118.54478,37.22033,0 -118.54080,37.22726,0 -118.53998,37.22867,0 -118.53453,37.23700,0 -118.53247,37.23983,0 -118.52829,37.24533,0 -118.52413,37.25026,0 -118.52114,37.25367,0 -118.51580,37.25916,0 -118.51290,37.26200,0 -118.50747,37.26689,0 -118.50337,37.27033,0 -118.49913,37.27368,0 -118.49220,37.27867,0 -118.49080,37.27963,0 -118.48247,37.28498,0 -118.47901,37.28700,0 -118.47413,37.28977,0 -118.46580,37.29412,0 -118.46332,37.29533,0 -118.45747,37.29961,0 -118.45305,37.30367,0 -118.45747,37.30889,0 -118.45897,37.31200,0 -118.46580,37.31571,0 -118.47195,37.32033,0 -118.47413,37.32114,0 -118.48247,37.32266,0 -118.49080,37.32145,0 -118.49254,37.32033,0 -118.49913,37.31468,0 -118.50179,37.31200,0 -118.50747,37.30642,0 -118.51118,37.30367,0 -118.51580,37.29991,0 -118.52413,37.29535,0 -118.52415,37.29533,0 -118.53247,37.28977,0 -118.53866,37.28700,0 -118.54080,37.28573,0 -118.54913,37.28193,0 -118.55444,37.27867,0 -118.55747,37.27633,0 -118.56213,37.27033,0 -118.56580,37.26299,0 -118.56613,37.26200,0 -118.56847,37.25367,0 -118.57394,37.24533,0 -118.57413,37.24514,0 -118.58247,37.23917,0 -118.59080,37.23768,0 -118.59913,37.23756,0 -118.60747,37.23806,0 -118.61580,37.23949,0 -118.62413,37.24269,0 -118.62809,37.24533,0 -118.63247,37.24965,0 -118.63549,37.25367,0 -118.63677,37.26200,0 -118.63586,37.27033,0 -118.63433,37.27867,0 -118.63295,37.28700,0 -118.63247,37.29025,0 -118.63138,37.29533,0 -118.62926,37.30367,0 -118.62638,37.31200,0 -118.62413,37.31643,0 -118.62139,37.32033,0 -118.61580,37.32840,0 -118.61557,37.32867,0 -118.60999,37.33700,0 -118.60747,37.34437,0 -118.60684,37.34533,0 -118.60402,37.35367,0 -118.60259,37.36200,0 -118.60110,37.37033,0 -118.59936,37.37867,0 -118.59913,37.37960,0 -118.59422,37.38700,0 -118.59080,37.39110,0 -118.58631,37.39533,0 -118.58247,37.39889,0 -118.57640,37.40367,0 -118.57413,37.40487,0 -118.56580,37.40423,0 -118.56508,37.40367,0 -118.56107,37.39533,0 -118.56580,37.38958,0 -118.56779,37.38700,0 -118.57290,37.37867,0 -118.57413,37.37643,0 -118.57866,37.37033,0 -118.58247,37.36481,0 -118.58474,37.36200,0 -118.58837,37.35367,0 -118.58816,37.34533,0 -118.58672,37.33700,0 -118.58706,37.32867,0 -118.58979,37.32033,0 -118.59080,37.31816,0 -118.59420,37.31200,0 -118.59556,37.30367,0 -118.59080,37.29564,0 -118.59045,37.29533,0 -118.58247,37.29228,0 -118.57413,37.29325,0 -118.56940,37.29533,0 -118.56580,37.29703,0 -118.55747,37.30217,0 -118.55606,37.30367,0 -118.54913,37.31169,0 -118.54893,37.31200,0 -118.54205,37.32033,0 -118.54080,37.32152,0 -118.53247,37.32804,0 -118.53170,37.32867,0 -118.52413,37.33477,0 -118.52114,37.33700,0 -118.51580,37.34098,0 -118.50888,37.34533,0 -118.50747,37.34681,0 -118.50158,37.35367,0 -118.50389,37.36200,0 -118.50747,37.36705,0 -118.50944,37.37033,0 -118.51366,37.37867,0 -118.51580,37.38397,0 -118.51768,37.38700,0 -118.51580,37.39078,0 -118.51014,37.39533,0 -118.50747,37.39596,0 -118.49913,37.39783,0 -118.49080,37.39970,0 -118.48247,37.40111,0 -118.47413,37.40229,0 -118.46646,37.40367,0 -118.46580,37.40378,0 -118.45747,37.40554,0 -118.44913,37.40739,0 -118.44080,37.40905,0 -118.43247,37.41087,0 -118.42775,37.41200,0 -118.42413,37.41280,0 -118.41580,37.41434,0 -118.40747,37.41600,0 -118.39913,37.41772,0 -118.39080,37.41941,0 -118.38791,37.42033,0 -118.38247,37.42210,0 -118.37413,37.42588,0 -118.36949,37.42867,0 -118.36580,37.43141,0 -118.35999,37.43700,0 -118.35747,37.44152,0 -118.35349,37.44533,0 -118.34913,37.45089,0 </coordinates>
        </LineString>
      </MultiGeometry>
    </Placemark>
    <Placemark>
      <name>0.075</name>
      <styleUrl>#style_pgm</styleUrl>
      <visibility>0</visibility>
      <Point>
        <altitudeMode>clampToGround</altitudeMode>
        <coordinates>-118.34913,37.45089,0</coordinates>
      </Point>
    </Placemark>
    <Placemark>
      <name>0.075</name>
      <styleUrl>#style_pgm</styleUrl>
      <visibility>0</visibility>
      <Point>
        <altitudeMode>clampToGround</altitudeMode>
        <coordinates>-118.26580,36.88981,0</coordinates>
      </Point>
    </Placemark>
    <Placemark>
      <name>0.075</name>
      <styleUrl>#style_pgm</styleUrl>
      <visibility>0</visibility>
      <Point>
        <altitudeMode>clampToGround</altitudeMode>
        <coordinates>-118.47413,37.28977,0</coordinates>
      </Point>
    </Placemark>
    <Placemark>
      <name>pgv 0.1 cm/s Contour</name>
      <styleUrl>#style_pgm</styleUrl>
      <visibility>0</visibility>
      <Snippet maxLines="0">
      </Snippet>
      <open>0</open>
      <MultiGeometry>
        <LineString>
          <gx:drawOrder>5</gx:drawOrder>
          <extrude>0</extrude>
          <tessellate>1</tessellate>
          <altitudeMode>clampToGround</altitudeMode>
          <coordinates>-118.39913,37.38707,0 -118.39080,37.38967,0 -118.38247,37.39114,0 -118.37413,37.39092,0 -118.36580,37.38983,0 -118.35747,37.38840,0 -118.35138,37.38700,0 -118.34913,37.38656,0 -118.34080,37.38427,0 -118.33247,37.38079,0 -118.32980,37.37867,0 -118.32413,37.37395,0 -118.32175,37.37033,0 -118.31708,37.36200,0 -118.31580,37.35996,0 -118.31284,37.35367,0 -118.30747,37.34641,0 -118.30663,37.34533,0 -118.29947,37.33700,0 -118.29913,37.33662,0 -118.29302,37.32867,0 -118.29080,37.32609,0 -118.28595,37.32033,0 -118.28247,37.31667,0 -118.27658,37.31200,0 -118.27413,37.30952,0 -118.26844,37.30367,0 -118.26580,37.29808,0 -118.26464,37.29533,0 -118.26372,37.28700,0 -118.26417,37.27867,0 -118.26286,37.27033,0 -118.26029,37.26200,0 -118.25777,37.25367,0 -118.25747,37.25275,0 -118.25355,37.24533,0 -118.24913,37.23863,0 -118.24724,37.23700,0 -118.24080,37.23297,0 -118.23247,37.22980,0 -118.22413,37.22947,0 -118.21580,37.22999,0 -118.21391,37.22867,0 -118.20986,37.22033,0 -118.20747,37.21560,0 -118.20586,37.21200,0 -118.19913,37.20396,0 -118.19892,37.20367,0 -118.19212,37.19533,0 -118.19080,37.19388,0 -118.18247,37.18887,0 -118.17413,37.18762,0 -118.17081,37.18700,0 -118.16580,37.18469,0 -118.16168,37.17867,0 -118.15879,37.17033,0 -118.16231,37.16200,0 -118.16580,37.16072,0 -118.17413,37.15779,0 -118.18247,37.15618,0 -118.19080,37.15876,0 -118.19913,37.16151,0 -118.20727,37.15367,0 -118.20703,37.14533,0 -118.20626,37.13700,0 -118.20565,37.12867,0 -118.20535,37.12033,0 -118.20572,37.11200,0 -118.20677,37.10367,0 -118.20747,37.09934,0 -118.20822,37.09533,0 -118.20953,37.08700,0 -118.21045,37.07867,0 -118.21163,37.07033,0 -118.21580,37.06291,0 -118.22413,37.06220,0 -118.23247,37.06598,0 -118.24080,37.06919,0 -118.24503,37.07033,0 -118.24913,37.07141,0 -118.25747,37.07182,0 -118.26179,37.07033,0 -118.26580,37.06838,0 -118.27027,37.06200,0 -118.27313,37.05367,0 -118.27413,37.05108,0 -118.27788,37.04533,0 -118.28247,37.04135,0 -118.28983,37.03700,0 -118.29080,37.03589,0 -118.29516,37.02867,0 -118.29643,37.02033,0 -118.29913,37.01713,0 -118.30747,37.01249,0 -118.30864,37.01200,0 -118.31580,37.01004,0 -118.32413,37.00647,0 -118.33247,37.00485,0 -118.34080,37.00950,0 -118.34307,37.01200,0 -118.34913,37.01865,0 -118.35063,37.02033,0 -118.35747,37.02643,0 -118.36025,37.02867,0 -118.36580,37.03322,0 -118.37012,37.03700,0 -118.37413,37.04271,0 -118.37651,37.04533,0 -118.37995,37.05367,0 -118.38247,37.05884,0 -118.39080,37.06134,0 -118.39486,37.06200,0 -118.39913,37.06240,0 -118.40747,37.06528,0 -118.41473,37.07033,0 -118.41580,37.07145,0 -118.42413,37.07759,0 -118.42622,37.07867,0 -118.43247,37.08228,0 -118.44074,37.08700,0 -118.44080,37.08703,0 -118.44913,37.09275,0 -118.45246,37.09533,0 -118.45747,37.09960,0 -118.46170,37.10367,0 -118.46580,37.10820,0 -118.46898,37.11200,0 -118.47413,37.11925,0 -118.47486,37.12033,0 -118.47988,37.12867,0 -118.48247,37.13237,0 -118.48595,37.13700,0 -118.49080,37.14035,0 -118.49514,37.14533,0 -118.49913,37.15227,0 -118.49975,37.15367,0 -118.50083,37.16200,0 -118.50228,37.17033,0 -118.50747,37.17800,0 -118.50791,37.17867,0 -118.51496,37.18700,0 -118.51580,37.18814,0 -118.52090,37.19533,0 -118.52239,37.20367,0 -118.51816,37.21200,0 -118.51580,37.21429,0 -118.50747,37.22028,0 -118.50740,37.22033,0 -118.50042,37.22867,0 -118.49913,37.23053,0 -118.49534,37.23700,0 -118.49080,37.24251,0 -118.48698,37.24533,0 -118.48247,37.24851,0 -118.47413,37.24920,0 -118.46788,37.24533,0 -118.46580,37.24275,0 -118.46038,37.23700,0 -118.45747,37.23170,0 -118.44913,37.23266,0 -118.44273,37.23700,0 -118.44080,37.23821,0 -118.43247,37.24299,0 -118.42770,37.24533,0 -118.42413,37.24699,0 -118.41580,37.25039,0 -118.40782,37.25367,0 -118.40747,37.25385,0 -118.40123,37.26200,0 -118.40376,37.27033,0 -118.40584,37.27867,0 -118.40633,37.28700,0 -118.40538,37.29533,0 -118.40332,37.30367,0 -118.40237,37.31200,0 -118.40747,37.32008,0 -118.40787,37.32033,0 -118.41580,37.32394,0 -118.42413,37.32577,0 -118.43247,37.32718,0 -118.43877,37.32867,0 -118.44080,37.32941,0 -118.44913,37.33284,0 -118.45747,37.33563,0 -118.46349,37.33700,0 -118.46580,37.33801,0 -118.47413,37.34166,0 -118.47792,37.34533,0 -118.47582,37.35367,0 -118.47413,37.35798,0 -118.46898,37.36200,0 -118.46580,37.36402,0 -118.45747,37.36717,0 -118.44913,37.37031,0 -118.44907,37.37033,0 -118.44080,37.37334,0 -118.43247,37.37601,0 -118.42413,37.37865,0 -118.42407,37.37867,0 -118.41580,37.38147,0 -118.40747,37.38432,0 -118.39932,37.38700,0 -118.39913,37.38707,0 </coordinates>
        </LineString>
      </MultiGeometry>
    </Placemark>
    <Placemark>
      <name>0.1</name>
      <styleUrl>#style_pgm</styleUrl>
      <visibility>0</visibility>
      <Point>
        <altitudeMode>clampToGround</altitudeMode>
        <coordinates>-118.39913,37.38707,0</coordinates>
      </Point>
    </Placemark>
    <Placemark>
      <name>0.1</name>
      <styleUrl>#style_pgm</styleUrl>
      <visibility>0</visibility>
      <Point>
        <altitudeMode>clampToGround</altitudeMode>
        <coordinates>-118.35063,37.02033,0</coordinates>
      </Point>
    </Placemark>
    <Placemark>
      <name>pgv 0.1 cm/s Contour</name>
      <styleUrl>#style_pgm</styleUrl>
      <visibility>0</visibility>
      <Snippet maxLines="0">
      </Snippet>
      <open>0</open>
      <MultiGeometry>
        <LineString>
          <gx:drawOrder>5</gx:drawOrder>
          <extrude>0</extrude>
          <tessellate>1</tessellate>
          <altitudeMode>clampToGround</altitudeMode>
          <coordinates>-118.30747,37.12224,0 -118.29913,37.12658,0 -118.29080,37.12724,0 -118.28247,37.12476,0 -118.27676,37.12033,0 -118.27413,37.11785,0 -118.27099,37.11200,0 -118.26802,37.10367,0 -118.26764,37.09533,0 -118.27107,37.08700,0 -118.27413,37.08349,0 -118.28247,37.07937,0 -118.29080,37.07874,0 -118.29913,37.08284,0 -118.30731,37.08700,0 -118.30747,37.08714,0 -118.31580,37.09400,0 -118.31763,37.09533,0 -118.32109,37.10367,0 -118.31806,37.11200,0 -118.31580,37.11476,0 -118.30981,37.12033,0 -118.30747,37.12224,0 </coordinates>
        </LineString>
      </MultiGeometry>
    </Placemark>
    <Placemark>
      <name>pgv 0.125 cm/s Contour</name>
      <styleUrl>#style_pgm</styleUrl>
      <visibility>0</visibility>
      <Snippet maxLines="0">
      </Snippet>
      <open>0</open>
      <MultiGeometry>
        <LineString>
          <gx:drawOrder>5</gx:drawOrder>
          <extrude>0</extrude>
          <tessellate>1</tessellate>
          <altitudeMode>clampToGround</altitudeMode>
          <coordinates>-118.37413,37.33943,0 -118.36580,37.34108,0 -118.35747,37.34149,0 -118.34913,37.34102,0 -118.34080,37.33973,0 -118.33247,37.33757,0 -118.33125,37.33700,0 -118.32413,37.33421,0 -118.31580,37.32935,0 -118.31503,37.32867,0 -118.30747,37.32274,0 -118.30509,37.32033,0 -118.29913,37.31484,0 -118.29649,37.31200,0 -118.29080,37.30581,0 -118.28893,37.30367,0 -118.28247,37.29561,0 -118.28226,37.29533,0 -118.27773,37.28700,0 -118.27488,37.27867,0 -118.27413,37.27666,0 -118.27232,37.27033,0 -118.26941,37.26200,0 -118.26632,37.25367,0 -118.26580,37.25227,0 -118.26318,37.24533,0 -118.25946,37.23700,0 -118.25747,37.23361,0 -118.25302,37.22867,0 -118.24913,37.22461,0 -118.24224,37.22033,0 -118.24080,37.21912,0 -118.23247,37.21396,0 -118.22949,37.21200,0 -118.22413,37.20571,0 -118.22254,37.20367,0 -118.21600,37.19533,0 -118.21580,37.19448,0 -118.21312,37.18700,0 -118.21580,37.18402,0 -118.21859,37.17867,0 -118.22052,37.17033,0 -118.21977,37.16200,0 -118.21866,37.15367,0 -118.21755,37.14533,0 -118.21651,37.13700,0 -118.21580,37.12941,0 -118.21575,37.12867,0 -118.21576,37.12033,0 -118.21580,37.11982,0 -118.21690,37.11200,0 -118.21907,37.10367,0 -118.22190,37.09533,0 -118.22413,37.09005,0 -118.22709,37.08700,0 -118.23247,37.08379,0 -118.24080,37.08299,0 -118.24913,37.08417,0 -118.25346,37.08700,0 -118.25650,37.09533,0 -118.25747,37.09872,0 -118.25819,37.10367,0 -118.26041,37.11200,0 -118.26440,37.12033,0 -118.26580,37.12217,0 -118.27088,37.12867,0 -118.27413,37.13160,0 -118.28247,37.13632,0 -118.28449,37.13700,0 -118.29080,37.13854,0 -118.29913,37.14012,0 -118.30747,37.14032,0 -118.31404,37.13700,0 -118.31580,37.13572,0 -118.32326,37.12867,0 -118.32413,37.12781,0 -118.33202,37.12033,0 -118.33247,37.11970,0 -118.33893,37.11200,0 -118.34080,37.10701,0 -118.34913,37.10721,0 -118.35747,37.10959,0 -118.36580,37.10926,0 -118.37413,37.10816,0 -118.38247,37.10775,0 -118.39080,37.10842,0 -118.39913,37.11084,0 -118.40154,37.11200,0 -118.40747,37.11290,0 -118.41580,37.11412,0 -118.42413,37.11530,0 -118.43247,37.11692,0 -118.44027,37.12033,0 -118.44080,37.12054,0 -118.44913,37.12678,0 -118.45100,37.12867,0 -118.45747,37.13536,0 -118.45894,37.13700,0 -118.46550,37.14533,0 -118.46580,37.14573,0 -118.47351,37.15367,0 -118.47413,37.15429,0 -118.48247,37.16171,0 -118.48268,37.16200,0 -118.48599,37.17033,0 -118.49005,37.17867,0 -118.49080,37.17967,0 -118.49803,37.18700,0 -118.49913,37.18835,0 -118.50478,37.19533,0 -118.50602,37.20367,0 -118.49913,37.21129,0 -118.49855,37.21200,0 -118.49201,37.22033,0 -118.49080,37.22240,0 -118.48467,37.22867,0 -118.48247,37.23066,0 -118.47925,37.22867,0 -118.47413,37.22325,0 -118.47295,37.22033,0 -118.46819,37.21200,0 -118.46580,37.20969,0 -118.45799,37.20367,0 -118.45747,37.20330,0 -118.44913,37.19634,0 -118.44790,37.19533,0 -118.44114,37.18700,0 -118.44080,37.18645,0 -118.43397,37.17867,0 -118.43247,37.17617,0 -118.42486,37.17033,0 -118.42413,37.16988,0 -118.42035,37.17033,0 -118.41580,37.17260,0 -118.41111,37.17867,0 -118.40747,37.18375,0 -118.40465,37.18700,0 -118.39913,37.19169,0 -118.39368,37.19533,0 -118.39080,37.19828,0 -118.38409,37.20367,0 -118.39080,37.20658,0 -118.39380,37.21200,0 -118.39811,37.22033,0 -118.39823,37.22867,0 -118.39584,37.23700,0 -118.39080,37.24446,0 -118.39033,37.24533,0 -118.38577,37.25367,0 -118.38454,37.26200,0 -118.38763,37.27033,0 -118.39080,37.27517,0 -118.39318,37.27867,0 -118.39581,37.28700,0 -118.39476,37.29533,0 -118.39088,37.30367,0 -118.39080,37.30385,0 -118.38554,37.31200,0 -118.38313,37.32033,0 -118.38272,37.32867,0 -118.38247,37.33005,0 -118.37897,37.33700,0 -118.37413,37.33943,0 </coordinates>
        </LineString>
      </MultiGeometry>
    </Placemark>
    <Placemark>
      <name>0.125</name>
      <styleUrl>#style_pgm</styleUrl>
      <visibility>0</visibility>
      <Point>
        <altitudeMode>clampToGround</altitudeMode>
        <coordinates>-118.37413,37.33943,0</coordinates>
      </Point>
    </Placemark>
    <Placemark>
      <name>0.125</name>
      <styleUrl>#style_pgm</styleUrl>
      <visibility>0</visibility>
      <Point>
        <altitudeMode>clampToGround</altitudeMode>
        <coordinates>-118.35747,37.10959,0</coordinates>
      </Point>
    </Placemark>
    <Placemark>
      <name>pgv 0.125 cm/s Contour</name>
      <styleUrl>#style_pgm</styleUrl>
      <visibility>0</visibility>
      <Snippet maxLines="0">
      </Snippet>
      <open>0</open>
      <MultiGeometry>
        <LineString>
          <gx:drawOrder>5</gx:drawOrder>
          <extrude>0</extrude>
          <tessellate>1</tessellate>
          <altitudeMode>clampToGround</altitudeMode>
          <coordinates>-118.32413,37.07915,0 -118.32250,37.07867,0 -118.31580,37.07643,0 -118.30747,37.07137,0 -118.30567,37.07033,0 -118.30093,37.06200,0 -118.30747,37.05718,0 -118.31082,37.05367,0 -118.31580,37.04651,0 -118.31678,37.04533,0 -118.32413,37.03835,0 -118.32692,37.03700,0 -118.33247,37.03491,0 -118.34080,37.03387,0 -118.34913,37.03597,0 -118.35076,37.03700,0 -118.35747,37.04281,0 -118.35940,37.04533,0 -118.35747,37.05115,0 -118.35325,37.05367,0 -118.34913,37.05430,0 -118.34080,37.05530,0 -118.33318,37.06200,0 -118.33247,37.06385,0 -118.33004,37.07033,0 -118.32522,37.07867,0 -118.32413,37.07915,0 </coordinates>
        </LineString>
      </MultiGeometry>
    </Placemark>
    <Placemark>
      <name>pgv 0.15 cm/s Contour</name>
      <styleUrl>#style_pgm</styleUrl>
      <visibility>0</visibility>
      <Snippet maxLines="0">
      </Snippet>
      <open>0</open>
      <MultiGeometry>
        <LineString>
          <gx:drawOrder>5</gx:drawOrder>
          <extrude>0</extrude>
          <tessellate>1</tessellate>
          <altitudeMode>clampToGround</altitudeMode>
          <coordinates>-118.35747,37.30372,0 -118.34913,37.30493,0 -118.34080,37.30438,0 -118.33647,37.30367,0 -118.33247,37.30304,0 -118.32413,37.30148,0 -118.31580,37.29934,0 -118.30747,37.29539,0 -118.30739,37.29533,0 -118.29913,37.28931,0 -118.29672,37.28700,0 -118.29080,37.28186,0 -118.28845,37.27867,0 -118.28247,37.27046,0 -118.28242,37.27033,0 -118.27868,37.26200,0 -118.27438,37.25367,0 -118.27413,37.25318,0 -118.27132,37.24533,0 -118.26802,37.23700,0 -118.26580,37.23235,0 -118.26388,37.22867,0 -118.25894,37.22033,0 -118.25747,37.21777,0 -118.25296,37.21200,0 -118.24913,37.20551,0 -118.24774,37.20367,0 -118.24289,37.19533,0 -118.24080,37.19138,0 -118.23844,37.18700,0 -118.23569,37.17867,0 -118.23399,37.17033,0 -118.23270,37.16200,0 -118.23294,37.15367,0 -118.23483,37.14533,0 -118.23641,37.13700,0 -118.23789,37.12867,0 -118.24080,37.12125,0 -118.24399,37.12033,0 -118.24913,37.11967,0 -118.24950,37.12033,0 -118.25747,37.12778,0 -118.25806,37.12867,0 -118.26580,37.13560,0 -118.26742,37.13700,0 -118.27413,37.14089,0 -118.28247,37.14357,0 -118.28979,37.14533,0 -118.29080,37.14558,0 -118.29913,37.14785,0 -118.30747,37.14948,0 -118.31580,37.14704,0 -118.31761,37.14533,0 -118.32413,37.13935,0 -118.32644,37.13700,0 -118.33247,37.13159,0 -118.33628,37.12867,0 -118.34080,37.12517,0 -118.34913,37.12194,0 -118.35747,37.12089,0 -118.36580,37.12050,0 -118.37413,37.12064,0 -118.38247,37.12158,0 -118.39080,37.12319,0 -118.39913,37.12443,0 -118.40747,37.12502,0 -118.41580,37.12564,0 -118.42413,37.12657,0 -118.43247,37.12829,0 -118.43328,37.12867,0 -118.44080,37.13339,0 -118.44472,37.13700,0 -118.44913,37.14172,0 -118.45238,37.14533,0 -118.45747,37.15168,0 -118.45892,37.15367,0 -118.46542,37.16200,0 -118.46580,37.16250,0 -118.47141,37.17033,0 -118.47413,37.17628,0 -118.47500,37.17867,0 -118.47690,37.18700,0 -118.47413,37.19452,0 -118.46580,37.19275,0 -118.45747,37.18722,0 -118.45728,37.18700,0 -118.45143,37.17867,0 -118.44913,37.17557,0 -118.44622,37.17033,0 -118.44080,37.16205,0 -118.44076,37.16200,0 -118.43247,37.15395,0 -118.43180,37.15367,0 -118.42413,37.15100,0 -118.41580,37.14974,0 -118.40747,37.14735,0 -118.40283,37.14533,0 -118.39913,37.14344,0 -118.39080,37.14119,0 -118.38247,37.14072,0 -118.37413,37.14178,0 -118.36580,37.14527,0 -118.36570,37.14533,0 -118.35747,37.15018,0 -118.35050,37.15367,0 -118.34913,37.15447,0 -118.34080,37.15873,0 -118.33415,37.16200,0 -118.33247,37.16313,0 -118.32413,37.16967,0 -118.32374,37.17033,0 -118.32413,37.17152,0 -118.32775,37.17867,0 -118.33247,37.18092,0 -118.34080,37.18437,0 -118.34461,37.18700,0 -118.34913,37.18989,0 -118.35445,37.19533,0 -118.35747,37.19921,0 -118.36078,37.20367,0 -118.36557,37.21200,0 -118.36580,37.21236,0 -118.37363,37.22033,0 -118.37413,37.22076,0 -118.38247,37.22549,0 -118.38550,37.22867,0 -118.38586,37.23700,0 -118.38247,37.24346,0 -118.38151,37.24533,0 -118.37741,37.25367,0 -118.37618,37.26200,0 -118.37695,37.27033,0 -118.37925,37.27867,0 -118.38067,37.28700,0 -118.37413,37.29495,0 -118.37357,37.29533,0 -118.36580,37.30013,0 -118.35758,37.30367,0 -118.35747,37.30372,0 </coordinates>
        </LineString>
      </MultiGeometry>
    </Placemark>
    <Placemark>
      <name>0.15</name>
      <styleUrl>#style_pgm</styleUrl>
      <visibility>0</visibility>
      <Point>
        <altitudeMode>clampToGround</altitudeMode>
        <coordinates>-118.35747,37.30372,0</coordinates>
      </Point>
    </Placemark>
    <Placemark>
      <name>0.15</name>
      <styleUrl>#style_pgm</styleUrl>
      <visibility>0</visibility>
      <Point>
        <altitudeMode>clampToGround</altitudeMode>
        <coordinates>-118.43328,37.12867,0</coordinates>
      </Point>
    </Placemark>
    <Placemark>
      <name>pgv 0.175 cm/s Contour</name>
      <styleUrl>#style_pgm</styleUrl>
      <visibility>0</visibility>
      <Snippet maxLines="0">
      </Snippet>
      <open>0</open>
      <MultiGeometry>
        <LineString>
          <gx:drawOrder>5</gx:drawOrder>
          <extrude>0</extrude>
          <tessellate>1</tessellate>
          <altitudeMode>clampToGround</altitudeMode>
          <coordinates>-118.35747,37.27063,0 -118.34913,37.27370,0 -118.34080,37.27437,0 -118.33247,37.27323,0 -118.32413,37.27123,0 -118.32099,37.27033,0 -118.31580,37.26886,0 -118.30747,37.26579,0 -118.29991,37.26200,0 -118.29913,37.26161,0 -118.29080,37.25542,0 -118.28939,37.25367,0 -118.28247,37.24542,0 -118.28242,37.24533,0 -118.27853,37.23700,0 -118.27422,37.22867,0 -118.27413,37.22851,0 -118.27063,37.22033,0 -118.26627,37.21200,0 -118.26580,37.21117,0 -118.26174,37.20367,0 -118.25747,37.19569,0 -118.25727,37.19533,0 -118.25345,37.18700,0 -118.25045,37.17867,0 -118.25001,37.17033,0 -118.25363,37.16200,0 -118.25747,37.15706,0 -118.26158,37.15367,0 -118.26580,37.15165,0 -118.27413,37.15110,0 -118.28247,37.15162,0 -118.29080,37.15266,0 -118.29452,37.15367,0 -118.29913,37.15542,0 -118.30747,37.16010,0 -118.31005,37.16200,0 -118.31232,37.17033,0 -118.31571,37.17867,0 -118.31580,37.17877,0 -118.32413,37.18571,0 -118.32668,37.18700,0 -118.33247,37.18931,0 -118.34080,37.19290,0 -118.34405,37.19533,0 -118.34913,37.20007,0 -118.35213,37.20367,0 -118.35746,37.21200,0 -118.35747,37.21202,0 -118.36214,37.22033,0 -118.36580,37.22557,0 -118.36968,37.22867,0 -118.37413,37.23469,0 -118.37530,37.23700,0 -118.37413,37.24025,0 -118.37181,37.24533,0 -118.36762,37.25367,0 -118.36580,37.26032,0 -118.36460,37.26200,0 -118.35780,37.27033,0 -118.35747,37.27063,0 </coordinates>
        </LineString>
      </MultiGeometry>
    </Placemark>
    <Placemark>
      <name>pgv 0.2 cm/s Contour</name>
      <styleUrl>#style_pgm</styleUrl>
      <visibility>0</visibility>
      <Snippet maxLines="0">
      </Snippet>
      <open>0</open>
      <MultiGeometry>
        <LineString>
          <gx:drawOrder>5</gx:drawOrder>
          <extrude>0</extrude>
          <tessellate>1</tessellate>
          <altitudeMode>clampToGround</altitudeMode>
          <coordinates>-118.34913,37.23781,0 -118.34080,37.24295,0 -118.33247,37.24449,0 -118.32413,37.24315,0 -118.31580,37.23981,0 -118.31031,37.23700,0 -118.30747,37.23539,0 -118.29913,37.23049,0 -118.29677,37.22867,0 -118.29080,37.22406,0 -118.28784,37.22033,0 -118.28247,37.21344,0 -118.28169,37.21200,0 -118.27717,37.20367,0 -118.27413,37.19782,0 -118.27300,37.19533,0 -118.27053,37.18700,0 -118.27084,37.17867,0 -118.27413,37.17290,0 -118.27625,37.17033,0 -118.28247,37.16628,0 -118.29080,37.16444,0 -118.29913,37.16802,0 -118.30092,37.17033,0 -118.30617,37.17867,0 -118.30747,37.18009,0 -118.31294,37.18700,0 -118.31580,37.18934,0 -118.32413,37.19356,0 -118.32957,37.19533,0 -118.33247,37.19663,0 -118.34080,37.20156,0 -118.34305,37.20367,0 -118.34913,37.21194,0 -118.34917,37.21200,0 -118.35176,37.22033,0 -118.35277,37.22867,0 -118.34991,37.23700,0 -118.34913,37.23781,0 </coordinates>
        </LineString>
      </MultiGeometry>
    </Placemark>
  </Document>
</kml>

