<?xml version="1.0" encoding="UTF-8" standalone="yes"?>
<kml xmlns="http://www.opengis.net/kml/2.2" xmlns:gx="http://www.google.com/kml/ext/2.2" xmlns:kml="http://www.opengis.net/kml/2.2" xmlns:atom="http://www.w3.org/2005/Atom">
  <NetworkLinkControl>
    <minRefreshPeriod>3600</minRefreshPeriod>
  </NetworkLinkControl>
  <Document>
    <Style id="style_pgm">
      <IconStyle>
        <Icon>
        </Icon>
      </IconStyle>
      <LineStyle>
        <colorMode>normal</colorMode>
        <color>ffffffff</color>
        <width>6</width>
      </LineStyle>
      <LabelStyle>
        <color>ffffffff</color>
        <scale>1</scale>
      </LabelStyle>
      <BalloonStyle>
        <text>&lt;b&gt;$[name]&lt;/b&gt;</text>
      </BalloonStyle>
    </Style>
    <name>PGA Contours</name>
    <visibility>0</visibility>
    <Placemark>
      <name>pga 0.1 %g Contour</name>
      <styleUrl>#style_pgm</styleUrl>
      <visibility>0</visibility>
      <Snippet maxLines="0">
      </Snippet>
      <open>0</open>
      <MultiGeometry>
        <LineString>
          <gx:drawOrder>5</gx:drawOrder>
          <extrude>0</extrude>
          <tessellate>1</tessellate>
          <altitudeMode>clampToGround</altitudeMode>
          <coordinates>-118.42413,37.71045,0 -118.41580,37.70871,0 -118.40747,37.70480,0 -118.40559,37.70367,0 -118.39913,37.69981,0 -118.39320,37.69533,0 -118.39080,37.69353,0 -118.38491,37.68700,0 -118.38247,37.68417,0 -118.37871,37.67867,0 -118.37413,37.67320,0 -118.37137,37.67033,0 -118.36580,37.66510,0 -118.36242,37.66200,0 -118.35747,37.65483,0 -118.35672,37.65367,0 -118.35259,37.64533,0 -118.34913,37.63726,0 -118.34896,37.63700,0 -118.34402,37.62867,0 -118.34080,37.62309,0 -118.33500,37.62033,0 -118.33247,37.61927,0 -118.32413,37.61839,0 -118.31580,37.61754,0 -118.30747,37.61653,0 -118.29913,37.61546,0 -118.29080,37.61434,0 -118.28247,37.61313,0 -118.27527,37.61200,0 -118.27413,37.61183,0 -118.26580,37.61061,0 -118.25747,37.61070,0 -118.25416,37.61200,0 -118.24913,37.61420,0 -118.24080,37.61804,0 -118.23247,37.61588,0 -118.22611,37.61200,0 -118.22413,37.61088,0 -118.21580,37.60723,0 -118.20747,37.60460,0 -118.20365,37.60367,0 -118.19913,37.60258,0 -118.19080,37.60113,0 -118.18247,37.59850,0 -118.17669,37.59533,0 -118.17413,37.59419,0 -118.16580,37.58936,0 -118.16126,37.58700,0 -118.15747,37.58533,0 -118.14913,37.58212,0 -118.14080,37.57883,0 -118.14034,37.57867,0 -118.13247,37.57628,0 -118.12413,37.57297,0 -118.11893,37.57033,0 -118.11580,37.56907,0 -118.10747,37.56533,0 -118.09954,37.56200,0 -118.09913,37.56189,0 -118.09080,37.56015,0 -118.08247,37.55881,0 -118.07413,37.55681,0 -118.06638,37.55367,0 -118.06580,37.55342,0 -118.05747,37.54992,0 -118.04913,37.54758,0 -118.04080,37.54800,0 -118.03247,37.54891,0 -118.02413,37.54866,0 -118.01613,37.54533,0 -118.01580,37.54524,0 -118.00747,37.54122,0 -118.00161,37.53700,0 -117.99913,37.53613,0 -117.99760,37.53700,0 -117.99900,37.54533,0 -117.99913,37.54556,0 -118.00716,37.55367,0 -118.00747,37.55430,0 -118.01141,37.56200,0 -118.01461,37.57033,0 -118.01580,37.57179,0 -118.02314,37.57867,0 -118.02413,37.57953,0 -118.03007,37.58700,0 -118.03247,37.59421,0 -118.03273,37.59533,0 -118.03627,37.60367,0 -118.04080,37.60840,0 -118.04552,37.61200,0 -118.04913,37.61423,0 -118.05747,37.61854,0 -118.05926,37.62033,0 -118.06451,37.62867,0 -118.06580,37.63271,0 -118.06640,37.63700,0 -118.06677,37.64533,0 -118.06602,37.65367,0 -118.06580,37.65488,0 -118.06382,37.66200,0 -118.06180,37.67033,0 -118.05915,37.67867,0 -118.05747,37.68065,0 -118.04913,37.68053,0 -118.04451,37.67867,0 -118.04080,37.67755,0 -118.03247,37.67343,0 -118.02866,37.67033,0 -118.02413,37.66620,0 -118.02109,37.66200,0 -118.01635,37.65367,0 -118.01580,37.65275,0 -118.01091,37.64533,0 -118.00747,37.64166,0 -118.00197,37.63700,0 -117.99913,37.63476,0 -117.99080,37.62893,0 -117.99048,37.62867,0 -117.98247,37.62173,0 -117.98100,37.62033,0 -117.97413,37.61323,0 -117.97296,37.61200,0 -117.96580,37.60433,0 -117.96517,37.60367,0 -117.95747,37.59567,0 -117.95715,37.59533,0 -117.95006,37.58700,0 -117.94913,37.58574,0 -117.94352,37.57867,0 -117.94080,37.57455,0 -117.93718,37.57033,0 -117.93247,37.56386,0 -117.93063,37.56200,0 -117.92413,37.55509,0 -117.92258,37.55367,0 -117.91580,37.54776,0 -117.91343,37.54533,0 -117.90747,37.54007,0 -117.90499,37.53700,0 -117.89913,37.53029,0 -117.89792,37.52867,0 -117.89115,37.52033,0 -117.89080,37.51995,0 -117.88316,37.51200,0 -117.88247,37.51135,0 -117.87413,37.50385,0 -117.87392,37.50367,0 -117.86580,37.49743,0 -117.86257,37.49533,0 -117.85747,37.49184,0 -117.84913,37.48770,0 -117.84736,37.48700,0 -117.84080,37.48366,0 -117.83429,37.47867,0 -117.83247,37.47711,0 -117.82419,37.47033,0 -117.82413,37.47028,0 -117.81580,37.46248,0 -117.81543,37.46200,0 -117.81186,37.45367,0 -117.81225,37.44533,0 -117.81416,37.43700,0 -117.81519,37.42867,0 -117.81506,37.42033,0 -117.81479,37.41200,0 -117.81488,37.40367,0 -117.81517,37.39533,0 -117.81455,37.38700,0 -117.81110,37.37867,0 -117.80747,37.37463,0 -117.80425,37.37033,0 -117.79913,37.36205,0 -117.79911,37.36200,0 -117.79913,37.36186,0 -117.80564,37.35367,0 -117.80747,37.35313,0 -117.80975,37.35367,0 -117.81580,37.35542,0 -117.82413,37.35678,0 -117.82693,37.35367,0 -117.82536,37.34533,0 -117.82413,37.34374,0 -117.81790,37.33700,0 -117.81580,37.33568,0 -117.80747,37.33208,0 -117.79990,37.32867,0 -117.79913,37.32842,0 -117.79080,37.32563,0 -117.78247,37.32124,0 -117.78150,37.32033,0 -117.77505,37.31200,0 -117.77413,37.31007,0 -117.77144,37.30367,0 -117.76801,37.29533,0 -117.76580,37.29044,0 -117.76412,37.28700,0 -117.75984,37.27867,0 -117.75747,37.27465,0 -117.75509,37.27033,0 -117.75044,37.26200,0 -117.74913,37.25944,0 -117.74674,37.25367,0 -117.74413,37.24533,0 -117.74255,37.23700,0 -117.74199,37.22867,0 -117.74214,37.22033,0 -117.74300,37.21200,0 -117.74377,37.20367,0 -117.74301,37.19533,0 -117.74080,37.18900,0 -117.74003,37.18700,0 -117.73562,37.17867,0 -117.73247,37.17295,0 -117.73095,37.17033,0 -117.72575,37.16200,0 -117.72413,37.15959,0 -117.71972,37.15367,0 -117.71580,37.14799,0 -117.71344,37.14533,0 -117.70747,37.13837,0 -117.70546,37.13700,0 -117.69913,37.13105,0 -117.69588,37.12867,0 -117.69080,37.12343,0 -117.68721,37.12033,0 -117.68296,37.11200,0 -117.68315,37.10367,0 -117.68334,37.09533,0 -117.68259,37.08700,0 -117.68329,37.07867,0 -117.68794,37.07033,0 -117.69080,37.06688,0 -117.69913,37.06283,0 -117.70747,37.06511,0 -117.71580,37.06664,0 -117.72413,37.06655,0 -117.73203,37.07033,0 -117.73247,37.07057,0 -117.74080,37.07840,0 -117.74107,37.07867,0 -117.74830,37.08700,0 -117.74913,37.08805,0 -117.75525,37.09533,0 -117.75747,37.09807,0 -117.76444,37.10367,0 -117.76580,37.10492,0 -117.76936,37.10367,0 -117.77413,37.10165,0 -117.78026,37.09533,0 -117.78247,37.09220,0 -117.78507,37.08700,0 -117.78787,37.07867,0 -117.79045,37.07033,0 -117.79080,37.06854,0 -117.79232,37.06200,0 -117.79407,37.05367,0 -117.79658,37.04533,0 -117.79913,37.03911,0 -117.79983,37.03700,0 -117.80279,37.02867,0 -117.80562,37.02033,0 -117.80747,37.01478,0 -117.80842,37.01200,0 -117.81176,37.00367,0 -117.81576,36.99533,0 -117.81580,36.99525,0 -117.81982,36.98700,0 -117.82406,36.97867,0 -117.82413,36.97854,0 -117.82821,36.97033,0 -117.83247,36.96378,0 -117.83355,36.96200,0 -117.83976,36.95367,0 -117.84080,36.95225,0 -117.84467,36.94533,0 -117.84913,36.93715,0 -117.84918,36.93700,0 -117.85169,36.92867,0 -117.85404,36.92033,0 -117.85597,36.91200,0 -117.85747,36.90385,0 -117.85749,36.90367,0 -117.85747,36.89676,0 -117.85744,36.89533,0 -117.84913,36.89338,0 -117.84080,36.89240,0 -117.83677,36.88700,0 -117.83519,36.87867,0 -117.83616,36.87033,0 -117.83804,36.86200,0 -117.84028,36.85367,0 -117.84080,36.85197,0 -117.84311,36.84533,0 -117.84498,36.83700,0 -117.84412,36.82867,0 -117.84080,36.82133,0 -117.84016,36.82033,0 -117.83851,36.81200,0 -117.84079,36.80367,0 -117.84080,36.80366,0 -117.84851,36.79533,0 -117.84913,36.79475,0 -117.85747,36.78737,0 -117.85790,36.78700,0 -117.86580,36.78027,0 -117.86782,36.77867,0 -117.87413,36.77453,0 -117.88247,36.77459,0 -117.88713,36.77867,0 -117.89080,36.78194,0 -117.89339,36.78700,0 -117.89913,36.79433,0 -117.89986,36.79533,0 -117.90747,36.80253,0 -117.90880,36.80367,0 -117.91580,36.81003,0 -117.91794,36.81200,0 -117.92386,36.82033,0 -117.92413,36.82096,0 -117.92950,36.82867,0 -117.93247,36.83695,0 -117.93269,36.83700,0 -117.94080,36.83884,0 -117.94340,36.83700,0 -117.94913,36.83328,0 -117.95501,36.82867,0 -117.95747,36.82676,0 -117.96580,36.82040,0 -117.96589,36.82033,0 -117.97413,36.81425,0 -117.97729,36.81200,0 -117.98247,36.80835,0 -117.98932,36.80367,0 -117.99080,36.80267,0 -117.99913,36.79718,0 -118.00204,36.79533,0 -118.00747,36.79190,0 -118.01551,36.78700,0 -118.01580,36.78682,0 -118.02413,36.78190,0 -118.02984,36.77867,0 -118.03247,36.77718,0 -118.04080,36.77227,0 -118.04251,36.77033,0 -118.04607,36.76200,0 -118.04628,36.75367,0 -118.04578,36.74533,0 -118.04506,36.73700,0 -118.04327,36.72867,0 -118.04080,36.72289,0 -118.03952,36.72033,0 -118.03634,36.71200,0 -118.03546,36.70367,0 -118.03652,36.69533,0 -118.03803,36.68700,0 -118.03808,36.67867,0 -118.03600,36.67033,0 -118.03247,36.66229,0 -118.03231,36.66200,0 -118.03077,36.65367,0 -118.03247,36.64921,0 -118.03523,36.64533,0 -118.04080,36.64093,0 -118.04909,36.63700,0 -118.04913,36.63698,0 -118.05747,36.63481,0 -118.06580,36.63493,0 -118.07046,36.63700,0 -118.07413,36.63834,0 -118.08247,36.64508,0 -118.08265,36.64533,0 -118.08745,36.65367,0 -118.09080,36.65946,0 -118.09184,36.66200,0 -118.09800,36.67033,0 -118.09913,36.67120,0 -118.10747,36.67451,0 -118.11580,36.67489,0 -118.12413,36.67353,0 -118.13122,36.67033,0 -118.13247,36.66959,0 -118.13977,36.66200,0 -118.14080,36.66011,0 -118.14441,36.65367,0 -118.14627,36.64533,0 -118.14836,36.63700,0 -118.14913,36.63605,0 -118.15747,36.63069,0 -118.16106,36.62867,0 -118.16580,36.62571,0 -118.17257,36.62033,0 -118.17413,36.61796,0 -118.18247,36.61252,0 -118.19063,36.61200,0 -118.19080,36.61199,0 -118.19082,36.61200,0 -118.19913,36.61546,0 -118.20617,36.62033,0 -118.20747,36.62104,0 -118.21580,36.62676,0 -118.21827,36.62867,0 -118.22413,36.63428,0 -118.22599,36.63700,0 -118.22955,36.64533,0 -118.23247,36.65271,0 -118.23286,36.65367,0 -118.23725,36.66200,0 -118.24080,36.66712,0 -118.24360,36.67033,0 -118.24913,36.67719,0 -118.25074,36.67867,0 -118.25721,36.68700,0 -118.25747,36.68741,0 -118.26576,36.69533,0 -118.26580,36.69537,0 -118.27413,36.69834,0 -118.28247,36.69837,0 -118.29080,36.69756,0 -118.29913,36.69677,0 -118.30747,36.69609,0 -118.31580,36.69550,0 -118.31854,36.69533,0 -118.32413,36.69499,0 -118.33247,36.69458,0 -118.34080,36.69427,0 -118.34913,36.69405,0 -118.35747,36.69393,0 -118.36580,36.69390,0 -118.37413,36.69398,0 -118.38247,36.69414,0 -118.39080,36.69441,0 -118.39913,36.69477,0 -118.40747,36.69523,0 -118.40899,36.69533,0 -118.41580,36.69577,0 -118.42413,36.69641,0 -118.43247,36.69714,0 -118.44080,36.69798,0 -118.44913,36.69891,0 -118.45747,36.69994,0 -118.46580,36.70108,0 -118.47413,36.70232,0 -118.48244,36.70367,0 -118.48247,36.70367,0 -118.49080,36.70508,0 -118.49913,36.70661,0 -118.50747,36.70824,0 -118.51580,36.70997,0 -118.52413,36.71158,0 -118.53106,36.71200,0 -118.53247,36.71209,0 -118.53269,36.71200,0 -118.54080,36.70861,0 -118.54629,36.70367,0 -118.54913,36.70241,0 -118.55747,36.70125,0 -118.56580,36.70360,0 -118.56593,36.70367,0 -118.57413,36.70861,0 -118.57993,36.71200,0 -118.58247,36.71394,0 -118.59080,36.71885,0 -118.59313,36.72033,0 -118.59913,36.72638,0 -118.60180,36.72867,0 -118.60747,36.73459,0 -118.61145,36.73700,0 -118.61580,36.73929,0 -118.62413,36.74276,0 -118.63043,36.74533,0 -118.63247,36.74616,0 -118.64080,36.74965,0 -118.64913,36.75331,0 -118.64992,36.75367,0 -118.65747,36.75655,0 -118.66580,36.76033,0 -118.66911,36.76200,0 -118.67413,36.76407,0 -118.68247,36.76825,0 -118.68629,36.77033,0 -118.69080,36.77241,0 -118.69913,36.77720,0 -118.70165,36.77867,0 -118.70747,36.78171,0 -118.71580,36.78638,0 -118.71681,36.78700,0 -118.72413,36.79148,0 -118.72956,36.79533,0 -118.73247,36.79770,0 -118.74071,36.80367,0 -118.74080,36.80374,0 -118.74913,36.80950,0 -118.75268,36.81200,0 -118.75747,36.81542,0 -118.76414,36.82033,0 -118.76580,36.82158,0 -118.77413,36.82797,0 -118.77502,36.82867,0 -118.78247,36.83462,0 -118.78537,36.83700,0 -118.79080,36.84154,0 -118.79522,36.84533,0 -118.79913,36.84876,0 -118.80460,36.85367,0 -118.80747,36.85630,0 -118.81355,36.86200,0 -118.81580,36.86417,0 -118.82208,36.87033,0 -118.82413,36.87240,0 -118.83023,36.87867,0 -118.83247,36.88103,0 -118.83802,36.88700,0 -118.84080,36.89009,0 -118.84545,36.89533,0 -118.84913,36.89964,0 -118.85254,36.90367,0 -118.85747,36.90971,0 -118.85932,36.91200,0 -118.86577,36.92033,0 -118.86580,36.92037,0 -118.87196,36.92867,0 -118.87413,36.93172,0 -118.87786,36.93700,0 -118.88247,36.94385,0 -118.88346,36.94533,0 -118.88881,36.95367,0 -118.89080,36.95673,0 -118.89419,36.96200,0 -118.89913,36.96799,0 -118.90083,36.97033,0 -118.90747,36.97668,0 -118.90907,36.97867,0 -118.91580,36.98489,0 -118.91818,36.98700,0 -118.92413,36.99103,0 -118.93247,36.99243,0 -118.94080,36.99379,0 -118.94356,36.99533,0 -118.94913,37.00155,0 -118.95016,37.00367,0 -118.94913,37.00662,0 -118.94595,37.01200,0 -118.94080,37.01646,0 -118.93247,37.02026,0 -118.93233,37.02033,0 -118.92795,37.02867,0 -118.93078,37.03700,0 -118.93247,37.04167,0 -118.93402,37.04533,0 -118.93810,37.05367,0 -118.94080,37.05571,0 -118.94913,37.05888,0 -118.95298,37.06200,0 -118.95747,37.06492,0 -118.96270,37.07033,0 -118.96580,37.07676,0 -118.96720,37.07867,0 -118.96978,37.08700,0 -118.97106,37.09533,0 -118.97223,37.10367,0 -118.97413,37.10997,0 -118.97555,37.11200,0 -118.98247,37.11598,0 -118.99080,37.11644,0 -118.99913,37.11675,0 -119.00723,37.12033,0 -119.00747,37.12046,0 -119.01580,37.12736,0 -119.01685,37.12867,0 -119.02138,37.13700,0 -119.02226,37.14533,0 -119.02003,37.15367,0 -119.01873,37.16200,0 -119.02066,37.17033,0 -119.02413,37.17539,0 -119.02639,37.17867,0 -119.02817,37.18700,0 -119.02413,37.18917,0 -119.01580,37.19031,0 -119.00914,37.18700,0 -119.00747,37.18405,0 -119.00631,37.17867,0 -119.00384,37.17033,0 -118.99913,37.16622,0 -118.99080,37.16530,0 -118.98287,37.17033,0 -118.98247,37.17067,0 -118.97693,37.17867,0 -118.97413,37.18370,0 -118.97262,37.18700,0 -118.97058,37.19533,0 -118.97366,37.20367,0 -118.97413,37.20410,0 -118.98247,37.20650,0 -118.98811,37.21200,0 -118.98766,37.22033,0 -118.98282,37.22867,0 -118.98247,37.22917,0 -118.97413,37.23375,0 -118.96580,37.23529,0 -118.95747,37.23700,0 -118.95746,37.23700,0 -118.94913,37.24140,0 -118.94437,37.24533,0 -118.94415,37.25367,0 -118.94583,37.26200,0 -118.94672,37.27033,0 -118.94741,37.27867,0 -118.94892,37.28700,0 -118.94913,37.28826,0 -118.95040,37.29533,0 -118.95014,37.30367,0 -118.94913,37.30708,0 -118.94784,37.31200,0 -118.94292,37.32033,0 -118.94080,37.32504,0 -118.93695,37.32867,0 -118.94080,37.33436,0 -118.94163,37.33700,0 -118.94223,37.34533,0 -118.94080,37.34754,0 -118.93520,37.35367,0 -118.93247,37.35561,0 -118.92413,37.35885,0 -118.91580,37.36055,0 -118.90747,37.36118,0 -118.90049,37.36200,0 -118.89913,37.36228,0 -118.89080,37.36985,0 -118.89047,37.37033,0 -118.88499,37.37867,0 -118.88247,37.38244,0 -118.87941,37.38700,0 -118.87413,37.39449,0 -118.87353,37.39533,0 -118.86739,37.40367,0 -118.86580,37.40574,0 -118.86095,37.41200,0 -118.85747,37.41632,0 -118.85419,37.42033,0 -118.84913,37.42631,0 -118.84711,37.42867,0 -118.84080,37.43573,0 -118.83963,37.43700,0 -118.83247,37.44297,0 -118.82850,37.44533,0 -118.82413,37.44654,0 -118.81580,37.44779,0 -118.80747,37.44836,0 -118.79913,37.44865,0 -118.79080,37.44889,0 -118.78247,37.44920,0 -118.77413,37.44966,0 -118.76580,37.45038,0 -118.75747,37.45181,0 -118.75268,37.45367,0 -118.74913,37.45487,0 -118.74080,37.45931,0 -118.73579,37.46200,0 -118.73247,37.46376,0 -118.72413,37.46756,0 -118.71618,37.47033,0 -118.71580,37.47046,0 -118.70747,37.47144,0 -118.69913,37.47080,0 -118.69080,37.47070,0 -118.68247,37.47298,0 -118.67413,37.47708,0 -118.67143,37.47867,0 -118.66580,37.48214,0 -118.65988,37.48700,0 -118.65747,37.48937,0 -118.65393,37.49533,0 -118.64960,37.50367,0 -118.64913,37.50446,0 -118.64394,37.51200,0 -118.64080,37.51572,0 -118.63247,37.52021,0 -118.63221,37.52033,0 -118.62413,37.52630,0 -118.62207,37.52867,0 -118.61648,37.53700,0 -118.61580,37.53818,0 -118.61241,37.54533,0 -118.60926,37.55367,0 -118.60747,37.55948,0 -118.60657,37.56200,0 -118.60426,37.57033,0 -118.60255,37.57867,0 -118.60132,37.58700,0 -118.60039,37.59533,0 -118.59951,37.60367,0 -118.59913,37.60644,0 -118.59742,37.61200,0 -118.59157,37.62033,0 -118.59080,37.62101,0 -118.58247,37.62307,0 -118.57413,37.62462,0 -118.56580,37.62753,0 -118.56266,37.62867,0 -118.55747,37.63058,0 -118.54913,37.63311,0 -118.54080,37.63601,0 -118.53830,37.63700,0 -118.53247,37.63914,0 -118.52413,37.64159,0 -118.51580,37.64179,0 -118.50747,37.64017,0 -118.49913,37.64022,0 -118.49080,37.64250,0 -118.48247,37.64518,0 -118.48179,37.64533,0 -118.47413,37.64774,0 -118.46580,37.64930,0 -118.45747,37.65121,0 -118.45023,37.65367,0 -118.44913,37.65405,0 -118.44080,37.65717,0 -118.43247,37.66101,0 -118.43186,37.66200,0 -118.42935,37.67033,0 -118.42949,37.67867,0 -118.43119,37.68700,0 -118.43247,37.69450,0 -118.43264,37.69533,0 -118.43247,37.69721,0 -118.43158,37.70367,0 -118.42413,37.71045,0 </coordinates>
        </LineString>
      </MultiGeometry>
    </Placemark>
    <Placemark>
      <name>0.1</name>
      <styleUrl>#style_pgm</styleUrl>
      <visibility>0</visibility>
      <Point>
        <altitudeMode>clampToGround</altitudeMode>
        <coordinates>-118.42413,37.71045,0</coordinates>
      </Point>
    </Placemark>
    <Placemark>
      <name>0.1</name>
      <styleUrl>#style_pgm</styleUrl>
      <visibility>0</visibility>
      <Point>
        <altitudeMode>clampToGround</altitudeMode>
        <coordinates>-117.82413,37.34374,0</coordinates>
      </Point>
    </Placemark>
    <Placemark>
      <name>0.1</name>
      <styleUrl>#style_pgm</styleUrl>
      <visibility>0</visibility>
      <Point>
        <altitudeMode>clampToGround</altitudeMode>
        <coordinates>-118.04909,36.63700,0</coordinates>
      </Point>
    </Placemark>
    <Placemark>
      <name>0.1</name>
      <styleUrl>#style_pgm</styleUrl>
      <visibility>0</visibility>
      <Point>
        <altitudeMode>clampToGround</altitudeMode>
        <coordinates>-118.92795,37.02867,0</coordinates>
      </Point>
    </Placemark>
    <Placemark>
      <name>pga 0.1 %g Contour</name>
      <styleUrl>#style_pgm</styleUrl>
      <visibility>0</visibility>
      <Snippet maxLines="0">
      </Snippet>
      <open>0</open>
      <MultiGeometry>
        <LineString>
          <gx:drawOrder>5</gx:drawOrder>
          <extrude>0</extrude>
          <tessellate>1</tessellate>
          <altitudeMode>clampToGround</altitudeMode>
          <coordinates>-118.99080,37.07585,0 -118.98247,37.07494,0 -118.97874,37.07033,0 -118.97845,37.06200,0 -118.98154,37.05367,0 -118.98247,37.05085,0 -118.98448,37.04533,0 -118.98511,37.03700,0 -118.98654,37.02867,0 -118.99080,37.02197,0 -118.99455,37.02033,0 -118.99913,37.01905,0 -119.00114,37.02033,0 -119.00371,37.02867,0 -119.00436,37.03700,0 -119.00626,37.04533,0 -119.00747,37.05202,0 -119.00769,37.05367,0 -119.00747,37.05426,0 -119.00318,37.06200,0 -118.99913,37.06595,0 -118.99482,37.07033,0 -118.99080,37.07585,0 </coordinates>
        </LineString>
      </MultiGeometry>
    </Placemark>
    <Placemark>
      <name>pga 0.1 %g Contour</name>
      <styleUrl>#style_pgm</styleUrl>
      <visibility>0</visibility>
      <Snippet maxLines="0">
      </Snippet>
      <open>0</open>
      <MultiGeometry>
        <LineString>
          <gx:drawOrder>5</gx:drawOrder>
          <extrude>0</extrude>
          <tessellate>1</tessellate>
          <altitudeMode>clampToGround</altitudeMode>
          <coordinates>-119.04080,36.79565,0 -119.03247,36.79696,0 -119.02413,36.79779,0 -119.01580,36.79819,0 -119.00747,36.79816,0 -118.99913,36.79771,0 -118.99080,36.79680,0 -118.98255,36.79533,0 -118.98247,36.79532,0 -118.97413,36.79375,0 -118.96580,36.79171,0 -118.95747,36.78899,0 -118.95279,36.78700,0 -118.94913,36.78565,0 -118.94080,36.78201,0 -118.93495,36.77867,0 -118.93247,36.77734,0 -118.92413,36.77214,0 -118.92170,36.77033,0 -118.91580,36.76596,0 -118.91124,36.76200,0 -118.90747,36.75847,0 -118.90277,36.75367,0 -118.89913,36.74937,0 -118.89582,36.74533,0 -118.89080,36.73767,0 -118.89034,36.73700,0 -118.88560,36.72867,0 -118.88247,36.72095,0 -118.88218,36.72033,0 -118.87926,36.71200,0 -118.87740,36.70367,0 -118.87637,36.69533,0 -118.87609,36.68700,0 -118.87653,36.67867,0 -118.87773,36.67033,0 -118.87976,36.66200,0 -118.88247,36.65451,0 -118.88276,36.65367,0 -118.88642,36.64533,0 -118.89080,36.63773,0 -118.89123,36.63700,0 -118.89701,36.62867,0 -118.89913,36.62607,0 -118.90412,36.62033,0 -118.90747,36.61693,0 -118.91278,36.61200,0 -118.91580,36.60942,0 -118.92339,36.60367,0 -118.92413,36.60313,0 -118.93247,36.59781,0 -118.93690,36.59533,0 -118.94080,36.59322,0 -118.94913,36.58938,0 -118.95511,36.58700,0 -118.95747,36.58607,0 -118.96580,36.58337,0 -118.97413,36.58116,0 -118.98247,36.57937,0 -118.98672,36.57867,0 -118.99080,36.57802,0 -118.99913,36.57716,0 -119.00747,36.57671,0 -119.01580,36.57666,0 -119.02413,36.57700,0 -119.03247,36.57775,0 -119.03915,36.57867,0 -119.04080,36.57893,0 -119.04913,36.58068,0 -119.05747,36.58277,0 -119.06580,36.58523,0 -119.07089,36.58700,0 -119.07413,36.58833,0 -119.08247,36.59201,0 -119.08931,36.59533,0 -119.09080,36.59618,0 -119.09913,36.60125,0 -119.10281,36.60367,0 -119.10747,36.60713,0 -119.11361,36.61200,0 -119.11580,36.61396,0 -119.12237,36.62033,0 -119.12413,36.62224,0 -119.12951,36.62867,0 -119.13247,36.63261,0 -119.13543,36.63700,0 -119.14033,36.64533,0 -119.14080,36.64626,0 -119.14407,36.65367,0 -119.14696,36.66200,0 -119.14910,36.67033,0 -119.14913,36.67055,0 -119.15029,36.67867,0 -119.15071,36.68700,0 -119.15038,36.69533,0 -119.14925,36.70367,0 -119.14913,36.70415,0 -119.14723,36.71200,0 -119.14443,36.72033,0 -119.14080,36.72854,0 -119.14074,36.72867,0 -119.13601,36.73700,0 -119.13247,36.74215,0 -119.13019,36.74533,0 -119.12413,36.75250,0 -119.12310,36.75367,0 -119.11580,36.76077,0 -119.11446,36.76200,0 -119.10747,36.76765,0 -119.10383,36.77033,0 -119.09913,36.77352,0 -119.09080,36.77846,0 -119.09043,36.77867,0 -119.08247,36.78277,0 -119.07413,36.78633,0 -119.07236,36.78700,0 -119.06580,36.78950,0 -119.05747,36.79204,0 -119.04913,36.79405,0 -119.04226,36.79533,0 -119.04080,36.79565,0 </coordinates>
        </LineString>
      </MultiGeometry>
    </Placemark>
    <Placemark>
      <name>0.1</name>
      <styleUrl>#style_pgm</styleUrl>
      <visibility>0</visibility>
      <Point>
        <altitudeMode>clampToGround</altitudeMode>
        <coordinates>-119.04080,36.79565,0</coordinates>
      </Point>
    </Placemark>
    <Placemark>
      <name>0.1</name>
      <styleUrl>#style_pgm</styleUrl>
      <visibility>0</visibility>
      <Point>
        <altitudeMode>clampToGround</altitudeMode>
        <coordinates>-118.99080,36.57802,0</coordinates>
      </Point>
    </Placemark>
    <Placemark>
      <name>pga 0.2 %g Contour</name>
      <styleUrl>#style_pgm</styleUrl>
      <visibility>0</visibility>
      <Snippet maxLines="0">
      </Snippet>
      <open>0</open>
      <MultiGeometry>
        <LineString>
          <gx:drawOrder>5</gx:drawOrder>
          <extrude>0</extrude>
          <tessellate>1</tessellate>
          <altitudeMode>clampToGround</altitudeMode>
          <coordinates>-118.35747,37.51122,0 -118.34913,37.50502,0 -118.34783,37.50367,0 -118.34080,37.49682,0 -118.33972,37.49533,0 -118.33471,37.48700,0 -118.33247,37.48380,0 -118.32986,37.47867,0 -118.32413,37.47038,0 -118.32410,37.47033,0 -118.31859,37.46200,0 -118.31580,37.45774,0 -118.31258,37.45367,0 -118.30747,37.44591,0 -118.30697,37.44533,0 -118.30164,37.43700,0 -118.29913,37.43245,0 -118.29531,37.42867,0 -118.29080,37.42390,0 -118.28302,37.42033,0 -118.28247,37.42007,0 -118.27413,37.41805,0 -118.26580,37.41617,0 -118.25747,37.41405,0 -118.25088,37.41200,0 -118.24913,37.41146,0 -118.24080,37.40862,0 -118.23247,37.40537,0 -118.22845,37.40367,0 -118.22413,37.40183,0 -118.21580,37.39836,0 -118.20821,37.39533,0 -118.20747,37.39505,0 -118.19913,37.39271,0 -118.19080,37.39198,0 -118.18247,37.39119,0 -118.17605,37.38700,0 -118.17413,37.38555,0 -118.16740,37.37867,0 -118.16580,37.37711,0 -118.15747,37.37127,0 -118.15588,37.37033,0 -118.14913,37.36664,0 -118.14272,37.36200,0 -118.14080,37.36062,0 -118.13349,37.35367,0 -118.13247,37.35256,0 -118.12519,37.34533,0 -118.12413,37.34426,0 -118.11580,37.33720,0 -118.11543,37.33700,0 -118.10747,37.33466,0 -118.09913,37.33531,0 -118.09080,37.33648,0 -118.08609,37.33700,0 -118.08247,37.33749,0 -118.07413,37.33818,0 -118.06580,37.33925,0 -118.05747,37.34056,0 -118.04913,37.34049,0 -118.04080,37.34056,0 -118.03247,37.34338,0 -118.02835,37.34533,0 -118.02413,37.34739,0 -118.01580,37.34911,0 -118.01109,37.34533,0 -118.00962,37.33700,0 -118.00984,37.32867,0 -118.01021,37.32033,0 -118.01109,37.31200,0 -118.01311,37.30367,0 -118.01580,37.29621,0 -118.01612,37.29533,0 -118.01864,37.28700,0 -118.02023,37.27867,0 -118.02194,37.27033,0 -118.02413,37.26422,0 -118.02490,37.26200,0 -118.02822,37.25367,0 -118.03224,37.24533,0 -118.03247,37.24473,0 -118.03554,37.23700,0 -118.03802,37.22867,0 -118.03655,37.22033,0 -118.03303,37.21200,0 -118.03247,37.20931,0 -118.03151,37.20367,0 -118.03145,37.19533,0 -118.03173,37.18700,0 -118.03126,37.17867,0 -118.02998,37.17033,0 -118.02924,37.16200,0 -118.02904,37.15367,0 -118.02809,37.14533,0 -118.02698,37.13700,0 -118.02643,37.12867,0 -118.02588,37.12033,0 -118.02616,37.11200,0 -118.02901,37.10367,0 -118.03247,37.09854,0 -118.03556,37.09533,0 -118.04080,37.08919,0 -118.04314,37.08700,0 -118.04809,37.07867,0 -118.04913,37.07646,0 -118.05223,37.07033,0 -118.05685,37.06200,0 -118.05747,37.06095,0 -118.06356,37.05367,0 -118.06580,37.05108,0 -118.07413,37.04859,0 -118.08168,37.05367,0 -118.08247,37.05411,0 -118.08966,37.06200,0 -118.09080,37.06293,0 -118.09825,37.07033,0 -118.09913,37.07102,0 -118.10747,37.07732,0 -118.11038,37.07867,0 -118.11580,37.08046,0 -118.12413,37.07991,0 -118.12623,37.07867,0 -118.13247,37.07319,0 -118.13472,37.07033,0 -118.14080,37.06292,0 -118.14155,37.06200,0 -118.14896,37.05367,0 -118.14913,37.05349,0 -118.15696,37.04533,0 -118.15747,37.04479,0 -118.16313,37.03700,0 -118.16580,37.03220,0 -118.16718,37.02867,0 -118.17051,37.02033,0 -118.17413,37.01361,0 -118.17500,37.01200,0 -118.17998,37.00367,0 -118.18247,37.00051,0 -118.18488,36.99533,0 -118.18928,36.98700,0 -118.19080,36.98115,0 -118.19119,36.97867,0 -118.19080,36.97583,0 -118.18969,36.97033,0 -118.18607,36.96200,0 -118.18247,36.95485,0 -118.18136,36.95367,0 -118.17413,36.94814,0 -118.16598,36.94533,0 -118.16580,36.94527,0 -118.15817,36.93700,0 -118.15778,36.92867,0 -118.15890,36.92033,0 -118.15976,36.91200,0 -118.15844,36.90367,0 -118.15747,36.90092,0 -118.15543,36.89533,0 -118.15395,36.88700,0 -118.15345,36.87867,0 -118.15345,36.87033,0 -118.15401,36.86200,0 -118.15502,36.85367,0 -118.15676,36.84533,0 -118.15747,36.84334,0 -118.16407,36.83700,0 -118.16580,36.83586,0 -118.17413,36.83288,0 -118.18247,36.83128,0 -118.19080,36.83023,0 -118.19913,36.82928,0 -118.20452,36.82867,0 -118.20747,36.82832,0 -118.21580,36.82743,0 -118.22413,36.82661,0 -118.23247,36.82663,0 -118.23738,36.82867,0 -118.24080,36.82985,0 -118.24913,36.83632,0 -118.24966,36.83700,0 -118.25370,36.84533,0 -118.25747,36.84929,0 -118.26580,36.84969,0 -118.27413,36.84912,0 -118.28029,36.85367,0 -118.28247,36.85551,0 -118.28774,36.86200,0 -118.29080,36.86649,0 -118.29346,36.87033,0 -118.29528,36.87867,0 -118.29643,36.88700,0 -118.29879,36.89533,0 -118.29913,36.89610,0 -118.30747,36.89867,0 -118.31580,36.89778,0 -118.32413,36.89681,0 -118.33247,36.89600,0 -118.34080,36.89536,0 -118.34130,36.89533,0 -118.34913,36.89488,0 -118.35747,36.89456,0 -118.36580,36.89442,0 -118.37413,36.89445,0 -118.38247,36.89465,0 -118.39080,36.89502,0 -118.39555,36.89533,0 -118.39913,36.89556,0 -118.40747,36.89625,0 -118.41580,36.89712,0 -118.42413,36.89817,0 -118.43247,36.89939,0 -118.44080,36.90080,0 -118.44913,36.90241,0 -118.45499,36.90367,0 -118.45747,36.90419,0 -118.46580,36.90613,0 -118.47413,36.90827,0 -118.48247,36.91064,0 -118.48688,36.91200,0 -118.49080,36.91319,0 -118.49913,36.91594,0 -118.50747,36.91893,0 -118.51112,36.92033,0 -118.51580,36.92212,0 -118.52413,36.92555,0 -118.53121,36.92867,0 -118.53247,36.92922,0 -118.54080,36.93280,0 -118.54913,36.93541,0 -118.55747,36.93470,0 -118.56531,36.92867,0 -118.56580,36.92852,0 -118.57413,36.92750,0 -118.58247,36.92816,0 -118.58488,36.92867,0 -118.59080,36.93003,0 -118.59913,36.93574,0 -118.60015,36.93700,0 -118.60164,36.94533,0 -118.60074,36.95367,0 -118.60485,36.96200,0 -118.60747,36.96335,0 -118.61580,36.96254,0 -118.62413,36.96357,0 -118.63247,36.96954,0 -118.63300,36.97033,0 -118.63513,36.97867,0 -118.63551,36.98700,0 -118.63555,36.99533,0 -118.63795,37.00367,0 -118.64080,37.00784,0 -118.64412,37.01200,0 -118.64913,37.01818,0 -118.65085,37.02033,0 -118.65708,37.02867,0 -118.65747,37.02922,0 -118.66284,37.03700,0 -118.66580,37.04166,0 -118.66811,37.04533,0 -118.67294,37.05367,0 -118.67413,37.05592,0 -118.67736,37.06200,0 -118.68135,37.07033,0 -118.68247,37.07290,0 -118.68498,37.07867,0 -118.68822,37.08700,0 -118.69080,37.09455,0 -118.69107,37.09533,0 -118.69361,37.10367,0 -118.69578,37.11200,0 -118.69760,37.12033,0 -118.69908,37.12867,0 -118.69913,37.12908,0 -118.70025,37.13700,0 -118.70110,37.14533,0 -118.70161,37.15367,0 -118.70180,37.16200,0 -118.70166,37.17033,0 -118.70119,37.17867,0 -118.70040,37.18700,0 -118.69927,37.19533,0 -118.69913,37.19611,0 -118.69784,37.20367,0 -118.69607,37.21200,0 -118.69426,37.22033,0 -118.69339,37.22867,0 -118.69562,37.23700,0 -118.69080,37.24313,0 -118.68987,37.24533,0 -118.68252,37.25367,0 -118.68247,37.25373,0 -118.67847,37.26200,0 -118.67413,37.26996,0 -118.67396,37.27033,0 -118.66923,37.27867,0 -118.66580,37.28397,0 -118.66395,37.28700,0 -118.65849,37.29533,0 -118.65747,37.29683,0 -118.65479,37.30367,0 -118.65050,37.31200,0 -118.64913,37.31404,0 -118.64671,37.32033,0 -118.64080,37.32832,0 -118.64060,37.32867,0 -118.63425,37.33700,0 -118.63247,37.33910,0 -118.62906,37.34533,0 -118.62577,37.35367,0 -118.62413,37.36144,0 -118.62407,37.36200,0 -118.62413,37.36620,0 -118.62424,37.37033,0 -118.62786,37.37867,0 -118.63247,37.38584,0 -118.63317,37.38700,0 -118.63770,37.39533,0 -118.64080,37.40351,0 -118.64085,37.40367,0 -118.64080,37.40417,0 -118.63967,37.41200,0 -118.63506,37.42033,0 -118.63247,37.42556,0 -118.63027,37.42867,0 -118.62620,37.43700,0 -118.62413,37.44244,0 -118.62177,37.44533,0 -118.61580,37.45268,0 -118.61388,37.45367,0 -118.60747,37.45542,0 -118.59913,37.45500,0 -118.59600,37.45367,0 -118.59080,37.45134,0 -118.58247,37.44629,0 -118.58102,37.44533,0 -118.57413,37.44102,0 -118.56838,37.43700,0 -118.56580,37.43515,0 -118.55747,37.42867,0 -118.55746,37.42867,0 -118.54913,37.42351,0 -118.54168,37.42033,0 -118.54080,37.42002,0 -118.53247,37.42005,0 -118.53063,37.42033,0 -118.52413,37.42224,0 -118.51580,37.42492,0 -118.50747,37.42751,0 -118.50357,37.42867,0 -118.49913,37.43024,0 -118.49080,37.43300,0 -118.48247,37.43545,0 -118.47649,37.43700,0 -118.47413,37.43765,0 -118.46580,37.43988,0 -118.45747,37.44202,0 -118.44913,37.44386,0 -118.44080,37.44532,0 -118.44071,37.44533,0 -118.43247,37.44666,0 -118.42413,37.44806,0 -118.41580,37.45037,0 -118.40945,37.45367,0 -118.40747,37.45565,0 -118.39913,37.45933,0 -118.39080,37.45559,0 -118.38247,37.45487,0 -118.37589,37.46200,0 -118.37413,37.46403,0 -118.37196,37.47033,0 -118.36888,37.47867,0 -118.36630,37.48700,0 -118.36580,37.49016,0 -118.36468,37.49533,0 -118.36344,37.50367,0 -118.35747,37.51122,0 </coordinates>
        </LineString>
      </MultiGeometry>
    </Placemark>
    <Placemark>
      <name>0.2</name>
      <styleUrl>#style_pgm</styleUrl>
      <visibility>0</visibility>
      <Point>
        <altitudeMode>clampToGround</altitudeMode>
        <coordinates>-118.35747,37.51122,0</coordinates>
      </Point>
    </Placemark>
    <Placemark>
      <name>0.2</name>
      <styleUrl>#style_pgm</styleUrl>
      <visibility>0</visibility>
      <Point>
        <altitudeMode>clampToGround</altitudeMode>
        <coordinates>-118.14155,37.06200,0</coordinates>
      </Point>
    </Placemark>
    <Placemark>
      <name>0.2</name>
      <styleUrl>#style_pgm</styleUrl>
      <visibility>0</visibility>
      <Point>
        <altitudeMode>clampToGround</altitudeMode>
        <coordinates>-118.64412,37.01200,0</coordinates>
      </Point>
    </Placemark>
    <Placemark>
      <name>pga 0.3 %g Contour</name>
      <styleUrl>#style_pgm</styleUrl>
      <visibility>0</visibility>
      <Snippet maxLines="0">
      </Snippet>
      <open>0</open>
      <MultiGeometry>
        <LineString>
          <gx:drawOrder>5</gx:drawOrder>
          <extrude>0</extrude>
          <tessellate>1</tessellate>
          <altitudeMode>clampToGround</altitudeMode>
          <coordinates>-118.37413,37.41207,0 -118.36580,37.41339,0 -118.35747,37.41390,0 -118.34913,37.41239,0 -118.34824,37.41200,0 -118.34080,37.40891,0 -118.33247,37.40389,0 -118.33224,37.40367,0 -118.32413,37.39723,0 -118.32264,37.39533,0 -118.31580,37.38809,0 -118.31508,37.38700,0 -118.30920,37.37867,0 -118.30747,37.37616,0 -118.30414,37.37033,0 -118.29913,37.36240,0 -118.29884,37.36200,0 -118.29080,37.35400,0 -118.29031,37.35367,0 -118.28247,37.34811,0 -118.27827,37.34533,0 -118.27413,37.34000,0 -118.27180,37.33700,0 -118.26580,37.33122,0 -118.26291,37.32867,0 -118.25747,37.32504,0 -118.25187,37.32033,0 -118.24913,37.31737,0 -118.24326,37.31200,0 -118.24080,37.30951,0 -118.23249,37.30367,0 -118.23247,37.30365,0 -118.22413,37.29817,0 -118.22030,37.29533,0 -118.21580,37.29146,0 -118.20981,37.28700,0 -118.20747,37.28507,0 -118.19928,37.27867,0 -118.19913,37.27853,0 -118.19080,37.27053,0 -118.19062,37.27033,0 -118.18356,37.26200,0 -118.18247,37.26061,0 -118.17716,37.25367,0 -118.17413,37.24930,0 -118.17143,37.24533,0 -118.16625,37.23700,0 -118.16580,37.23620,0 -118.16165,37.22867,0 -118.15747,37.22146,0 -118.15686,37.22033,0 -118.15096,37.21200,0 -118.14913,37.20960,0 -118.14580,37.20367,0 -118.14237,37.19533,0 -118.14080,37.19152,0 -118.13835,37.18700,0 -118.13247,37.17890,0 -118.13227,37.17867,0 -118.12417,37.17033,0 -118.12413,37.17029,0 -118.11708,37.16200,0 -118.11580,37.16007,0 -118.11057,37.15367,0 -118.10747,37.14852,0 -118.10590,37.14533,0 -118.10480,37.13700,0 -118.10747,37.13252,0 -118.11580,37.13476,0 -118.11934,37.13700,0 -118.12413,37.13933,0 -118.13247,37.14086,0 -118.14080,37.13996,0 -118.14913,37.13917,0 -118.15747,37.14037,0 -118.16580,37.14106,0 -118.17413,37.13976,0 -118.18247,37.13783,0 -118.18580,37.13700,0 -118.19080,37.13434,0 -118.19383,37.12867,0 -118.19510,37.12033,0 -118.19625,37.11200,0 -118.19825,37.10367,0 -118.19913,37.10080,0 -118.20034,37.09533,0 -118.20195,37.08700,0 -118.20300,37.07867,0 -118.20366,37.07033,0 -118.20607,37.06200,0 -118.20747,37.06039,0 -118.21580,37.05518,0 -118.22413,37.05521,0 -118.23247,37.05931,0 -118.23916,37.06200,0 -118.24080,37.06241,0 -118.24913,37.06310,0 -118.25395,37.06200,0 -118.25747,37.06056,0 -118.26289,37.05367,0 -118.26580,37.04656,0 -118.26624,37.04533,0 -118.27037,37.03700,0 -118.27413,37.03107,0 -118.27652,37.02867,0 -118.27705,37.02033,0 -118.27851,37.01200,0 -118.28247,37.01034,0 -118.29080,37.00793,0 -118.29913,37.00616,0 -118.30747,37.00437,0 -118.30935,37.00367,0 -118.31580,37.00094,0 -118.32413,36.99584,0 -118.32554,36.99533,0 -118.33247,36.99241,0 -118.34080,36.99309,0 -118.34794,36.99533,0 -118.34913,36.99575,0 -118.35747,36.99603,0 -118.35894,36.99533,0 -118.36580,36.99108,0 -118.37413,36.98765,0 -118.38040,36.98700,0 -118.38247,36.98681,0 -118.38790,36.98700,0 -118.39080,36.98710,0 -118.39913,36.98786,0 -118.40747,36.98892,0 -118.41580,36.99026,0 -118.42413,36.99189,0 -118.43247,36.99383,0 -118.43809,36.99533,0 -118.44080,36.99605,0 -118.44913,36.99854,0 -118.45747,37.00138,0 -118.46344,37.00367,0 -118.46580,37.00457,0 -118.47413,37.00808,0 -118.48243,37.01200,0 -118.48247,37.01202,0 -118.49080,37.01632,0 -118.49782,37.02033,0 -118.49913,37.02111,0 -118.50747,37.02637,0 -118.51083,37.02867,0 -118.51580,37.03220,0 -118.52207,37.03700,0 -118.52413,37.03867,0 -118.53188,37.04533,0 -118.53247,37.04587,0 -118.54052,37.05367,0 -118.54080,37.05396,0 -118.54815,37.06200,0 -118.54913,37.06317,0 -118.55492,37.07033,0 -118.55747,37.07385,0 -118.56088,37.07867,0 -118.56580,37.08651,0 -118.56610,37.08700,0 -118.57071,37.09533,0 -118.57413,37.10259,0 -118.57464,37.10367,0 -118.57805,37.11200,0 -118.58085,37.12033,0 -118.58247,37.12630,0 -118.58312,37.12867,0 -118.58491,37.13700,0 -118.58617,37.14533,0 -118.58716,37.15367,0 -118.58933,37.16200,0 -118.59080,37.16383,0 -118.59436,37.17033,0 -118.59870,37.17867,0 -118.59913,37.18134,0 -118.59990,37.18700,0 -118.59913,37.18950,0 -118.59668,37.19533,0 -118.59080,37.20149,0 -118.58649,37.20367,0 -118.58247,37.20763,0 -118.57882,37.21200,0 -118.57523,37.22033,0 -118.57413,37.22462,0 -118.57290,37.22867,0 -118.57413,37.23241,0 -118.58247,37.23474,0 -118.59080,37.23615,0 -118.59383,37.23700,0 -118.59913,37.23791,0 -118.60747,37.23996,0 -118.61580,37.24295,0 -118.61989,37.24533,0 -118.62413,37.24915,0 -118.62760,37.25367,0 -118.62897,37.26200,0 -118.62752,37.27033,0 -118.62532,37.27867,0 -118.62413,37.28328,0 -118.62214,37.28700,0 -118.61735,37.29533,0 -118.61580,37.29799,0 -118.60747,37.30027,0 -118.60178,37.29533,0 -118.59913,37.29428,0 -118.59080,37.29031,0 -118.58247,37.28916,0 -118.57413,37.29088,0 -118.56580,37.29508,0 -118.56544,37.29533,0 -118.55747,37.30030,0 -118.55416,37.30367,0 -118.54913,37.30912,0 -118.54697,37.31200,0 -118.54080,37.31891,0 -118.53925,37.32033,0 -118.53247,37.32563,0 -118.52863,37.32867,0 -118.52413,37.33217,0 -118.51746,37.33700,0 -118.51580,37.33820,0 -118.50747,37.34319,0 -118.50380,37.34533,0 -118.49913,37.35018,0 -118.49634,37.35367,0 -118.49670,37.36200,0 -118.49913,37.36772,0 -118.50015,37.37033,0 -118.50080,37.37867,0 -118.49913,37.38139,0 -118.49121,37.38700,0 -118.49080,37.38713,0 -118.48247,37.38920,0 -118.47413,37.39085,0 -118.46580,37.39244,0 -118.45747,37.39446,0 -118.45446,37.39533,0 -118.44913,37.39639,0 -118.44080,37.39799,0 -118.43247,37.39962,0 -118.42413,37.40157,0 -118.41613,37.40367,0 -118.41580,37.40373,0 -118.40747,37.40530,0 -118.39913,37.40695,0 -118.39080,37.40839,0 -118.38247,37.41003,0 -118.37449,37.41200,0 -118.37413,37.41207,0 </coordinates>
        </LineString>
      </MultiGeometry>
    </Placemark>
    <Placemark>
      <name>0.3</name>
      <styleUrl>#style_pgm</styleUrl>
      <visibility>0</visibility>
      <Point>
        <altitudeMode>clampToGround</altitudeMode>
        <coordinates>-118.37413,37.41207,0</coordinates>
      </Point>
    </Placemark>
    <Placemark>
      <name>0.3</name>
      <styleUrl>#style_pgm</styleUrl>
      <visibility>0</visibility>
      <Point>
        <altitudeMode>clampToGround</altitudeMode>
        <coordinates>-118.38247,36.98681,0</coordinates>
      </Point>
    </Placemark>
    <Placemark>
      <name>pga 0.4 %g Contour</name>
      <styleUrl>#style_pgm</styleUrl>
      <visibility>0</visibility>
      <Snippet maxLines="0">
      </Snippet>
      <open>0</open>
      <MultiGeometry>
        <LineString>
          <gx:drawOrder>5</gx:drawOrder>
          <extrude>0</extrude>
          <tessellate>1</tessellate>
          <altitudeMode>clampToGround</altitudeMode>
          <coordinates>-118.39080,37.34677,0 -118.38247,37.34843,0 -118.37413,37.34941,0 -118.36580,37.34989,0 -118.35747,37.34983,0 -118.34913,37.34927,0 -118.34080,37.34831,0 -118.33247,37.34659,0 -118.32947,37.34533,0 -118.32413,37.34339,0 -118.31580,37.33867,0 -118.31360,37.33700,0 -118.30747,37.33284,0 -118.30258,37.32867,0 -118.29913,37.32597,0 -118.29296,37.32033,0 -118.29080,37.31850,0 -118.28321,37.31200,0 -118.28247,37.31132,0 -118.27413,37.30447,0 -118.27320,37.30367,0 -118.26684,37.29533,0 -118.26580,37.29221,0 -118.26390,37.28700,0 -118.26247,37.27867,0 -118.26033,37.27033,0 -118.25747,37.26239,0 -118.25725,37.26200,0 -118.25222,37.25367,0 -118.24913,37.24810,0 -118.24653,37.24533,0 -118.24080,37.24047,0 -118.23517,37.23700,0 -118.23247,37.23582,0 -118.22413,37.23451,0 -118.21580,37.23406,0 -118.20929,37.22867,0 -118.20747,37.22443,0 -118.20638,37.22033,0 -118.20245,37.21200,0 -118.19913,37.20752,0 -118.19656,37.20367,0 -118.19080,37.19568,0 -118.19043,37.19533,0 -118.18247,37.18855,0 -118.17836,37.18700,0 -118.17413,37.18341,0 -118.16982,37.17867,0 -118.17194,37.17033,0 -118.17413,37.16873,0 -118.18247,37.16501,0 -118.19080,37.16441,0 -118.19913,37.16426,0 -118.20522,37.16200,0 -118.20747,37.16073,0 -118.21126,37.15367,0 -118.21280,37.14533,0 -118.21334,37.13700,0 -118.21357,37.12867,0 -118.21417,37.12033,0 -118.21557,37.11200,0 -118.21580,37.11108,0 -118.21869,37.10367,0 -118.22283,37.09533,0 -118.22413,37.09319,0 -118.23105,37.08700,0 -118.23247,37.08616,0 -118.24080,37.08350,0 -118.24913,37.08259,0 -118.25747,37.08414,0 -118.26032,37.08700,0 -118.26190,37.09533,0 -118.26404,37.10367,0 -118.26580,37.10738,0 -118.26898,37.11200,0 -118.27413,37.11795,0 -118.27919,37.12033,0 -118.28247,37.12158,0 -118.28974,37.12033,0 -118.29080,37.11994,0 -118.29913,37.11348,0 -118.30101,37.11200,0 -118.30747,37.10635,0 -118.31013,37.10367,0 -118.31271,37.09533,0 -118.30834,37.08700,0 -118.30747,37.08617,0 -118.29965,37.07867,0 -118.29913,37.07811,0 -118.29080,37.07118,0 -118.28843,37.07033,0 -118.28337,37.06200,0 -118.28988,37.05367,0 -118.29080,37.05309,0 -118.29913,37.04979,0 -118.30638,37.04533,0 -118.30747,37.04444,0 -118.31580,37.03737,0 -118.31645,37.03700,0 -118.32413,37.03339,0 -118.33247,37.03022,0 -118.33759,37.02867,0 -118.34080,37.02789,0 -118.34833,37.02867,0 -118.34913,37.02873,0 -118.35747,37.03152,0 -118.36580,37.03482,0 -118.37057,37.03700,0 -118.37413,37.03921,0 -118.38247,37.04260,0 -118.39080,37.04348,0 -118.39913,37.04359,0 -118.40747,37.04470,0 -118.41019,37.04533,0 -118.41580,37.04662,0 -118.42413,37.04908,0 -118.43247,37.05201,0 -118.43654,37.05367,0 -118.44080,37.05544,0 -118.44913,37.05941,0 -118.45391,37.06200,0 -118.45747,37.06401,0 -118.46580,37.06931,0 -118.46726,37.07033,0 -118.47413,37.07547,0 -118.47803,37.07867,0 -118.48247,37.08265,0 -118.48695,37.08700,0 -118.49080,37.09118,0 -118.49440,37.09533,0 -118.49913,37.10160,0 -118.50063,37.10367,0 -118.50580,37.11200,0 -118.50747,37.11522,0 -118.51005,37.12033,0 -118.51344,37.12867,0 -118.51580,37.13620,0 -118.51605,37.13700,0 -118.51797,37.14533,0 -118.51914,37.15367,0 -118.51954,37.16200,0 -118.51968,37.17033,0 -118.52084,37.17867,0 -118.52343,37.18700,0 -118.52413,37.18892,0 -118.52639,37.19533,0 -118.52661,37.20367,0 -118.52413,37.20910,0 -118.52279,37.21200,0 -118.51580,37.21949,0 -118.51480,37.22033,0 -118.50747,37.22720,0 -118.50627,37.22867,0 -118.50061,37.23700,0 -118.49913,37.23888,0 -118.49414,37.24533,0 -118.49080,37.24867,0 -118.48336,37.25367,0 -118.48247,37.25431,0 -118.47413,37.25738,0 -118.46580,37.25852,0 -118.45747,37.26105,0 -118.45557,37.26200,0 -118.44913,37.26530,0 -118.44080,37.26930,0 -118.43835,37.27033,0 -118.43247,37.27277,0 -118.42413,37.27585,0 -118.41868,37.27867,0 -118.41580,37.28032,0 -118.41197,37.28700,0 -118.40747,37.29527,0 -118.40745,37.29533,0 -118.40407,37.30367,0 -118.40096,37.31200,0 -118.40081,37.32033,0 -118.40441,37.32867,0 -118.40576,37.33700,0 -118.39913,37.34324,0 -118.39544,37.34533,0 -118.39080,37.34677,0 </coordinates>
        </LineString>
      </MultiGeometry>
    </Placemark>
    <Placemark>
      <name>0.4</name>
      <styleUrl>#style_pgm</styleUrl>
      <visibility>0</visibility>
      <Point>
        <altitudeMode>clampToGround</altitudeMode>
        <coordinates>-118.39080,37.34677,0</coordinates>
      </Point>
    </Placemark>
    <Placemark>
      <name>0.4</name>
      <styleUrl>#style_pgm</styleUrl>
      <visibility>0</visibility>
      <Point>
        <altitudeMode>clampToGround</altitudeMode>
        <coordinates>-118.28843,37.07033,0</coordinates>
      </Point>
    </Placemark>
    <Placemark>
      <name>pga 0.5 %g Contour</name>
      <styleUrl>#style_pgm</styleUrl>
      <visibility>0</visibility>
      <Snippet maxLines="0">
      </Snippet>
      <open>0</open>
      <MultiGeometry>
        <LineString>
          <gx:drawOrder>5</gx:drawOrder>
          <extrude>0</extrude>
          <tessellate>1</tessellate>
          <altitudeMode>clampToGround</altitudeMode>
          <coordinates>-118.36580,37.30519,0 -118.35747,37.30685,0 -118.34913,37.30715,0 -118.34080,37.30647,0 -118.33247,37.30523,0 -118.32413,37.30371,0 -118.32396,37.30367,0 -118.31580,37.30175,0 -118.30747,37.29858,0 -118.30184,37.29533,0 -118.29913,37.29385,0 -118.29080,37.28785,0 -118.28994,37.28700,0 -118.28247,37.27935,0 -118.28207,37.27867,0 -118.27746,37.27033,0 -118.27413,37.26491,0 -118.27278,37.26200,0 -118.26881,37.25367,0 -118.26580,37.24730,0 -118.26489,37.24533,0 -118.26055,37.23700,0 -118.25747,37.23230,0 -118.25409,37.22867,0 -118.24913,37.22351,0 -118.24458,37.22033,0 -118.24080,37.21681,0 -118.23448,37.21200,0 -118.23247,37.20941,0 -118.22817,37.20367,0 -118.22413,37.19575,0 -118.22389,37.19533,0 -118.22333,37.18700,0 -118.22413,37.18548,0 -118.22594,37.17867,0 -118.22784,37.17033,0 -118.22984,37.16200,0 -118.23247,37.15595,0 -118.23401,37.15367,0 -118.24070,37.14533,0 -118.24080,37.14516,0 -118.24676,37.13700,0 -118.24913,37.13372,0 -118.25747,37.13128,0 -118.26580,37.13458,0 -118.27105,37.13700,0 -118.27413,37.13789,0 -118.28247,37.13931,0 -118.29080,37.13965,0 -118.29913,37.13952,0 -118.30747,37.13779,0 -118.30881,37.13700,0 -118.31580,37.13173,0 -118.31922,37.12867,0 -118.32413,37.12412,0 -118.32832,37.12033,0 -118.33247,37.11549,0 -118.33586,37.11200,0 -118.34080,37.10459,0 -118.34324,37.10367,0 -118.34913,37.10151,0 -118.35747,37.10065,0 -118.36580,37.09541,0 -118.36588,37.09533,0 -118.37030,37.08700,0 -118.37413,37.08168,0 -118.37685,37.07867,0 -118.38247,37.07519,0 -118.39080,37.07283,0 -118.39913,37.07380,0 -118.40631,37.07867,0 -118.40747,37.08013,0 -118.41299,37.08700,0 -118.41580,37.09206,0 -118.41926,37.09533,0 -118.42413,37.09948,0 -118.43077,37.10367,0 -118.43247,37.10439,0 -118.44080,37.10893,0 -118.44462,37.11200,0 -118.44913,37.11526,0 -118.45400,37.12033,0 -118.45747,37.12421,0 -118.46113,37.12867,0 -118.46580,37.13506,0 -118.46717,37.13700,0 -118.47308,37.14533,0 -118.47413,37.14665,0 -118.48183,37.15367,0 -118.48247,37.15444,0 -118.48694,37.16200,0 -118.48871,37.17033,0 -118.49080,37.17597,0 -118.49202,37.17867,0 -118.49787,37.18700,0 -118.49913,37.18937,0 -118.50234,37.19533,0 -118.50195,37.20367,0 -118.49913,37.20716,0 -118.49550,37.21200,0 -118.49080,37.21859,0 -118.48912,37.22033,0 -118.48247,37.22759,0 -118.47413,37.22421,0 -118.47129,37.22033,0 -118.46580,37.21479,0 -118.46084,37.21200,0 -118.45747,37.21056,0 -118.44913,37.20954,0 -118.44144,37.21200,0 -118.44080,37.21234,0 -118.43247,37.21870,0 -118.43023,37.22033,0 -118.42413,37.22428,0 -118.41655,37.22867,0 -118.41580,37.22906,0 -118.40747,37.23460,0 -118.40555,37.23700,0 -118.39913,37.24234,0 -118.39666,37.24533,0 -118.39080,37.25089,0 -118.38873,37.25367,0 -118.38581,37.26200,0 -118.38691,37.27033,0 -118.39007,37.27867,0 -118.39080,37.28455,0 -118.39103,37.28700,0 -118.39080,37.28765,0 -118.38543,37.29533,0 -118.38247,37.29789,0 -118.37413,37.30209,0 -118.36967,37.30367,0 -118.36580,37.30519,0 </coordinates>
        </LineString>
      </MultiGeometry>
    </Placemark>
    <Placemark>
      <name>0.5</name>
      <styleUrl>#style_pgm</styleUrl>
      <visibility>0</visibility>
      <Point>
        <altitudeMode>clampToGround</altitudeMode>
        <coordinates>-118.36580,37.30519,0</coordinates>
      </Point>
    </Placemark>
    <Placemark>
      <name>0.5</name>
      <styleUrl>#style_pgm</styleUrl>
      <visibility>0</visibility>
      <Point>
        <altitudeMode>clampToGround</altitudeMode>
        <coordinates>-118.37685,37.07867,0</coordinates>
      </Point>
    </Placemark>
    <Placemark>
      <name>pga 0.6 %g Contour</name>
      <styleUrl>#style_pgm</styleUrl>
      <visibility>0</visibility>
      <Snippet maxLines="0">
      </Snippet>
      <open>0</open>
      <MultiGeometry>
        <LineString>
          <gx:drawOrder>5</gx:drawOrder>
          <extrude>0</extrude>
          <tessellate>1</tessellate>
          <altitudeMode>clampToGround</altitudeMode>
          <coordinates>-118.35747,37.27061,0 -118.34913,37.27188,0 -118.34080,37.27179,0 -118.33247,37.27055,0 -118.33154,37.27033,0 -118.32413,37.26862,0 -118.31580,37.26625,0 -118.30747,37.26329,0 -118.30462,37.26200,0 -118.29913,37.25946,0 -118.29080,37.25427,0 -118.29017,37.25367,0 -118.28247,37.24634,0 -118.28182,37.24533,0 -118.27650,37.23700,0 -118.27413,37.23342,0 -118.27172,37.22867,0 -118.26693,37.22033,0 -118.26580,37.21844,0 -118.26193,37.21200,0 -118.25747,37.20438,0 -118.25701,37.20367,0 -118.25262,37.19533,0 -118.24924,37.18700,0 -118.24913,37.18631,0 -118.24794,37.17867,0 -118.24913,37.17470,0 -118.25075,37.17033,0 -118.25747,37.16295,0 -118.25846,37.16200,0 -118.26580,37.15659,0 -118.27129,37.15367,0 -118.27413,37.15267,0 -118.28247,37.15104,0 -118.29080,37.15038,0 -118.29913,37.15058,0 -118.30747,37.15038,0 -118.31580,37.14665,0 -118.31722,37.14533,0 -118.32413,37.13923,0 -118.32646,37.13700,0 -118.33247,37.13176,0 -118.33641,37.12867,0 -118.34080,37.12520,0 -118.34913,37.12100,0 -118.35138,37.12033,0 -118.35747,37.11858,0 -118.36580,37.11703,0 -118.37413,37.11609,0 -118.38247,37.11615,0 -118.39080,37.11733,0 -118.39913,37.11911,0 -118.40477,37.12033,0 -118.40747,37.12086,0 -118.41580,37.12240,0 -118.42413,37.12411,0 -118.43247,37.12656,0 -118.43633,37.12867,0 -118.44080,37.13198,0 -118.44575,37.13700,0 -118.44913,37.14108,0 -118.45251,37.14533,0 -118.45747,37.15261,0 -118.45813,37.15367,0 -118.46263,37.16200,0 -118.46580,37.16808,0 -118.46693,37.17033,0 -118.46784,37.17867,0 -118.46580,37.18405,0 -118.45747,37.18405,0 -118.45086,37.17867,0 -118.44913,37.17728,0 -118.44352,37.17033,0 -118.44080,37.16731,0 -118.43544,37.16200,0 -118.43247,37.15981,0 -118.42413,37.15786,0 -118.41580,37.15839,0 -118.40747,37.15902,0 -118.39913,37.16004,0 -118.39449,37.16200,0 -118.39080,37.16905,0 -118.39013,37.17033,0 -118.38247,37.17844,0 -118.38210,37.17867,0 -118.37413,37.18178,0 -118.36580,37.18484,0 -118.36447,37.18700,0 -118.36467,37.19533,0 -118.36580,37.19947,0 -118.36708,37.20367,0 -118.37097,37.21200,0 -118.37413,37.21638,0 -118.37916,37.22033,0 -118.38247,37.22308,0 -118.38609,37.22867,0 -118.38455,37.23700,0 -118.38247,37.23992,0 -118.37856,37.24533,0 -118.37413,37.25224,0 -118.37289,37.25367,0 -118.36821,37.26200,0 -118.36580,37.26636,0 -118.35810,37.27033,0 -118.35747,37.27061,0 </coordinates>
        </LineString>
      </MultiGeometry>
    </Placemark>
    <Placemark>
      <name>0.6</name>
      <styleUrl>#style_pgm</styleUrl>
      <visibility>0</visibility>
      <Point>
        <altitudeMode>clampToGround</altitudeMode>
        <coordinates>-118.35747,37.27061,0</coordinates>
      </Point>
    </Placemark>
    <Placemark>
      <name>0.6</name>
      <styleUrl>#style_pgm</styleUrl>
      <visibility>0</visibility>
      <Point>
        <altitudeMode>clampToGround</altitudeMode>
        <coordinates>-118.40477,37.12033,0</coordinates>
      </Point>
    </Placemark>
    <Placemark>
      <name>pga 0.7 %g Contour</name>
      <styleUrl>#style_pgm</styleUrl>
      <visibility>0</visibility>
      <Snippet maxLines="0">
      </Snippet>
      <open>0</open>
      <MultiGeometry>
        <LineString>
          <gx:drawOrder>5</gx:drawOrder>
          <extrude>0</extrude>
          <tessellate>1</tessellate>
          <altitudeMode>clampToGround</altitudeMode>
          <coordinates>-118.34080,37.23757,0 -118.33247,37.23769,0 -118.32940,37.23700,0 -118.32413,37.23577,0 -118.31580,37.23201,0 -118.30959,37.22867,0 -118.30747,37.22741,0 -118.29913,37.22240,0 -118.29639,37.22033,0 -118.29080,37.21570,0 -118.28757,37.21200,0 -118.28247,37.20532,0 -118.28144,37.20367,0 -118.27710,37.19533,0 -118.27448,37.18700,0 -118.27603,37.17867,0 -118.28247,37.17045,0 -118.28258,37.17033,0 -118.29080,37.16567,0 -118.29913,37.16480,0 -118.30747,37.16968,0 -118.30792,37.17033,0 -118.31223,37.17867,0 -118.31580,37.18252,0 -118.32189,37.18700,0 -118.32413,37.18825,0 -118.33247,37.19110,0 -118.34080,37.19469,0 -118.34163,37.19533,0 -118.34913,37.20313,0 -118.34952,37.20367,0 -118.35351,37.21200,0 -118.35584,37.22033,0 -118.35592,37.22867,0 -118.34913,37.23543,0 -118.34338,37.23700,0 -118.34080,37.23757,0 </coordinates>
        </LineString>
      </MultiGeometry>
    </Placemark>
  </Document>
</kml>

