<?xml version="1.0" encoding="UTF-8" standalone="yes"?>
<kml xmlns="http://www.opengis.net/kml/2.2" xmlns:gx="http://www.google.com/kml/ext/2.2" xmlns:kml="http://www.opengis.net/kml/2.2" xmlns:atom="http://www.w3.org/2005/Atom">
  <NetworkLinkControl>
    <minRefreshPeriod>3600</minRefreshPeriod>
  </NetworkLinkControl>
  <Document>
    <Placemark>
      <name>II</name>
      <Style>
        <IconStyle>
          <Icon>
          </Icon>
        </IconStyle>
        <LabelStyle>
          <color>4278190080</color>
          <scale>1</scale>
        </LabelStyle>
      </Style>
      <visibility>1</visibility>
      <Point>
        <altitudeMode>clampToGround</altitudeMode>
        <coordinates>-118.35747,37.47352,0</coordinates>
      </Point>
    </Placemark>
    <Placemark>
      <name>II</name>
      <Style>
        <IconStyle>
          <Icon>
          </Icon>
        </IconStyle>
        <LabelStyle>
          <color>4278190080</color>
          <scale>1</scale>
        </LabelStyle>
      </Style>
      <visibility>1</visibility>
      <Point>
        <altitudeMode>clampToGround</altitudeMode>
        <coordinates>-118.13247,37.11585,0</coordinates>
      </Point>
    </Placemark>
    <Placemark>
      <name>II</name>
      <Style>
        <IconStyle>
          <Icon>
          </Icon>
        </IconStyle>
        <LabelStyle>
          <color>4278190080</color>
          <scale>1</scale>
        </LabelStyle>
      </Style>
      <visibility>1</visibility>
      <Point>
        <altitudeMode>clampToGround</altitudeMode>
        <coordinates>-118.59080,37.00013,0</coordinates>
      </Point>
    </Placemark>
    <Placemark>
      <name>III</name>
      <Style>
        <IconStyle>
          <Icon>
          </Icon>
        </IconStyle>
        <LabelStyle>
          <color>4278190080</color>
          <scale>1</scale>
        </LabelStyle>
      </Style>
      <visibility>1</visibility>
      <Point>
        <altitudeMode>clampToGround</altitudeMode>
        <coordinates>-118.35747,37.25839,0</coordinates>
      </Point>
    </Placemark>
    <Placemark>
      <name>III</name>
      <Style>
        <IconStyle>
          <Icon>
          </Icon>
        </IconStyle>
        <LabelStyle>
          <color>4278190080</color>
          <scale>1</scale>
        </LabelStyle>
      </Style>
      <visibility>1</visibility>
      <Point>
        <altitudeMode>clampToGround</altitudeMode>
        <coordinates>-118.40747,37.12673,0</coordinates>
      </Point>
    </Placemark>
  </Document>
</kml>

