<?xml version="1.0" encoding="UTF-8"?>
<kml xmlns="http://earth.google.com/kml/2.0"><NetworkLinkControl><minRefreshPeriod>60</minRefreshPeriod><linkName>M 6.6 - 39km WSW of Ashkasham, Afghanistan</linkName><linkSnippet maxLines="2">Updated: 2016-04-11 03:56:36 UTC, aka: gcmt20160410102858</linkSnippet></NetworkLinkControl>
<Document><LookAt><longitude>71.1563</longitude><latitude>36.492</latitude><range>500000</range><tilt>0</tilt><heading>0</heading></LookAt>
<open>1</open><Placemark id="feed"><name>Epicenter</name><description><![CDATA[<h2>M 6.6 - 39km WSW of Ashkasham, Afghanistan</h2><p class="quicksummary"><a href="http://earthquake.usgs.gov/earthquakes/eventpage/us20005gsg#pager" title="PAGER estimated impact alert level" class="pager-green">PAGER - <strong class="roman">GREEN</strong></a> <a href="http://earthquake.usgs.gov/earthquakes/eventpage/us20005gsg#shakemap" title="ShakeMap maximum estimated intensity" class="mmi-IV">ShakeMap - <strong class="roman">IV</strong></a> <a href="http://earthquake.usgs.gov/earthquakes/eventpage/us20005gsg#dyfi" class="mmi-VI" title="Did You Feel It? maximum reported intensity (117 reports)">DYFI? - <strong class="roman">VI</strong></a></p><dl><dt>Time</dt><dd>2016-04-10 10:28:58 UTC</dd><dd>2016-04-10 14:58:58 +04:30 at epicenter</dd><dt>Location</dt><dd>36.492&deg;N 71.156&deg;E</dd><dt>Depth</dt><dd>210.42 km (130.75 mi)</dd></dl><p class="links"><a href="http://earthquake.usgs.gov/earthquakes/eventpage/us20005gsg">Details from USGS web site</a><br/><a href="http://earthquake.usgs.gov/earthquakes/feed/">Get Real-time Data Sent to You</a></p>]]></description><Snippet maxLines="0"></Snippet><LookAt><longitude>71.1563</longitude><latitude>36.492</latitude><range>50000</range><tilt>0</tilt><heading>0</heading></LookAt>
<Style><IconStyle><Icon><href>http://earthquake.usgs.gov/earthquakes/feed/v1.0/images/kml_star.png</href></Icon><scale>1</scale></IconStyle><LabelStyle><scale>1</scale></LabelStyle><BalloonStyle><text><![CDATA[<style>h2{margin-bottom:0;font-size:16px;font-weight:bold;}.quicksummary{float:left;}.quicksummary>a{float:left;display:block;padding:4px;margin-right:8px;text-decoration:none;border:1pxsolid#333;}.quicksummary>a.tsunamilogo{padding:0;}.roman{font-family:Georgia,Times,serif;}.pager-pending{background-color:#FFF;color:#000;}.pager-green{background-color:#00b04f;color:#fff;}.pager-yellow{background-color:#ff0;color:#000;}.pager-orange{background-color:#f90;color:#000;}.pager-red{background-color:#f00;color:#fff;}.mmi-I{color:#000;background-color:#FFFFFF;}.mmi-II{color:#000;background-color:#ACD8E9;}.mmi-III{color:#000;background-color:#ACD8E9;}.mmi-IV{color:#000;background-color:#83D0DA;}.mmi-V{color:#000;background-color:#7BC87F;}.mmi-VI{color:#000;background-color:#F9F518;}.mmi-VII{color:#000;background-color:#FAC611;}.mmi-VIII{color:#000;background-color:#FA8A11;}.mmi-IX{color:#FFF;background-color:#F7100C;}.mmi-X{color:#FFF;background-color:#C80F0A;}.mmi-XI{color:#FFF;background-color:#C80F0A;}.mmi-XII{color:#FFF;background-color:#C80F0A;}dl{clear:left;font-family:Helvetica;line-height:1.3;}dt{color:#999;margin-top:.5em;}dd{margin:0;}.links{clear:both;line-height:1.3;}</style><img src="http://earthquake.usgs.gov/earthquakes/feed/v1.0/images/kml_banner.jpg" alt="USGS" width="400" height="40"/>$[description]<img src="http://earthquake.usgs.gov/earthquakes/feed/v1.0/images/anss.gif" alt="ANSS" width="100" height="31"/>]]></text></BalloonStyle></Style><Point><coordinates>71.1563,36.492,0</coordinates></Point></Placemark>
<Folder><name>Impact Estimates</name><open>1</open><Style><ListStyle><listItemType>radioFolder</listItemType></ListStyle></Style><Folder><name>DYFI - V</name><LookAt><longitude>71.1563</longitude><latitude>36.492</latitude><range>500000</range><tilt>0</tilt><heading>0</heading></LookAt>
<visibility>0</visibility><Folder><name>Reported Intensity</name><visibility>0</visibility><Style><ListStyle><listItemType>radioFolder</listItemType></ListStyle></Style><NetworkLink><name>ZIP codes / Cities</name><visibility>0</visibility><Link><href>http://earthquake.usgs.gov/realtime/product/dyfi/us20005gsg/us/1460287891262/dyfi_zip.kmz</href><refreshMode>onExpire</refreshMode></Link></NetworkLink><NetworkLink><name>Geocoded locations</name><visibility>0</visibility><Link><href>http://earthquake.usgs.gov/realtime/product/dyfi/us20005gsg/us/1460287891262/dyfi_geo.kmz</href><refreshMode>onExpire</refreshMode></Link></NetworkLink></Folder><ScreenOverlay><name>DYFI Intensity Legend</name><visibility>0</visibility><Icon><href>http://earthquake.usgs.gov/earthquakes/feed/v1.0/images/kml_dyfi_legend.png</href></Icon><overlayXY x="0" y="90" xunits="pixels" yunits="pixels"/><screenXY x="5" y="1" xunits="pixels" yunits="fraction"/><size x="0" y="0" xunits="pixels" yunits="pixels"/></ScreenOverlay></Folder>
<Folder><name>ShakeMap - III</name><Folder><name>Contours</name><Style><ListStyle><listItemType>radioFolder</listItemType></ListStyle></Style><NetworkLink><name>Intensity</name><Link><href>http://earthquake.usgs.gov/realtime/product/shakemap/us20005gsg/us/1460291428101/download/cont_mi.kmz</href><viewRefreshMode>never</viewRefreshMode></Link></NetworkLink><NetworkLink><name>PGA (%g)</name><visibility>0</visibility><Link><href>http://earthquake.usgs.gov/realtime/product/shakemap/us20005gsg/us/1460291428101/download/cont_pga.kmz</href><viewRefreshMode>never</viewRefreshMode></Link></NetworkLink><NetworkLink><name>PGV (cm/s)</name><visibility>0</visibility><Link><href>http://earthquake.usgs.gov/realtime/product/shakemap/us20005gsg/us/1460291428101/download/cont_pgv.kmz</href><viewRefreshMode>never</viewRefreshMode></Link></NetworkLink><NetworkLink><name>PSA 0.30 (%g)</name><visibility>0</visibility><Link><href>http://earthquake.usgs.gov/realtime/product/shakemap/us20005gsg/us/1460291428101/download/cont_psa03.kmz</href><viewRefreshMode>never</viewRefreshMode></Link></NetworkLink><NetworkLink><name>PSA 1.00 (%g)</name><visibility>0</visibility><Link><href>http://earthquake.usgs.gov/realtime/product/shakemap/us20005gsg/us/1460291428101/download/cont_psa10.kmz</href><viewRefreshMode>never</viewRefreshMode></Link></NetworkLink><NetworkLink><name>PSA 3.00 (%g)</name><visibility>0</visibility><Link><href>http://earthquake.usgs.gov/realtime/product/shakemap/us20005gsg/us/1460291428101/download/cont_psa30.kmz</href><viewRefreshMode>never</viewRefreshMode></Link></NetworkLink></Folder><LookAt><longitude>71.1563</longitude><latitude>36.492</latitude><range>500000</range><tilt>0</tilt><heading>0</heading></LookAt>
<GroundOverlay><name>Intensity Overlay</name><color>FFFFFFFF</color><visibility>0</visibility><drawOrder>0</drawOrder><Icon><refreshMode>onChange</refreshMode><href>http://earthquake.usgs.gov/realtime/product/shakemap/us20005gsg/us/1460291428101/download/ii_overlay.png</href></Icon><LatLonBox><north>38.904000</north><south>34.080000</south><east>74.156300</east><west>68.156300</west></LatLonBox></GroundOverlay><ScreenOverlay><name>ShakeMap Intensity Legend</name><visibility>0</visibility><Icon><href>http://earthquake.usgs.gov/earthquakes/feed/v1.0/images/kml_shakemap_legend.png</href></Icon><overlayXY x="0" y="90" xunits="pixels" yunits="pixels"/><screenXY x="5" y="1" xunits="pixels" yunits="fraction"/><size x="0" y="0" xunits="pixels" yunits="pixels"/></ScreenOverlay></Folder>
<NetworkLink><name>PAGER - Green</name><visibility>0</visibility><Link><href>http://earthquake.usgs.gov/realtime/product/losspager/us20005gsg/us/1460291719846/pagerexpo.kmz</href><viewRefreshMode>never</viewRefreshMode></Link></NetworkLink></Folder><ScreenOverlay><name>USGS Logo</name><Icon><href>http://earthquake.usgs.gov/earthquakes/feed/v1.0/images/kml_usgs_logo.png</href></Icon><overlayXY x="1" y="0" xunits="fraction" yunits="pixels"/><screenXY x=".82" y="30" xunits="fraction" yunits="pixels"/><rotationXY x="0" y="0" xunits="pixels" yunits="pixels"/><size x="0" y="0" xunits="pixels" yunits="pixels"/></ScreenOverlay>
</Document></kml>