<?xml version="1.0" encoding="UTF-8"?>
<kml xmlns="http://www.opengis.net/kml/2.2" xmlns:gx="http://www.google.com/kml/ext/2.2" xmlns:kml="http://www.opengis.net/kml/2.2" xmlns:atom="http://www.w3.org/2005/Atom">
<Document>
	<name>ShakeMap: 37528064</name>
	<open>1</open>
	<LookAt>
		<longitude>-119.3728</longitude>
		<latitude>35.5422995833334</latitude>
		<altitude>0</altitude>
		<heading>0</heading>
		<tilt>0</tilt>
		<range>200000</range>
	</LookAt>
	<NetworkLink>
		<name>Epicenter</name>
		<open>1</open>
		<Link>
			<href>epicenter.kml</href>
			<refreshMode>onInterval</refreshMode>
			<refreshInterval>300</refreshInterval>
		</Link>
	</NetworkLink>
	<Folder>
		<name>Intensity Polygons</name>
		<open>1</open>
		<NetworkLink>
			<name>Intensity Polygons</name>
			<open>1</open>
			<Link>
				<href>polygons_mi.kml</href>
				<refreshMode>onInterval</refreshMode>
				<refreshInterval>300</refreshInterval>
			</Link>
		</NetworkLink>
		<NetworkLink>
			<name>Polygon Labels</name>
			<Link>
				<href>polygon_labels_mi.kml</href>
				<refreshMode>onInterval</refreshMode>
				<refreshInterval>300</refreshInterval>
			</Link>
		</NetworkLink>
	</Folder>
	<Folder>
		<name>Contours</name>
		<open>1</open>
		<Style>
			<ListStyle>
				<listItemType>radioFolder</listItemType>
				<bgColor>00ffffff</bgColor>
				<maxSnippetLines>2</maxSnippetLines>
			</ListStyle>
		</Style>
	</Folder>
	<ScreenOverlay>
		<name>Intensity Legend</name>
		<Icon>
			<href>shakemap.png</href>
		</Icon>
		<overlayXY x="0" y="90" xunits="pixels" yunits="pixels"/>
		<screenXY x="5" y="1" xunits="pixels" yunits="fraction"/>
		<rotationXY x="0.5" y="0.5" xunits="fraction" yunits="fraction"/>
		<size x="0" y="0" xunits="pixels" yunits="pixels"/>
	</ScreenOverlay>
</Document>
</kml>
