<?xml version="1.0" encoding="UTF-8" standalone="yes"?>
<kml xmlns="http://www.opengis.net/kml/2.2" xmlns:gx="http://www.google.com/kml/ext/2.2" xmlns:kml="http://www.opengis.net/kml/2.2" xmlns:atom="http://www.w3.org/2005/Atom">
  <NetworkLinkControl>
    <minRefreshPeriod>900</minRefreshPeriod>
  </NetworkLinkControl>
  <Document>
    <Style id="style_pgm">
      <IconStyle>
        <Icon>
        </Icon>
      </IconStyle>
      <LineStyle>
        <colorMode>normal</colorMode>
        <color>ffffffff</color>
        <width>6</width>
      </LineStyle>
      <LabelStyle>
        <color>ffffffff</color>
        <scale>1</scale>
      </LabelStyle>
      <BalloonStyle>
        <text>&lt;b&gt;$[name]&lt;/b&gt;</text>
      </BalloonStyle>
    </Style>
    <name>PGV Contours</name>
    <visibility>0</visibility>
    <Placemark>
      <name>pgv 0.05 cm/s Contour</name>
      <styleUrl>#style_pgm</styleUrl>
      <visibility>0</visibility>
      <Snippet maxLines="0">
      </Snippet>
      <open>0</open>
      <MultiGeometry>
        <LineString>
          <gx:drawOrder>5</gx:drawOrder>
          <extrude>0</extrude>
          <tessellate>1</tessellate>
          <altitudeMode>clampToGround</altitudeMode>
          <coordinates>-124.22400,40.76271,0 -124.21567,40.76213,0 -124.20968,40.76133,0 -124.20733,40.76111,0 -124.19900,40.76105,0 -124.19067,40.76057,0 -124.18233,40.75897,0 -124.17400,40.75645,0 -124.16568,40.75300,0 -124.16567,40.75299,0 -124.15733,40.74961,0 -124.14900,40.74555,0 -124.14749,40.74467,0 -124.14067,40.74102,0 -124.13398,40.73633,0 -124.13233,40.73517,0 -124.12400,40.72842,0 -124.12348,40.72800,0 -124.11567,40.72172,0 -124.11305,40.71967,0 -124.10733,40.71478,0 -124.10325,40.71133,0 -124.09900,40.70732,0 -124.09446,40.70300,0 -124.09067,40.69876,0 -124.08709,40.69467,0 -124.08233,40.68775,0 -124.08136,40.68633,0 -124.07687,40.67800,0 -124.07400,40.67084,0 -124.07350,40.66967,0 -124.07086,40.66133,0 -124.06911,40.65300,0 -124.06816,40.64467,0 -124.06794,40.63633,0 -124.06846,40.62800,0 -124.06972,40.61967,0 -124.07181,40.61133,0 -124.07400,40.60542,0 -124.07481,40.60300,0 -124.07836,40.59467,0 -124.08233,40.58751,0 -124.08293,40.58633,0 -124.08742,40.57800,0 -124.09067,40.57279,0 -124.09242,40.56967,0 -124.09776,40.56133,0 -124.09900,40.55933,0 -124.10249,40.55300,0 -124.10534,40.54467,0 -124.10637,40.53633,0 -124.10502,40.52800,0 -124.09900,40.52291,0 -124.09144,40.51967,0 -124.09067,40.51938,0 -124.08233,40.51573,0 -124.07664,40.51133,0 -124.07400,40.50762,0 -124.07036,40.50300,0 -124.06567,40.49827,0 -124.06085,40.49467,0 -124.05733,40.49220,0 -124.04900,40.48659,0 -124.04865,40.48633,0 -124.04067,40.48107,0 -124.03644,40.47800,0 -124.03233,40.47567,0 -124.02443,40.46967,0 -124.02400,40.46941,0 -124.01567,40.46446,0 -124.00996,40.46133,0 -124.00733,40.46016,0 -123.99900,40.45606,0 -123.99412,40.45300,0 -123.99067,40.45011,0 -123.98551,40.44467,0 -123.98233,40.43715,0 -123.98198,40.43633,0 -123.98233,40.43510,0 -123.98819,40.42800,0 -123.99067,40.42571,0 -123.99490,40.41967,0 -123.99517,40.41133,0 -123.99471,40.40300,0 -123.99480,40.39467,0 -123.99569,40.38633,0 -123.99743,40.37800,0 -123.99900,40.37299,0 -124.00007,40.36967,0 -124.00362,40.36133,0 -124.00733,40.35466,0 -124.00831,40.35300,0 -124.01494,40.34467,0 -124.01567,40.34394,0 -124.02400,40.33698,0 -124.02492,40.33633,0 -124.03233,40.33159,0 -124.03911,40.32800,0 -124.04067,40.32710,0 -124.04900,40.32268,0 -124.05477,40.31967,0 -124.05733,40.31797,0 -124.06567,40.31244,0 -124.06731,40.31133,0 -124.07400,40.30605,0 -124.07826,40.30300,0 -124.08233,40.29927,0 -124.08811,40.29467,0 -124.09067,40.29141,0 -124.09510,40.28633,0 -124.09852,40.27800,0 -124.09900,40.27564,0 -124.10022,40.26967,0 -124.10212,40.26133,0 -124.10471,40.25300,0 -124.10732,40.24467,0 -124.10733,40.24463,0 -124.10915,40.23633,0 -124.11095,40.22800,0 -124.11349,40.21967,0 -124.11567,40.21441,0 -124.11692,40.21133,0 -124.12118,40.20300,0 -124.12400,40.19837,0 -124.12629,40.19467,0 -124.13227,40.18633,0 -124.13233,40.18625,0 -124.13913,40.17800,0 -124.14067,40.17630,0 -124.14685,40.16967,0 -124.14900,40.16734,0 -124.15461,40.16133,0 -124.15733,40.15783,0 -124.16083,40.15300,0 -124.16302,40.14467,0 -124.16163,40.13633,0 -124.16156,40.12800,0 -124.16567,40.12153,0 -124.16779,40.11967,0 -124.17400,40.11760,0 -124.18134,40.11967,0 -124.18233,40.12008,0 -124.19067,40.12636,0 -124.19340,40.12800,0 -124.19900,40.13240,0 -124.20710,40.13633,0 -124.20733,40.13645,0 -124.21567,40.13820,0 -124.22400,40.13837,0 -124.23233,40.13697,0 -124.23448,40.13633,0 -124.24067,40.13430,0 -124.24900,40.13162,0 -124.25733,40.12927,0 -124.26252,40.12800,0 -124.26567,40.12722,0 -124.27400,40.12545,0 -124.28233,40.12398,0 -124.29067,40.12279,0 -124.29900,40.12188,0 -124.30733,40.12123,0 -124.31567,40.12084,0 -124.32400,40.12071,0 -124.33233,40.12084,0 -124.34067,40.12123,0 -124.34900,40.12188,0 -124.35733,40.12279,0 -124.36567,40.12398,0 -124.37400,40.12545,0 -124.38233,40.12722,0 -124.38548,40.12800,0 -124.39067,40.12927,0 -124.39900,40.13161,0 -124.40733,40.13430,0 -124.41295,40.13633,0 -124.41567,40.13733,0 -124.42400,40.14070,0 -124.43233,40.14449,0 -124.43269,40.14467,0 -124.44067,40.14868,0 -124.44839,40.15300,0 -124.44900,40.15336,0 -124.45733,40.15855,0 -124.46145,40.16133,0 -124.46567,40.16434,0 -124.47261,40.16967,0 -124.47400,40.17081,0 -124.48224,40.17800,0 -124.48233,40.17809,0 -124.49060,40.18633,0 -124.49067,40.18641,0 -124.49789,40.19467,0 -124.49900,40.19608,0 -124.50425,40.20300,0 -124.50733,40.20763,0 -124.50974,40.21133,0 -124.51446,40.21967,0 -124.51567,40.22216,0 -124.51847,40.22800,0 -124.52179,40.23633,0 -124.52400,40.24323,0 -124.52446,40.24467,0 -124.52654,40.25300,0 -124.52801,40.26133,0 -124.52889,40.26967,0 -124.52919,40.27800,0 -124.52892,40.28633,0 -124.52806,40.29467,0 -124.52662,40.30300,0 -124.52456,40.31133,0 -124.52400,40.31309,0 -124.52191,40.31967,0 -124.51861,40.32800,0 -124.51567,40.33417,0 -124.51462,40.33633,0 -124.50993,40.34467,0 -124.50733,40.34866,0 -124.50444,40.35300,0 -124.49900,40.36019,0 -124.49811,40.36133,0 -124.49082,40.36967,0 -124.49067,40.36983,0 -124.48287,40.37800,0 -124.48233,40.37875,0 -124.47979,40.38633,0 -124.48126,40.39467,0 -124.48233,40.39740,0 -124.48473,40.40300,0 -124.48829,40.41133,0 -124.49067,40.41852,0 -124.49115,40.41967,0 -124.49455,40.42800,0 -124.49685,40.43633,0 -124.49845,40.44467,0 -124.49900,40.44878,0 -124.49982,40.45300,0 -124.50062,40.46133,0 -124.50062,40.46967,0 -124.49982,40.47800,0 -124.49900,40.48209,0 -124.49840,40.48633,0 -124.49654,40.49467,0 -124.49377,40.50300,0 -124.49067,40.50953,0 -124.48992,40.51133,0 -124.48566,40.51967,0 -124.48233,40.52460,0 -124.48015,40.52800,0 -124.47400,40.53577,0 -124.47354,40.53633,0 -124.46580,40.54467,0 -124.46567,40.54479,0 -124.45733,40.55239,0 -124.45658,40.55300,0 -124.44900,40.55899,0 -124.44572,40.56133,0 -124.44067,40.56498,0 -124.43378,40.56967,0 -124.43233,40.57074,0 -124.42400,40.57689,0 -124.42246,40.57800,0 -124.41567,40.58421,0 -124.41323,40.58633,0 -124.40733,40.59302,0 -124.40571,40.59467,0 -124.39968,40.60300,0 -124.39900,40.60414,0 -124.39487,40.61133,0 -124.39067,40.61932,0 -124.39051,40.61967,0 -124.38684,40.62800,0 -124.38321,40.63633,0 -124.38233,40.63821,0 -124.37977,40.64467,0 -124.37626,40.65300,0 -124.37400,40.65783,0 -124.37245,40.66133,0 -124.36842,40.66967,0 -124.36567,40.67471,0 -124.36385,40.67800,0 -124.35874,40.68633,0 -124.35733,40.68835,0 -124.35276,40.69467,0 -124.34900,40.69921,0 -124.34564,40.70300,0 -124.34067,40.70804,0 -124.33711,40.71133,0 -124.33233,40.71542,0 -124.32678,40.71967,0 -124.32400,40.72168,0 -124.31567,40.72703,0 -124.31398,40.72800,0 -124.30733,40.73170,0 -124.29900,40.73569,0 -124.29749,40.73633,0 -124.29067,40.73919,0 -124.28233,40.74216,0 -124.27435,40.74467,0 -124.27400,40.74478,0 -124.26567,40.74764,0 -124.25733,40.75098,0 -124.25261,40.75300,0 -124.24900,40.75456,0 -124.24067,40.75816,0 -124.23233,40.76109,0 -124.23074,40.76133,0 -124.22400,40.76271,0 </coordinates>
        </LineString>
      </MultiGeometry>
    </Placemark>
    <Placemark>
      <name>0.05</name>
      <styleUrl>#style_pgm</styleUrl>
      <visibility>0</visibility>
      <Point>
        <altitudeMode>clampToGround</altitudeMode>
        <coordinates>-124.22400,40.76271,0</coordinates>
      </Point>
    </Placemark>
    <Placemark>
      <name>0.05</name>
      <styleUrl>#style_pgm</styleUrl>
      <visibility>0</visibility>
      <Point>
        <altitudeMode>clampToGround</altitudeMode>
        <coordinates>-124.06567,40.31244,0</coordinates>
      </Point>
    </Placemark>
    <Placemark>
      <name>0.05</name>
      <styleUrl>#style_pgm</styleUrl>
      <visibility>0</visibility>
      <Point>
        <altitudeMode>clampToGround</altitudeMode>
        <coordinates>-124.52889,40.26967,0</coordinates>
      </Point>
    </Placemark>
    <Placemark>
      <name>pgv 0.1 cm/s Contour</name>
      <styleUrl>#style_pgm</styleUrl>
      <visibility>0</visibility>
      <Snippet maxLines="0">
      </Snippet>
      <open>0</open>
      <MultiGeometry>
        <LineString>
          <gx:drawOrder>5</gx:drawOrder>
          <extrude>0</extrude>
          <tessellate>1</tessellate>
          <altitudeMode>clampToGround</altitudeMode>
          <coordinates>-124.24900,40.73676,0 -124.24067,40.74077,0 -124.23233,40.74286,0 -124.22400,40.74328,0 -124.21567,40.74239,0 -124.20733,40.74101,0 -124.19900,40.73996,0 -124.19067,40.73894,0 -124.18233,40.73736,0 -124.17901,40.73633,0 -124.17400,40.73446,0 -124.16567,40.73102,0 -124.15824,40.72800,0 -124.15733,40.72753,0 -124.14900,40.72290,0 -124.14392,40.71967,0 -124.14067,40.71684,0 -124.13486,40.71133,0 -124.13233,40.70702,0 -124.12981,40.70300,0 -124.12667,40.69467,0 -124.12400,40.69001,0 -124.12156,40.68633,0 -124.11567,40.67985,0 -124.11431,40.67800,0 -124.10816,40.66967,0 -124.10733,40.66851,0 -124.10412,40.66133,0 -124.10077,40.65300,0 -124.09900,40.64746,0 -124.09842,40.64467,0 -124.09749,40.63633,0 -124.09743,40.62800,0 -124.09829,40.61967,0 -124.09900,40.61645,0 -124.10032,40.61133,0 -124.10298,40.60300,0 -124.10585,40.59467,0 -124.10733,40.59107,0 -124.10913,40.58633,0 -124.11308,40.57800,0 -124.11567,40.57346,0 -124.11779,40.56967,0 -124.12293,40.56133,0 -124.12400,40.55954,0 -124.12796,40.55300,0 -124.13233,40.54613,0 -124.13329,40.54467,0 -124.14067,40.53661,0 -124.14099,40.53633,0 -124.14900,40.52904,0 -124.15354,40.52800,0 -124.15733,40.52697,0 -124.16012,40.52800,0 -124.16567,40.52971,0 -124.17400,40.53251,0 -124.18233,40.53350,0 -124.19067,40.53282,0 -124.19900,40.53102,0 -124.20733,40.52823,0 -124.20795,40.52800,0 -124.21567,40.52429,0 -124.22296,40.51967,0 -124.22400,40.51824,0 -124.22903,40.51133,0 -124.22400,40.50838,0 -124.21567,40.50407,0 -124.21389,40.50300,0 -124.20733,40.50019,0 -124.20091,40.49467,0 -124.19928,40.48633,0 -124.20422,40.47800,0 -124.20733,40.47401,0 -124.21056,40.46967,0 -124.20750,40.46133,0 -124.20733,40.46106,0 -124.20292,40.45300,0 -124.20031,40.44467,0 -124.19924,40.43633,0 -124.19900,40.43421,0 -124.19815,40.42800,0 -124.19478,40.41967,0 -124.19067,40.41527,0 -124.18679,40.41133,0 -124.18233,40.40794,0 -124.17614,40.40300,0 -124.17400,40.40128,0 -124.16657,40.39467,0 -124.16567,40.39377,0 -124.15868,40.38633,0 -124.15733,40.38457,0 -124.15245,40.37800,0 -124.14900,40.37098,0 -124.14834,40.36967,0 -124.14575,40.36133,0 -124.14482,40.35300,0 -124.14495,40.34467,0 -124.14552,40.33633,0 -124.14614,40.32800,0 -124.14718,40.31967,0 -124.14896,40.31133,0 -124.14900,40.31120,0 -124.15117,40.30300,0 -124.15405,40.29467,0 -124.15733,40.28713,0 -124.15766,40.28633,0 -124.16174,40.27800,0 -124.16567,40.27159,0 -124.16683,40.26967,0 -124.17275,40.26133,0 -124.17400,40.25980,0 -124.17973,40.25300,0 -124.18233,40.25028,0 -124.18813,40.24467,0 -124.19067,40.24242,0 -124.19842,40.23633,0 -124.19900,40.23590,0 -124.20733,40.23023,0 -124.21121,40.22800,0 -124.21567,40.22538,0 -124.22400,40.22118,0 -124.22705,40.21967,0 -124.23233,40.21682,0 -124.24067,40.21260,0 -124.24339,40.21133,0 -124.24900,40.20849,0 -124.25733,40.20528,0 -124.26567,40.20311,0 -124.26631,40.20300,0 -124.27400,40.20134,0 -124.28233,40.20056,0 -124.29067,40.20041,0 -124.29900,40.20104,0 -124.30733,40.20263,0 -124.30898,40.20300,0 -124.31567,40.20402,0 -124.32400,40.20543,0 -124.33233,40.20723,0 -124.34067,40.20951,0 -124.34599,40.21133,0 -124.34900,40.21213,0 -124.35733,40.21477,0 -124.36567,40.21830,0 -124.36833,40.21967,0 -124.37400,40.22216,0 -124.38233,40.22678,0 -124.38421,40.22800,0 -124.39067,40.23191,0 -124.39659,40.23633,0 -124.39900,40.23815,0 -124.40652,40.24467,0 -124.40733,40.24543,0 -124.41477,40.25300,0 -124.41567,40.25405,0 -124.42168,40.26133,0 -124.42400,40.26479,0 -124.42735,40.26967,0 -124.43172,40.27800,0 -124.43233,40.27944,0 -124.43550,40.28633,0 -124.43817,40.29467,0 -124.43994,40.30300,0 -124.44067,40.30900,0 -124.44100,40.31133,0 -124.44134,40.31967,0 -124.44081,40.32800,0 -124.44067,40.32883,0 -124.43959,40.33633,0 -124.43759,40.34467,0 -124.43481,40.35300,0 -124.43233,40.36032,0 -124.43203,40.36133,0 -124.43125,40.36967,0 -124.43233,40.37422,0 -124.43336,40.37800,0 -124.43849,40.38633,0 -124.44067,40.38899,0 -124.44577,40.39467,0 -124.44900,40.39835,0 -124.45306,40.40300,0 -124.45733,40.40875,0 -124.45923,40.41133,0 -124.46424,40.41967,0 -124.46567,40.42264,0 -124.46827,40.42800,0 -124.47133,40.43633,0 -124.47360,40.44467,0 -124.47400,40.44685,0 -124.47514,40.45300,0 -124.47585,40.46133,0 -124.47573,40.46967,0 -124.47476,40.47800,0 -124.47400,40.48151,0 -124.47282,40.48633,0 -124.46996,40.49467,0 -124.46638,40.50300,0 -124.46567,40.50435,0 -124.46153,40.51133,0 -124.45733,40.51719,0 -124.45508,40.51967,0 -124.44900,40.52555,0 -124.44540,40.52800,0 -124.44067,40.53143,0 -124.43234,40.53633,0 -124.43233,40.53634,0 -124.42400,40.54068,0 -124.41816,40.54467,0 -124.41567,40.54613,0 -124.40733,40.54869,0 -124.39900,40.54843,0 -124.39067,40.54883,0 -124.38234,40.55300,0 -124.38233,40.55300,0 -124.37400,40.55872,0 -124.37139,40.56133,0 -124.36567,40.56625,0 -124.36378,40.56967,0 -124.36053,40.57800,0 -124.35802,40.58633,0 -124.35733,40.58811,0 -124.35564,40.59467,0 -124.35261,40.60300,0 -124.34925,40.61133,0 -124.34900,40.61229,0 -124.34766,40.61967,0 -124.34569,40.62800,0 -124.34237,40.63633,0 -124.34067,40.64006,0 -124.33874,40.64467,0 -124.33352,40.65300,0 -124.33233,40.65474,0 -124.32795,40.66133,0 -124.32400,40.66553,0 -124.32047,40.66967,0 -124.31567,40.67483,0 -124.31374,40.67800,0 -124.30733,40.68526,0 -124.30649,40.68633,0 -124.29900,40.69365,0 -124.29798,40.69467,0 -124.29067,40.70203,0 -124.28963,40.70300,0 -124.28233,40.70990,0 -124.28082,40.71133,0 -124.27400,40.71710,0 -124.27113,40.71967,0 -124.26567,40.72372,0 -124.26047,40.72800,0 -124.25733,40.73033,0 -124.24963,40.73633,0 -124.24900,40.73676,0 </coordinates>
        </LineString>
      </MultiGeometry>
    </Placemark>
    <Placemark>
      <name>0.1</name>
      <styleUrl>#style_pgm</styleUrl>
      <visibility>0</visibility>
      <Point>
        <altitudeMode>clampToGround</altitudeMode>
        <coordinates>-124.24900,40.73676,0</coordinates>
      </Point>
    </Placemark>
    <Placemark>
      <name>0.1</name>
      <styleUrl>#style_pgm</styleUrl>
      <visibility>0</visibility>
      <Point>
        <altitudeMode>clampToGround</altitudeMode>
        <coordinates>-124.18679,40.41133,0</coordinates>
      </Point>
    </Placemark>
    <Placemark>
      <name>0.1</name>
      <styleUrl>#style_pgm</styleUrl>
      <visibility>0</visibility>
      <Point>
        <altitudeMode>clampToGround</altitudeMode>
        <coordinates>-124.43959,40.33633,0</coordinates>
      </Point>
    </Placemark>
    <Placemark>
      <name>pgv 0.15 cm/s Contour</name>
      <styleUrl>#style_pgm</styleUrl>
      <visibility>0</visibility>
      <Snippet maxLines="0">
      </Snippet>
      <open>0</open>
      <MultiGeometry>
        <LineString>
          <gx:drawOrder>5</gx:drawOrder>
          <extrude>0</extrude>
          <tessellate>1</tessellate>
          <altitudeMode>clampToGround</altitudeMode>
          <coordinates>-124.27400,40.68672,0 -124.27292,40.68633,0 -124.26567,40.68367,0 -124.25750,40.67800,0 -124.25733,40.67788,0 -124.24900,40.67152,0 -124.24614,40.66967,0 -124.24067,40.66685,0 -124.23233,40.66497,0 -124.22400,40.66585,0 -124.21690,40.66967,0 -124.21683,40.67800,0 -124.21683,40.68633,0 -124.21567,40.68820,0 -124.20733,40.68690,0 -124.20682,40.68633,0 -124.20136,40.67800,0 -124.19900,40.67304,0 -124.19829,40.66967,0 -124.19816,40.66133,0 -124.19774,40.65300,0 -124.19691,40.64467,0 -124.19692,40.63633,0 -124.19502,40.62800,0 -124.19067,40.62276,0 -124.18814,40.61967,0 -124.18233,40.61541,0 -124.17726,40.61133,0 -124.17400,40.60936,0 -124.16567,40.60431,0 -124.16363,40.60300,0 -124.15733,40.59935,0 -124.15048,40.59467,0 -124.14900,40.59334,0 -124.14142,40.58633,0 -124.14067,40.58264,0 -124.13996,40.57800,0 -124.14067,40.57577,0 -124.14205,40.56967,0 -124.14553,40.56133,0 -124.14900,40.55545,0 -124.15143,40.55300,0 -124.15733,40.54958,0 -124.16567,40.54934,0 -124.17400,40.55044,0 -124.18233,40.55182,0 -124.18909,40.55300,0 -124.19067,40.55330,0 -124.19900,40.55489,0 -124.20733,40.55666,0 -124.21567,40.55817,0 -124.22400,40.55897,0 -124.23233,40.55935,0 -124.24067,40.55914,0 -124.24900,40.55886,0 -124.25733,40.56040,0 -124.25920,40.56133,0 -124.26567,40.56327,0 -124.27400,40.56529,0 -124.28233,40.56569,0 -124.29067,40.56581,0 -124.29900,40.56755,0 -124.30476,40.56967,0 -124.30733,40.57040,0 -124.31567,40.57265,0 -124.32400,40.57413,0 -124.33233,40.57510,0 -124.33780,40.57800,0 -124.34067,40.58210,0 -124.34143,40.58633,0 -124.34067,40.59219,0 -124.34033,40.59467,0 -124.33791,40.60300,0 -124.33566,40.61133,0 -124.33253,40.61967,0 -124.33233,40.62007,0 -124.32837,40.62800,0 -124.32400,40.63576,0 -124.32363,40.63633,0 -124.31861,40.64467,0 -124.31567,40.64892,0 -124.31232,40.65300,0 -124.30733,40.65880,0 -124.30503,40.66133,0 -124.29932,40.66967,0 -124.29900,40.67012,0 -124.29223,40.67800,0 -124.29067,40.67960,0 -124.28233,40.68544,0 -124.27623,40.68633,0 -124.27400,40.68672,0 </coordinates>
        </LineString>
      </MultiGeometry>
    </Placemark>
    <Placemark>
      <name>0.15</name>
      <styleUrl>#style_pgm</styleUrl>
      <visibility>0</visibility>
      <Point>
        <altitudeMode>clampToGround</altitudeMode>
        <coordinates>-124.27400,40.68672,0</coordinates>
      </Point>
    </Placemark>
    <Placemark>
      <name>0.15</name>
      <styleUrl>#style_pgm</styleUrl>
      <visibility>0</visibility>
      <Point>
        <altitudeMode>clampToGround</altitudeMode>
        <coordinates>-124.18233,40.55182,0</coordinates>
      </Point>
    </Placemark>
    <Placemark>
      <name>pgv 0.15 cm/s Contour</name>
      <styleUrl>#style_pgm</styleUrl>
      <visibility>0</visibility>
      <Snippet maxLines="0">
      </Snippet>
      <open>0</open>
      <MultiGeometry>
        <LineString>
          <gx:drawOrder>5</gx:drawOrder>
          <extrude>0</extrude>
          <tessellate>1</tessellate>
          <altitudeMode>clampToGround</altitudeMode>
          <coordinates>-124.35733,40.50370,0 -124.34900,40.50439,0 -124.34067,40.50454,0 -124.33233,40.50301,0 -124.33232,40.50300,0 -124.32400,40.50002,0 -124.31753,40.49467,0 -124.31567,40.49323,0 -124.30904,40.48633,0 -124.30733,40.48453,0 -124.29900,40.47849,0 -124.29720,40.47800,0 -124.29067,40.47567,0 -124.28233,40.47423,0 -124.27400,40.47219,0 -124.26857,40.46967,0 -124.26567,40.46790,0 -124.25871,40.46133,0 -124.25733,40.46008,0 -124.25124,40.45300,0 -124.24900,40.45095,0 -124.24339,40.44467,0 -124.24067,40.44185,0 -124.23766,40.43633,0 -124.23452,40.42800,0 -124.23233,40.42377,0 -124.23056,40.41967,0 -124.22480,40.41133,0 -124.22400,40.41024,0 -124.21781,40.40300,0 -124.21567,40.40042,0 -124.20967,40.39467,0 -124.20733,40.39236,0 -124.19991,40.38633,0 -124.19900,40.38554,0 -124.19067,40.37823,0 -124.19043,40.37800,0 -124.18333,40.36967,0 -124.18233,40.36807,0 -124.17888,40.36133,0 -124.17671,40.35300,0 -124.17660,40.34467,0 -124.17790,40.33633,0 -124.17949,40.32800,0 -124.18040,40.31967,0 -124.18043,40.31133,0 -124.18064,40.30300,0 -124.18191,40.29467,0 -124.18233,40.29333,0 -124.18492,40.28633,0 -124.18887,40.27800,0 -124.19067,40.27506,0 -124.19416,40.26967,0 -124.19900,40.26341,0 -124.20063,40.26133,0 -124.20733,40.25461,0 -124.20894,40.25300,0 -124.21567,40.24780,0 -124.21970,40.24467,0 -124.22400,40.24199,0 -124.23233,40.23647,0 -124.23251,40.23633,0 -124.24067,40.23107,0 -124.24497,40.22800,0 -124.24900,40.22554,0 -124.25733,40.22099,0 -124.26023,40.21967,0 -124.26567,40.21742,0 -124.27400,40.21494,0 -124.28233,40.21344,0 -124.29067,40.21284,0 -124.29900,40.21312,0 -124.30733,40.21409,0 -124.31567,40.21545,0 -124.32400,40.21738,0 -124.33155,40.21967,0 -124.33233,40.21989,0 -124.34067,40.22234,0 -124.34900,40.22532,0 -124.35501,40.22800,0 -124.35733,40.22905,0 -124.36567,40.23320,0 -124.37117,40.23633,0 -124.37400,40.23805,0 -124.38233,40.24363,0 -124.38376,40.24467,0 -124.39067,40.25025,0 -124.39380,40.25300,0 -124.39900,40.25820,0 -124.40193,40.26133,0 -124.40733,40.26813,0 -124.40850,40.26967,0 -124.41370,40.27800,0 -124.41567,40.28195,0 -124.41779,40.28633,0 -124.42078,40.29467,0 -124.42281,40.30300,0 -124.42395,40.31133,0 -124.42400,40.31349,0 -124.42415,40.31967,0 -124.42400,40.32145,0 -124.42342,40.32800,0 -124.42173,40.33633,0 -124.41918,40.34467,0 -124.41621,40.35300,0 -124.41567,40.35498,0 -124.41388,40.36133,0 -124.41355,40.36967,0 -124.41553,40.37800,0 -124.41567,40.37829,0 -124.41947,40.38633,0 -124.42400,40.39303,0 -124.42518,40.39467,0 -124.43176,40.40300,0 -124.43233,40.40380,0 -124.43792,40.41133,0 -124.44067,40.41590,0 -124.44289,40.41967,0 -124.44632,40.42800,0 -124.44876,40.43633,0 -124.44900,40.43855,0 -124.44955,40.44467,0 -124.44900,40.45110,0 -124.44864,40.45300,0 -124.44360,40.46133,0 -124.44067,40.46357,0 -124.43233,40.46614,0 -124.42400,40.46786,0 -124.41734,40.46967,0 -124.41567,40.46995,0 -124.40733,40.47273,0 -124.39900,40.47659,0 -124.39622,40.47800,0 -124.39067,40.48162,0 -124.38300,40.48633,0 -124.38233,40.48715,0 -124.37538,40.49467,0 -124.37400,40.49677,0 -124.36567,40.50248,0 -124.36208,40.50300,0 -124.35733,40.50370,0 </coordinates>
        </LineString>
      </MultiGeometry>
    </Placemark>
    <Placemark>
      <name>0.15</name>
      <styleUrl>#style_pgm</styleUrl>
      <visibility>0</visibility>
      <Point>
        <altitudeMode>clampToGround</altitudeMode>
        <coordinates>-124.35733,40.50370,0</coordinates>
      </Point>
    </Placemark>
    <Placemark>
      <name>0.15</name>
      <styleUrl>#style_pgm</styleUrl>
      <visibility>0</visibility>
      <Point>
        <altitudeMode>clampToGround</altitudeMode>
        <coordinates>-124.29067,40.21284,0</coordinates>
      </Point>
    </Placemark>
    <Placemark>
      <name>pgv 0.2 cm/s Contour</name>
      <styleUrl>#style_pgm</styleUrl>
      <visibility>0</visibility>
      <Snippet maxLines="0">
      </Snippet>
      <open>0</open>
      <MultiGeometry>
        <LineString>
          <gx:drawOrder>5</gx:drawOrder>
          <extrude>0</extrude>
          <tessellate>1</tessellate>
          <altitudeMode>clampToGround</altitudeMode>
          <coordinates>-124.24900,40.64510,0 -124.24067,40.64522,0 -124.23658,40.64467,0 -124.23233,40.64363,0 -124.22547,40.63633,0 -124.22400,40.63056,0 -124.22360,40.62800,0 -124.22078,40.61967,0 -124.21567,40.61268,0 -124.21436,40.61133,0 -124.20733,40.60431,0 -124.20548,40.60300,0 -124.19900,40.59657,0 -124.19657,40.59467,0 -124.19084,40.58633,0 -124.19900,40.58093,0 -124.20733,40.58248,0 -124.21567,40.58397,0 -124.22400,40.58498,0 -124.23233,40.58583,0 -124.24067,40.58598,0 -124.24900,40.58521,0 -124.25733,40.58570,0 -124.25885,40.58633,0 -124.26567,40.59097,0 -124.27059,40.59467,0 -124.27400,40.59823,0 -124.28233,40.60259,0 -124.28503,40.60300,0 -124.29067,40.60458,0 -124.29900,40.60427,0 -124.30733,40.60502,0 -124.31567,40.61030,0 -124.31601,40.61133,0 -124.31567,40.61290,0 -124.31281,40.61967,0 -124.30739,40.62800,0 -124.30733,40.62807,0 -124.29900,40.63266,0 -124.29067,40.63268,0 -124.28233,40.63234,0 -124.27400,40.63508,0 -124.27174,40.63633,0 -124.26567,40.63908,0 -124.25733,40.64289,0 -124.25187,40.64467,0 -124.24900,40.64510,0 </coordinates>
        </LineString>
      </MultiGeometry>
    </Placemark>
    <Placemark>
      <name>pgv 0.2 cm/s Contour</name>
      <styleUrl>#style_pgm</styleUrl>
      <visibility>0</visibility>
      <Snippet maxLines="0">
      </Snippet>
      <open>0</open>
      <MultiGeometry>
        <LineString>
          <gx:drawOrder>5</gx:drawOrder>
          <extrude>0</extrude>
          <tessellate>1</tessellate>
          <altitudeMode>clampToGround</altitudeMode>
          <coordinates>-124.34067,40.47865,0 -124.33821,40.47800,0 -124.33233,40.47105,0 -124.33185,40.46967,0 -124.33233,40.46871,0 -124.34067,40.46260,0 -124.34568,40.46133,0 -124.34900,40.46056,0 -124.35733,40.45732,0 -124.36202,40.45300,0 -124.36567,40.44959,0 -124.36970,40.44467,0 -124.37400,40.43740,0 -124.37458,40.43633,0 -124.37400,40.43477,0 -124.36567,40.43165,0 -124.35733,40.43196,0 -124.34900,40.42987,0 -124.34199,40.42800,0 -124.34067,40.42770,0 -124.33233,40.42783,0 -124.32693,40.42800,0 -124.32400,40.42812,0 -124.32022,40.42800,0 -124.31567,40.42789,0 -124.30733,40.42725,0 -124.29900,40.42617,0 -124.29067,40.42456,0 -124.28233,40.42225,0 -124.27540,40.41967,0 -124.27400,40.41917,0 -124.26567,40.41518,0 -124.26015,40.41133,0 -124.25733,40.40854,0 -124.25348,40.40300,0 -124.25011,40.39467,0 -124.24900,40.39105,0 -124.24752,40.38633,0 -124.24440,40.37800,0 -124.24067,40.37125,0 -124.23965,40.36967,0 -124.23233,40.36134,0 -124.23233,40.36133,0 -124.22442,40.35300,0 -124.22400,40.35242,0 -124.21903,40.34467,0 -124.21665,40.33633,0 -124.21658,40.32800,0 -124.21821,40.31967,0 -124.22102,40.31133,0 -124.22400,40.30451,0 -124.22462,40.30300,0 -124.22827,40.29467,0 -124.23228,40.28633,0 -124.23233,40.28622,0 -124.23582,40.27800,0 -124.23948,40.26967,0 -124.24067,40.26694,0 -124.24279,40.26133,0 -124.24616,40.25300,0 -124.24900,40.24818,0 -124.25084,40.24467,0 -124.25733,40.23732,0 -124.25821,40.23633,0 -124.26567,40.23142,0 -124.27210,40.22800,0 -124.27400,40.22726,0 -124.28233,40.22502,0 -124.29067,40.22388,0 -124.29900,40.22371,0 -124.30733,40.22426,0 -124.31567,40.22544,0 -124.32400,40.22730,0 -124.32642,40.22800,0 -124.33233,40.22982,0 -124.34067,40.23253,0 -124.34900,40.23605,0 -124.34956,40.23633,0 -124.35733,40.24074,0 -124.36365,40.24467,0 -124.36567,40.24616,0 -124.37400,40.25267,0 -124.37441,40.25300,0 -124.38233,40.26112,0 -124.38255,40.26133,0 -124.38937,40.26967,0 -124.39067,40.27165,0 -124.39486,40.27800,0 -124.39900,40.28541,0 -124.39946,40.28633,0 -124.40219,40.29467,0 -124.40382,40.30300,0 -124.40424,40.31133,0 -124.40331,40.31967,0 -124.40104,40.32800,0 -124.39900,40.33325,0 -124.39699,40.33633,0 -124.39174,40.34467,0 -124.39067,40.34777,0 -124.38896,40.35300,0 -124.38934,40.36133,0 -124.39067,40.36598,0 -124.39141,40.36967,0 -124.39425,40.37800,0 -124.39844,40.38633,0 -124.39900,40.38726,0 -124.40320,40.39467,0 -124.40733,40.40244,0 -124.40765,40.40300,0 -124.41039,40.41133,0 -124.41090,40.41967,0 -124.40981,40.42800,0 -124.40733,40.43588,0 -124.40714,40.43633,0 -124.40040,40.44467,0 -124.39900,40.44617,0 -124.39177,40.45300,0 -124.39067,40.45448,0 -124.38233,40.46040,0 -124.37904,40.46133,0 -124.37400,40.46230,0 -124.36567,40.46510,0 -124.35733,40.46843,0 -124.35651,40.46967,0 -124.34900,40.47407,0 -124.34275,40.47800,0 -124.34067,40.47865,0 </coordinates>
        </LineString>
      </MultiGeometry>
    </Placemark>
    <Placemark>
      <name>0.2</name>
      <styleUrl>#style_pgm</styleUrl>
      <visibility>0</visibility>
      <Point>
        <altitudeMode>clampToGround</altitudeMode>
        <coordinates>-124.34067,40.47865,0</coordinates>
      </Point>
    </Placemark>
    <Placemark>
      <name>0.2</name>
      <styleUrl>#style_pgm</styleUrl>
      <visibility>0</visibility>
      <Point>
        <altitudeMode>clampToGround</altitudeMode>
        <coordinates>-124.25821,40.23633,0</coordinates>
      </Point>
    </Placemark>
    <Placemark>
      <name>pgv 0.25 cm/s Contour</name>
      <styleUrl>#style_pgm</styleUrl>
      <visibility>0</visibility>
      <Snippet maxLines="0">
      </Snippet>
      <open>0</open>
      <MultiGeometry>
        <LineString>
          <gx:drawOrder>5</gx:drawOrder>
          <extrude>0</extrude>
          <tessellate>1</tessellate>
          <altitudeMode>clampToGround</altitudeMode>
          <coordinates>-124.36567,40.40387,0 -124.36262,40.40300,0 -124.35733,40.40153,0 -124.34900,40.40006,0 -124.34067,40.39943,0 -124.33233,40.39884,0 -124.32400,40.39811,0 -124.31567,40.39719,0 -124.30733,40.39600,0 -124.30037,40.39467,0 -124.29900,40.39426,0 -124.29067,40.39031,0 -124.28603,40.38633,0 -124.28262,40.37800,0 -124.28233,40.37689,0 -124.28068,40.36967,0 -124.27539,40.36133,0 -124.27400,40.36033,0 -124.26602,40.35300,0 -124.26567,40.35274,0 -124.25733,40.34608,0 -124.25576,40.34467,0 -124.24900,40.33707,0 -124.24845,40.33633,0 -124.24513,40.32800,0 -124.24490,40.31967,0 -124.24678,40.31133,0 -124.24900,40.30550,0 -124.24997,40.30300,0 -124.25400,40.29467,0 -124.25733,40.28811,0 -124.25834,40.28633,0 -124.26282,40.27800,0 -124.26567,40.27221,0 -124.26711,40.26967,0 -124.27137,40.26133,0 -124.27400,40.25571,0 -124.27561,40.25300,0 -124.28146,40.24467,0 -124.28233,40.24401,0 -124.29067,40.24005,0 -124.29900,40.23828,0 -124.30733,40.23810,0 -124.31567,40.23903,0 -124.32400,40.24040,0 -124.33233,40.24187,0 -124.34067,40.24411,0 -124.34190,40.24467,0 -124.34900,40.24910,0 -124.35502,40.25300,0 -124.35733,40.25508,0 -124.36358,40.26133,0 -124.36567,40.26490,0 -124.36800,40.26967,0 -124.36938,40.27800,0 -124.36903,40.28633,0 -124.36750,40.29467,0 -124.36567,40.29921,0 -124.36433,40.30300,0 -124.35966,40.31133,0 -124.35733,40.31723,0 -124.35639,40.31967,0 -124.35648,40.32800,0 -124.35733,40.33396,0 -124.35770,40.33633,0 -124.35737,40.34467,0 -124.35754,40.35300,0 -124.36037,40.36133,0 -124.36526,40.36967,0 -124.36567,40.37029,0 -124.36906,40.37800,0 -124.37295,40.38633,0 -124.37400,40.38927,0 -124.37611,40.39467,0 -124.37400,40.40187,0 -124.37180,40.40300,0 -124.36567,40.40387,0 </coordinates>
        </LineString>
      </MultiGeometry>
    </Placemark>
    <Placemark>
      <name>0.25</name>
      <styleUrl>#style_pgm</styleUrl>
      <visibility>0</visibility>
      <Point>
        <altitudeMode>clampToGround</altitudeMode>
        <coordinates>-124.36567,40.40387,0</coordinates>
      </Point>
    </Placemark>
    <Placemark>
      <name>0.25</name>
      <styleUrl>#style_pgm</styleUrl>
      <visibility>0</visibility>
      <Point>
        <altitudeMode>clampToGround</altitudeMode>
        <coordinates>-124.28146,40.24467,0</coordinates>
      </Point>
    </Placemark>
    <Placemark>
      <name>pgv 0.3 cm/s Contour</name>
      <styleUrl>#style_pgm</styleUrl>
      <visibility>0</visibility>
      <Snippet maxLines="0">
      </Snippet>
      <open>0</open>
      <MultiGeometry>
        <LineString>
          <gx:drawOrder>5</gx:drawOrder>
          <extrude>0</extrude>
          <tessellate>1</tessellate>
          <altitudeMode>clampToGround</altitudeMode>
          <coordinates>-124.29067,40.34550,0 -124.28813,40.34467,0 -124.28233,40.34300,0 -124.27465,40.33633,0 -124.27400,40.33538,0 -124.26909,40.32800,0 -124.26777,40.31967,0 -124.26985,40.31133,0 -124.27400,40.30519,0 -124.27594,40.30300,0 -124.28233,40.29709,0 -124.28733,40.29467,0 -124.29067,40.29245,0 -124.29900,40.28989,0 -124.30733,40.28917,0 -124.31567,40.28849,0 -124.32400,40.28691,0 -124.32734,40.28633,0 -124.33233,40.28566,0 -124.33959,40.28633,0 -124.34067,40.28662,0 -124.34477,40.29467,0 -124.34067,40.29822,0 -124.33361,40.30300,0 -124.33233,40.30383,0 -124.32400,40.31081,0 -124.32357,40.31133,0 -124.31760,40.31967,0 -124.31567,40.32227,0 -124.31306,40.32800,0 -124.30733,40.33482,0 -124.30637,40.33633,0 -124.29900,40.34274,0 -124.29329,40.34467,0 -124.29067,40.34550,0 </coordinates>
        </LineString>
      </MultiGeometry>
    </Placemark>
  </Document>
</kml>

