<?xml version="1.0" encoding="UTF-8" standalone="yes"?>
<kml xmlns="http://www.opengis.net/kml/2.2" xmlns:gx="http://www.google.com/kml/ext/2.2" xmlns:kml="http://www.opengis.net/kml/2.2" xmlns:atom="http://www.w3.org/2005/Atom">
  <NetworkLinkControl>
    <minRefreshPeriod>300</minRefreshPeriod>
  </NetworkLinkControl>
  <Document>
    <Style id="style_pgm">
      <IconStyle>
        <Icon>
        </Icon>
      </IconStyle>
      <LineStyle>
        <colorMode>normal</colorMode>
        <color>ffffffff</color>
        <width>6</width>
      </LineStyle>
      <LabelStyle>
        <color>ffffffff</color>
        <scale>1</scale>
      </LabelStyle>
      <BalloonStyle>
        <text>&lt;b&gt;$[name]&lt;/b&gt;</text>
      </BalloonStyle>
    </Style>
    <name>PSA10 Contours</name>
    <visibility>0</visibility>
    <Placemark>
      <name>psa10 0.02 %g Contour</name>
      <styleUrl>#style_pgm</styleUrl>
      <visibility>0</visibility>
      <Snippet maxLines="0">
      </Snippet>
      <open>0</open>
      <MultiGeometry>
        <LineString>
          <gx:drawOrder>5</gx:drawOrder>
          <extrude>0</extrude>
          <tessellate>1</tessellate>
          <altitudeMode>clampToGround</altitudeMode>
          <coordinates>-152.37650,60.28660,0 -152.36765,60.31160,0 -152.36280,60.32013,0 -152.34892,60.33660,0 -152.33780,60.34581,0 -152.31280,60.35854,0 -152.30716,60.36160,0 -152.28780,60.37606,0 -152.27838,60.38660,0 -152.28640,60.41160,0 -152.28780,60.41270,0 -152.31141,60.43660,0 -152.31280,60.43952,0 -152.32043,60.46160,0 -152.31821,60.48660,0 -152.31280,60.50580,0 -152.31110,60.51160,0 -152.30313,60.53660,0 -152.29524,60.56160,0 -152.28904,60.58660,0 -152.28780,60.59144,0 -152.28059,60.61160,0 -152.26339,60.63660,0 -152.26280,60.63820,0 -152.25447,60.66160,0 -152.26280,60.67094,0 -152.27432,60.68660,0 -152.28780,60.70106,0 -152.29372,60.71160,0 -152.29755,60.73660,0 -152.29460,60.76160,0 -152.28780,60.77899,0 -152.28343,60.78660,0 -152.26280,60.80644,0 -152.25249,60.81160,0 -152.23780,60.82078,0 -152.22240,60.83660,0 -152.21280,60.85088,0 -152.20625,60.86160,0 -152.18780,60.87674,0 -152.16280,60.88477,0 -152.15188,60.88660,0 -152.13780,60.89286,0 -152.11867,60.91160,0 -152.11280,60.92043,0 -152.10313,60.93660,0 -152.09754,60.96160,0 -152.11280,60.97724,0 -152.13124,60.98660,0 -152.13780,60.98827,0 -152.16280,60.99497,0 -152.18780,61.00242,0 -152.21280,61.00990,0 -152.21869,61.01160,0 -152.23780,61.02360,0 -152.25392,61.03660,0 -152.23780,61.05040,0 -152.23209,61.06160,0 -152.21988,61.08660,0 -152.22971,61.11160,0 -152.23780,61.12478,0 -152.24634,61.13660,0 -152.26280,61.14725,0 -152.28780,61.14936,0 -152.31280,61.14842,0 -152.33780,61.15669,0 -152.34772,61.16160,0 -152.36280,61.16624,0 -152.38780,61.16867,0 -152.41280,61.16744,0 -152.43780,61.16415,0 -152.46079,61.16160,0 -152.46280,61.16110,0 -152.48780,61.15986,0 -152.51280,61.16109,0 -152.51658,61.16160,0 -152.53780,61.16297,0 -152.56280,61.16719,0 -152.58780,61.17700,0 -152.60325,61.18660,0 -152.61280,61.19966,0 -152.62291,61.21160,0 -152.61380,61.23660,0 -152.61280,61.23789,0 -152.59557,61.26160,0 -152.58780,61.27990,0 -152.58463,61.28660,0 -152.58257,61.31160,0 -152.57476,61.33660,0 -152.56280,61.35430,0 -152.55802,61.36160,0 -152.56280,61.37267,0 -152.57444,61.38660,0 -152.58780,61.39218,0 -152.61280,61.40062,0 -152.62918,61.41160,0 -152.63780,61.41638,0 -152.66280,61.42442,0 -152.67300,61.41160,0 -152.68780,61.40032,0 -152.71280,61.39624,0 -152.73780,61.40426,0 -152.74766,61.41160,0 -152.76280,61.42866,0 -152.76935,61.43660,0 -152.77496,61.46160,0 -152.76280,61.48493,0 -152.75937,61.48660,0 -152.73948,61.51160,0 -152.76051,61.53660,0 -152.76280,61.53814,0 -152.78780,61.55630,0 -152.79195,61.56160,0 -152.80700,61.58660,0 -152.80919,61.61160,0 -152.80554,61.63660,0 -152.81280,61.65487,0 -152.81651,61.66160,0 -152.83699,61.68660,0 -152.83780,61.69145,0 -152.84026,61.71160,0 -152.83780,61.72632,0 -152.83603,61.73660,0 -152.82981,61.76160,0 -152.82788,61.78660,0 -152.82781,61.81160,0 -152.82720,61.83660,0 -152.83291,61.86160,0 -152.83780,61.87595,0 -152.84054,61.88660,0 -152.84126,61.91160,0 -152.83780,61.92587,0 -152.83519,61.93660,0 -152.82803,61.96160,0 -152.82027,61.98660,0 -152.81280,62.00161,0 -152.80685,62.01160,0 -152.78887,62.03660,0 -152.78811,62.06160,0 -152.80369,62.08660,0 -152.81280,62.09768,0 -152.82437,62.11160,0 -152.83780,62.12220,0 -152.86280,62.13420,0 -152.86767,62.13660,0 -152.88780,62.14804,0 -152.90490,62.16160,0 -152.89519,62.18660,0 -152.88780,62.18994,0 -152.86280,62.19442,0 -152.83780,62.19385,0 -152.81280,62.19268,0 -152.78780,62.19295,0 -152.76280,62.19561,0 -152.73780,62.20115,0 -152.71460,62.21160,0 -152.71280,62.21336,0 -152.68780,62.23441,0 -152.66979,62.23660,0 -152.66280,62.23723,0 -152.63780,62.23699,0 -152.61280,62.26041,0 -152.61208,62.26160,0 -152.59388,62.28660,0 -152.58780,62.29100,0 -152.56280,62.29861,0 -152.53780,62.30293,0 -152.51952,62.31160,0 -152.51280,62.31577,0 -152.48780,62.33270,0 -152.48080,62.33660,0 -152.46280,62.34800,0 -152.44579,62.36160,0 -152.43780,62.36948,0 -152.42386,62.38660,0 -152.41280,62.39944,0 -152.40164,62.41160,0 -152.38780,62.42947,0 -152.38386,62.43660,0 -152.37395,62.46160,0 -152.36280,62.47083,0 -152.33780,62.47977,0 -152.31280,62.48096,0 -152.28780,62.48354,0 -152.27136,62.48660,0 -152.26280,62.48857,0 -152.23780,62.49529,0 -152.21280,62.50446,0 -152.19867,62.51160,0 -152.18780,62.51740,0 -152.16280,62.53130,0 -152.15024,62.53660,0 -152.13780,62.54356,0 -152.11280,62.55076,0 -152.08780,62.55667,0 -152.07824,62.56160,0 -152.06615,62.58660,0 -152.06993,62.61160,0 -152.06947,62.63660,0 -152.06280,62.64876,0 -152.03780,62.64316,0 -152.01483,62.63660,0 -152.01280,62.63624,0 -151.98780,62.63311,0 -151.96280,62.63475,0 -151.95615,62.63660,0 -151.93780,62.64430,0 -151.91280,62.65602,0 -151.90113,62.66160,0 -151.88780,62.66964,0 -151.86280,62.68233,0 -151.85385,62.68660,0 -151.83780,62.69472,0 -151.81280,62.70428,0 -151.79177,62.71160,0 -151.78780,62.71332,0 -151.76280,62.72417,0 -151.73780,62.73582,0 -151.73660,62.73660,0 -151.71280,62.75994,0 -151.71087,62.76160,0 -151.69167,62.78660,0 -151.68780,62.79057,0 -151.67191,62.78660,0 -151.66280,62.78458,0 -151.63815,62.76160,0 -151.63780,62.76127,0 -151.61280,62.75534,0 -151.60097,62.76160,0 -151.58780,62.76777,0 -151.56280,62.78107,0 -151.55061,62.78660,0 -151.53780,62.79337,0 -151.51280,62.80722,0 -151.50788,62.81160,0 -151.48780,62.83330,0 -151.48329,62.83660,0 -151.46280,62.84774,0 -151.43780,62.84530,0 -151.41967,62.83660,0 -151.41280,62.83153,0 -151.39185,62.81160,0 -151.38780,62.79803,0 -151.36280,62.79928,0 -151.35009,62.81160,0 -151.33780,62.82046,0 -151.31881,62.83660,0 -151.31280,62.84118,0 -151.28780,62.85914,0 -151.28319,62.86160,0 -151.26280,62.88080,0 -151.25257,62.88660,0 -151.25001,62.91160,0 -151.26280,62.93123,0 -151.26372,62.93660,0 -151.26280,62.93815,0 -151.23780,62.95212,0 -151.22992,62.93660,0 -151.23181,62.91160,0 -151.22089,62.88660,0 -151.21280,62.87516,0 -151.20817,62.86160,0 -151.20904,62.83660,0 -151.21280,62.81353,0 -151.21299,62.81160,0 -151.21280,62.80946,0 -151.20563,62.78660,0 -151.18780,62.77362,0 -151.16280,62.76984,0 -151.13780,62.76980,0 -151.11280,62.77455,0 -151.08780,62.78057,0 -151.06280,62.78522,0 -151.05535,62.78660,0 -151.03780,62.78994,0 -151.01280,62.79279,0 -150.98780,62.78993,0 -150.96921,62.78660,0 -150.96280,62.78545,0 -150.95326,62.78660,0 -150.93780,62.78939,0 -150.92699,62.81160,0 -150.91782,62.83660,0 -150.91280,62.84454,0 -150.90356,62.86160,0 -150.88780,62.87635,0 -150.86280,62.87666,0 -150.83924,62.86160,0 -150.83780,62.86085,0 -150.81280,62.84629,0 -150.79498,62.83660,0 -150.78780,62.83321,0 -150.76280,62.82465,0 -150.73780,62.82573,0 -150.72885,62.83660,0 -150.71280,62.85072,0 -150.70252,62.86160,0 -150.68780,62.87489,0 -150.66558,62.88660,0 -150.66280,62.88833,0 -150.63780,62.89443,0 -150.61280,62.89209,0 -150.60091,62.88660,0 -150.58780,62.87753,0 -150.57387,62.86160,0 -150.56665,62.83660,0 -150.56280,62.82181,0 -150.55313,62.81160,0 -150.53780,62.80546,0 -150.51280,62.80278,0 -150.48780,62.80099,0 -150.46280,62.80051,0 -150.43780,62.80116,0 -150.41280,62.80229,0 -150.38780,62.80556,0 -150.36280,62.80593,0 -150.33780,62.80710,0 -150.32316,62.81160,0 -150.31280,62.81370,0 -150.28780,62.81225,0 -150.28043,62.81160,0 -150.26280,62.81080,0 -150.25626,62.81160,0 -150.23780,62.81481,0 -150.21280,62.82121,0 -150.18780,62.82797,0 -150.16280,62.83569,0 -150.16062,62.83660,0 -150.13780,62.84826,0 -150.11280,62.86023,0 -150.11041,62.86160,0 -150.08780,62.87609,0 -150.06280,62.88588,0 -150.06020,62.88660,0 -150.03780,62.89450,0 -150.01280,62.90789,0 -150.00774,62.91160,0 -149.98780,62.93306,0 -149.98120,62.93660,0 -149.96280,62.94894,0 -149.93780,62.94706,0 -149.91280,62.94524,0 -149.88780,62.94710,0 -149.86280,62.95096,0 -149.83780,62.95613,0 -149.81698,62.96160,0 -149.81280,62.96268,0 -149.78780,62.96857,0 -149.76280,62.97040,0 -149.73780,62.96811,0 -149.71280,62.96424,0 -149.70235,62.96160,0 -149.69476,62.93660,0 -149.71280,62.92523,0 -149.72673,62.91160,0 -149.73780,62.90581,0 -149.76280,62.89181,0 -149.77156,62.88660,0 -149.78780,62.87568,0 -149.81114,62.86160,0 -149.81280,62.85986,0 -149.83780,62.84411,0 -149.85442,62.83660,0 -149.86280,62.81415,0 -149.86377,62.81160,0 -149.86280,62.81108,0 -149.83780,62.80905,0 -149.81280,62.80929,0 -149.78780,62.80801,0 -149.76280,62.80570,0 -149.73780,62.80373,0 -149.71280,62.80490,0 -149.68780,62.80731,0 -149.66280,62.80102,0 -149.65412,62.78660,0 -149.65550,62.76160,0 -149.63894,62.73660,0 -149.63780,62.73584,0 -149.61280,62.72839,0 -149.58780,62.72845,0 -149.56280,62.73646,0 -149.56262,62.73660,0 -149.53780,62.75187,0 -149.51280,62.76072,0 -149.50807,62.76160,0 -149.48780,62.76464,0 -149.46280,62.77188,0 -149.43780,62.77985,0 -149.41280,62.78026,0 -149.38780,62.76877,0 -149.37603,62.76160,0 -149.36280,62.75318,0 -149.33780,62.74537,0 -149.31280,62.74214,0 -149.28780,62.73728,0 -149.28523,62.73660,0 -149.26280,62.72832,0 -149.23780,62.72799,0 -149.21280,62.73197,0 -149.18780,62.73485,0 -149.16280,62.72738,0 -149.13780,62.71773,0 -149.11280,62.71433,0 -149.08780,62.71510,0 -149.06399,62.71160,0 -149.06280,62.70943,0 -149.05369,62.68660,0 -149.03780,62.67536,0 -149.01280,62.67061,0 -148.98780,62.67235,0 -148.96471,62.68660,0 -148.96280,62.68701,0 -148.93780,62.68787,0 -148.93389,62.68660,0 -148.93630,62.66160,0 -148.93780,62.66083,0 -148.96280,62.65519,0 -148.98780,62.65234,0 -149.00748,62.63660,0 -149.01280,62.63424,0 -149.03780,62.61507,0 -149.04110,62.61160,0 -149.06280,62.59642,0 -149.08032,62.58660,0 -149.08780,62.58081,0 -149.11280,62.56549,0 -149.11645,62.56160,0 -149.11460,62.53660,0 -149.11280,62.53260,0 -149.08780,62.51671,0 -149.06280,62.51407,0 -149.04858,62.51160,0 -149.03780,62.50934,0 -149.01280,62.49097,0 -149.00870,62.48660,0 -148.99728,62.46160,0 -148.98780,62.45182,0 -148.96855,62.43660,0 -148.96280,62.43226,0 -148.94263,62.41160,0 -148.93780,62.40434,0 -148.92382,62.38660,0 -148.91280,62.37950,0 -148.88780,62.36820,0 -148.87063,62.36160,0 -148.86280,62.35929,0 -148.83780,62.34827,0 -148.82353,62.33660,0 -148.81280,62.31364,0 -148.81154,62.31160,0 -148.79980,62.28660,0 -148.78780,62.27090,0 -148.77910,62.26160,0 -148.76280,62.24170,0 -148.75584,62.23660,0 -148.73780,62.22471,0 -148.71280,62.22312,0 -148.68780,62.21281,0 -148.68686,62.21160,0 -148.66745,62.18660,0 -148.66280,62.18222,0 -148.64074,62.16160,0 -148.63780,62.15864,0 -148.62095,62.13660,0 -148.61439,62.11160,0 -148.61280,62.10892,0 -148.58897,62.08660,0 -148.58780,62.08624,0 -148.56280,62.06627,0 -148.56008,62.06160,0 -148.55447,62.03660,0 -148.56280,62.01237,0 -148.56308,62.01160,0 -148.57621,61.98660,0 -148.58269,61.96160,0 -148.57659,61.93660,0 -148.56280,61.92280,0 -148.53780,61.91929,0 -148.51280,61.92085,0 -148.48780,61.92181,0 -148.46280,61.92332,0 -148.43780,61.92525,0 -148.41280,61.92626,0 -148.38780,61.92571,0 -148.36280,61.92440,0 -148.33780,61.92299,0 -148.31280,61.91989,0 -148.28780,61.91389,0 -148.27916,61.91160,0 -148.26280,61.90802,0 -148.23780,61.90252,0 -148.21280,61.89404,0 -148.19678,61.88660,0 -148.18780,61.88201,0 -148.16280,61.86549,0 -148.15833,61.86160,0 -148.13780,61.83889,0 -148.13596,61.83660,0 -148.12315,61.81160,0 -148.12802,61.78660,0 -148.13780,61.77695,0 -148.15885,61.76160,0 -148.16280,61.75911,0 -148.18780,61.74521,0 -148.20185,61.73660,0 -148.21280,61.73092,0 -148.23780,61.71947,0 -148.25776,61.71160,0 -148.26280,61.70990,0 -148.28780,61.70325,0 -148.31280,61.69790,0 -148.33780,61.69419,0 -148.36280,61.69177,0 -148.38780,61.69005,0 -148.41280,61.68925,0 -148.43780,61.68940,0 -148.46280,61.68921,0 -148.48780,61.68963,0 -148.51280,61.69327,0 -148.53780,61.69737,0 -148.56280,61.69431,0 -148.57676,61.68660,0 -148.57762,61.66160,0 -148.57751,61.63660,0 -148.58768,61.61160,0 -148.58780,61.61132,0 -148.60175,61.58660,0 -148.61280,61.56281,0 -148.61347,61.56160,0 -148.62605,61.53660,0 -148.61734,61.51160,0 -148.61280,61.51001,0 -148.58780,61.49498,0 -148.58030,61.48660,0 -148.56280,61.47761,0 -148.54413,61.46160,0 -148.53780,61.45641,0 -148.51360,61.43660,0 -148.51280,61.43594,0 -148.48780,61.42522,0 -148.46280,61.41892,0 -148.43780,61.41271,0 -148.43387,61.41160,0 -148.41280,61.40453,0 -148.38780,61.39363,0 -148.37858,61.38660,0 -148.38780,61.37063,0 -148.39743,61.36160,0 -148.41280,61.35761,0 -148.43780,61.35351,0 -148.46280,61.33882,0 -148.46400,61.33660,0 -148.47047,61.31160,0 -148.47627,61.28660,0 -148.48780,61.26539,0 -148.49045,61.26160,0 -148.51280,61.24223,0 -148.53780,61.23829,0 -148.56280,61.23665,0 -148.56316,61.23660,0 -148.58780,61.23076,0 -148.61280,61.22307,0 -148.63296,61.21160,0 -148.63780,61.20713,0 -148.66280,61.18885,0 -148.68780,61.18850,0 -148.69600,61.21160,0 -148.69021,61.23660,0 -148.68780,61.23964,0 -148.66973,61.26160,0 -148.66280,61.26809,0 -148.64809,61.28660,0 -148.63780,61.29806,0 -148.62991,61.31160,0 -148.61280,61.33340,0 -148.61067,61.33660,0 -148.60590,61.36160,0 -148.61280,61.36951,0 -148.63780,61.38263,0 -148.65327,61.38660,0 -148.66280,61.38784,0 -148.68780,61.38956,0 -148.71280,61.38956,0 -148.73484,61.38660,0 -148.73780,61.38516,0 -148.76280,61.37030,0 -148.78009,61.36160,0 -148.78780,61.35565,0 -148.81050,61.33660,0 -148.81280,61.33475,0 -148.83780,61.31542,0 -148.84372,61.31160,0 -148.86280,61.29633,0 -148.87363,61.28660,0 -148.88780,61.27024,0 -148.89362,61.26160,0 -148.90206,61.23660,0 -148.90051,61.21160,0 -148.90079,61.18660,0 -148.90976,61.16160,0 -148.91280,61.15789,0 -148.93780,61.13830,0 -148.95591,61.13660,0 -148.96280,61.13587,0 -148.96592,61.13660,0 -148.98780,61.14299,0 -149.01280,61.15480,0 -149.03780,61.15641,0 -149.06280,61.14667,0 -149.08105,61.13660,0 -149.08780,61.13264,0 -149.11280,61.12007,0 -149.13126,61.11160,0 -149.13780,61.10825,0 -149.16280,61.09259,0 -149.17155,61.08660,0 -149.18780,61.07720,0 -149.21280,61.06503,0 -149.22019,61.06160,0 -149.23780,61.05385,0 -149.26280,61.04350,0 -149.27783,61.03660,0 -149.28780,61.03111,0 -149.31280,61.01792,0 -149.32864,61.01160,0 -149.33780,61.00237,0 -149.34511,60.98660,0 -149.33780,60.98221,0 -149.31280,60.97402,0 -149.28780,60.97557,0 -149.26280,60.97742,0 -149.23780,60.97751,0 -149.21280,60.97823,0 -149.18780,60.97915,0 -149.16280,60.97765,0 -149.13780,60.96938,0 -149.12848,60.96160,0 -149.11280,60.94797,0 -149.10354,60.93660,0 -149.08780,60.92464,0 -149.07128,60.91160,0 -149.06280,60.90243,0 -149.04948,60.88660,0 -149.03780,60.86260,0 -149.01280,60.86405,0 -148.98780,60.86519,0 -148.97124,60.86160,0 -148.96280,60.85935,0 -148.94671,60.83660,0 -148.94926,60.81160,0 -148.96280,60.79246,0 -148.97108,60.78660,0 -148.98780,60.77775,0 -149.01246,60.78660,0 -149.01280,60.78682,0 -149.02680,60.81160,0 -149.03479,60.83660,0 -149.03780,60.85896,0 -149.06280,60.85872,0 -149.08780,60.85949,0 -149.09810,60.86160,0 -149.11280,60.86456,0 -149.13780,60.86665,0 -149.16280,60.86612,0 -149.18780,60.86663,0 -149.21280,60.86801,0 -149.23780,60.86966,0 -149.26280,60.87136,0 -149.28780,60.87267,0 -149.31280,60.87339,0 -149.33780,60.87283,0 -149.36280,60.87072,0 -149.38780,60.86794,0 -149.41280,60.86566,0 -149.43780,60.86590,0 -149.46280,60.86983,0 -149.48780,60.87563,0 -149.51280,60.88092,0 -149.53780,60.88481,0 -149.56280,60.88380,0 -149.58780,60.87470,0 -149.61280,60.86597,0 -149.63780,60.86296,0 -149.66280,60.86609,0 -149.68780,60.87373,0 -149.71280,60.87900,0 -149.73780,60.87550,0 -149.76280,60.87002,0 -149.78780,60.86686,0 -149.80680,60.86160,0 -149.81280,60.86002,0 -149.83780,60.84645,0 -149.86064,60.83660,0 -149.86280,60.83587,0 -149.88780,60.83193,0 -149.91280,60.82710,0 -149.93780,60.81482,0 -149.94229,60.81160,0 -149.96280,60.79532,0 -149.97658,60.78660,0 -149.98780,60.77965,0 -150.01280,60.76441,0 -150.01683,60.76160,0 -150.03780,60.74129,0 -150.04155,60.73660,0 -150.05527,60.71160,0 -150.06280,60.70193,0 -150.07472,60.68660,0 -150.08780,60.67668,0 -150.11280,60.66425,0 -150.11832,60.66160,0 -150.13780,60.65354,0 -150.16280,60.64164,0 -150.17444,60.63660,0 -150.18780,60.63112,0 -150.21280,60.62386,0 -150.23780,60.61759,0 -150.25964,60.61160,0 -150.26280,60.61054,0 -150.28780,60.59984,0 -150.30987,60.58660,0 -150.31280,60.58414,0 -150.33780,60.56362,0 -150.34060,60.56160,0 -150.36280,60.54005,0 -150.36710,60.53660,0 -150.38780,60.51837,0 -150.39975,60.51160,0 -150.40657,60.48660,0 -150.38780,60.47412,0 -150.37533,60.46160,0 -150.36280,60.45178,0 -150.35036,60.43660,0 -150.34972,60.41160,0 -150.36280,60.40264,0 -150.38780,60.39535,0 -150.41280,60.39276,0 -150.43780,60.39195,0 -150.46280,60.39284,0 -150.48780,60.39673,0 -150.51280,60.40439,0 -150.53333,60.41160,0 -150.53780,60.41318,0 -150.56280,60.41714,0 -150.58780,60.41654,0 -150.61280,60.41201,0 -150.61454,60.41160,0 -150.63780,60.40434,0 -150.66280,60.39681,0 -150.68780,60.39089,0 -150.71280,60.38726,0 -150.72327,60.38660,0 -150.73780,60.38581,0 -150.76280,60.38412,0 -150.78780,60.38158,0 -150.81280,60.37781,0 -150.83780,60.37336,0 -150.86280,60.37584,0 -150.88669,60.38660,0 -150.88780,60.38707,0 -150.91280,60.39628,0 -150.93780,60.39777,0 -150.96280,60.39176,0 -150.97922,60.38660,0 -150.98780,60.38488,0 -151.01280,60.38269,0 -151.03780,60.38155,0 -151.06280,60.36896,0 -151.07045,60.36160,0 -151.08780,60.34353,0 -151.11269,60.33660,0 -151.11280,60.33654,0 -151.13780,60.32691,0 -151.16280,60.32449,0 -151.18780,60.33243,0 -151.19390,60.33660,0 -151.21280,60.34435,0 -151.23175,60.36160,0 -151.23780,60.36819,0 -151.26280,60.37634,0 -151.28780,60.36187,0 -151.28815,60.36160,0 -151.31280,60.34167,0 -151.32376,60.33660,0 -151.33780,60.32934,0 -151.36280,60.31318,0 -151.36378,60.31160,0 -151.37176,60.28660,0 </coordinates>
        </LineString>
      </MultiGeometry>
    </Placemark>
    <Placemark>
      <name>0.02</name>
      <styleUrl>#style_pgm</styleUrl>
      <visibility>0</visibility>
      <Point>
        <altitudeMode>clampToGround</altitudeMode>
        <coordinates>-149.28780,62.73728,0</coordinates>
      </Point>
    </Placemark>
    <Placemark>
      <name>psa10 0.02 %g Contour</name>
      <styleUrl>#style_pgm</styleUrl>
      <visibility>0</visibility>
      <Snippet maxLines="0">
      </Snippet>
      <open>0</open>
      <MultiGeometry>
        <LineString>
          <gx:drawOrder>5</gx:drawOrder>
          <extrude>0</extrude>
          <tessellate>1</tessellate>
          <altitudeMode>clampToGround</altitudeMode>
          <coordinates>-147.68780,60.57091,0 -147.71280,60.56396,0 -147.71747,60.56160,0 -147.73780,60.55561,0 -147.76280,60.54387,0 -147.77813,60.53660,0 -147.78780,60.53414,0 -147.81280,60.52364,0 -147.82882,60.51160,0 -147.83780,60.50483,0 -147.85908,60.48660,0 -147.86280,60.48287,0 -147.88780,60.47761,0 -147.89264,60.48660,0 -147.91280,60.51130,0 -147.91294,60.51160,0 -147.93780,60.53640,0 -147.93804,60.53660,0 -147.96280,60.55174,0 -147.98678,60.56160,0 -147.98780,60.56213,0 -148.01280,60.57670,0 -148.03195,60.58660,0 -148.03780,60.59022,0 -148.06280,60.60648,0 -148.07085,60.61160,0 -148.08340,60.63660,0 -148.07677,60.66160,0 -148.07375,60.68660,0 -148.07762,60.71160,0 -148.08533,60.73660,0 -148.07863,60.76160,0 -148.06280,60.76743,0 -148.03780,60.76655,0 -148.01406,60.76160,0 -148.01280,60.76015,0 -148.00613,60.73660,0 -148.01256,60.71160,0 -148.00878,60.68660,0 -147.99047,60.66160,0 -147.98780,60.65880,0 -147.96280,60.64080,0 -147.94712,60.63660,0 -147.93780,60.63267,0 -147.91280,60.63315,0 -147.89797,60.63660,0 -147.88780,60.63802,0 -147.86280,60.64400,0 -147.83842,60.66160,0 -147.83780,60.66261,0 -147.82483,60.68660,0 -147.83417,60.71160,0 -147.83780,60.71518,0 -147.85861,60.73660,0 -147.86280,60.74031,0 -147.88780,60.75663,0 -147.89997,60.76160,0 -147.90592,60.78660,0 -147.88780,60.79353,0 -147.86280,60.79460,0 -147.83780,60.79136,0 -147.81280,60.78837,0 -147.79277,60.78660,0 -147.78780,60.78586,0 -147.76280,60.78502,0 -147.75034,60.78660,0 -147.73780,60.78852,0 -147.71296,60.81160,0 -147.71395,60.83660,0 -147.71280,60.83962,0 -147.68780,60.85648,0 </coordinates>
        </LineString>
      </MultiGeometry>
    </Placemark>
    <Placemark>
      <name>0.02</name>
      <styleUrl>#style_pgm</styleUrl>
      <visibility>0</visibility>
      <Point>
        <altitudeMode>clampToGround</altitudeMode>
        <coordinates>-148.01280,60.76015,0</coordinates>
      </Point>
    </Placemark>
    <Placemark>
      <name>psa10 0.02 %g Contour</name>
      <styleUrl>#style_pgm</styleUrl>
      <visibility>0</visibility>
      <Snippet maxLines="0">
      </Snippet>
      <open>0</open>
      <MultiGeometry>
        <LineString>
          <gx:drawOrder>5</gx:drawOrder>
          <extrude>0</extrude>
          <tessellate>1</tessellate>
          <altitudeMode>clampToGround</altitudeMode>
          <coordinates>-153.03780,62.14960,0 -153.01280,62.14839,0 -153.00475,62.13660,0 -153.01280,62.12821,0 -153.02806,62.11160,0 -153.03780,62.10539,0 -153.06280,62.09506,0 -153.07184,62.08660,0 -153.07811,62.06160,0 -153.08070,62.03660,0 -153.08211,62.01160,0 -153.08385,61.98660,0 -153.08780,61.97466,0 -153.09581,61.96160,0 -153.11280,61.94505,0 -153.13273,61.96160,0 -153.13780,61.98543,0 -153.13789,61.98660,0 -153.13780,61.99341,0 -153.13743,62.01160,0 -153.13433,62.03660,0 -153.12539,62.06160,0 -153.11280,62.08179,0 -153.10377,62.08660,0 -153.08780,62.10314,0 -153.07990,62.11160,0 -153.06280,62.13657,0 -153.06278,62.13660,0 -153.03780,62.14960,0 </coordinates>
        </LineString>
      </MultiGeometry>
    </Placemark>
    <Placemark>
      <name>psa10 0.02 %g Contour</name>
      <styleUrl>#style_pgm</styleUrl>
      <visibility>0</visibility>
      <Snippet maxLines="0">
      </Snippet>
      <open>0</open>
      <MultiGeometry>
        <LineString>
          <gx:drawOrder>5</gx:drawOrder>
          <extrude>0</extrude>
          <tessellate>1</tessellate>
          <altitudeMode>clampToGround</altitudeMode>
          <coordinates>-152.06280,61.37224,0 -152.03780,61.38107,0 -152.01280,61.38299,0 -151.98780,61.38147,0 -151.96280,61.37582,0 -151.93780,61.36644,0 -151.92723,61.36160,0 -151.91280,61.34780,0 -151.90041,61.33660,0 -151.88780,61.32630,0 -151.87003,61.31160,0 -151.86280,61.30532,0 -151.84881,61.28660,0 -151.84733,61.26160,0 -151.86280,61.23955,0 -151.86876,61.23660,0 -151.88780,61.23356,0 -151.89664,61.23660,0 -151.91280,61.24666,0 -151.92457,61.26160,0 -151.93780,61.27830,0 -151.94565,61.28660,0 -151.96280,61.30183,0 -151.98516,61.31160,0 -151.98780,61.31308,0 -152.01280,61.32792,0 -152.03298,61.33660,0 -152.03780,61.34130,0 -152.06280,61.35755,0 -152.07421,61.36160,0 -152.06280,61.37224,0 </coordinates>
        </LineString>
      </MultiGeometry>
    </Placemark>
    <Placemark>
      <name>psa10 0.02 %g Contour</name>
      <styleUrl>#style_pgm</styleUrl>
      <visibility>0</visibility>
      <Snippet maxLines="0">
      </Snippet>
      <open>0</open>
      <MultiGeometry>
        <LineString>
          <gx:drawOrder>5</gx:drawOrder>
          <extrude>0</extrude>
          <tessellate>1</tessellate>
          <altitudeMode>clampToGround</altitudeMode>
          <coordinates>-149.58780,61.23987,0 -149.56280,61.23669,0 -149.56266,61.23660,0 -149.53780,61.21306,0 -149.53680,61.21160,0 -149.52904,61.18660,0 -149.52763,61.16160,0 -149.52518,61.13660,0 -149.51989,61.11160,0 -149.51436,61.08660,0 -149.51280,61.06683,0 -149.51226,61.06160,0 -149.51280,61.06043,0 -149.52543,61.03660,0 -149.53780,61.03226,0 -149.56280,61.02495,0 -149.58780,61.02356,0 -149.61280,61.03052,0 -149.62406,61.03660,0 -149.63780,61.04971,0 -149.64789,61.06160,0 -149.66280,61.08353,0 -149.66456,61.08660,0 -149.66648,61.11160,0 -149.66836,61.13660,0 -149.67536,61.16160,0 -149.67145,61.18660,0 -149.66280,61.19462,0 -149.64252,61.21160,0 -149.63780,61.21434,0 -149.61280,61.22941,0 -149.59575,61.23660,0 -149.58780,61.23987,0 </coordinates>
        </LineString>
      </MultiGeometry>
    </Placemark>
    <Placemark>
      <name>psa10 0.02 %g Contour</name>
      <styleUrl>#style_pgm</styleUrl>
      <visibility>0</visibility>
      <Snippet maxLines="0">
      </Snippet>
      <open>0</open>
      <MultiGeometry>
        <LineString>
          <gx:drawOrder>5</gx:drawOrder>
          <extrude>0</extrude>
          <tessellate>1</tessellate>
          <altitudeMode>clampToGround</altitudeMode>
          <coordinates>-147.96280,61.09773,0 -147.93780,61.09883,0 -147.93463,61.08660,0 -147.93780,61.07751,0 -147.94319,61.06160,0 -147.95720,61.03660,0 -147.96280,61.02995,0 -147.97884,61.01160,0 -147.98780,61.00275,0 -148.00515,60.98660,0 -148.01280,60.98065,0 -148.03780,60.96278,0 -148.03895,60.96160,0 -148.06280,60.94266,0 -148.06902,60.93660,0 -148.08780,60.92025,0 -148.09699,60.91160,0 -148.11280,60.89415,0 -148.11922,60.88660,0 -148.13779,60.86160,0 -148.13780,60.86159,0 -148.15045,60.83660,0 -148.15545,60.81160,0 -148.16242,60.78660,0 -148.16280,60.78625,0 -148.18780,60.77355,0 -148.21280,60.77010,0 -148.23780,60.76885,0 -148.26280,60.76538,0 -148.27167,60.76160,0 -148.28780,60.75416,0 -148.31280,60.73755,0 -148.31559,60.73660,0 -148.33780,60.72845,0 -148.35203,60.73660,0 -148.36280,60.75842,0 -148.36368,60.76160,0 -148.36280,60.77178,0 -148.36142,60.78660,0 -148.33972,60.81160,0 -148.33780,60.81310,0 -148.31280,60.83419,0 -148.31053,60.83660,0 -148.29253,60.86160,0 -148.28780,60.87024,0 -148.27965,60.88660,0 -148.26494,60.91160,0 -148.26280,60.91424,0 -148.23959,60.93660,0 -148.23780,60.93797,0 -148.21280,60.95775,0 -148.20906,60.96160,0 -148.19136,60.98660,0 -148.18780,60.99337,0 -148.17913,61.01160,0 -148.16705,61.03660,0 -148.16280,61.04596,0 -148.13780,61.05153,0 -148.11567,61.03660,0 -148.11280,61.03516,0 -148.08780,61.02011,0 -148.06280,61.01692,0 -148.03780,61.02606,0 -148.02345,61.03660,0 -148.01280,61.04604,0 -147.99827,61.06160,0 -147.98780,61.07596,0 -147.97603,61.08660,0 -147.96280,61.09773,0 </coordinates>
        </LineString>
      </MultiGeometry>
    </Placemark>
    <Placemark>
      <name>psa10 0.02 %g Contour</name>
      <styleUrl>#style_pgm</styleUrl>
      <visibility>0</visibility>
      <Snippet maxLines="0">
      </Snippet>
      <open>0</open>
      <MultiGeometry>
        <LineString>
          <gx:drawOrder>5</gx:drawOrder>
          <extrude>0</extrude>
          <tessellate>1</tessellate>
          <altitudeMode>clampToGround</altitudeMode>
          <coordinates>-149.83780,60.61216,0 -149.81280,60.61987,0 -149.78780,60.62396,0 -149.76280,60.62608,0 -149.73780,60.62655,0 -149.71280,60.62567,0 -149.68780,60.62380,0 -149.66280,60.62086,0 -149.63780,60.61618,0 -149.62263,60.61160,0 -149.61280,60.61008,0 -149.58780,60.60429,0 -149.56280,60.59319,0 -149.55330,60.58660,0 -149.53780,60.57730,0 -149.51978,60.56160,0 -149.51280,60.55465,0 -149.49701,60.53660,0 -149.48780,60.51811,0 -149.48426,60.51160,0 -149.47948,60.48660,0 -149.48423,60.46160,0 -149.48780,60.45516,0 -149.49729,60.43660,0 -149.51280,60.41976,0 -149.52202,60.41160,0 -149.53780,60.39995,0 -149.56280,60.38746,0 -149.56481,60.38660,0 -149.58780,60.37598,0 -149.61280,60.36786,0 -149.63780,60.36167,0 -149.63813,60.36160,0 -149.66280,60.35464,0 -149.68780,60.35021,0 -149.71280,60.34743,0 -149.73780,60.34715,0 -149.76280,60.35023,0 -149.78780,60.35542,0 -149.81258,60.36160,0 -149.81280,60.36164,0 -149.83780,60.36647,0 -149.86280,60.37307,0 -149.88780,60.38392,0 -149.89236,60.38660,0 -149.91280,60.39657,0 -149.93293,60.41160,0 -149.93780,60.41550,0 -149.95888,60.43660,0 -149.96280,60.44267,0 -149.97483,60.46160,0 -149.97935,60.48660,0 -149.97463,60.51160,0 -149.96280,60.53310,0 -149.96098,60.53660,0 -149.94100,60.56160,0 -149.93780,60.56506,0 -149.91280,60.58491,0 -149.90934,60.58660,0 -149.88780,60.59964,0 -149.86280,60.60697,0 -149.83916,60.61160,0 -149.83780,60.61216,0 </coordinates>
        </LineString>
      </MultiGeometry>
    </Placemark>
    <Placemark>
      <name>psa10 0.04 %g Contour</name>
      <styleUrl>#style_pgm</styleUrl>
      <visibility>0</visibility>
      <Snippet maxLines="0">
      </Snippet>
      <open>0</open>
      <MultiGeometry>
        <LineString>
          <gx:drawOrder>5</gx:drawOrder>
          <extrude>0</extrude>
          <tessellate>1</tessellate>
          <altitudeMode>clampToGround</altitudeMode>
          <coordinates>-150.41280,62.63935,0 -150.38780,62.64496,0 -150.36280,62.64566,0 -150.33780,62.64381,0 -150.31280,62.64181,0 -150.30721,62.63660,0 -150.29085,62.61160,0 -150.28780,62.60739,0 -150.28040,62.58660,0 -150.26426,62.56160,0 -150.26280,62.55962,0 -150.24335,62.53660,0 -150.23780,62.52809,0 -150.21280,62.51183,0 -150.21142,62.51160,0 -150.18780,62.50808,0 -150.16280,62.50177,0 -150.14053,62.48660,0 -150.13780,62.48463,0 -150.11280,62.46886,0 -150.08780,62.46307,0 -150.06280,62.46589,0 -150.03780,62.47141,0 -150.01280,62.46782,0 -150.00483,62.46160,0 -149.98780,62.44825,0 -149.97399,62.43660,0 -149.96280,62.43059,0 -149.93780,62.42426,0 -149.91280,62.41967,0 -149.89465,62.41160,0 -149.88780,62.40725,0 -149.86427,62.38660,0 -149.86280,62.37630,0 -149.86017,62.36160,0 -149.86280,62.35729,0 -149.87339,62.33660,0 -149.86711,62.31160,0 -149.86280,62.30875,0 -149.83780,62.30627,0 -149.81280,62.30143,0 -149.78780,62.29348,0 -149.76280,62.28955,0 -149.73780,62.29148,0 -149.71280,62.30036,0 -149.68780,62.30929,0 -149.66280,62.31065,0 -149.63780,62.30583,0 -149.61280,62.29642,0 -149.60166,62.28660,0 -149.60297,62.26160,0 -149.61165,62.23660,0 -149.61280,62.23448,0 -149.62527,62.21160,0 -149.63780,62.19013,0 -149.64006,62.18660,0 -149.65032,62.16160,0 -149.65386,62.13660,0 -149.64959,62.11160,0 -149.63780,62.08775,0 -149.63687,62.08660,0 -149.61451,62.06160,0 -149.61280,62.06007,0 -149.58780,62.03784,0 -149.58645,62.03660,0 -149.56280,62.01695,0 -149.55751,62.01160,0 -149.54507,61.98660,0 -149.53780,61.97118,0 -149.53344,61.96160,0 -149.51410,61.93660,0 -149.51280,61.93486,0 -149.49528,61.91160,0 -149.48827,61.88660,0 -149.48780,61.86658,0 -149.48761,61.86160,0 -149.48780,61.85969,0 -149.48984,61.83660,0 -149.49312,61.81160,0 -149.48814,61.78660,0 -149.48780,61.78590,0 -149.47803,61.76160,0 -149.47254,61.73660,0 -149.46280,61.72840,0 -149.43780,61.71813,0 -149.41280,61.71559,0 -149.38780,61.71518,0 -149.36280,61.71460,0 -149.33780,61.71388,0 -149.31280,61.71298,0 -149.28780,61.71269,0 -149.26280,61.71375,0 -149.23780,61.71433,0 -149.21280,61.71325,0 -149.18780,61.71301,0 -149.16280,61.71350,0 -149.13780,61.71176,0 -149.13702,61.71160,0 -149.11280,61.70284,0 -149.09314,61.68660,0 -149.09390,61.66160,0 -149.09207,61.63660,0 -149.08780,61.63207,0 -149.06280,61.61234,0 -149.06218,61.61160,0 -149.03780,61.59226,0 -149.03195,61.58660,0 -149.01280,61.56505,0 -149.00887,61.56160,0 -149.01280,61.55504,0 -149.03780,61.53739,0 -149.03905,61.53660,0 -149.06280,61.52968,0 -149.08780,61.51669,0 -149.09545,61.51160,0 -149.11280,61.50421,0 -149.13780,61.49436,0 -149.15576,61.48660,0 -149.16280,61.48379,0 -149.18780,61.47644,0 -149.21280,61.47376,0 -149.23780,61.47314,0 -149.26280,61.47200,0 -149.28780,61.46905,0 -149.31280,61.46511,0 -149.33579,61.46160,0 -149.33780,61.46123,0 -149.36280,61.45670,0 -149.38780,61.45115,0 -149.41280,61.44321,0 -149.42964,61.43660,0 -149.43780,61.43266,0 -149.46280,61.42221,0 -149.48780,61.41310,0 -149.49153,61.41160,0 -149.51280,61.40108,0 -149.53780,61.39014,0 -149.54628,61.38660,0 -149.56280,61.37373,0 -149.57641,61.36160,0 -149.58780,61.34511,0 -149.59578,61.33660,0 -149.61280,61.32530,0 -149.63780,61.31528,0 -149.64621,61.31160,0 -149.66280,61.29617,0 -149.66926,61.28660,0 -149.68780,61.26884,0 -149.69869,61.26160,0 -149.71280,61.25662,0 -149.73780,61.24465,0 -149.74932,61.23660,0 -149.76280,61.22260,0 -149.76971,61.21160,0 -149.77806,61.18660,0 -149.78274,61.16160,0 -149.78734,61.13660,0 -149.78780,61.13388,0 -149.79098,61.11160,0 -149.78780,61.08718,0 -149.78772,61.08660,0 -149.76808,61.06160,0 -149.76280,61.05766,0 -149.73780,61.03844,0 -149.73562,61.03660,0 -149.71280,61.01464,0 -149.70967,61.01160,0 -149.69311,60.98660,0 -149.71280,60.97430,0 -149.73780,60.96537,0 -149.75416,60.96160,0 -149.76280,60.95998,0 -149.78780,60.95609,0 -149.81280,60.95334,0 -149.83780,60.95051,0 -149.86280,60.94624,0 -149.88780,60.93981,0 -149.89698,60.93660,0 -149.91280,60.92714,0 -149.93780,60.91211,0 -149.93863,60.91160,0 -149.96280,60.89311,0 -149.97169,60.88660,0 -149.98780,60.87480,0 -150.01276,60.86160,0 -150.01280,60.86158,0 -150.03780,60.85387,0 -150.06280,60.85181,0 -150.08780,60.85406,0 -150.11280,60.86091,0 -150.11464,60.86160,0 -150.13780,60.86841,0 -150.16280,60.87615,0 -150.18780,60.88390,0 -150.19846,60.88660,0 -150.21280,60.88930,0 -150.23780,60.89182,0 -150.25721,60.88660,0 -150.26280,60.86670,0 -150.26382,60.86160,0 -150.28780,60.84512,0 -150.30255,60.83660,0 -150.31280,60.83356,0 -150.33780,60.82924,0 -150.36280,60.83320,0 -150.37495,60.83660,0 -150.38780,60.84150,0 -150.41280,60.84301,0 -150.43780,60.84258,0 -150.46280,60.84444,0 -150.48780,60.84814,0 -150.51280,60.84979,0 -150.53780,60.84211,0 -150.54658,60.83660,0 -150.56280,60.82673,0 -150.58780,60.81715,0 -150.61280,60.81266,0 -150.61852,60.81160,0 -150.63780,60.80672,0 -150.66280,60.79633,0 -150.68542,60.78660,0 -150.68780,60.78484,0 -150.69113,60.78660,0 -150.71280,60.79822,0 -150.72090,60.81160,0 -150.73780,60.82518,0 -150.75775,60.83660,0 -150.76280,60.83917,0 -150.78780,60.84755,0 -150.81280,60.85164,0 -150.83780,60.85050,0 -150.86280,60.84423,0 -150.88084,60.83660,0 -150.88780,60.83029,0 -150.89673,60.81160,0 -150.89843,60.78660,0 -150.90164,60.76160,0 -150.91280,60.74017,0 -150.91444,60.73660,0 -150.93780,60.71215,0 -150.93845,60.71160,0 -150.96280,60.69560,0 -150.98032,60.68660,0 -150.98780,60.68273,0 -151.01280,60.67194,0 -151.03780,60.66524,0 -151.05779,60.66160,0 -151.06280,60.66044,0 -151.08780,60.65484,0 -151.11280,60.64882,0 -151.13780,60.64255,0 -151.15516,60.63660,0 -151.16280,60.63324,0 -151.18780,60.62389,0 -151.21280,60.62132,0 -151.23780,60.62594,0 -151.26256,60.63660,0 -151.26280,60.63671,0 -151.28780,60.65184,0 -151.29958,60.66160,0 -151.31280,60.67042,0 -151.33291,60.68660,0 -151.33780,60.69021,0 -151.36280,60.70796,0 -151.37082,60.71160,0 -151.38780,60.71659,0 -151.41154,60.71160,0 -151.41280,60.71016,0 -151.42138,60.68660,0 -151.41518,60.66160,0 -151.41280,60.65603,0 -151.40520,60.63660,0 -151.39764,60.61160,0 -151.39597,60.58660,0 -151.41280,60.56631,0 -151.43780,60.56722,0 -151.46280,60.57072,0 -151.48780,60.57449,0 -151.51280,60.57841,0 -151.53780,60.58249,0 -151.56205,60.58660,0 -151.56280,60.58672,0 -151.58780,60.59097,0 -151.61280,60.59538,0 -151.63780,60.59995,0 -151.66280,60.60470,0 -151.68780,60.60965,0 -151.69738,60.61160,0 -151.71280,60.61506,0 -151.73780,60.62101,0 -151.76280,60.62640,0 -151.78780,60.63128,0 -151.81280,60.63632,0 -151.81403,60.63660,0 -151.83780,60.64252,0 -151.86280,60.64948,0 -151.88780,60.65929,0 -151.89165,60.66160,0 -151.89335,60.68660,0 -151.88780,60.69091,0 -151.86280,60.70251,0 -151.83780,60.70151,0 -151.81280,60.69370,0 -151.79322,60.68660,0 -151.78780,60.68194,0 -151.76280,60.67003,0 -151.73780,60.66833,0 -151.71280,60.67555,0 -151.70278,60.68660,0 -151.68810,60.71160,0 -151.69033,60.73660,0 -151.70576,60.76160,0 -151.71280,60.76842,0 -151.73495,60.78660,0 -151.73780,60.78895,0 -151.76198,60.81160,0 -151.76280,60.81276,0 -151.77471,60.83660,0 -151.77601,60.86160,0 -151.77009,60.88660,0 -151.76561,60.91160,0 -151.77010,60.93660,0 -151.78780,60.95609,0 -151.79416,60.96160,0 -151.81280,60.97256,0 -151.83780,60.98173,0 -151.86280,60.98415,0 -151.88780,60.97879,0 -151.90926,60.96160,0 -151.91280,60.95736,0 -151.93780,60.94066,0 -151.96280,60.95730,0 -151.96590,60.96160,0 -151.97398,60.98660,0 -151.97543,61.01160,0 -151.97844,61.03660,0 -151.96280,61.06121,0 -151.96256,61.06160,0 -151.94282,61.08660,0 -151.93967,61.11160,0 -151.95592,61.13660,0 -151.96280,61.13992,0 -151.98780,61.15013,0 -152.01280,61.15274,0 -152.03780,61.15036,0 -152.06280,61.15089,0 -152.08780,61.15091,0 -152.11280,61.14220,0 -152.13032,61.13660,0 -152.13780,61.13460,0 -152.16280,61.13516,0 -152.16597,61.13660,0 -152.18780,61.14926,0 -152.19898,61.16160,0 -152.21280,61.17953,0 -152.21988,61.18660,0 -152.23780,61.20167,0 -152.26280,61.20879,0 -152.27219,61.21160,0 -152.28780,61.22187,0 -152.30166,61.23660,0 -152.31280,61.25169,0 -152.32098,61.26160,0 -152.32946,61.28660,0 -152.31280,61.30629,0 -152.30704,61.31160,0 -152.28780,61.32028,0 -152.26280,61.32519,0 -152.23780,61.32339,0 -152.21280,61.31830,0 -152.18780,61.31562,0 -152.16280,61.31665,0 -152.13780,61.31745,0 -152.11280,61.31450,0 -152.10313,61.31160,0 -152.08780,61.30617,0 -152.06280,61.29534,0 -152.04302,61.28660,0 -152.03780,61.28444,0 -152.01280,61.27381,0 -151.99181,61.26160,0 -151.98780,61.25876,0 -151.96579,61.23660,0 -151.96280,61.23222,0 -151.94901,61.21160,0 -151.93780,61.19172,0 -151.93198,61.18660,0 -151.91280,61.16919,0 -151.88780,61.16854,0 -151.86280,61.17090,0 -151.83780,61.17086,0 -151.81280,61.16685,0 -151.79548,61.16160,0 -151.78780,61.15911,0 -151.76280,61.15346,0 -151.73780,61.14933,0 -151.71280,61.14073,0 -151.70600,61.13660,0 -151.68780,61.12834,0 -151.66280,61.11926,0 -151.63780,61.11230,0 -151.63558,61.11160,0 -151.61280,61.10735,0 -151.58780,61.09930,0 -151.56801,61.08660,0 -151.56280,61.08362,0 -151.53780,61.07805,0 -151.52370,61.08660,0 -151.53780,61.10817,0 -151.53970,61.11160,0 -151.56280,61.13333,0 -151.56627,61.13660,0 -151.58780,61.15098,0 -151.60853,61.16160,0 -151.61280,61.16280,0 -151.63780,61.17265,0 -151.66280,61.18518,0 -151.66564,61.18660,0 -151.68780,61.19783,0 -151.70750,61.21160,0 -151.71280,61.21858,0 -151.72337,61.23660,0 -151.72545,61.26160,0 -151.71987,61.28660,0 -151.72888,61.31160,0 -151.73780,61.31963,0 -151.76280,61.33516,0 -151.76516,61.33660,0 -151.78780,61.35004,0 -151.79950,61.36160,0 -151.81280,61.38423,0 -151.81401,61.38660,0 -151.83022,61.41160,0 -151.83780,61.41929,0 -151.86280,61.43259,0 -151.87411,61.43660,0 -151.88780,61.44379,0 -151.91280,61.45524,0 -151.92812,61.46160,0 -151.92249,61.48660,0 -151.91280,61.49140,0 -151.88780,61.49946,0 -151.86280,61.50507,0 -151.85118,61.51160,0 -151.84039,61.53660,0 -151.83797,61.56160,0 -151.84625,61.58660,0 -151.85615,61.61160,0 -151.86280,61.62809,0 -151.86827,61.63660,0 -151.88549,61.66160,0 -151.88780,61.66406,0 -151.90778,61.68660,0 -151.91280,61.69024,0 -151.93470,61.71160,0 -151.93780,61.71562,0 -151.94988,61.73660,0 -151.94690,61.76160,0 -151.93780,61.77410,0 -151.91280,61.77655,0 -151.88780,61.77598,0 -151.88056,61.78660,0 -151.88733,61.81160,0 -151.88780,61.81308,0 -151.89468,61.83660,0 -151.90358,61.86160,0 -151.91280,61.86722,0 -151.93780,61.87326,0 -151.96280,61.88310,0 -151.96990,61.88660,0 -151.98780,61.89316,0 -152.01280,61.88830,0 -152.01551,61.88660,0 -152.03780,61.87262,0 -152.05395,61.86160,0 -152.06051,61.83660,0 -152.04393,61.81160,0 -152.03780,61.80196,0 -152.02725,61.78660,0 -152.02705,61.76160,0 -152.03780,61.74853,0 -152.06280,61.73682,0 -152.08780,61.74291,0 -152.09934,61.76160,0 -152.10715,61.78660,0 -152.11212,61.81160,0 -152.11280,61.81414,0 -152.11905,61.83660,0 -152.12026,61.86160,0 -152.11292,61.88660,0 -152.11280,61.88723,0 -152.10907,61.91160,0 -152.11280,61.93592,0 -152.11299,61.93660,0 -152.11614,61.96160,0 -152.11280,61.96501,0 -152.09348,61.98660,0 -152.08780,61.98989,0 -152.06280,62.00253,0 -152.04632,62.01160,0 -152.03780,62.02022,0 -152.02618,62.03660,0 -152.01680,62.06160,0 -152.01280,62.06996,0 -152.00467,62.08660,0 -151.98891,62.11160,0 -151.98780,62.11307,0 -151.96474,62.13660,0 -151.96280,62.13827,0 -151.93780,62.15727,0 -151.93204,62.16160,0 -151.91280,62.17195,0 -151.88780,62.18650,0 -151.88765,62.18660,0 -151.86280,62.20876,0 -151.86084,62.21160,0 -151.86166,62.23660,0 -151.86280,62.23819,0 -151.87968,62.26160,0 -151.88780,62.27185,0 -151.90123,62.28660,0 -151.91280,62.30297,0 -151.92278,62.31160,0 -151.93780,62.32672,0 -151.94976,62.33660,0 -151.96280,62.35177,0 -151.96900,62.36160,0 -151.97236,62.38660,0 -151.97086,62.41160,0 -151.96508,62.43660,0 -151.96280,62.44051,0 -151.93780,62.44495,0 -151.93434,62.43660,0 -151.92556,62.41160,0 -151.91280,62.39087,0 -151.90989,62.38660,0 -151.88780,62.36655,0 -151.87382,62.36160,0 -151.86280,62.35883,0 -151.83780,62.35349,0 -151.81280,62.34687,0 -151.78780,62.33768,0 -151.78492,62.33660,0 -151.76280,62.32839,0 -151.73780,62.32172,0 -151.71280,62.31814,0 -151.68780,62.31611,0 -151.66280,62.31434,0 -151.64449,62.31160,0 -151.63780,62.31089,0 -151.61280,62.30842,0 -151.58780,62.31014,0 -151.58341,62.31160,0 -151.56280,62.32153,0 -151.54311,62.33660,0 -151.53780,62.34172,0 -151.51660,62.36160,0 -151.51848,62.38660,0 -151.53630,62.41160,0 -151.51280,62.42813,0 -151.49960,62.43660,0 -151.48780,62.43992,0 -151.46280,62.44825,0 -151.43780,62.45358,0 -151.41280,62.45539,0 -151.38780,62.45484,0 -151.36280,62.45169,0 -151.33780,62.44641,0 -151.31280,62.44286,0 -151.28780,62.45672,0 -151.28509,62.46160,0 -151.26807,62.48660,0 -151.26280,62.49620,0 -151.24666,62.51160,0 -151.23780,62.52400,0 -151.21280,62.52119,0 -151.19619,62.51160,0 -151.18780,62.50947,0 -151.16280,62.49741,0 -151.14649,62.48660,0 -151.13780,62.48143,0 -151.11280,62.46880,0 -151.08780,62.46268,0 -151.06280,62.46430,0 -151.05363,62.46160,0 -151.03780,62.44419,0 -151.03270,62.43660,0 -151.01280,62.42937,0 -150.98780,62.42486,0 -150.96280,62.42165,0 -150.93780,62.42269,0 -150.91280,62.42899,0 -150.89186,62.43660,0 -150.88780,62.43858,0 -150.86280,62.45173,0 -150.84160,62.46160,0 -150.83780,62.46378,0 -150.81280,62.47624,0 -150.79090,62.48660,0 -150.78780,62.48818,0 -150.76280,62.49767,0 -150.73780,62.50577,0 -150.71857,62.51160,0 -150.71280,62.51320,0 -150.68780,62.51892,0 -150.66280,62.52308,0 -150.63780,62.52436,0 -150.61280,62.52505,0 -150.58780,62.53093,0 -150.57535,62.53660,0 -150.56280,62.54563,0 -150.55001,62.56160,0 -150.53780,62.58294,0 -150.53299,62.58660,0 -150.51280,62.59262,0 -150.48780,62.59373,0 -150.46280,62.60488,0 -150.45469,62.61160,0 -150.43780,62.62548,0 -150.41739,62.63660,0 -150.41280,62.63935,0 </coordinates>
        </LineString>
      </MultiGeometry>
    </Placemark>
    <Placemark>
      <name>0.04</name>
      <styleUrl>#style_pgm</styleUrl>
      <visibility>0</visibility>
      <Point>
        <altitudeMode>clampToGround</altitudeMode>
        <coordinates>-150.41280,62.63935,0</coordinates>
      </Point>
    </Placemark>
    <Placemark>
      <name>0.04</name>
      <styleUrl>#style_pgm</styleUrl>
      <visibility>0</visibility>
      <Point>
        <altitudeMode>clampToGround</altitudeMode>
        <coordinates>-149.78274,61.16160,0</coordinates>
      </Point>
    </Placemark>
    <Placemark>
      <name>0.04</name>
      <styleUrl>#style_pgm</styleUrl>
      <visibility>0</visibility>
      <Point>
        <altitudeMode>clampToGround</altitudeMode>
        <coordinates>-151.69033,60.73660,0</coordinates>
      </Point>
    </Placemark>
    <Placemark>
      <name>0.04</name>
      <styleUrl>#style_pgm</styleUrl>
      <visibility>0</visibility>
      <Point>
        <altitudeMode>clampToGround</altitudeMode>
        <coordinates>-151.90358,61.86160,0</coordinates>
      </Point>
    </Placemark>
    <Placemark>
      <name>psa10 0.04 %g Contour</name>
      <styleUrl>#style_pgm</styleUrl>
      <visibility>0</visibility>
      <Snippet maxLines="0">
      </Snippet>
      <open>0</open>
      <MultiGeometry>
        <LineString>
          <gx:drawOrder>5</gx:drawOrder>
          <extrude>0</extrude>
          <tessellate>1</tessellate>
          <altitudeMode>clampToGround</altitudeMode>
          <coordinates>-149.83780,60.56209,0 -149.81280,60.56757,0 -149.78780,60.57218,0 -149.76280,60.57501,0 -149.73780,60.57545,0 -149.71280,60.57399,0 -149.68780,60.57196,0 -149.66280,60.56999,0 -149.63780,60.56765,0 -149.61280,60.56322,0 -149.60830,60.56160,0 -149.58780,60.55023,0 -149.57035,60.53660,0 -149.56280,60.52442,0 -149.55465,60.51160,0 -149.55072,60.48660,0 -149.56043,60.46160,0 -149.56280,60.45909,0 -149.58780,60.43979,0 -149.59164,60.43660,0 -149.61280,60.42549,0 -149.62873,60.41160,0 -149.63780,60.40738,0 -149.66280,60.39731,0 -149.68780,60.39245,0 -149.71280,60.39123,0 -149.73780,60.39467,0 -149.76280,60.40324,0 -149.78780,60.41013,0 -149.79520,60.41160,0 -149.81280,60.41692,0 -149.83780,60.42390,0 -149.86280,60.43189,0 -149.87309,60.43660,0 -149.88780,60.44473,0 -149.90974,60.46160,0 -149.91280,60.46544,0 -149.92264,60.48660,0 -149.91828,60.51160,0 -149.91280,60.51933,0 -149.89687,60.53660,0 -149.88780,60.54333,0 -149.86280,60.55416,0 -149.83973,60.56160,0 -149.83780,60.56209,0 </coordinates>
        </LineString>
      </MultiGeometry>
    </Placemark>
    <Placemark>
      <name>psa10 0.06 %g Contour</name>
      <styleUrl>#style_pgm</styleUrl>
      <visibility>0</visibility>
      <Snippet maxLines="0">
      </Snippet>
      <open>0</open>
      <MultiGeometry>
        <LineString>
          <gx:drawOrder>5</gx:drawOrder>
          <extrude>0</extrude>
          <tessellate>1</tessellate>
          <altitudeMode>clampToGround</altitudeMode>
          <coordinates>-151.21280,62.46322,0 -151.19887,62.46160,0 -151.18780,62.45964,0 -151.16280,62.44329,0 -151.15469,62.43660,0 -151.13780,62.41787,0 -151.12936,62.41160,0 -151.11280,62.40101,0 -151.08780,62.38810,0 -151.08574,62.38660,0 -151.06280,62.36892,0 -151.05157,62.36160,0 -151.03780,62.35258,0 -151.01280,62.34171,0 -151.00025,62.33660,0 -150.98780,62.33108,0 -150.96280,62.32043,0 -150.94657,62.31160,0 -150.93780,62.30660,0 -150.91280,62.28751,0 -150.91192,62.28660,0 -150.88780,62.26754,0 -150.87754,62.26160,0 -150.86280,62.25428,0 -150.83780,62.25143,0 -150.81280,62.25747,0 -150.80293,62.26160,0 -150.78780,62.28038,0 -150.77603,62.28660,0 -150.76280,62.29591,0 -150.73780,62.30080,0 -150.72451,62.31160,0 -150.71280,62.32575,0 -150.70564,62.33660,0 -150.69773,62.36160,0 -150.68780,62.37170,0 -150.66341,62.38660,0 -150.66280,62.38679,0 -150.63780,62.39814,0 -150.61687,62.41160,0 -150.61280,62.41447,0 -150.58822,62.43660,0 -150.58780,62.43688,0 -150.56280,62.44038,0 -150.55475,62.43660,0 -150.53780,62.42244,0 -150.52872,62.41160,0 -150.51280,62.38710,0 -150.51236,62.38660,0 -150.48780,62.36511,0 -150.47621,62.36160,0 -150.46280,62.35842,0 -150.44884,62.36160,0 -150.43780,62.36400,0 -150.41280,62.37675,0 -150.38780,62.38566,0 -150.36584,62.38660,0 -150.36280,62.38673,0 -150.36204,62.38660,0 -150.33780,62.37775,0 -150.31910,62.36160,0 -150.31280,62.35944,0 -150.28780,62.36042,0 -150.28246,62.36160,0 -150.26280,62.36568,0 -150.23780,62.36815,0 -150.21280,62.36837,0 -150.18780,62.36947,0 -150.16280,62.37104,0 -150.13780,62.36550,0 -150.13107,62.36160,0 -150.11280,62.35190,0 -150.09015,62.33660,0 -150.08780,62.33487,0 -150.06926,62.31160,0 -150.06280,62.29987,0 -150.05658,62.28660,0 -150.03780,62.26184,0 -150.03745,62.26160,0 -150.01280,62.24783,0 -149.98780,62.24641,0 -149.96280,62.24821,0 -149.93780,62.23900,0 -149.93542,62.23660,0 -149.91783,62.21160,0 -149.91280,62.20106,0 -149.90251,62.18660,0 -149.88788,62.16160,0 -149.88780,62.16140,0 -149.87505,62.13660,0 -149.86631,62.11160,0 -149.86280,62.10624,0 -149.85111,62.08660,0 -149.83780,62.07401,0 -149.82514,62.06160,0 -149.81430,62.03660,0 -149.82150,62.01160,0 -149.83177,61.98660,0 -149.83279,61.96160,0 -149.82210,61.93660,0 -149.81296,61.91160,0 -149.81280,61.91115,0 -149.80228,61.88660,0 -149.79157,61.86160,0 -149.78780,61.85390,0 -149.77490,61.83660,0 -149.76280,61.82599,0 -149.73780,61.82065,0 -149.71280,61.81684,0 -149.70066,61.81160,0 -149.68780,61.80557,0 -149.67168,61.78660,0 -149.66674,61.76160,0 -149.67437,61.73660,0 -149.68770,61.71160,0 -149.68780,61.71046,0 -149.69106,61.68660,0 -149.68780,61.68461,0 -149.66280,61.67016,0 -149.64252,61.66160,0 -149.63780,61.66020,0 -149.61280,61.65590,0 -149.58780,61.65378,0 -149.56280,61.65088,0 -149.53780,61.64786,0 -149.51280,61.64638,0 -149.48780,61.64448,0 -149.46280,61.64029,0 -149.44304,61.63660,0 -149.43780,61.63167,0 -149.42088,61.61160,0 -149.43780,61.59560,0 -149.44768,61.58660,0 -149.46280,61.57395,0 -149.48271,61.56160,0 -149.47812,61.53660,0 -149.46280,61.53443,0 -149.43780,61.53056,0 -149.41280,61.52684,0 -149.38780,61.52360,0 -149.36280,61.51956,0 -149.34204,61.51160,0 -149.36280,61.50820,0 -149.38780,61.50458,0 -149.41280,61.49701,0 -149.42342,61.48660,0 -149.43780,61.48168,0 -149.46280,61.46757,0 -149.47046,61.46160,0 -149.48780,61.45466,0 -149.51280,61.44288,0 -149.52401,61.43660,0 -149.53780,61.43093,0 -149.56280,61.42295,0 -149.58780,61.41546,0 -149.59949,61.41160,0 -149.61280,61.40670,0 -149.63780,61.39927,0 -149.66280,61.39314,0 -149.67941,61.38660,0 -149.68780,61.38226,0 -149.70737,61.36160,0 -149.71280,61.35417,0 -149.72320,61.33660,0 -149.73780,61.31948,0 -149.74878,61.31160,0 -149.76280,61.30214,0 -149.78780,61.29140,0 -149.79779,61.28660,0 -149.81280,61.27493,0 -149.82550,61.26160,0 -149.83207,61.23660,0 -149.83075,61.21160,0 -149.83425,61.18660,0 -149.83780,61.17858,0 -149.84854,61.16160,0 -149.86280,61.14332,0 -149.86993,61.13660,0 -149.86733,61.11160,0 -149.86280,61.10786,0 -149.84474,61.08660,0 -149.83780,61.08098,0 -149.81930,61.06160,0 -149.81280,61.05627,0 -149.78922,61.03660,0 -149.78780,61.03512,0 -149.76314,61.01160,0 -149.77281,60.98660,0 -149.78780,60.98157,0 -149.81280,60.97665,0 -149.83780,60.97310,0 -149.86280,60.96884,0 -149.88780,60.96288,0 -149.89257,60.96160,0 -149.91280,60.95507,0 -149.93780,60.94766,0 -149.96280,60.94117,0 -149.98304,60.93660,0 -149.98780,60.93463,0 -150.01280,60.92626,0 -150.03780,60.91971,0 -150.06280,60.91736,0 -150.08780,60.91907,0 -150.11280,60.92433,0 -150.13780,60.93048,0 -150.16280,60.93622,0 -150.16404,60.93660,0 -150.18780,60.94408,0 -150.21280,60.95259,0 -150.23780,60.96151,0 -150.23803,60.96160,0 -150.26280,60.97028,0 -150.28780,60.98102,0 -150.29574,60.98660,0 -150.31280,60.99579,0 -150.33383,61.01160,0 -150.33780,61.01341,0 -150.36280,61.02118,0 -150.38780,61.02492,0 -150.41280,61.02445,0 -150.43780,61.02073,0 -150.46280,61.01587,0 -150.48601,61.01160,0 -150.48780,61.01108,0 -150.51280,61.00460,0 -150.53780,60.99944,0 -150.56280,60.99486,0 -150.58780,60.98957,0 -150.59844,60.98660,0 -150.61280,60.98194,0 -150.63780,60.97465,0 -150.66280,60.96891,0 -150.68780,60.96281,0 -150.69173,60.96160,0 -150.71280,60.95495,0 -150.73780,60.94711,0 -150.76280,60.93793,0 -150.76635,60.93660,0 -150.78780,60.92894,0 -150.81280,60.92137,0 -150.83780,60.91310,0 -150.84197,60.91160,0 -150.86280,60.90517,0 -150.88780,60.89698,0 -150.91280,60.88780,0 -150.91582,60.88660,0 -150.93780,60.87715,0 -150.95234,60.86160,0 -150.95897,60.83660,0 -150.95908,60.81160,0 -150.96131,60.78660,0 -150.96280,60.78269,0 -150.97926,60.76160,0 -150.98780,60.75441,0 -151.01280,60.73757,0 -151.01372,60.73660,0 -151.03780,60.71659,0 -151.04889,60.71160,0 -151.06280,60.70879,0 -151.07686,60.71160,0 -151.08780,60.71796,0 -151.10576,60.73660,0 -151.11280,60.74225,0 -151.13780,60.75169,0 -151.16280,60.75595,0 -151.18780,60.75697,0 -151.21280,60.74844,0 -151.23347,60.73660,0 -151.23780,60.73351,0 -151.26280,60.72947,0 -151.28780,60.73069,0 -151.31280,60.73574,0 -151.31478,60.73660,0 -151.33780,60.74290,0 -151.36280,60.75277,0 -151.38065,60.76160,0 -151.38780,60.76913,0 -151.40337,60.78660,0 -151.40507,60.81160,0 -151.39910,60.83660,0 -151.39122,60.86160,0 -151.41280,60.88515,0 -151.41789,60.88660,0 -151.43780,60.89093,0 -151.46280,60.89582,0 -151.48780,60.90098,0 -151.51280,60.90667,0 -151.53057,60.91160,0 -151.53780,60.91506,0 -151.55689,60.93660,0 -151.53781,60.96160,0 -151.53780,60.96161,0 -151.51280,60.97643,0 -151.48780,60.98518,0 -151.46280,60.98565,0 -151.43780,60.98440,0 -151.41280,60.98429,0 -151.38780,60.98507,0 -151.37448,60.98660,0 -151.36280,60.98738,0 -151.33780,60.99301,0 -151.31280,61.00460,0 -151.30076,61.01160,0 -151.28780,61.01731,0 -151.26280,61.02386,0 -151.23780,61.02750,0 -151.21280,61.03177,0 -151.19697,61.03660,0 -151.18780,61.03969,0 -151.16280,61.05267,0 -151.15260,61.06160,0 -151.13780,61.08060,0 -151.13397,61.08660,0 -151.12499,61.11160,0 -151.12759,61.13660,0 -151.13780,61.14420,0 -151.16280,61.15951,0 -151.16481,61.16160,0 -151.17301,61.18660,0 -151.16585,61.21160,0 -151.16280,61.21769,0 -151.15008,61.23660,0 -151.13780,61.25824,0 -151.13575,61.26160,0 -151.12347,61.28660,0 -151.13780,61.30276,0 -151.15521,61.31160,0 -151.16280,61.31280,0 -151.17213,61.31160,0 -151.18780,61.30733,0 -151.21280,61.30869,0 -151.21838,61.31160,0 -151.23780,61.31672,0 -151.26280,61.32351,0 -151.28780,61.32389,0 -151.31280,61.31737,0 -151.33016,61.31160,0 -151.33780,61.30781,0 -151.36280,61.29967,0 -151.38780,61.30046,0 -151.41280,61.31094,0 -151.41413,61.31160,0 -151.43780,61.32438,0 -151.46280,61.33648,0 -151.46300,61.33660,0 -151.48583,61.36160,0 -151.48780,61.36434,0 -151.51123,61.38660,0 -151.51280,61.38790,0 -151.53780,61.39117,0 -151.54976,61.38660,0 -151.56280,61.38245,0 -151.58780,61.37554,0 -151.61280,61.37532,0 -151.63780,61.38318,0 -151.64252,61.38660,0 -151.66280,61.40573,0 -151.66793,61.41160,0 -151.66280,61.43641,0 -151.66275,61.43660,0 -151.65022,61.46160,0 -151.65096,61.48660,0 -151.63780,61.49393,0 -151.61280,61.49365,0 -151.58780,61.50270,0 -151.58174,61.51160,0 -151.57817,61.53660,0 -151.57690,61.56160,0 -151.56280,61.58226,0 -151.55860,61.58660,0 -151.53780,61.60542,0 -151.53325,61.61160,0 -151.53780,61.62452,0 -151.54311,61.63660,0 -151.56280,61.65695,0 -151.56934,61.66160,0 -151.58780,61.68086,0 -151.59319,61.68660,0 -151.60098,61.71160,0 -151.61280,61.72689,0 -151.62116,61.73660,0 -151.63780,61.74719,0 -151.65329,61.76160,0 -151.66280,61.78559,0 -151.66316,61.78660,0 -151.66280,61.78727,0 -151.64526,61.81160,0 -151.63780,61.81689,0 -151.61406,61.83660,0 -151.62106,61.86160,0 -151.63780,61.88113,0 -151.64317,61.88660,0 -151.66280,61.89941,0 -151.68780,61.90893,0 -151.69470,61.91160,0 -151.71280,61.91833,0 -151.73780,61.93382,0 -151.74151,61.93660,0 -151.76280,61.95375,0 -151.77642,61.96160,0 -151.78780,61.96960,0 -151.81280,61.98211,0 -151.82755,61.98660,0 -151.83780,61.99281,0 -151.86280,62.00770,0 -151.86739,62.01160,0 -151.86280,62.01898,0 -151.85925,62.03660,0 -151.84860,62.06160,0 -151.83780,62.08203,0 -151.83642,62.08660,0 -151.82023,62.11160,0 -151.81280,62.11823,0 -151.78780,62.12829,0 -151.76280,62.13024,0 -151.73780,62.13452,0 -151.73500,62.13660,0 -151.72978,62.16160,0 -151.71318,62.18660,0 -151.71280,62.18691,0 -151.68780,62.20936,0 -151.68603,62.21160,0 -151.66280,62.22498,0 -151.63780,62.22900,0 -151.61280,62.22867,0 -151.58780,62.22497,0 -151.56280,62.21855,0 -151.53921,62.21160,0 -151.53780,62.21127,0 -151.51280,62.20568,0 -151.48780,62.19931,0 -151.46280,62.19002,0 -151.45670,62.18660,0 -151.43780,62.17994,0 -151.41280,62.16604,0 -151.40707,62.16160,0 -151.38780,62.15231,0 -151.36766,62.13660,0 -151.36280,62.13359,0 -151.33780,62.11377,0 -151.33552,62.11160,0 -151.31280,62.09528,0 -151.30147,62.08660,0 -151.28780,62.07723,0 -151.26280,62.06162,0 -151.26239,62.06160,0 -151.23780,62.06071,0 -151.23586,62.06160,0 -151.21640,62.08660,0 -151.21280,62.09458,0 -151.20750,62.11160,0 -151.19955,62.13660,0 -151.18951,62.16160,0 -151.18780,62.16612,0 -151.16280,62.18648,0 -151.16257,62.18660,0 -151.14697,62.21160,0 -151.16280,62.22152,0 -151.18780,62.21488,0 -151.19981,62.21160,0 -151.21280,62.20797,0 -151.23780,62.20972,0 -151.26280,62.20929,0 -151.28780,62.20269,0 -151.31280,62.19219,0 -151.33780,62.18826,0 -151.36280,62.19491,0 -151.38766,62.21160,0 -151.38780,62.21169,0 -151.41280,62.22904,0 -151.42171,62.23660,0 -151.43780,62.24831,0 -151.44993,62.26160,0 -151.45987,62.28660,0 -151.45656,62.31160,0 -151.44617,62.33660,0 -151.43780,62.35273,0 -151.43279,62.36160,0 -151.41702,62.38660,0 -151.41280,62.39139,0 -151.38780,62.40283,0 -151.36280,62.39407,0 -151.35267,62.38660,0 -151.33780,62.36746,0 -151.32196,62.36160,0 -151.31280,62.35803,0 -151.29907,62.36160,0 -151.28780,62.36327,0 -151.26280,62.36749,0 -151.23780,62.37757,0 -151.23211,62.38660,0 -151.23780,62.39215,0 -151.24447,62.41160,0 -151.24478,62.43660,0 -151.23780,62.44821,0 -151.21727,62.46160,0 -151.21280,62.46322,0 </coordinates>
        </LineString>
      </MultiGeometry>
    </Placemark>
    <Placemark>
      <name>0.06</name>
      <styleUrl>#style_pgm</styleUrl>
      <visibility>0</visibility>
      <Point>
        <altitudeMode>clampToGround</altitudeMode>
        <coordinates>-151.21280,62.46322,0</coordinates>
      </Point>
    </Placemark>
    <Placemark>
      <name>0.06</name>
      <styleUrl>#style_pgm</styleUrl>
      <visibility>0</visibility>
      <Point>
        <altitudeMode>clampToGround</altitudeMode>
        <coordinates>-149.74878,61.31160,0</coordinates>
      </Point>
    </Placemark>
    <Placemark>
      <name>0.06</name>
      <styleUrl>#style_pgm</styleUrl>
      <visibility>0</visibility>
      <Point>
        <altitudeMode>clampToGround</altitudeMode>
        <coordinates>-151.21838,61.31160,0</coordinates>
      </Point>
    </Placemark>
    <Placemark>
      <name>psa10 0.08 %g Contour</name>
      <styleUrl>#style_pgm</styleUrl>
      <visibility>0</visibility>
      <Snippet maxLines="0">
      </Snippet>
      <open>0</open>
      <MultiGeometry>
        <LineString>
          <gx:drawOrder>5</gx:drawOrder>
          <extrude>0</extrude>
          <tessellate>1</tessellate>
          <altitudeMode>clampToGround</altitudeMode>
          <coordinates>-150.28780,62.29307,0 -150.26280,62.30496,0 -150.23780,62.30200,0 -150.22211,62.28660,0 -150.21280,62.27215,0 -150.20477,62.26160,0 -150.18928,62.23660,0 -150.18780,62.23254,0 -150.17433,62.23660,0 -150.16280,62.23899,0 -150.13780,62.25050,0 -150.12871,62.23660,0 -150.12018,62.21160,0 -150.11280,62.19099,0 -150.11134,62.18660,0 -150.08817,62.16160,0 -150.08780,62.16140,0 -150.06280,62.14445,0 -150.05180,62.13660,0 -150.03780,62.12748,0 -150.01280,62.11289,0 -150.01080,62.11160,0 -149.98780,62.09364,0 -149.98311,62.08660,0 -149.97386,62.06160,0 -149.96801,62.03660,0 -149.96280,62.02324,0 -149.95769,62.01160,0 -149.93847,61.98660,0 -149.93780,61.98583,0 -149.91280,61.96385,0 -149.91139,61.96160,0 -149.89790,61.93660,0 -149.88780,61.92016,0 -149.88319,61.91160,0 -149.87491,61.88660,0 -149.87341,61.86160,0 -149.88028,61.83660,0 -149.88780,61.82832,0 -149.91280,61.81276,0 -149.91782,61.81160,0 -149.93780,61.80452,0 -149.96160,61.78660,0 -149.96280,61.78445,0 -149.97257,61.76160,0 -149.97960,61.73660,0 -149.97533,61.71160,0 -149.96280,61.70031,0 -149.93780,61.69141,0 -149.92807,61.68660,0 -149.91280,61.68294,0 -149.88780,61.67297,0 -149.87045,61.66160,0 -149.86280,61.65786,0 -149.83780,61.64459,0 -149.82115,61.63660,0 -149.81280,61.63231,0 -149.78780,61.62188,0 -149.76280,61.61534,0 -149.73780,61.61227,0 -149.71280,61.61242,0 -149.70299,61.61160,0 -149.71280,61.60892,0 -149.73780,61.60537,0 -149.74145,61.58660,0 -149.75510,61.56160,0 -149.76280,61.54955,0 -149.78027,61.53660,0 -149.78780,61.53321,0 -149.81280,61.53452,0 -149.83780,61.53400,0 -149.86280,61.52653,0 -149.88780,61.51312,0 -149.89011,61.51160,0 -149.91280,61.49836,0 -149.93780,61.48764,0 -149.93976,61.48660,0 -149.96280,61.47573,0 -149.98780,61.46335,0 -149.99067,61.46160,0 -150.01280,61.44620,0 -150.02548,61.43660,0 -150.03780,61.42629,0 -150.06152,61.41160,0 -150.06280,61.41029,0 -150.08780,61.38670,0 -150.08788,61.38660,0 -150.08780,61.38012,0 -150.08739,61.36160,0 -150.06280,61.34627,0 -150.03780,61.34281,0 -150.01280,61.34639,0 -149.98780,61.34961,0 -149.96280,61.35142,0 -149.93780,61.35908,0 -149.93486,61.36160,0 -149.91280,61.37960,0 -149.90125,61.38660,0 -149.88780,61.39478,0 -149.86280,61.40413,0 -149.83780,61.41056,0 -149.83440,61.41160,0 -149.81280,61.42251,0 -149.78780,61.43439,0 -149.78171,61.43660,0 -149.76280,61.44525,0 -149.73780,61.44605,0 -149.71280,61.43926,0 -149.70507,61.43660,0 -149.71280,61.42268,0 -149.71464,61.41160,0 -149.73060,61.38660,0 -149.73780,61.37357,0 -149.74437,61.36160,0 -149.76280,61.33997,0 -149.76622,61.33660,0 -149.78780,61.32340,0 -149.80596,61.31160,0 -149.81280,61.30752,0 -149.83780,61.28952,0 -149.84149,61.28660,0 -149.86280,61.26284,0 -149.86405,61.26160,0 -149.87347,61.23660,0 -149.88063,61.21160,0 -149.88780,61.20066,0 -149.90947,61.18660,0 -149.91280,61.18494,0 -149.93780,61.17592,0 -149.96280,61.16990,0 -149.98780,61.16601,0 -149.99831,61.16160,0 -149.98780,61.14800,0 -149.98029,61.13660,0 -149.96280,61.12620,0 -149.94615,61.11160,0 -149.93780,61.10559,0 -149.91280,61.08937,0 -149.90889,61.08660,0 -149.88780,61.07312,0 -149.87059,61.06160,0 -149.86280,61.05603,0 -149.83780,61.03816,0 -149.83585,61.03660,0 -149.81577,61.01160,0 -149.83780,60.99967,0 -149.86280,60.98995,0 -149.87102,60.98660,0 -149.88780,60.98310,0 -149.91280,60.97812,0 -149.93780,60.97547,0 -149.96280,60.97776,0 -149.98744,60.98660,0 -149.98780,60.98679,0 -150.01280,61.00055,0 -150.03780,61.00998,0 -150.04728,61.01160,0 -150.06280,61.01388,0 -150.08780,61.01352,0 -150.10277,61.01160,0 -150.11280,61.00991,0 -150.13780,61.00539,0 -150.16280,61.00250,0 -150.18780,61.00111,0 -150.21280,61.00127,0 -150.23780,61.00347,0 -150.26280,61.00838,0 -150.27100,61.01160,0 -150.28780,61.01645,0 -150.31280,61.02705,0 -150.33213,61.03660,0 -150.33780,61.03891,0 -150.36280,61.04700,0 -150.38780,61.05236,0 -150.41280,61.05580,0 -150.43780,61.05747,0 -150.46280,61.05720,0 -150.48780,61.05545,0 -150.51280,61.05276,0 -150.53780,61.04920,0 -150.56280,61.04464,0 -150.58780,61.03886,0 -150.59743,61.03660,0 -150.61280,61.03405,0 -150.63780,61.02978,0 -150.66280,61.02603,0 -150.68780,61.02337,0 -150.71280,61.02093,0 -150.73780,61.01887,0 -150.76280,61.01796,0 -150.78780,61.01813,0 -150.81280,61.01890,0 -150.83780,61.01992,0 -150.86280,61.02114,0 -150.88780,61.02254,0 -150.91280,61.02414,0 -150.93780,61.02594,0 -150.96280,61.02794,0 -150.98780,61.03015,0 -151.01280,61.03256,0 -151.03780,61.03522,0 -151.04504,61.03660,0 -151.06280,61.04158,0 -151.07432,61.06160,0 -151.06958,61.08660,0 -151.06280,61.10263,0 -151.05896,61.11160,0 -151.04406,61.13660,0 -151.03780,61.14493,0 -151.02367,61.16160,0 -151.01280,61.17308,0 -150.99502,61.18660,0 -150.98780,61.19254,0 -150.96280,61.20964,0 -150.95981,61.21160,0 -150.93780,61.23245,0 -150.92949,61.23660,0 -150.91280,61.26129,0 -150.91246,61.26160,0 -150.91280,61.26184,0 -150.93780,61.26910,0 -150.96280,61.28084,0 -150.96605,61.28660,0 -150.96280,61.29032,0 -150.93821,61.31160,0 -150.93780,61.31178,0 -150.91280,61.32681,0 -150.90226,61.33660,0 -150.88780,61.34358,0 -150.86280,61.35132,0 -150.83780,61.35741,0 -150.82868,61.36160,0 -150.81280,61.36654,0 -150.78780,61.37580,0 -150.76280,61.38482,0 -150.75899,61.38660,0 -150.73780,61.39481,0 -150.71280,61.40732,0 -150.70551,61.41160,0 -150.68780,61.42280,0 -150.66661,61.43660,0 -150.66280,61.44043,0 -150.64444,61.46160,0 -150.64506,61.48660,0 -150.66184,61.51160,0 -150.66280,61.51241,0 -150.68780,61.52724,0 -150.70767,61.53660,0 -150.71280,61.53843,0 -150.73780,61.54693,0 -150.76280,61.55816,0 -150.77124,61.56160,0 -150.78780,61.56681,0 -150.81280,61.56789,0 -150.83780,61.56308,0 -150.86280,61.56328,0 -150.88780,61.57315,0 -150.91068,61.58660,0 -150.91280,61.58772,0 -150.93780,61.59989,0 -150.95729,61.61160,0 -150.96280,61.61497,0 -150.98780,61.62372,0 -151.00859,61.61160,0 -150.99532,61.58660,0 -150.98780,61.57180,0 -150.98508,61.56160,0 -150.98780,61.55276,0 -150.99559,61.53660,0 -151.01280,61.52550,0 -151.03780,61.51967,0 -151.05021,61.51160,0 -151.06280,61.50459,0 -151.07458,61.48660,0 -151.08780,61.47000,0 -151.09302,61.46160,0 -151.10273,61.43660,0 -151.10684,61.41160,0 -151.11280,61.39337,0 -151.12206,61.38660,0 -151.13780,61.38289,0 -151.16280,61.38409,0 -151.17572,61.38660,0 -151.18780,61.38934,0 -151.21280,61.39660,0 -151.23780,61.40034,0 -151.26273,61.41160,0 -151.26280,61.41162,0 -151.28667,61.43660,0 -151.28780,61.43741,0 -151.30453,61.46160,0 -151.31280,61.47144,0 -151.32973,61.48660,0 -151.33780,61.49186,0 -151.36280,61.50065,0 -151.38780,61.50524,0 -151.41280,61.50894,0 -151.42083,61.51160,0 -151.43780,61.52357,0 -151.44555,61.53660,0 -151.44936,61.56160,0 -151.45293,61.58660,0 -151.46065,61.61160,0 -151.46280,61.61572,0 -151.47784,61.63660,0 -151.48780,61.64898,0 -151.49650,61.66160,0 -151.49639,61.68660,0 -151.48780,61.69578,0 -151.46726,61.71160,0 -151.46280,61.71780,0 -151.45509,61.73660,0 -151.44982,61.76160,0 -151.44523,61.78660,0 -151.46263,61.81160,0 -151.46280,61.81178,0 -151.48605,61.83660,0 -151.48780,61.84349,0 -151.49178,61.86160,0 -151.48780,61.87795,0 -151.46280,61.87827,0 -151.43780,61.88153,0 -151.42871,61.88660,0 -151.41280,61.89269,0 -151.39814,61.91160,0 -151.39737,61.93660,0 -151.40643,61.96160,0 -151.41280,61.97337,0 -151.42150,61.98660,0 -151.43780,62.00990,0 -151.43946,62.01160,0 -151.46280,62.03164,0 -151.47235,62.03660,0 -151.48780,62.04412,0 -151.51280,62.05893,0 -151.51662,62.06160,0 -151.53780,62.07823,0 -151.55168,62.08660,0 -151.56280,62.09244,0 -151.58780,62.10767,0 -151.59181,62.11160,0 -151.60984,62.13660,0 -151.61280,62.15659,0 -151.61353,62.16160,0 -151.61280,62.16255,0 -151.58780,62.17118,0 -151.56280,62.16823,0 -151.53780,62.16381,0 -151.52522,62.16160,0 -151.51280,62.15903,0 -151.48780,62.15457,0 -151.46280,62.14892,0 -151.43780,62.13968,0 -151.43198,62.13660,0 -151.41280,62.12626,0 -151.38780,62.11183,0 -151.38747,62.11160,0 -151.36280,62.09489,0 -151.35162,62.08660,0 -151.33780,62.07677,0 -151.31778,62.06160,0 -151.31280,62.05793,0 -151.28780,62.03995,0 -151.28220,62.03660,0 -151.26280,62.02654,0 -151.23780,62.02027,0 -151.21280,62.01878,0 -151.18780,62.02104,0 -151.16280,62.02805,0 -151.14289,62.03660,0 -151.14153,62.06160,0 -151.14238,62.08660,0 -151.13780,62.09553,0 -151.13056,62.11160,0 -151.11280,62.13001,0 -151.10783,62.13660,0 -151.08780,62.15625,0 -151.08112,62.16160,0 -151.06280,62.18342,0 -151.04891,62.18660,0 -151.03780,62.18945,0 -151.02612,62.18660,0 -151.01280,62.18256,0 -150.98780,62.18186,0 -150.97053,62.18660,0 -150.96280,62.18977,0 -150.93780,62.18711,0 -150.93631,62.18660,0 -150.91280,62.17990,0 -150.88780,62.18182,0 -150.86280,62.18198,0 -150.83780,62.18002,0 -150.81280,62.17506,0 -150.78780,62.16983,0 -150.76280,62.17178,0 -150.73780,62.18100,0 -150.72053,62.18660,0 -150.71280,62.18957,0 -150.68780,62.18908,0 -150.67174,62.18660,0 -150.66280,62.18531,0 -150.64426,62.18660,0 -150.63780,62.18750,0 -150.61280,62.20984,0 -150.58780,62.20845,0 -150.56280,62.21132,0 -150.56224,62.21160,0 -150.53780,62.22722,0 -150.51280,62.23521,0 -150.51058,62.23660,0 -150.48780,62.24927,0 -150.46987,62.26160,0 -150.46280,62.26513,0 -150.43780,62.27504,0 -150.41280,62.27883,0 -150.38780,62.28051,0 -150.36280,62.27972,0 -150.33780,62.27613,0 -150.31280,62.27893,0 -150.30032,62.28660,0 -150.28780,62.29307,0 </coordinates>
        </LineString>
      </MultiGeometry>
    </Placemark>
    <Placemark>
      <name>0.08</name>
      <styleUrl>#style_pgm</styleUrl>
      <visibility>0</visibility>
      <Point>
        <altitudeMode>clampToGround</altitudeMode>
        <coordinates>-150.28780,62.29307,0</coordinates>
      </Point>
    </Placemark>
    <Placemark>
      <name>0.08</name>
      <styleUrl>#style_pgm</styleUrl>
      <visibility>0</visibility>
      <Point>
        <altitudeMode>clampToGround</altitudeMode>
        <coordinates>-149.87059,61.06160,0</coordinates>
      </Point>
    </Placemark>
    <Placemark>
      <name>0.08</name>
      <styleUrl>#style_pgm</styleUrl>
      <visibility>0</visibility>
      <Point>
        <altitudeMode>clampToGround</altitudeMode>
        <coordinates>-151.13780,61.38289,0</coordinates>
      </Point>
    </Placemark>
    <Placemark>
      <name>psa10 0.08 %g Contour</name>
      <styleUrl>#style_pgm</styleUrl>
      <visibility>0</visibility>
      <Snippet maxLines="0">
      </Snippet>
      <open>0</open>
      <MultiGeometry>
        <LineString>
          <gx:drawOrder>5</gx:drawOrder>
          <extrude>0</extrude>
          <tessellate>1</tessellate>
          <altitudeMode>clampToGround</altitudeMode>
          <coordinates>-151.33780,61.82241,0 -151.31280,61.82212,0 -151.28780,61.81479,0 -151.28073,61.81160,0 -151.26280,61.80389,0 -151.23780,61.79128,0 -151.23012,61.78660,0 -151.21280,61.77611,0 -151.18780,61.76335,0 -151.18414,61.76160,0 -151.16280,61.75044,0 -151.13780,61.73952,0 -151.13165,61.73660,0 -151.11280,61.72371,0 -151.09280,61.71160,0 -151.08780,61.70502,0 -151.06953,61.68660,0 -151.06280,61.67312,0 -151.05270,61.66160,0 -151.06280,61.64272,0 -151.08780,61.65159,0 -151.11280,61.65470,0 -151.13780,61.64201,0 -151.14329,61.63660,0 -151.16280,61.61324,0 -151.16441,61.61160,0 -151.18780,61.59218,0 -151.19991,61.58660,0 -151.21280,61.58128,0 -151.23393,61.58660,0 -151.23780,61.58751,0 -151.26280,61.60507,0 -151.26957,61.61160,0 -151.28780,61.63176,0 -151.29158,61.63660,0 -151.30766,61.66160,0 -151.31280,61.67115,0 -151.32489,61.68660,0 -151.33780,61.70821,0 -151.33957,61.71160,0 -151.34857,61.73660,0 -151.35911,61.76160,0 -151.36280,61.77366,0 -151.36820,61.78660,0 -151.36280,61.80024,0 -151.35670,61.81160,0 -151.33780,61.82241,0 </coordinates>
        </LineString>
      </MultiGeometry>
    </Placemark>
    <Placemark>
      <name>psa10 0.08 %g Contour</name>
      <styleUrl>#style_pgm</styleUrl>
      <visibility>0</visibility>
      <Snippet maxLines="0">
      </Snippet>
      <open>0</open>
      <MultiGeometry>
        <LineString>
          <gx:drawOrder>5</gx:drawOrder>
          <extrude>0</extrude>
          <tessellate>1</tessellate>
          <altitudeMode>clampToGround</altitudeMode>
          <coordinates>-151.18780,60.88795,0 -151.16280,60.89083,0 -151.13780,60.89136,0 -151.11280,60.88958,0 -151.09599,60.88660,0 -151.08780,60.88545,0 -151.06280,60.88008,0 -151.03780,60.87137,0 -151.02293,60.86160,0 -151.01280,60.83904,0 -151.01207,60.83660,0 -151.01280,60.83531,0 -151.03489,60.81160,0 -151.03780,60.81009,0 -151.06280,60.80137,0 -151.08780,60.79771,0 -151.11280,60.79712,0 -151.13780,60.79733,0 -151.16280,60.79760,0 -151.18780,60.79828,0 -151.21280,60.79828,0 -151.23780,60.79499,0 -151.26238,60.78660,0 -151.26280,60.78644,0 -151.28780,60.77856,0 -151.31280,60.77707,0 -151.33780,60.78521,0 -151.33973,60.78660,0 -151.34258,60.81160,0 -151.33780,60.81835,0 -151.32238,60.83660,0 -151.31280,60.84406,0 -151.28780,60.85869,0 -151.28188,60.86160,0 -151.26280,60.86982,0 -151.23780,60.87748,0 -151.21280,60.88339,0 -151.19404,60.88660,0 -151.18780,60.88795,0 </coordinates>
        </LineString>
      </MultiGeometry>
    </Placemark>
    <Placemark>
      <name>psa10 0.1 %g Contour</name>
      <styleUrl>#style_pgm</styleUrl>
      <visibility>0</visibility>
      <Snippet maxLines="0">
      </Snippet>
      <open>0</open>
      <MultiGeometry>
        <LineString>
          <gx:drawOrder>5</gx:drawOrder>
          <extrude>0</extrude>
          <tessellate>1</tessellate>
          <altitudeMode>clampToGround</altitudeMode>
          <coordinates>-150.38780,62.13724,0 -150.36280,62.13878,0 -150.33780,62.13872,0 -150.32225,62.13660,0 -150.31280,62.12811,0 -150.30799,62.11160,0 -150.28780,62.10073,0 -150.26280,62.08797,0 -150.26142,62.08660,0 -150.23780,62.06913,0 -150.22883,62.06160,0 -150.21280,62.04830,0 -150.19875,62.03660,0 -150.18780,62.02610,0 -150.16280,62.02030,0 -150.14313,62.03660,0 -150.13780,62.04085,0 -150.11280,62.05533,0 -150.09183,62.03660,0 -150.08780,62.03354,0 -150.07248,62.01160,0 -150.06280,62.00232,0 -150.04335,61.98660,0 -150.03780,61.98143,0 -150.01978,61.96160,0 -150.01280,61.94151,0 -150.01123,61.93660,0 -150.00459,61.91160,0 -150.00189,61.88660,0 -150.01280,61.86278,0 -150.01402,61.86160,0 -150.03780,61.84685,0 -150.06280,61.84818,0 -150.08780,61.85219,0 -150.11280,61.84072,0 -150.11582,61.83660,0 -150.12451,61.81160,0 -150.13780,61.80155,0 -150.14506,61.78660,0 -150.16280,61.76213,0 -150.16309,61.76160,0 -150.17629,61.73660,0 -150.18780,61.71366,0 -150.18956,61.71160,0 -150.20784,61.68660,0 -150.21280,61.67688,0 -150.21973,61.66160,0 -150.22068,61.63660,0 -150.22149,61.61160,0 -150.22484,61.58660,0 -150.22619,61.56160,0 -150.22234,61.53660,0 -150.21835,61.51160,0 -150.21642,61.48660,0 -150.21473,61.46160,0 -150.21515,61.43660,0 -150.23231,61.41160,0 -150.23780,61.40868,0 -150.26280,61.39597,0 -150.28392,61.38660,0 -150.28780,61.38407,0 -150.31280,61.36947,0 -150.31978,61.36160,0 -150.33780,61.34801,0 -150.35948,61.33660,0 -150.36280,61.33498,0 -150.37837,61.33660,0 -150.38780,61.33797,0 -150.41280,61.34141,0 -150.42492,61.33660,0 -150.43780,61.33316,0 -150.46280,61.32887,0 -150.48780,61.32774,0 -150.51280,61.32466,0 -150.53780,61.31663,0 -150.54704,61.31160,0 -150.54593,61.28660,0 -150.53780,61.27485,0 -150.52948,61.26160,0 -150.51280,61.24494,0 -150.49488,61.23660,0 -150.48780,61.23271,0 -150.46280,61.23299,0 -150.45344,61.23660,0 -150.43780,61.24171,0 -150.41280,61.25308,0 -150.39097,61.26160,0 -150.38780,61.26357,0 -150.36280,61.27575,0 -150.33780,61.28261,0 -150.31280,61.28619,0 -150.28780,61.28462,0 -150.26280,61.27949,0 -150.23780,61.27701,0 -150.21280,61.27699,0 -150.18780,61.27714,0 -150.16280,61.27792,0 -150.13780,61.27937,0 -150.11280,61.28064,0 -150.08780,61.28118,0 -150.06280,61.28191,0 -150.03780,61.28510,0 -150.02995,61.28660,0 -150.01280,61.29068,0 -149.98780,61.29240,0 -149.96751,61.28660,0 -149.96280,61.28525,0 -149.93780,61.28327,0 -149.93338,61.28660,0 -149.92569,61.31160,0 -149.91280,61.33340,0 -149.91157,61.33660,0 -149.88780,61.35990,0 -149.88486,61.36160,0 -149.86280,61.37189,0 -149.83780,61.37536,0 -149.81280,61.37318,0 -149.79651,61.36160,0 -149.81070,61.33660,0 -149.81280,61.33521,0 -149.83780,61.31387,0 -149.84010,61.31160,0 -149.86280,61.29430,0 -149.87651,61.28660,0 -149.88780,61.27547,0 -149.90489,61.26160,0 -149.91250,61.23660,0 -149.91280,61.23620,0 -149.93780,61.21709,0 -149.94941,61.21160,0 -149.96280,61.20779,0 -149.98780,61.20621,0 -150.01280,61.20241,0 -150.03670,61.18660,0 -150.03780,61.18539,0 -150.05207,61.16160,0 -150.04939,61.13660,0 -150.03780,61.12014,0 -150.02579,61.11160,0 -150.01280,61.09441,0 -150.00429,61.08660,0 -150.01280,61.07297,0 -150.03780,61.07435,0 -150.06280,61.07216,0 -150.08716,61.06160,0 -150.08780,61.06141,0 -150.11280,61.04996,0 -150.13780,61.04157,0 -150.16280,61.03698,0 -150.16731,61.03660,0 -150.18780,61.03485,0 -150.21280,61.03428,0 -150.23780,61.03485,0 -150.25772,61.03660,0 -150.26280,61.03708,0 -150.28780,61.04244,0 -150.31280,61.05040,0 -150.33780,61.05895,0 -150.34613,61.06160,0 -150.36280,61.06735,0 -150.38780,61.07390,0 -150.41280,61.08021,0 -150.43207,61.08660,0 -150.43780,61.08974,0 -150.46280,61.10746,0 -150.46851,61.11160,0 -150.48761,61.13660,0 -150.48780,61.13703,0 -150.51280,61.15963,0 -150.52562,61.16160,0 -150.53780,61.16344,0 -150.56280,61.16269,0 -150.58780,61.16168,0 -150.59037,61.16160,0 -150.61280,61.16086,0 -150.63780,61.16028,0 -150.66280,61.15996,0 -150.68780,61.15991,0 -150.71280,61.16013,0 -150.73780,61.16065,0 -150.76280,61.16152,0 -150.76425,61.16160,0 -150.78780,61.16341,0 -150.81280,61.16850,0 -150.83518,61.18660,0 -150.81280,61.20285,0 -150.80440,61.21160,0 -150.78780,61.21956,0 -150.76280,61.23441,0 -150.75970,61.23660,0 -150.73780,61.25058,0 -150.71967,61.26160,0 -150.71280,61.26852,0 -150.69403,61.28660,0 -150.68780,61.30061,0 -150.68403,61.31160,0 -150.68780,61.32315,0 -150.71280,61.33235,0 -150.71782,61.33660,0 -150.71280,61.34158,0 -150.69951,61.36160,0 -150.68780,61.36669,0 -150.66612,61.38660,0 -150.66280,61.38828,0 -150.63780,61.41033,0 -150.63698,61.41160,0 -150.61294,61.43660,0 -150.61280,61.43688,0 -150.60477,61.46160,0 -150.60947,61.48660,0 -150.61280,61.49543,0 -150.62031,61.51160,0 -150.63683,61.53660,0 -150.63780,61.53799,0 -150.66280,61.55330,0 -150.68780,61.56016,0 -150.69329,61.56160,0 -150.71280,61.56681,0 -150.73780,61.57369,0 -150.76280,61.58340,0 -150.77071,61.58660,0 -150.78780,61.59441,0 -150.81280,61.59985,0 -150.83780,61.60115,0 -150.86280,61.60440,0 -150.88264,61.61160,0 -150.88780,61.61340,0 -150.91280,61.62587,0 -150.92908,61.63660,0 -150.93780,61.64180,0 -150.96280,61.65977,0 -150.96553,61.66160,0 -150.98780,61.67564,0 -151.00597,61.68660,0 -151.01280,61.69061,0 -151.03780,61.70998,0 -151.03954,61.71160,0 -151.06280,61.73212,0 -151.06907,61.73660,0 -151.08780,61.74863,0 -151.11280,61.76111,0 -151.11381,61.76160,0 -151.13780,61.77383,0 -151.16280,61.78529,0 -151.16544,61.78660,0 -151.18780,61.80080,0 -151.20512,61.81160,0 -151.21280,61.81800,0 -151.23780,61.83618,0 -151.23853,61.83660,0 -151.26280,61.85177,0 -151.28220,61.86160,0 -151.28780,61.86444,0 -151.31280,61.87802,0 -151.32537,61.88660,0 -151.33780,61.89720,0 -151.34730,61.91160,0 -151.35812,61.93660,0 -151.36280,61.94817,0 -151.36754,61.96160,0 -151.37711,61.98660,0 -151.38780,62.01128,0 -151.38794,62.01160,0 -151.39625,62.03660,0 -151.39011,62.06160,0 -151.38780,62.06204,0 -151.38669,62.06160,0 -151.36280,62.05183,0 -151.33780,62.03997,0 -151.33272,62.03660,0 -151.31280,62.02290,0 -151.29338,62.01160,0 -151.28780,62.00833,0 -151.26280,61.99795,0 -151.23780,61.99297,0 -151.21280,61.98909,0 -151.19804,61.98660,0 -151.18780,61.98360,0 -151.16280,61.97905,0 -151.13780,61.98020,0 -151.11594,61.98660,0 -151.11280,61.98734,0 -151.08780,61.99367,0 -151.06280,61.99670,0 -151.03780,61.99685,0 -151.01280,61.99746,0 -150.98780,61.99902,0 -150.96280,62.00177,0 -150.93780,62.00835,0 -150.93196,62.01160,0 -150.91464,62.03660,0 -150.91280,62.03860,0 -150.88881,62.06160,0 -150.88780,62.06256,0 -150.87579,62.06160,0 -150.86280,62.05939,0 -150.84853,62.03660,0 -150.83780,62.01437,0 -150.81280,62.03080,0 -150.80947,62.03660,0 -150.78780,62.05946,0 -150.78375,62.06160,0 -150.76280,62.07405,0 -150.73780,62.07472,0 -150.71280,62.06487,0 -150.68780,62.06386,0 -150.66280,62.06562,0 -150.63780,62.06225,0 -150.61280,62.07527,0 -150.60300,62.08660,0 -150.58780,62.09770,0 -150.56280,62.10814,0 -150.53780,62.11083,0 -150.53178,62.11160,0 -150.51280,62.11599,0 -150.48780,62.11818,0 -150.46732,62.11160,0 -150.46280,62.11053,0 -150.43780,62.10786,0 -150.42394,62.11160,0 -150.41280,62.12307,0 -150.38914,62.13660,0 -150.38780,62.13724,0 </coordinates>
        </LineString>
      </MultiGeometry>
    </Placemark>
    <Placemark>
      <name>0.1</name>
      <styleUrl>#style_pgm</styleUrl>
      <visibility>0</visibility>
      <Point>
        <altitudeMode>clampToGround</altitudeMode>
        <coordinates>-150.38780,62.13724,0</coordinates>
      </Point>
    </Placemark>
    <Placemark>
      <name>0.1</name>
      <styleUrl>#style_pgm</styleUrl>
      <visibility>0</visibility>
      <Point>
        <altitudeMode>clampToGround</altitudeMode>
        <coordinates>-149.93780,61.28327,0</coordinates>
      </Point>
    </Placemark>
    <Placemark>
      <name>0.1</name>
      <styleUrl>#style_pgm</styleUrl>
      <visibility>0</visibility>
      <Point>
        <altitudeMode>clampToGround</altitudeMode>
        <coordinates>-150.68780,61.56016,0</coordinates>
      </Point>
    </Placemark>
    <Placemark>
      <name>psa10 0.12 %g Contour</name>
      <styleUrl>#style_pgm</styleUrl>
      <visibility>0</visibility>
      <Snippet maxLines="0">
      </Snippet>
      <open>0</open>
      <MultiGeometry>
        <LineString>
          <gx:drawOrder>5</gx:drawOrder>
          <extrude>0</extrude>
          <tessellate>1</tessellate>
          <altitudeMode>clampToGround</altitudeMode>
          <coordinates>-150.48780,61.98978,0 -150.46280,62.00112,0 -150.43780,62.00211,0 -150.41728,61.98660,0 -150.41280,61.98197,0 -150.39322,61.96160,0 -150.38780,61.95731,0 -150.36280,61.95132,0 -150.33780,61.95614,0 -150.32090,61.96160,0 -150.31280,61.96465,0 -150.28780,61.96941,0 -150.26280,61.96344,0 -150.25930,61.96160,0 -150.23780,61.95327,0 -150.21280,61.94278,0 -150.20449,61.93660,0 -150.19190,61.91160,0 -150.20815,61.88660,0 -150.21280,61.88250,0 -150.22562,61.86160,0 -150.23780,61.83908,0 -150.23900,61.83660,0 -150.23780,61.82785,0 -150.22630,61.81160,0 -150.21280,61.79253,0 -150.21199,61.78660,0 -150.21280,61.78547,0 -150.23780,61.77092,0 -150.25893,61.76160,0 -150.26280,61.76084,0 -150.28780,61.76141,0 -150.28824,61.76160,0 -150.31280,61.77352,0 -150.33780,61.77201,0 -150.34251,61.76160,0 -150.35435,61.73660,0 -150.36069,61.71160,0 -150.36095,61.68660,0 -150.35512,61.66160,0 -150.33780,61.64964,0 -150.31280,61.63728,0 -150.31191,61.63660,0 -150.28907,61.61160,0 -150.28780,61.60905,0 -150.28047,61.58660,0 -150.27207,61.56160,0 -150.26280,61.54302,0 -150.26031,61.53660,0 -150.25360,61.51160,0 -150.25501,61.48660,0 -150.26280,61.46803,0 -150.26942,61.46160,0 -150.28780,61.45192,0 -150.31280,61.45050,0 -150.33780,61.46084,0 -150.33867,61.46160,0 -150.36280,61.48333,0 -150.36725,61.48660,0 -150.38780,61.50094,0 -150.41114,61.51160,0 -150.41280,61.51311,0 -150.43770,61.53660,0 -150.43780,61.53670,0 -150.46280,61.54908,0 -150.47534,61.56160,0 -150.48780,61.58213,0 -150.48937,61.58660,0 -150.50287,61.61160,0 -150.51280,61.62168,0 -150.53692,61.63660,0 -150.53780,61.63727,0 -150.56280,61.64913,0 -150.58181,61.66160,0 -150.58780,61.67293,0 -150.59557,61.68660,0 -150.61280,61.70706,0 -150.63780,61.71041,0 -150.66280,61.69527,0 -150.67292,61.68660,0 -150.68780,61.67529,0 -150.70343,61.66160,0 -150.71167,61.63660,0 -150.71280,61.62726,0 -150.71634,61.61160,0 -150.73780,61.60511,0 -150.76162,61.61160,0 -150.76280,61.61230,0 -150.78780,61.63023,0 -150.81151,61.63660,0 -150.81280,61.63713,0 -150.83780,61.64338,0 -150.86280,61.64827,0 -150.88780,61.65232,0 -150.91280,61.65919,0 -150.91697,61.66160,0 -150.93780,61.67437,0 -150.95463,61.68660,0 -150.96280,61.69260,0 -150.98780,61.70678,0 -150.99542,61.71160,0 -151.01280,61.72411,0 -151.02601,61.73660,0 -151.03780,61.75324,0 -151.04658,61.76160,0 -151.06280,61.77787,0 -151.08144,61.78660,0 -151.08780,61.78929,0 -151.11280,61.80216,0 -151.12747,61.81160,0 -151.13780,61.82589,0 -151.14718,61.83660,0 -151.13780,61.85838,0 -151.13581,61.86160,0 -151.11280,61.87219,0 -151.08780,61.87990,0 -151.06280,61.88654,0 -151.06260,61.88660,0 -151.03780,61.89640,0 -151.01280,61.89990,0 -150.98780,61.89306,0 -150.96280,61.88928,0 -150.93780,61.90842,0 -150.93549,61.91160,0 -150.91280,61.93280,0 -150.90485,61.93660,0 -150.88780,61.94245,0 -150.86280,61.94284,0 -150.83780,61.93863,0 -150.82881,61.93660,0 -150.81280,61.93393,0 -150.78780,61.92874,0 -150.76280,61.92188,0 -150.73780,61.91783,0 -150.71280,61.91517,0 -150.70118,61.91160,0 -150.68780,61.90344,0 -150.66674,61.88660,0 -150.66280,61.87897,0 -150.65980,61.88660,0 -150.65461,61.91160,0 -150.64285,61.93660,0 -150.63780,61.94315,0 -150.61280,61.95071,0 -150.58780,61.94559,0 -150.57138,61.93660,0 -150.56280,61.93240,0 -150.53780,61.91349,0 -150.53347,61.91160,0 -150.51280,61.89841,0 -150.50186,61.91160,0 -150.49638,61.93660,0 -150.49825,61.96160,0 -150.49193,61.98660,0 -150.48780,61.98978,0 </coordinates>
        </LineString>
      </MultiGeometry>
    </Placemark>
    <Placemark>
      <name>0.12</name>
      <styleUrl>#style_pgm</styleUrl>
      <visibility>0</visibility>
      <Point>
        <altitudeMode>clampToGround</altitudeMode>
        <coordinates>-150.48780,61.98978,0</coordinates>
      </Point>
    </Placemark>
    <Placemark>
      <name>0.12</name>
      <styleUrl>#style_pgm</styleUrl>
      <visibility>0</visibility>
      <Point>
        <altitudeMode>clampToGround</altitudeMode>
        <coordinates>-150.63780,61.71041,0</coordinates>
      </Point>
    </Placemark>
    <Placemark>
      <name>psa10 0.12 %g Contour</name>
      <styleUrl>#style_pgm</styleUrl>
      <visibility>0</visibility>
      <Snippet maxLines="0">
      </Snippet>
      <open>0</open>
      <MultiGeometry>
        <LineString>
          <gx:drawOrder>5</gx:drawOrder>
          <extrude>0</extrude>
          <tessellate>1</tessellate>
          <altitudeMode>clampToGround</altitudeMode>
          <coordinates>-150.56280,61.54392,0 -150.53780,61.54080,0 -150.52529,61.53660,0 -150.51280,61.53115,0 -150.48780,61.51301,0 -150.48652,61.51160,0 -150.46280,61.48892,0 -150.46070,61.48660,0 -150.44508,61.46160,0 -150.44350,61.43660,0 -150.44866,61.41160,0 -150.46280,61.38870,0 -150.46506,61.38660,0 -150.48780,61.37527,0 -150.51280,61.36910,0 -150.53780,61.36511,0 -150.56280,61.36338,0 -150.58780,61.36848,0 -150.60157,61.38660,0 -150.59353,61.41160,0 -150.58780,61.42036,0 -150.57726,61.43660,0 -150.57232,61.46160,0 -150.57831,61.48660,0 -150.58644,61.51160,0 -150.57850,61.53660,0 -150.56280,61.54392,0 </coordinates>
        </LineString>
      </MultiGeometry>
    </Placemark>
    <Placemark>
      <name>psa10 0.12 %g Contour</name>
      <styleUrl>#style_pgm</styleUrl>
      <visibility>0</visibility>
      <Snippet maxLines="0">
      </Snippet>
      <open>0</open>
      <MultiGeometry>
        <LineString>
          <gx:drawOrder>5</gx:drawOrder>
          <extrude>0</extrude>
          <tessellate>1</tessellate>
          <altitudeMode>clampToGround</altitudeMode>
          <coordinates>-150.36280,61.24026,0 -150.33780,61.24874,0 -150.31280,61.25391,0 -150.28780,61.25492,0 -150.26280,61.25310,0 -150.23780,61.25202,0 -150.21280,61.25209,0 -150.18780,61.25285,0 -150.16280,61.25441,0 -150.13780,61.25595,0 -150.11280,61.25600,0 -150.08780,61.25344,0 -150.06280,61.24735,0 -150.04279,61.23660,0 -150.04718,61.21160,0 -150.06280,61.19289,0 -150.06713,61.18660,0 -150.08247,61.16160,0 -150.08780,61.14648,0 -150.09435,61.13660,0 -150.10660,61.11160,0 -150.11280,61.10393,0 -150.12861,61.08660,0 -150.13780,61.08057,0 -150.16280,61.07052,0 -150.18780,61.06728,0 -150.21280,61.07041,0 -150.23780,61.07826,0 -150.26280,61.07891,0 -150.28780,61.07637,0 -150.31280,61.07866,0 -150.33780,61.08364,0 -150.35046,61.08660,0 -150.36280,61.09061,0 -150.38780,61.09926,0 -150.41280,61.11043,0 -150.41466,61.11160,0 -150.43595,61.13660,0 -150.43780,61.14312,0 -150.44276,61.16160,0 -150.43780,61.18440,0 -150.43729,61.18660,0 -150.41585,61.21160,0 -150.41280,61.21356,0 -150.38780,61.22825,0 -150.37092,61.23660,0 -150.36280,61.24026,0 </coordinates>
        </LineString>
      </MultiGeometry>
    </Placemark>
    <Placemark>
      <name>psa10 0.14 %g Contour</name>
      <styleUrl>#style_pgm</styleUrl>
      <visibility>0</visibility>
      <Snippet maxLines="0">
      </Snippet>
      <open>0</open>
      <MultiGeometry>
        <LineString>
          <gx:drawOrder>5</gx:drawOrder>
          <extrude>0</extrude>
          <tessellate>1</tessellate>
          <altitudeMode>clampToGround</altitudeMode>
          <coordinates>-150.88780,61.89261,0 -150.86280,61.90444,0 -150.83780,61.90527,0 -150.81280,61.90220,0 -150.78780,61.89523,0 -150.76617,61.88660,0 -150.76280,61.88494,0 -150.73780,61.87335,0 -150.72194,61.86160,0 -150.71280,61.84647,0 -150.70797,61.83660,0 -150.70165,61.81160,0 -150.69869,61.78660,0 -150.70816,61.76160,0 -150.71280,61.75741,0 -150.73780,61.74065,0 -150.74993,61.73660,0 -150.76280,61.73302,0 -150.78780,61.72906,0 -150.81280,61.73205,0 -150.82310,61.73660,0 -150.83780,61.75326,0 -150.84536,61.76160,0 -150.84638,61.78660,0 -150.85834,61.81160,0 -150.86280,61.81677,0 -150.86793,61.81160,0 -150.88780,61.78720,0 -150.88869,61.78660,0 -150.91280,61.77200,0 -150.93176,61.76160,0 -150.93780,61.75260,0 -150.94570,61.73660,0 -150.96280,61.73187,0 -150.98121,61.73660,0 -150.98780,61.73912,0 -151.00460,61.76160,0 -151.00141,61.78660,0 -150.98780,61.79757,0 -150.96597,61.81160,0 -150.96280,61.81467,0 -150.95123,61.83660,0 -150.93780,61.84852,0 -150.91597,61.86160,0 -150.91280,61.86423,0 -150.89305,61.88660,0 -150.88780,61.89261,0 </coordinates>
        </LineString>
      </MultiGeometry>
    </Placemark>
    <Placemark>
      <name>psa10 0.14 %g Contour</name>
      <styleUrl>#style_pgm</styleUrl>
      <visibility>0</visibility>
      <Snippet maxLines="0">
      </Snippet>
      <open>0</open>
      <MultiGeometry>
        <LineString>
          <gx:drawOrder>5</gx:drawOrder>
          <extrude>0</extrude>
          <tessellate>1</tessellate>
          <altitudeMode>clampToGround</altitudeMode>
          <coordinates>-150.33780,61.21647,0 -150.31280,61.22289,0 -150.28780,61.22618,0 -150.26280,61.22616,0 -150.23780,61.22337,0 -150.21280,61.21758,0 -150.18780,61.21670,0 -150.16280,61.22515,0 -150.13780,61.23062,0 -150.11280,61.22859,0 -150.08780,61.21294,0 -150.08696,61.21160,0 -150.08780,61.21008,0 -150.10448,61.18660,0 -150.11280,61.17805,0 -150.13780,61.18084,0 -150.14460,61.18660,0 -150.16280,61.20103,0 -150.18780,61.20933,0 -150.21280,61.20860,0 -150.23780,61.20013,0 -150.25467,61.18660,0 -150.26280,61.18199,0 -150.28780,61.16530,0 -150.29392,61.16160,0 -150.31280,61.14587,0 -150.33634,61.13660,0 -150.33780,61.13604,0 -150.34632,61.13660,0 -150.36280,61.13817,0 -150.38780,61.15730,0 -150.39009,61.16160,0 -150.38780,61.17270,0 -150.38397,61.18660,0 -150.36280,61.20303,0 -150.35098,61.21160,0 -150.33780,61.21647,0 </coordinates>
        </LineString>
      </MultiGeometry>
    </Placemark>
  </Document>
</kml>

