<?xml version="1.0" encoding="UTF-8" standalone="yes"?>
<kml xmlns="http://www.opengis.net/kml/2.2" xmlns:gx="http://www.google.com/kml/ext/2.2" xmlns:kml="http://www.opengis.net/kml/2.2" xmlns:atom="http://www.w3.org/2005/Atom">
  <NetworkLinkControl>
    <minRefreshPeriod>300</minRefreshPeriod>
  </NetworkLinkControl>
  <Document>
    <Style id="style_pgm">
      <IconStyle>
        <Icon>
        </Icon>
      </IconStyle>
      <LineStyle>
        <colorMode>normal</colorMode>
        <color>ffffffff</color>
        <width>6</width>
      </LineStyle>
      <LabelStyle>
        <color>ffffffff</color>
        <scale>1</scale>
      </LabelStyle>
      <BalloonStyle>
        <text>&lt;b&gt;$[name]&lt;/b&gt;</text>
      </BalloonStyle>
    </Style>
    <name>PSA03 Contours</name>
    <visibility>0</visibility>
    <Placemark>
      <name>psa03 0.5 %g Contour</name>
      <styleUrl>#style_pgm</styleUrl>
      <visibility>0</visibility>
      <Snippet maxLines="0">
      </Snippet>
      <open>0</open>
      <MultiGeometry>
        <LineString>
          <gx:drawOrder>5</gx:drawOrder>
          <extrude>0</extrude>
          <tessellate>1</tessellate>
          <altitudeMode>clampToGround</altitudeMode>
          <coordinates>-151.26280,62.96606,0 -151.23780,62.97424,0 -151.21280,62.96658,0 -151.20738,62.96160,0 -151.19101,62.93660,0 -151.18780,62.93256,0 -151.16280,62.91536,0 -151.14384,62.91160,0 -151.13780,62.91053,0 -151.11280,62.91046,0 -151.08780,62.91136,0 -151.08244,62.91160,0 -151.06280,62.91257,0 -151.03780,62.91421,0 -151.01280,62.91578,0 -150.98780,62.91761,0 -150.96280,62.92043,0 -150.93780,62.92534,0 -150.91280,62.93204,0 -150.88780,62.93635,0 -150.86280,62.93650,0 -150.83780,62.93382,0 -150.81280,62.93305,0 -150.78780,62.93541,0 -150.77756,62.93660,0 -150.76280,62.94039,0 -150.73780,62.95575,0 -150.72874,62.96160,0 -150.71280,62.96874,0 -150.68780,62.96320,0 -150.68551,62.96160,0 -150.66280,62.95006,0 -150.63780,62.94052,0 -150.61280,62.93740,0 -150.59725,62.93660,0 -150.58780,62.93618,0 -150.56280,62.93370,0 -150.53780,62.93071,0 -150.51280,62.92929,0 -150.48780,62.92856,0 -150.46280,62.92641,0 -150.43780,62.92380,0 -150.41280,62.92237,0 -150.38780,62.92143,0 -150.36280,62.92017,0 -150.33780,62.91834,0 -150.31280,62.91584,0 -150.28780,62.91431,0 -150.26280,62.91495,0 -150.23780,62.91654,0 -150.21280,62.91546,0 -150.19487,62.91160,0 -150.18780,62.91014,0 -150.16280,62.90400,0 -150.13780,62.90157,0 -150.11280,62.90419,0 -150.08780,62.90893,0 -150.06992,62.91160,0 -150.06280,62.91311,0 -150.03780,62.92032,0 -150.01280,62.93491,0 -150.01043,62.93660,0 -149.98815,62.96160,0 -149.98780,62.96182,0 -149.96280,62.96374,0 -149.95382,62.96160,0 -149.93780,62.95855,0 -149.91280,62.95530,0 -149.88780,62.95567,0 -149.86280,62.95803,0 -149.83780,62.96152,0 -149.83732,62.96160,0 -149.81280,62.96555,0 -149.78780,62.96910,0 -149.76280,62.96943,0 -149.73780,62.96637,0 -149.71284,62.96160,0 -149.71280,62.96159,0 -149.68780,62.94735,0 -149.68004,62.93660,0 -149.68780,62.92354,0 -149.69466,62.91160,0 -149.71280,62.89779,0 -149.72599,62.88660,0 -149.73748,62.86160,0 -149.71280,62.85374,0 -149.68780,62.85330,0 -149.66280,62.85639,0 -149.64010,62.86160,0 -149.63780,62.86247,0 -149.61280,62.86885,0 -149.58780,62.86350,0 -149.58415,62.86160,0 -149.56280,62.84592,0 -149.54032,62.83660,0 -149.53780,62.83560,0 -149.51280,62.83065,0 -149.48780,62.83127,0 -149.46640,62.83660,0 -149.46280,62.83737,0 -149.45736,62.83660,0 -149.43780,62.83458,0 -149.41280,62.82555,0 -149.38780,62.81163,0 -149.38776,62.81160,0 -149.36280,62.79692,0 -149.34103,62.78660,0 -149.33780,62.78550,0 -149.31280,62.78113,0 -149.28780,62.77622,0 -149.26280,62.76721,0 -149.24404,62.76160,0 -149.23780,62.76028,0 -149.21280,62.76056,0 -149.18780,62.76114,0 -149.16280,62.75406,0 -149.13780,62.74234,0 -149.11385,62.73660,0 -149.11280,62.73636,0 -149.08780,62.73398,0 -149.06280,62.72536,0 -149.03780,62.71321,0 -149.03382,62.71160,0 -149.01280,62.69978,0 -148.98780,62.69446,0 -148.96280,62.69199,0 -148.93780,62.68880,0 -148.92688,62.68660,0 -148.91280,62.67837,0 -148.88780,62.66495,0 -148.87544,62.66160,0 -148.86280,62.64017,0 -148.86155,62.63660,0 -148.86280,62.62754,0 -148.86578,62.61160,0 -148.86280,62.60089,0 -148.86018,62.58660,0 -148.84454,62.56160,0 -148.83780,62.55718,0 -148.81280,62.54809,0 -148.78780,62.54381,0 -148.76280,62.53811,0 -148.75765,62.53660,0 -148.73780,62.52506,0 -148.72552,62.51160,0 -148.71280,62.49235,0 -148.70940,62.48660,0 -148.68973,62.46160,0 -148.68780,62.45983,0 -148.66357,62.43660,0 -148.66280,62.43587,0 -148.63811,62.41160,0 -148.63780,62.41129,0 -148.61280,62.38939,0 -148.60868,62.38660,0 -148.58780,62.37242,0 -148.57057,62.36160,0 -148.56280,62.35470,0 -148.54739,62.33660,0 -148.53780,62.32594,0 -148.52564,62.31160,0 -148.51280,62.29922,0 -148.49920,62.28660,0 -148.48780,62.27747,0 -148.46486,62.26160,0 -148.46280,62.26027,0 -148.43780,62.24962,0 -148.41292,62.23660,0 -148.41280,62.23651,0 -148.39230,62.21160,0 -148.38780,62.20419,0 -148.37796,62.18660,0 -148.37126,62.16160,0 -148.36661,62.13660,0 -148.36280,62.12124,0 -148.36022,62.11160,0 -148.35055,62.08660,0 -148.33916,62.06160,0 -148.33780,62.05874,0 -148.32528,62.03660,0 -148.31280,62.01588,0 -148.31032,62.01160,0 -148.30352,61.98660,0 -148.31280,61.97786,0 -148.33581,61.96160,0 -148.33780,61.96131,0 -148.36280,61.95668,0 -148.38780,61.94961,0 -148.41280,61.93952,0 -148.41834,61.93660,0 -148.43780,61.93118,0 -148.46280,61.92104,0 -148.47797,61.91160,0 -148.48780,61.90693,0 -148.51280,61.89136,0 -148.51854,61.88660,0 -148.53780,61.86990,0 -148.54494,61.86160,0 -148.55788,61.83660,0 -148.55978,61.81160,0 -148.55421,61.78660,0 -148.54478,61.76160,0 -148.53780,61.74974,0 -148.52709,61.73660,0 -148.51280,61.72369,0 -148.49278,61.71160,0 -148.48780,61.70814,0 -148.46280,61.69471,0 -148.44075,61.68660,0 -148.43780,61.68477,0 -148.41280,61.67368,0 -148.38780,61.66621,0 -148.36732,61.66160,0 -148.36280,61.65883,0 -148.33780,61.64619,0 -148.31665,61.63660,0 -148.31417,61.61160,0 -148.32734,61.58660,0 -148.33780,61.57934,0 -148.36280,61.56632,0 -148.37498,61.56160,0 -148.38780,61.56010,0 -148.41280,61.55756,0 -148.43780,61.55477,0 -148.46280,61.55133,0 -148.48780,61.54668,0 -148.51280,61.53985,0 -148.52166,61.53660,0 -148.53780,61.53277,0 -148.56280,61.52584,0 -148.58780,61.51651,0 -148.59717,61.51160,0 -148.61280,61.50323,0 -148.63315,61.48660,0 -148.63780,61.48055,0 -148.64858,61.46160,0 -148.66280,61.44016,0 -148.66515,61.43660,0 -148.68408,61.41160,0 -148.68780,61.39598,0 -148.69039,61.38660,0 -148.68780,61.37827,0 -148.68236,61.36160,0 -148.66364,61.33660,0 -148.66280,61.33563,0 -148.63780,61.31912,0 -148.61280,61.31715,0 -148.58780,61.31987,0 -148.56280,61.32143,0 -148.53780,61.31829,0 -148.52123,61.31160,0 -148.51280,61.30603,0 -148.49222,61.28660,0 -148.48780,61.27116,0 -148.48290,61.26160,0 -148.48780,61.23998,0 -148.48933,61.23660,0 -148.51280,61.21956,0 -148.53780,61.21789,0 -148.56280,61.21511,0 -148.57475,61.21160,0 -148.58780,61.20414,0 -148.61171,61.18660,0 -148.61280,61.18551,0 -148.63092,61.16160,0 -148.63780,61.14977,0 -148.64450,61.13660,0 -148.65553,61.11160,0 -148.66280,61.09786,0 -148.68780,61.08680,0 -148.71280,61.09279,0 -148.73780,61.09749,0 -148.76280,61.09394,0 -148.77940,61.08660,0 -148.78780,61.08239,0 -148.81280,61.07339,0 -148.83780,61.06578,0 -148.84663,61.06160,0 -148.86280,61.05405,0 -148.88780,61.03760,0 -148.88923,61.03660,0 -148.91280,61.02174,0 -148.93217,61.01160,0 -148.93780,61.00836,0 -148.96280,60.99691,0 -148.98673,60.98660,0 -148.98780,60.98605,0 -149.01280,60.97202,0 -149.02987,60.96160,0 -149.03780,60.95504,0 -149.04840,60.93660,0 -149.04150,60.91160,0 -149.03780,60.90296,0 -149.02888,60.88660,0 -149.01280,60.87241,0 -148.98780,60.86857,0 -148.96792,60.86160,0 -148.96280,60.85915,0 -148.95180,60.83660,0 -148.95740,60.81160,0 -148.96280,60.80499,0 -148.98780,60.78859,0 -149.01280,60.79924,0 -149.02226,60.81160,0 -149.03663,60.83660,0 -149.03780,60.83917,0 -149.06280,60.84975,0 -149.08780,60.85107,0 -149.11280,60.85339,0 -149.13780,60.85441,0 -149.16280,60.85334,0 -149.18780,60.85257,0 -149.21280,60.85206,0 -149.23780,60.85065,0 -149.26280,60.84765,0 -149.28780,60.84399,0 -149.31280,60.84108,0 -149.33780,60.83775,0 -149.34350,60.83660,0 -149.36280,60.82972,0 -149.38780,60.82049,0 -149.41280,60.81185,0 -149.41363,60.81160,0 -149.43780,60.80238,0 -149.46280,60.79873,0 -149.48780,60.79724,0 -149.51280,60.79237,0 -149.53473,60.78660,0 -149.53780,60.78578,0 -149.56280,60.77877,0 -149.58780,60.77150,0 -149.61280,60.76348,0 -149.61858,60.76160,0 -149.63780,60.75573,0 -149.66280,60.74910,0 -149.68780,60.74184,0 -149.70339,60.73660,0 -149.71280,60.73330,0 -149.73780,60.72502,0 -149.76280,60.71831,0 -149.78780,60.71274,0 -149.79227,60.71160,0 -149.81280,60.70646,0 -149.83780,60.70166,0 -149.86280,60.69954,0 -149.88780,60.69844,0 -149.91280,60.69743,0 -149.93780,60.69538,0 -149.96280,60.69079,0 -149.97829,60.68660,0 -149.98780,60.68415,0 -150.01280,60.67618,0 -150.03780,60.66602,0 -150.04676,60.66160,0 -150.06280,60.65617,0 -150.08780,60.65047,0 -150.11280,60.64716,0 -150.13780,60.64271,0 -150.16280,60.63671,0 -150.16328,60.63660,0 -150.18780,60.63185,0 -150.21280,60.62822,0 -150.23780,60.62477,0 -150.26280,60.62068,0 -150.28780,60.61521,0 -150.29904,60.61160,0 -150.31280,60.60667,0 -150.33780,60.59582,0 -150.35730,60.58660,0 -150.36280,60.58361,0 -150.38780,60.56860,0 -150.39792,60.56160,0 -150.41280,60.55069,0 -150.43543,60.53660,0 -150.43780,60.53416,0 -150.45882,60.51160,0 -150.46014,60.48660,0 -150.44348,60.46160,0 -150.43780,60.45338,0 -150.42316,60.43660,0 -150.43780,60.42253,0 -150.46280,60.41902,0 -150.48780,60.42375,0 -150.51280,60.43272,0 -150.52371,60.43660,0 -150.53780,60.44417,0 -150.56280,60.45011,0 -150.58780,60.45025,0 -150.61280,60.44752,0 -150.63780,60.44489,0 -150.66280,60.44394,0 -150.68780,60.44542,0 -150.71280,60.45289,0 -150.72765,60.46160,0 -150.73780,60.46863,0 -150.76280,60.47750,0 -150.78780,60.47286,0 -150.81280,60.46263,0 -150.82138,60.46160,0 -150.83780,60.45838,0 -150.84295,60.46160,0 -150.86280,60.46909,0 -150.88780,60.47981,0 -150.91280,60.48181,0 -150.93780,60.47907,0 -150.96280,60.47433,0 -150.98780,60.46826,0 -151.01280,60.46355,0 -151.03397,60.46160,0 -151.03780,60.46102,0 -151.06280,60.45984,0 -151.08780,60.46044,0 -151.11280,60.45394,0 -151.12105,60.43660,0 -151.12861,60.41160,0 -151.13780,60.40233,0 -151.16280,60.38959,0 -151.18780,60.39551,0 -151.20457,60.41160,0 -151.21280,60.42382,0 -151.23067,60.43660,0 -151.23780,60.44034,0 -151.26280,60.43834,0 -151.26499,60.43660,0 -151.28780,60.42186,0 -151.29866,60.41160,0 -151.31280,60.40152,0 -151.33780,60.38957,0 -151.34649,60.38660,0 -151.36280,60.38054,0 -151.38780,60.36867,0 -151.39855,60.36160,0 -151.41280,60.34703,0 -151.42530,60.33660,0 -151.43780,60.31928,0 -151.45692,60.31160,0 -151.46280,60.30774,0 -151.48780,60.31030,0 -151.49369,60.31160,0 -151.51280,60.31447,0 -151.53780,60.31837,0 -151.56280,60.32242,0 -151.58780,60.32661,0 -151.61280,60.33096,0 -151.63780,60.33546,0 -151.64397,60.33660,0 -151.66280,60.33956,0 -151.68780,60.34361,0 -151.71280,60.34780,0 -151.73780,60.35214,0 -151.76280,60.35662,0 -151.78780,60.36124,0 -151.78968,60.36160,0 -151.81280,60.36577,0 -151.83780,60.37060,0 -151.86280,60.37697,0 -151.88349,60.38660,0 -151.88729,60.41160,0 -151.87491,60.43660,0 -151.86471,60.46160,0 -151.86816,60.48660,0 -151.88780,60.49841,0 -151.91280,60.50700,0 -151.93780,60.50842,0 -151.96280,60.49789,0 -151.97550,60.48660,0 -151.98780,60.46989,0 -151.99613,60.46160,0 -152.01280,60.44750,0 -152.03369,60.43660,0 -152.03780,60.43437,0 -152.06280,60.42805,0 -152.08780,60.42771,0 -152.11280,60.43093,0 -152.13780,60.43634,0 -152.13884,60.43660,0 -152.16280,60.44265,0 -152.18780,60.44979,0 -152.21280,60.45827,0 -152.22139,60.46160,0 -152.23780,60.46927,0 -152.25691,60.48660,0 -152.25709,60.51160,0 -152.24592,60.53660,0 -152.23780,60.55035,0 -152.22899,60.56160,0 -152.21280,60.58434,0 -152.21101,60.58660,0 -152.20043,60.61160,0 -152.19798,60.63660,0 -152.20365,60.66160,0 -152.21280,60.67151,0 -152.23181,60.68660,0 -152.23780,60.68864,0 -152.26280,60.70056,0 -152.27453,60.71160,0 -152.28611,60.73660,0 -152.28665,60.76160,0 -152.28030,60.78660,0 -152.26327,60.81160,0 -152.26280,60.81228,0 -152.24175,60.83660,0 -152.23780,60.85107,0 -152.23578,60.86160,0 -152.22968,60.88660,0 -152.23525,60.91160,0 -152.23780,60.91332,0 -152.26280,60.92692,0 -152.28256,60.93660,0 -152.28780,60.93855,0 -152.31280,60.94694,0 -152.33780,60.95366,0 -152.36280,60.95970,0 -152.37081,60.96160,0 -152.38780,60.96520,0 -152.41280,60.97112,0 -152.43780,60.98021,0 -152.45152,60.98660,0 -152.46280,60.99000,0 -152.48780,60.99373,0 -152.51280,60.99554,0 -152.53780,60.99789,0 -152.56280,61.00258,0 -152.58155,61.01160,0 -152.58780,61.02163,0 -152.59697,61.03660,0 -152.60738,61.06160,0 -152.61280,61.07670,0 -152.61645,61.08660,0 -152.63274,61.11160,0 -152.63780,61.11531,0 -152.66280,61.13569,0 -152.66384,61.13660,0 -152.68780,61.14830,0 -152.71280,61.15691,0 -152.72995,61.16160,0 -152.73780,61.16291,0 -152.76280,61.16662,0 -152.78780,61.17262,0 -152.81143,61.18660,0 -152.81020,61.21160,0 -152.78780,61.22151,0 -152.76280,61.22803,0 -152.73780,61.23167,0 -152.71280,61.23244,0 -152.68780,61.23153,0 -152.66280,61.23121,0 -152.63780,61.22890,0 -152.61280,61.22047,0 -152.59636,61.21160,0 -152.58780,61.20310,0 -152.57073,61.18660,0 -152.56280,61.17619,0 -152.54733,61.16160,0 -152.53780,61.15411,0 -152.51280,61.14272,0 -152.48780,61.13727,0 -152.48464,61.13660,0 -152.46280,61.12999,0 -152.43780,61.12272,0 -152.41280,61.11571,0 -152.39855,61.11160,0 -152.38780,61.10735,0 -152.36280,61.09889,0 -152.33780,61.09256,0 -152.31280,61.08756,0 -152.30623,61.08660,0 -152.28780,61.08301,0 -152.26280,61.08111,0 -152.23780,61.08228,0 -152.21444,61.08660,0 -152.21280,61.08687,0 -152.18780,61.09440,0 -152.16280,61.10281,0 -152.13780,61.11059,0 -152.13455,61.11160,0 -152.11280,61.12197,0 -152.08780,61.13136,0 -152.07684,61.13660,0 -152.07499,61.16160,0 -152.08780,61.17554,0 -152.10150,61.18660,0 -152.11280,61.19283,0 -152.13780,61.20635,0 -152.14364,61.21160,0 -152.16280,61.23029,0 -152.16672,61.23660,0 -152.17659,61.26160,0 -152.18780,61.28492,0 -152.18906,61.28660,0 -152.21280,61.30190,0 -152.23159,61.31160,0 -152.23780,61.31425,0 -152.26280,61.32454,0 -152.28661,61.33660,0 -152.28780,61.33702,0 -152.31280,61.34416,0 -152.33780,61.34985,0 -152.36280,61.35392,0 -152.38780,61.35632,0 -152.41280,61.35832,0 -152.43138,61.36160,0 -152.43780,61.36268,0 -152.46280,61.37226,0 -152.48247,61.38660,0 -152.48780,61.39118,0 -152.50902,61.41160,0 -152.51280,61.41489,0 -152.53780,61.43346,0 -152.54296,61.43660,0 -152.56280,61.44685,0 -152.58780,61.45647,0 -152.60373,61.46160,0 -152.61280,61.46444,0 -152.63780,61.47058,0 -152.66280,61.47530,0 -152.68780,61.47863,0 -152.71280,61.48046,0 -152.73780,61.48089,0 -152.76280,61.48035,0 -152.78780,61.47918,0 -152.81280,61.47749,0 -152.83780,61.47496,0 -152.86280,61.47120,0 -152.88780,61.46506,0 -152.89910,61.46160,0 -152.91280,61.45760,0 -152.93780,61.45019,0 -152.96280,61.44629,0 -152.98780,61.45838,0 -152.99081,61.46160,0 -153.00977,61.48660,0 -153.01280,61.49165,0 -153.02564,61.51160,0 -153.03780,61.53195,0 -153.04120,61.53660,0 -153.06280,61.56150,0 -153.06292,61.56160,0 -153.08718,61.58660,0 -153.08780,61.58787,0 -153.09484,61.61160,0 -153.10415,61.63660,0 -153.11280,61.64580,0 -153.12386,61.66160,0 -153.13780,61.67319,0 -153.14717,61.68660,0 -153.15308,61.71160,0 -153.14598,61.73660,0 -153.13789,61.76160,0 -153.14033,61.78660,0 -153.14925,61.81160,0 -153.14987,61.83660,0 -153.14370,61.86160,0 -153.14651,61.88660,0 -153.16214,61.91160,0 -153.16280,61.91430,0 -153.16654,61.93660,0 -153.16331,61.96160,0 -153.16280,61.96432,0 -153.15998,61.98660,0 -153.15723,62.01160,0 -153.15396,62.03660,0 -153.14734,62.06160,0 -153.13780,62.07975,0 -153.13375,62.08660,0 -153.11763,62.11160,0 -153.11280,62.11842,0 -153.09827,62.13660,0 -153.08780,62.14724,0 -153.07170,62.16160,0 -153.06280,62.16902,0 -153.03780,62.18420,0 -153.03251,62.18660,0 -153.01280,62.19897,0 -152.98983,62.21160,0 -152.98780,62.21319,0 -152.96280,62.23016,0 -152.95149,62.23660,0 -152.93780,62.24651,0 -152.91510,62.26160,0 -152.91280,62.26352,0 -152.88780,62.28305,0 -152.88345,62.28660,0 -152.86280,62.30701,0 -152.85865,62.31160,0 -152.83780,62.33267,0 -152.83288,62.33660,0 -152.81280,62.34969,0 -152.79324,62.36160,0 -152.78780,62.36494,0 -152.76280,62.38035,0 -152.75314,62.38660,0 -152.73780,62.39780,0 -152.72008,62.41160,0 -152.71280,62.41749,0 -152.69123,62.43660,0 -152.68780,62.43946,0 -152.66280,62.45975,0 -152.66028,62.46160,0 -152.63780,62.47562,0 -152.61889,62.48660,0 -152.61280,62.49022,0 -152.58780,62.50606,0 -152.57973,62.51160,0 -152.56280,62.52329,0 -152.54679,62.53660,0 -152.53780,62.54259,0 -152.51280,62.55813,0 -152.50546,62.56160,0 -152.48780,62.56979,0 -152.46280,62.57944,0 -152.44832,62.58660,0 -152.43780,62.59243,0 -152.41280,62.60579,0 -152.39848,62.61160,0 -152.38780,62.61590,0 -152.36280,62.62508,0 -152.33780,62.63450,0 -152.33192,62.63660,0 -152.31280,62.64374,0 -152.28780,62.65387,0 -152.27195,62.66160,0 -152.26280,62.66629,0 -152.23780,62.68287,0 -152.23201,62.68660,0 -152.21280,62.69562,0 -152.18780,62.70080,0 -152.16280,62.70454,0 -152.14486,62.71160,0 -152.13780,62.71354,0 -152.11280,62.72516,0 -152.08780,62.73642,0 -152.08722,62.73660,0 -152.06280,62.74209,0 -152.03780,62.74577,0 -152.01280,62.74940,0 -151.98780,62.75586,0 -151.97147,62.76160,0 -151.96280,62.76425,0 -151.93780,62.77284,0 -151.91280,62.78101,0 -151.89121,62.78660,0 -151.88780,62.78757,0 -151.86280,62.79398,0 -151.83780,62.80060,0 -151.81280,62.80683,0 -151.79352,62.81160,0 -151.78780,62.81296,0 -151.76280,62.82027,0 -151.73780,62.83342,0 -151.73334,62.83660,0 -151.71280,62.84709,0 -151.68780,62.85314,0 -151.66280,62.85312,0 -151.63780,62.84955,0 -151.61280,62.84647,0 -151.58780,62.84789,0 -151.56280,62.85324,0 -151.53780,62.86101,0 -151.53656,62.86160,0 -151.51280,62.87169,0 -151.48780,62.88126,0 -151.46280,62.88555,0 -151.43780,62.88507,0 -151.41280,62.88364,0 -151.38780,62.88654,0 -151.38757,62.88660,0 -151.36280,62.89409,0 -151.33780,62.90337,0 -151.32366,62.91160,0 -151.31280,62.91741,0 -151.29462,62.93660,0 -151.28780,62.94248,0 -151.26923,62.96160,0 -151.26280,62.96606,0 </coordinates>
        </LineString>
      </MultiGeometry>
    </Placemark>
    <Placemark>
      <name>0.5</name>
      <styleUrl>#style_pgm</styleUrl>
      <visibility>0</visibility>
      <Point>
        <altitudeMode>clampToGround</altitudeMode>
        <coordinates>-151.26280,62.96606,0</coordinates>
      </Point>
    </Placemark>
    <Placemark>
      <name>0.5</name>
      <styleUrl>#style_pgm</styleUrl>
      <visibility>0</visibility>
      <Point>
        <altitudeMode>clampToGround</altitudeMode>
        <coordinates>-148.48780,61.90693,0</coordinates>
      </Point>
    </Placemark>
    <Placemark>
      <name>0.5</name>
      <styleUrl>#style_pgm</styleUrl>
      <visibility>0</visibility>
      <Point>
        <altitudeMode>clampToGround</altitudeMode>
        <coordinates>-150.58780,60.45025,0</coordinates>
      </Point>
    </Placemark>
    <Placemark>
      <name>0.5</name>
      <styleUrl>#style_pgm</styleUrl>
      <visibility>0</visibility>
      <Point>
        <altitudeMode>clampToGround</altitudeMode>
        <coordinates>-152.10150,61.18660,0</coordinates>
      </Point>
    </Placemark>
    <Placemark>
      <name>psa03 0.5 %g Contour</name>
      <styleUrl>#style_pgm</styleUrl>
      <visibility>0</visibility>
      <Snippet maxLines="0">
      </Snippet>
      <open>0</open>
      <MultiGeometry>
        <LineString>
          <gx:drawOrder>5</gx:drawOrder>
          <extrude>0</extrude>
          <tessellate>1</tessellate>
          <altitudeMode>clampToGround</altitudeMode>
          <coordinates>-149.86280,61.26615,0 -149.83780,61.27398,0 -149.81280,61.27946,0 -149.78780,61.28160,0 -149.76280,61.28086,0 -149.73780,61.27742,0 -149.71280,61.26837,0 -149.70155,61.26160,0 -149.68780,61.25102,0 -149.66280,61.24358,0 -149.63780,61.24477,0 -149.61280,61.24608,0 -149.58780,61.24025,0 -149.58311,61.23660,0 -149.56280,61.21239,0 -149.56246,61.21160,0 -149.55896,61.18660,0 -149.55756,61.16160,0 -149.55247,61.13660,0 -149.54426,61.11160,0 -149.53838,61.08660,0 -149.54253,61.06160,0 -149.56095,61.03660,0 -149.56280,61.03544,0 -149.58780,61.02463,0 -149.61280,61.01898,0 -149.63780,61.01631,0 -149.66280,61.01429,0 -149.68780,61.01246,0 -149.71280,61.01227,0 -149.73780,61.01506,0 -149.76280,61.02060,0 -149.78780,61.02840,0 -149.80608,61.03660,0 -149.81280,61.04052,0 -149.83780,61.05662,0 -149.84533,61.06160,0 -149.86280,61.07600,0 -149.87492,61.08660,0 -149.88780,61.09925,0 -149.90112,61.11160,0 -149.91280,61.12785,0 -149.92015,61.13660,0 -149.92347,61.16160,0 -149.91336,61.18660,0 -149.91280,61.18758,0 -149.90104,61.21160,0 -149.89233,61.23660,0 -149.88780,61.24411,0 -149.87414,61.26160,0 -149.86280,61.26615,0 </coordinates>
        </LineString>
      </MultiGeometry>
    </Placemark>
    <Placemark>
      <name>psa03 1 %g Contour</name>
      <styleUrl>#style_pgm</styleUrl>
      <visibility>0</visibility>
      <Snippet maxLines="0">
      </Snippet>
      <open>0</open>
      <MultiGeometry>
        <LineString>
          <gx:drawOrder>5</gx:drawOrder>
          <extrude>0</extrude>
          <tessellate>1</tessellate>
          <altitudeMode>clampToGround</altitudeMode>
          <coordinates>-150.41280,62.64527,0 -150.38780,62.64907,0 -150.36280,62.65010,0 -150.33780,62.65061,0 -150.31280,62.65273,0 -150.28780,62.64525,0 -150.28193,62.63660,0 -150.26867,62.61160,0 -150.26280,62.60161,0 -150.25580,62.58660,0 -150.23813,62.56160,0 -150.23780,62.55792,0 -150.23425,62.53660,0 -150.23780,62.53511,0 -150.26280,62.52313,0 -150.28780,62.51419,0 -150.29644,62.51160,0 -150.31280,62.50694,0 -150.33780,62.50156,0 -150.36280,62.49762,0 -150.38780,62.49326,0 -150.41005,62.48660,0 -150.41280,62.48547,0 -150.43780,62.46881,0 -150.44349,62.46160,0 -150.45193,62.43660,0 -150.44495,62.41160,0 -150.43780,62.40438,0 -150.41280,62.39611,0 -150.38780,62.39325,0 -150.36280,62.38856,0 -150.35702,62.38660,0 -150.33780,62.38071,0 -150.31280,62.36966,0 -150.28780,62.36453,0 -150.26280,62.36536,0 -150.23780,62.36678,0 -150.21280,62.36796,0 -150.18780,62.37054,0 -150.16280,62.37389,0 -150.13780,62.37481,0 -150.11280,62.37469,0 -150.08780,62.37849,0 -150.07084,62.38660,0 -150.06280,62.39468,0 -150.05256,62.41160,0 -150.04706,62.43660,0 -150.04890,62.46160,0 -150.05583,62.48660,0 -150.05946,62.51160,0 -150.03780,62.51862,0 -150.01280,62.51756,0 -149.98780,62.51337,0 -149.98082,62.51160,0 -149.96280,62.50524,0 -149.93780,62.49667,0 -149.91280,62.49112,0 -149.89873,62.48660,0 -149.88780,62.48401,0 -149.86280,62.47251,0 -149.84584,62.46160,0 -149.83780,62.45539,0 -149.81280,62.44092,0 -149.80083,62.43660,0 -149.78780,62.43206,0 -149.76280,62.42170,0 -149.74522,62.41160,0 -149.73780,62.40716,0 -149.71280,62.39364,0 -149.69323,62.38660,0 -149.68780,62.38457,0 -149.66280,62.37631,0 -149.63780,62.36793,0 -149.61636,62.36160,0 -149.61280,62.36093,0 -149.58780,62.35428,0 -149.56280,62.34291,0 -149.55332,62.33660,0 -149.53780,62.32441,0 -149.52183,62.31160,0 -149.51280,62.30304,0 -149.48912,62.28660,0 -149.48780,62.28549,0 -149.46280,62.26970,0 -149.45093,62.26160,0 -149.43780,62.24821,0 -149.42721,62.23660,0 -149.41280,62.21518,0 -149.40881,62.21160,0 -149.38780,62.19793,0 -149.36280,62.19334,0 -149.33780,62.18875,0 -149.33344,62.18660,0 -149.31280,62.16787,0 -149.30814,62.16160,0 -149.30011,62.13660,0 -149.29152,62.11160,0 -149.28780,62.10601,0 -149.27320,62.08660,0 -149.26280,62.07436,0 -149.25203,62.06160,0 -149.23780,62.04053,0 -149.23495,62.03660,0 -149.21915,62.01160,0 -149.21280,61.99993,0 -149.20598,61.98660,0 -149.19413,61.96160,0 -149.18780,61.94896,0 -149.18162,61.93660,0 -149.16886,61.91160,0 -149.16280,61.89523,0 -149.15953,61.88660,0 -149.15515,61.86160,0 -149.15214,61.83660,0 -149.14922,61.81160,0 -149.14779,61.78660,0 -149.13780,61.76417,0 -149.13624,61.76160,0 -149.11280,61.75273,0 -149.08780,61.74217,0 -149.07652,61.73660,0 -149.06280,61.73048,0 -149.03780,61.71615,0 -149.03044,61.71160,0 -149.01562,61.68660,0 -149.02323,61.66160,0 -149.03008,61.63660,0 -149.02359,61.61160,0 -149.01280,61.59726,0 -149.00504,61.58660,0 -148.98780,61.56589,0 -148.98250,61.56160,0 -148.97280,61.53660,0 -148.98780,61.53415,0 -149.01280,61.52831,0 -149.03780,61.52103,0 -149.06067,61.51160,0 -149.06280,61.51078,0 -149.08780,61.49940,0 -149.11280,61.48915,0 -149.11903,61.48660,0 -149.13780,61.47848,0 -149.16280,61.46901,0 -149.18780,61.46269,0 -149.19537,61.46160,0 -149.21280,61.45700,0 -149.23780,61.45401,0 -149.26280,61.45470,0 -149.28780,61.45779,0 -149.31280,61.46122,0 -149.31542,61.46160,0 -149.33780,61.46397,0 -149.36280,61.46636,0 -149.38780,61.46783,0 -149.41280,61.46766,0 -149.43780,61.46555,0 -149.46280,61.46183,0 -149.46406,61.46160,0 -149.48780,61.45654,0 -149.51280,61.44946,0 -149.53780,61.44022,0 -149.54727,61.43660,0 -149.56280,61.43109,0 -149.58780,61.42212,0 -149.61280,61.41219,0 -149.61427,61.41160,0 -149.63780,61.40101,0 -149.66280,61.38996,0 -149.66715,61.38660,0 -149.68780,61.36595,0 -149.69029,61.36160,0 -149.71280,61.33919,0 -149.71612,61.33660,0 -149.73780,61.32772,0 -149.76280,61.32299,0 -149.78780,61.32090,0 -149.81280,61.31931,0 -149.83780,61.31744,0 -149.86280,61.31602,0 -149.88780,61.31696,0 -149.91280,61.31928,0 -149.93780,61.31853,0 -149.96280,61.31306,0 -149.96721,61.31160,0 -149.98780,61.30215,0 -150.01280,61.29205,0 -150.02589,61.28660,0 -150.03780,61.27724,0 -150.05853,61.26160,0 -150.06280,61.25187,0 -150.07045,61.23660,0 -150.08153,61.21160,0 -150.08780,61.19973,0 -150.09565,61.18660,0 -150.10406,61.16160,0 -150.10841,61.13660,0 -150.11280,61.11426,0 -150.11369,61.11160,0 -150.11280,61.10656,0 -150.11034,61.08660,0 -150.08780,61.06783,0 -150.08058,61.06160,0 -150.06280,61.05266,0 -150.03780,61.03880,0 -150.03403,61.03660,0 -150.01280,61.02636,0 -149.98780,61.01442,0 -149.98158,61.01160,0 -149.96280,61.00325,0 -149.93780,60.99329,0 -149.92461,60.98660,0 -149.91280,60.96900,0 -149.90948,60.96160,0 -149.91280,60.95618,0 -149.92499,60.93660,0 -149.93780,60.92526,0 -149.95502,60.91160,0 -149.96280,60.90599,0 -149.98780,60.88943,0 -149.99293,60.88660,0 -150.01280,60.87675,0 -150.03780,60.87033,0 -150.06280,60.86877,0 -150.08780,60.87061,0 -150.11280,60.87549,0 -150.13780,60.88269,0 -150.15113,60.88660,0 -150.16280,60.88943,0 -150.18780,60.89420,0 -150.21280,60.89949,0 -150.23780,60.90518,0 -150.26280,60.90344,0 -150.28780,60.89061,0 -150.29565,60.88660,0 -150.31280,60.87445,0 -150.33780,60.86439,0 -150.36280,60.86742,0 -150.38780,60.86966,0 -150.41280,60.86691,0 -150.43780,60.86371,0 -150.46280,60.86278,0 -150.48780,60.86472,0 -150.51280,60.86799,0 -150.53780,60.86874,0 -150.56280,60.86313,0 -150.56634,60.86160,0 -150.58780,60.85399,0 -150.61280,60.84743,0 -150.63780,60.84462,0 -150.66280,60.84481,0 -150.68780,60.84750,0 -150.71280,60.85193,0 -150.73780,60.85789,0 -150.75412,60.86160,0 -150.76280,60.86345,0 -150.78780,60.86606,0 -150.81280,60.86642,0 -150.83780,60.86456,0 -150.85371,60.86160,0 -150.86280,60.85939,0 -150.88780,60.85139,0 -150.91280,60.84507,0 -150.93780,60.84073,0 -150.96280,60.83772,0 -150.97846,60.83660,0 -150.98780,60.83586,0 -151.01280,60.83509,0 -151.03780,60.83455,0 -151.06280,60.83423,0 -151.08780,60.83455,0 -151.11280,60.83565,0 -151.13055,60.83660,0 -151.13780,60.83706,0 -151.16280,60.83825,0 -151.18780,60.83901,0 -151.21280,60.83913,0 -151.23780,60.83817,0 -151.25481,60.83660,0 -151.26280,60.83583,0 -151.28780,60.83214,0 -151.31280,60.82744,0 -151.33780,60.82164,0 -151.36280,60.81410,0 -151.37070,60.81160,0 -151.38780,60.80588,0 -151.41280,60.79868,0 -151.43780,60.79514,0 -151.46280,60.79663,0 -151.48780,60.80083,0 -151.51280,60.80563,0 -151.53780,60.81065,0 -151.54240,60.81160,0 -151.56280,60.81571,0 -151.58780,60.82096,0 -151.61280,60.82642,0 -151.63780,60.83214,0 -151.65618,60.83660,0 -151.66280,60.83830,0 -151.68780,60.84680,0 -151.71180,60.86160,0 -151.71280,60.86370,0 -151.71754,60.88660,0 -151.71453,60.91160,0 -151.71280,60.92543,0 -151.71030,60.93660,0 -151.71280,60.94311,0 -151.72517,60.96160,0 -151.73780,60.96609,0 -151.76280,60.97536,0 -151.78780,60.98473,0 -151.79199,60.98660,0 -151.81280,60.99674,0 -151.83780,61.00660,0 -151.85846,61.01160,0 -151.86280,61.01365,0 -151.88780,61.02102,0 -151.91280,61.02873,0 -151.92303,61.03660,0 -151.93027,61.06160,0 -151.92746,61.08660,0 -151.93133,61.11160,0 -151.93780,61.12765,0 -151.94006,61.13660,0 -151.94366,61.16160,0 -151.93870,61.18660,0 -151.93780,61.18849,0 -151.91280,61.20561,0 -151.88780,61.20542,0 -151.86280,61.20306,0 -151.83780,61.20034,0 -151.81280,61.19329,0 -151.79813,61.18660,0 -151.78780,61.18421,0 -151.77130,61.18660,0 -151.77977,61.21160,0 -151.78780,61.21898,0 -151.81280,61.23090,0 -151.82311,61.23660,0 -151.83780,61.24115,0 -151.86280,61.25619,0 -151.86939,61.26160,0 -151.88780,61.27192,0 -151.91280,61.28220,0 -151.92225,61.28660,0 -151.93780,61.29282,0 -151.96280,61.31144,0 -151.96297,61.31160,0 -151.97752,61.33660,0 -151.98242,61.36160,0 -151.98780,61.37225,0 -152.00649,61.38660,0 -152.01280,61.38879,0 -152.03780,61.39956,0 -152.05090,61.41160,0 -152.06280,61.41710,0 -152.08780,61.43271,0 -152.09198,61.43660,0 -152.11280,61.44935,0 -152.12881,61.46160,0 -152.13780,61.46905,0 -152.16280,61.48436,0 -152.16687,61.48660,0 -152.18206,61.51160,0 -152.18575,61.53660,0 -152.18780,61.54712,0 -152.19140,61.56160,0 -152.20239,61.58660,0 -152.21280,61.59957,0 -152.22147,61.61160,0 -152.22863,61.63660,0 -152.23235,61.66160,0 -152.23780,61.67686,0 -152.24299,61.68660,0 -152.24476,61.71160,0 -152.23780,61.72477,0 -152.23274,61.73660,0 -152.23096,61.76160,0 -152.23780,61.77190,0 -152.24671,61.78660,0 -152.25507,61.81160,0 -152.24887,61.83660,0 -152.23780,61.85878,0 -152.23647,61.86160,0 -152.22747,61.88660,0 -152.23008,61.91160,0 -152.23780,61.92953,0 -152.24089,61.93660,0 -152.24695,61.96160,0 -152.23780,61.97471,0 -152.23083,61.98660,0 -152.21280,62.00411,0 -152.20461,62.01160,0 -152.18780,62.03018,0 -152.18055,62.03660,0 -152.16280,62.05615,0 -152.15732,62.06160,0 -152.13780,62.08007,0 -152.12999,62.08660,0 -152.11280,62.10482,0 -152.10704,62.11160,0 -152.09421,62.13660,0 -152.08780,62.14206,0 -152.06280,62.16130,0 -152.06242,62.16160,0 -152.03780,62.17555,0 -152.02019,62.18660,0 -152.01280,62.19194,0 -151.98780,62.20970,0 -151.98455,62.21160,0 -151.96280,62.22627,0 -151.94644,62.23660,0 -151.94109,62.26160,0 -151.95453,62.28660,0 -151.96280,62.29734,0 -151.97330,62.31160,0 -151.98780,62.33296,0 -151.99031,62.33660,0 -151.99619,62.36160,0 -151.98780,62.38443,0 -151.98711,62.38660,0 -151.97662,62.41160,0 -151.96556,62.43660,0 -151.96280,62.44044,0 -151.93780,62.44703,0 -151.93069,62.43660,0 -151.91280,62.41257,0 -151.91215,62.41160,0 -151.88780,62.38958,0 -151.88223,62.38660,0 -151.86280,62.37880,0 -151.83780,62.37237,0 -151.81280,62.36569,0 -151.79600,62.36160,0 -151.78780,62.36012,0 -151.76280,62.35858,0 -151.74080,62.36160,0 -151.73780,62.36246,0 -151.71280,62.37535,0 -151.69135,62.38660,0 -151.68780,62.38847,0 -151.66280,62.39952,0 -151.64006,62.41160,0 -151.63780,62.41296,0 -151.61280,62.43378,0 -151.61007,62.43660,0 -151.58780,62.44873,0 -151.56280,62.45646,0 -151.53780,62.46140,0 -151.53675,62.46160,0 -151.51280,62.46682,0 -151.48780,62.47519,0 -151.46280,62.48180,0 -151.43780,62.48199,0 -151.41280,62.48057,0 -151.38780,62.48008,0 -151.36280,62.47978,0 -151.33780,62.47952,0 -151.31280,62.48351,0 -151.30828,62.48660,0 -151.28780,62.50945,0 -151.28638,62.51160,0 -151.27688,62.53660,0 -151.26509,62.56160,0 -151.26280,62.56357,0 -151.23780,62.56598,0 -151.22533,62.56160,0 -151.21280,62.55669,0 -151.18780,62.54334,0 -151.17600,62.53660,0 -151.16280,62.52957,0 -151.13780,62.51778,0 -151.11280,62.51473,0 -151.08780,62.52139,0 -151.06280,62.52615,0 -151.03780,62.52719,0 -151.01280,62.52658,0 -150.98780,62.52709,0 -150.96280,62.53016,0 -150.93971,62.53660,0 -150.93780,62.53718,0 -150.91280,62.54689,0 -150.88780,62.55598,0 -150.86280,62.56115,0 -150.83780,62.56104,0 -150.81280,62.55571,0 -150.78780,62.55145,0 -150.76280,62.54919,0 -150.73780,62.54912,0 -150.71280,62.55212,0 -150.68780,62.55730,0 -150.67048,62.56160,0 -150.66280,62.56397,0 -150.63780,62.57012,0 -150.61280,62.57391,0 -150.58780,62.58089,0 -150.58009,62.58660,0 -150.56280,62.60048,0 -150.53826,62.61160,0 -150.53780,62.61171,0 -150.51280,62.61180,0 -150.50876,62.61160,0 -150.48780,62.61061,0 -150.48441,62.61160,0 -150.46280,62.61884,0 -150.43780,62.63389,0 -150.43151,62.63660,0 -150.41280,62.64527,0 </coordinates>
        </LineString>
      </MultiGeometry>
    </Placemark>
    <Placemark>
      <name>1</name>
      <styleUrl>#style_pgm</styleUrl>
      <visibility>0</visibility>
      <Point>
        <altitudeMode>clampToGround</altitudeMode>
        <coordinates>-150.41280,62.64527,0</coordinates>
      </Point>
    </Placemark>
    <Placemark>
      <name>1</name>
      <styleUrl>#style_pgm</styleUrl>
      <visibility>0</visibility>
      <Point>
        <altitudeMode>clampToGround</altitudeMode>
        <coordinates>-149.03008,61.63660,0</coordinates>
      </Point>
    </Placemark>
    <Placemark>
      <name>1</name>
      <styleUrl>#style_pgm</styleUrl>
      <visibility>0</visibility>
      <Point>
        <altitudeMode>clampToGround</altitudeMode>
        <coordinates>-150.75412,60.86160,0</coordinates>
      </Point>
    </Placemark>
    <Placemark>
      <name>1</name>
      <styleUrl>#style_pgm</styleUrl>
      <visibility>0</visibility>
      <Point>
        <altitudeMode>clampToGround</altitudeMode>
        <coordinates>-152.24887,61.83660,0</coordinates>
      </Point>
    </Placemark>
    <Placemark>
      <name>psa03 1.5 %g Contour</name>
      <styleUrl>#style_pgm</styleUrl>
      <visibility>0</visibility>
      <Snippet maxLines="0">
      </Snippet>
      <open>0</open>
      <MultiGeometry>
        <LineString>
          <gx:drawOrder>5</gx:drawOrder>
          <extrude>0</extrude>
          <tessellate>1</tessellate>
          <altitudeMode>clampToGround</altitudeMode>
          <coordinates>-151.23780,62.43857,0 -151.21280,62.45301,0 -151.18780,62.45118,0 -151.16280,62.44020,0 -151.15683,62.43660,0 -151.13780,62.42266,0 -151.11575,62.41160,0 -151.11280,62.41028,0 -151.08780,62.39904,0 -151.06524,62.38660,0 -151.06280,62.38523,0 -151.03780,62.37357,0 -151.01280,62.36639,0 -150.98780,62.36172,0 -150.98421,62.36160,0 -150.96280,62.36085,0 -150.95826,62.36160,0 -150.93780,62.36575,0 -150.91280,62.37727,0 -150.89833,62.38660,0 -150.88780,62.39058,0 -150.86280,62.39601,0 -150.83780,62.39765,0 -150.81280,62.39852,0 -150.78780,62.39858,0 -150.76280,62.40125,0 -150.73780,62.40861,0 -150.72613,62.41160,0 -150.71280,62.41464,0 -150.68780,62.41727,0 -150.66280,62.42030,0 -150.63780,62.42596,0 -150.61280,62.43655,0 -150.61271,62.43660,0 -150.58780,62.44730,0 -150.56280,62.44726,0 -150.54671,62.43660,0 -150.53780,62.42696,0 -150.53079,62.41160,0 -150.51790,62.38660,0 -150.51280,62.38083,0 -150.49640,62.36160,0 -150.48780,62.35496,0 -150.46280,62.34036,0 -150.45398,62.33660,0 -150.43780,62.33080,0 -150.41280,62.32415,0 -150.38780,62.31857,0 -150.36280,62.31326,0 -150.35436,62.31160,0 -150.33780,62.30893,0 -150.31280,62.30711,0 -150.28780,62.30826,0 -150.26280,62.30988,0 -150.23780,62.30950,0 -150.21280,62.30704,0 -150.18780,62.30576,0 -150.16280,62.30900,0 -150.14760,62.31160,0 -150.13780,62.31331,0 -150.11280,62.31541,0 -150.08780,62.31642,0 -150.06280,62.31289,0 -150.05896,62.31160,0 -150.03780,62.29886,0 -150.01480,62.28660,0 -150.01280,62.28565,0 -149.98780,62.28651,0 -149.98735,62.28660,0 -149.96280,62.29353,0 -149.93780,62.28729,0 -149.93705,62.28660,0 -149.91280,62.26791,0 -149.90491,62.26160,0 -149.88780,62.24804,0 -149.86280,62.23671,0 -149.86250,62.23660,0 -149.83780,62.22590,0 -149.81280,62.21467,0 -149.80642,62.21160,0 -149.78780,62.19879,0 -149.77354,62.18660,0 -149.76280,62.16925,0 -149.75881,62.16160,0 -149.75628,62.13660,0 -149.75382,62.11160,0 -149.73780,62.08814,0 -149.73663,62.08660,0 -149.71453,62.06160,0 -149.71280,62.05912,0 -149.69290,62.03660,0 -149.68780,62.03297,0 -149.66280,62.01748,0 -149.65509,62.01160,0 -149.63780,61.99461,0 -149.63155,61.98660,0 -149.62043,61.96160,0 -149.61280,61.94851,0 -149.60433,61.93660,0 -149.58780,61.91807,0 -149.58167,61.91160,0 -149.57086,61.88660,0 -149.57537,61.86160,0 -149.58331,61.83660,0 -149.58721,61.81160,0 -149.58332,61.78660,0 -149.57501,61.76160,0 -149.57529,61.73660,0 -149.58314,61.71160,0 -149.56280,61.69193,0 -149.55610,61.68660,0 -149.53780,61.68206,0 -149.51280,61.67737,0 -149.48780,61.67332,0 -149.46280,61.66890,0 -149.43780,61.66531,0 -149.41280,61.66259,0 -149.40490,61.66160,0 -149.38780,61.65677,0 -149.36280,61.64591,0 -149.34886,61.63660,0 -149.36234,61.61160,0 -149.36280,61.61120,0 -149.38780,61.58667,0 -149.38787,61.58660,0 -149.40860,61.56160,0 -149.41280,61.55584,0 -149.43780,61.54245,0 -149.46280,61.53733,0 -149.46648,61.53660,0 -149.48780,61.53456,0 -149.51280,61.53181,0 -149.53780,61.52833,0 -149.56280,61.52306,0 -149.58780,61.51501,0 -149.59571,61.51160,0 -149.61280,61.50466,0 -149.63780,61.49373,0 -149.65330,61.48660,0 -149.66280,61.48129,0 -149.68780,61.46243,0 -149.68855,61.46160,0 -149.70660,61.43660,0 -149.71280,61.42757,0 -149.72001,61.41160,0 -149.73004,61.38660,0 -149.73780,61.37292,0 -149.74623,61.36160,0 -149.76280,61.35252,0 -149.78780,61.34687,0 -149.81280,61.34456,0 -149.83780,61.34345,0 -149.86280,61.34405,0 -149.88780,61.34793,0 -149.91280,61.35245,0 -149.93780,61.35312,0 -149.96280,61.34908,0 -149.98780,61.34118,0 -149.99833,61.33660,0 -150.01280,61.33139,0 -150.03780,61.32124,0 -150.05577,61.31160,0 -150.06280,61.30793,0 -150.08780,61.29474,0 -150.10355,61.28660,0 -150.11280,61.28048,0 -150.13780,61.26710,0 -150.14986,61.26160,0 -150.16280,61.25459,0 -150.18780,61.24333,0 -150.20415,61.23660,0 -150.21280,61.23235,0 -150.23780,61.22160,0 -150.26280,61.21257,0 -150.26625,61.21160,0 -150.28780,61.20389,0 -150.31280,61.19628,0 -150.33780,61.18945,0 -150.34632,61.18660,0 -150.36280,61.17890,0 -150.38780,61.16474,0 -150.39177,61.16160,0 -150.41033,61.13660,0 -150.41280,61.12354,0 -150.41453,61.11160,0 -150.41306,61.08660,0 -150.42135,61.06160,0 -150.43780,61.04816,0 -150.46194,61.03660,0 -150.46280,61.03627,0 -150.48780,61.03019,0 -150.51280,61.02587,0 -150.53780,61.02168,0 -150.56280,61.01734,0 -150.58780,61.01225,0 -150.59055,61.01160,0 -150.61280,61.00694,0 -150.63780,61.00166,0 -150.66280,60.99726,0 -150.68780,60.99324,0 -150.71280,60.98823,0 -150.72119,60.98660,0 -150.73780,60.98391,0 -150.76280,60.98041,0 -150.78780,60.97757,0 -150.81280,60.97599,0 -150.83780,60.97555,0 -150.86280,60.97599,0 -150.88780,60.97708,0 -150.91280,60.97856,0 -150.93780,60.98028,0 -150.96280,60.98218,0 -150.98780,60.98428,0 -151.01280,60.98658,0 -151.01304,60.98660,0 -151.03780,60.98896,0 -151.06280,60.99154,0 -151.08780,60.99466,0 -151.11280,61.00029,0 -151.13341,61.01160,0 -151.13291,61.03660,0 -151.12418,61.06160,0 -151.11720,61.08660,0 -151.11321,61.11160,0 -151.13006,61.13660,0 -151.13780,61.13996,0 -151.16280,61.15014,0 -151.17990,61.16160,0 -151.18780,61.17140,0 -151.19908,61.18660,0 -151.20759,61.21160,0 -151.21280,61.22191,0 -151.22547,61.23660,0 -151.23780,61.24490,0 -151.26280,61.25273,0 -151.28780,61.24110,0 -151.29522,61.23660,0 -151.31280,61.23185,0 -151.33780,61.23294,0 -151.35039,61.23660,0 -151.36280,61.24128,0 -151.38780,61.25710,0 -151.39189,61.26160,0 -151.41280,61.27619,0 -151.42890,61.28660,0 -151.43780,61.29091,0 -151.46280,61.29918,0 -151.48780,61.30534,0 -151.51114,61.31160,0 -151.51280,61.31233,0 -151.53780,61.32051,0 -151.56280,61.32554,0 -151.58780,61.33103,0 -151.60432,61.33660,0 -151.61280,61.33998,0 -151.63780,61.35430,0 -151.64739,61.36160,0 -151.66280,61.37125,0 -151.67965,61.38660,0 -151.68780,61.39436,0 -151.71280,61.41067,0 -151.71420,61.41160,0 -151.71814,61.43660,0 -151.71280,61.45881,0 -151.71229,61.46160,0 -151.71280,61.47758,0 -151.71307,61.48660,0 -151.71280,61.49315,0 -151.71196,61.51160,0 -151.71230,61.53660,0 -151.71280,61.53785,0 -151.72602,61.56160,0 -151.73780,61.57758,0 -151.74585,61.58660,0 -151.75528,61.61160,0 -151.75741,61.63660,0 -151.75956,61.66160,0 -151.76174,61.68660,0 -151.76280,61.69147,0 -151.76715,61.71160,0 -151.77355,61.73660,0 -151.77923,61.76160,0 -151.78279,61.78660,0 -151.78223,61.81160,0 -151.77967,61.83660,0 -151.77755,61.86160,0 -151.77975,61.88660,0 -151.78780,61.90094,0 -151.79506,61.91160,0 -151.81280,61.92364,0 -151.83745,61.93660,0 -151.83780,61.93673,0 -151.86280,61.93769,0 -151.86650,61.93660,0 -151.88780,61.93102,0 -151.91280,61.92794,0 -151.93633,61.93660,0 -151.93780,61.93796,0 -151.94971,61.96160,0 -151.95133,61.98660,0 -151.94317,62.01160,0 -151.93780,62.01977,0 -151.92429,62.03660,0 -151.91280,62.04781,0 -151.89441,62.06160,0 -151.88780,62.06576,0 -151.86280,62.08513,0 -151.86178,62.08660,0 -151.84295,62.11160,0 -151.83780,62.11695,0 -151.81331,62.13660,0 -151.81280,62.13699,0 -151.78780,62.15348,0 -151.77712,62.16160,0 -151.76518,62.18660,0 -151.76280,62.19154,0 -151.74490,62.21160,0 -151.73780,62.21763,0 -151.71280,62.23106,0 -151.70174,62.23660,0 -151.68780,62.24037,0 -151.66280,62.24420,0 -151.63780,62.24490,0 -151.61280,62.24475,0 -151.58780,62.24393,0 -151.56280,62.24250,0 -151.53780,62.24153,0 -151.51280,62.24285,0 -151.48780,62.25708,0 -151.48571,62.26160,0 -151.47929,62.28660,0 -151.46616,62.31160,0 -151.46280,62.31565,0 -151.45096,62.33660,0 -151.43780,62.35676,0 -151.43431,62.36160,0 -151.41430,62.38660,0 -151.41280,62.38799,0 -151.38780,62.39885,0 -151.36280,62.39332,0 -151.34918,62.38660,0 -151.33780,62.37837,0 -151.31280,62.37261,0 -151.28780,62.37452,0 -151.26280,62.37991,0 -151.24957,62.38660,0 -151.24445,62.41160,0 -151.23931,62.43660,0 -151.23780,62.43857,0 </coordinates>
        </LineString>
      </MultiGeometry>
    </Placemark>
    <Placemark>
      <name>1.5</name>
      <styleUrl>#style_pgm</styleUrl>
      <visibility>0</visibility>
      <Point>
        <altitudeMode>clampToGround</altitudeMode>
        <coordinates>-151.23780,62.43857,0</coordinates>
      </Point>
    </Placemark>
    <Placemark>
      <name>1.5</name>
      <styleUrl>#style_pgm</styleUrl>
      <visibility>0</visibility>
      <Point>
        <altitudeMode>clampToGround</altitudeMode>
        <coordinates>-149.41280,61.66259,0</coordinates>
      </Point>
    </Placemark>
    <Placemark>
      <name>1.5</name>
      <styleUrl>#style_pgm</styleUrl>
      <visibility>0</visibility>
      <Point>
        <altitudeMode>clampToGround</altitudeMode>
        <coordinates>-151.22547,61.23660,0</coordinates>
      </Point>
    </Placemark>
    <Placemark>
      <name>psa03 2 %g Contour</name>
      <styleUrl>#style_pgm</styleUrl>
      <visibility>0</visibility>
      <Snippet maxLines="0">
      </Snippet>
      <open>0</open>
      <MultiGeometry>
        <LineString>
          <gx:drawOrder>5</gx:drawOrder>
          <extrude>0</extrude>
          <tessellate>1</tessellate>
          <altitudeMode>clampToGround</altitudeMode>
          <coordinates>-150.61280,62.30135,0 -150.58780,62.30742,0 -150.56280,62.29576,0 -150.54437,62.28660,0 -150.53780,62.28335,0 -150.51280,62.27782,0 -150.48780,62.27518,0 -150.46280,62.27789,0 -150.43780,62.27973,0 -150.41280,62.27845,0 -150.38780,62.27598,0 -150.36280,62.27259,0 -150.33780,62.26831,0 -150.31280,62.26627,0 -150.28780,62.26734,0 -150.26280,62.26768,0 -150.23780,62.26494,0 -150.22333,62.26160,0 -150.21280,62.25709,0 -150.18780,62.24707,0 -150.16280,62.24795,0 -150.13780,62.25023,0 -150.11419,62.23660,0 -150.11280,62.23534,0 -150.08780,62.21269,0 -150.08582,62.21160,0 -150.06280,62.19547,0 -150.05300,62.18660,0 -150.03780,62.17499,0 -150.01525,62.16160,0 -150.01280,62.16038,0 -149.98780,62.15179,0 -149.97020,62.13660,0 -149.96280,62.13006,0 -149.95119,62.11160,0 -149.93818,62.08660,0 -149.93780,62.08577,0 -149.92172,62.06160,0 -149.91280,62.05183,0 -149.88780,62.03824,0 -149.88566,62.03660,0 -149.86581,62.01160,0 -149.86280,61.99355,0 -149.86208,61.98660,0 -149.85772,61.96160,0 -149.84668,61.93660,0 -149.83780,61.91911,0 -149.83381,61.91160,0 -149.82369,61.88660,0 -149.81280,61.86179,0 -149.81271,61.86160,0 -149.80247,61.83660,0 -149.79504,61.81160,0 -149.78780,61.79368,0 -149.76280,61.78893,0 -149.73780,61.78669,0 -149.73759,61.78660,0 -149.71280,61.76614,0 -149.71040,61.76160,0 -149.71280,61.75376,0 -149.72128,61.73660,0 -149.73780,61.72250,0 -149.76223,61.71160,0 -149.76280,61.71107,0 -149.78720,61.68660,0 -149.76414,61.66160,0 -149.76280,61.66083,0 -149.73780,61.64953,0 -149.71280,61.64187,0 -149.69533,61.63660,0 -149.68780,61.63298,0 -149.66280,61.61392,0 -149.66007,61.61160,0 -149.66280,61.60419,0 -149.67270,61.58660,0 -149.68780,61.57799,0 -149.71280,61.57114,0 -149.72696,61.56160,0 -149.73780,61.55290,0 -149.75005,61.53660,0 -149.76280,61.52180,0 -149.78780,61.51164,0 -149.78824,61.51160,0 -149.81280,61.50825,0 -149.83780,61.49765,0 -149.85394,61.48660,0 -149.86280,61.48090,0 -149.88780,61.46843,0 -149.90491,61.46160,0 -149.91280,61.45791,0 -149.93780,61.44647,0 -149.96207,61.43660,0 -149.96280,61.43619,0 -149.98780,61.42493,0 -150.01280,61.41266,0 -150.01439,61.41160,0 -150.03780,61.39339,0 -150.04758,61.38660,0 -150.06280,61.37420,0 -150.07537,61.36160,0 -150.08780,61.35203,0 -150.10547,61.33660,0 -150.11280,61.33338,0 -150.13780,61.32332,0 -150.16280,61.31164,0 -150.16289,61.31160,0 -150.18780,61.30303,0 -150.21280,61.29472,0 -150.23780,61.28836,0 -150.24187,61.28660,0 -150.26280,61.27904,0 -150.28780,61.26361,0 -150.29159,61.26160,0 -150.31280,61.25485,0 -150.33780,61.24880,0 -150.36280,61.24110,0 -150.37300,61.23660,0 -150.38780,61.23135,0 -150.41280,61.21850,0 -150.42182,61.21160,0 -150.43780,61.20049,0 -150.45435,61.18660,0 -150.46280,61.17812,0 -150.48322,61.16160,0 -150.48780,61.15650,0 -150.51280,61.14386,0 -150.53780,61.13977,0 -150.56280,61.13825,0 -150.58780,61.13727,0 -150.60987,61.13660,0 -150.61280,61.13651,0 -150.63780,61.13594,0 -150.66280,61.13561,0 -150.68780,61.13549,0 -150.71280,61.13561,0 -150.73780,61.13594,0 -150.76280,61.13651,0 -150.76573,61.13660,0 -150.78780,61.13728,0 -150.81280,61.13836,0 -150.83780,61.13991,0 -150.86280,61.14207,0 -150.88780,61.14486,0 -150.91280,61.14875,0 -150.93780,61.15650,0 -150.94540,61.16160,0 -150.94179,61.18660,0 -150.93780,61.19230,0 -150.92148,61.21160,0 -150.91280,61.22547,0 -150.90306,61.23660,0 -150.91280,61.25114,0 -150.93210,61.26160,0 -150.93780,61.26262,0 -150.96280,61.26901,0 -150.98437,61.28660,0 -150.97898,61.31160,0 -150.96280,61.33212,0 -150.95784,61.33660,0 -150.93780,61.35104,0 -150.91920,61.36160,0 -150.91280,61.36579,0 -150.88780,61.38202,0 -150.88002,61.38660,0 -150.87877,61.41160,0 -150.88780,61.41687,0 -150.91280,61.41964,0 -150.93780,61.41537,0 -150.96280,61.41588,0 -150.98780,61.42760,0 -151.00019,61.43660,0 -151.01280,61.44364,0 -151.03780,61.43974,0 -151.04172,61.43660,0 -151.05653,61.41160,0 -151.06280,61.39324,0 -151.06431,61.38660,0 -151.08025,61.36160,0 -151.08780,61.35662,0 -151.11280,61.35332,0 -151.13780,61.35865,0 -151.15172,61.36160,0 -151.16280,61.36364,0 -151.18780,61.36633,0 -151.21280,61.36715,0 -151.23780,61.36959,0 -151.26280,61.37730,0 -151.28780,61.38652,0 -151.28806,61.38660,0 -151.31280,61.40914,0 -151.31415,61.41160,0 -151.32348,61.43660,0 -151.33780,61.45607,0 -151.34518,61.46160,0 -151.36280,61.46852,0 -151.38780,61.46920,0 -151.41280,61.46770,0 -151.43780,61.47215,0 -151.46280,61.48109,0 -151.47533,61.48660,0 -151.48780,61.49368,0 -151.50682,61.51160,0 -151.51280,61.52726,0 -151.51613,61.53660,0 -151.51280,61.55511,0 -151.51093,61.56160,0 -151.49636,61.58660,0 -151.50316,61.61160,0 -151.51280,61.62547,0 -151.51964,61.63660,0 -151.53692,61.66160,0 -151.53780,61.66417,0 -151.55054,61.68660,0 -151.54493,61.71160,0 -151.53780,61.72267,0 -151.52977,61.73660,0 -151.53181,61.76160,0 -151.53780,61.77363,0 -151.54676,61.78660,0 -151.55881,61.81160,0 -151.56280,61.82024,0 -151.57064,61.83660,0 -151.58780,61.85992,0 -151.58865,61.86160,0 -151.60918,61.88660,0 -151.61280,61.89117,0 -151.62949,61.91160,0 -151.63780,61.92529,0 -151.64830,61.93660,0 -151.65548,61.96160,0 -151.64447,61.98660,0 -151.63780,61.99659,0 -151.61280,62.00960,0 -151.60697,61.98660,0 -151.58780,61.97544,0 -151.56280,61.96433,0 -151.53780,61.96182,0 -151.51280,61.96598,0 -151.48780,61.97516,0 -151.47504,61.98660,0 -151.48780,62.00510,0 -151.49165,62.01160,0 -151.51280,62.02642,0 -151.52689,62.03660,0 -151.53780,62.04854,0 -151.55153,62.06160,0 -151.56280,62.07430,0 -151.57186,62.08660,0 -151.58780,62.10385,0 -151.59267,62.11160,0 -151.60149,62.13660,0 -151.58780,62.15946,0 -151.57601,62.16160,0 -151.56280,62.16243,0 -151.54599,62.16160,0 -151.53780,62.16109,0 -151.51280,62.15926,0 -151.48780,62.15717,0 -151.46280,62.15322,0 -151.43780,62.14626,0 -151.41419,62.13660,0 -151.41280,62.13603,0 -151.38780,62.12486,0 -151.36400,62.11160,0 -151.36280,62.11096,0 -151.33780,62.09668,0 -151.32229,62.08660,0 -151.31280,62.08089,0 -151.28780,62.06642,0 -151.27691,62.06160,0 -151.26280,62.05642,0 -151.23780,62.05678,0 -151.22798,62.06160,0 -151.21280,62.07732,0 -151.20738,62.08660,0 -151.19415,62.11160,0 -151.18780,62.12230,0 -151.17731,62.13660,0 -151.16280,62.15098,0 -151.14432,62.16160,0 -151.13780,62.16495,0 -151.11280,62.18027,0 -151.10617,62.18660,0 -151.09243,62.21160,0 -151.08780,62.22012,0 -151.06280,62.23520,0 -151.05216,62.23660,0 -151.03780,62.23943,0 -151.01280,62.25206,0 -150.99654,62.26160,0 -150.98780,62.26477,0 -150.96280,62.26336,0 -150.95769,62.26160,0 -150.93780,62.25410,0 -150.91280,62.24282,0 -150.89766,62.23660,0 -150.88780,62.23272,0 -150.86280,62.22633,0 -150.83780,62.22461,0 -150.81280,62.22542,0 -150.78780,62.22717,0 -150.76280,62.23279,0 -150.75341,62.23660,0 -150.73780,62.24258,0 -150.71280,62.24786,0 -150.68780,62.24673,0 -150.66280,62.25280,0 -150.65488,62.26160,0 -150.63780,62.27957,0 -150.63093,62.28660,0 -150.61280,62.30135,0 </coordinates>
        </LineString>
      </MultiGeometry>
    </Placemark>
    <Placemark>
      <name>2</name>
      <styleUrl>#style_pgm</styleUrl>
      <visibility>0</visibility>
      <Point>
        <altitudeMode>clampToGround</altitudeMode>
        <coordinates>-150.61280,62.30135,0</coordinates>
      </Point>
    </Placemark>
    <Placemark>
      <name>2</name>
      <styleUrl>#style_pgm</styleUrl>
      <visibility>0</visibility>
      <Point>
        <altitudeMode>clampToGround</altitudeMode>
        <coordinates>-150.13780,61.32332,0</coordinates>
      </Point>
    </Placemark>
    <Placemark>
      <name>2</name>
      <styleUrl>#style_pgm</styleUrl>
      <visibility>0</visibility>
      <Point>
        <altitudeMode>clampToGround</altitudeMode>
        <coordinates>-151.50316,61.61160,0</coordinates>
      </Point>
    </Placemark>
    <Placemark>
      <name>psa03 2.5 %g Contour</name>
      <styleUrl>#style_pgm</styleUrl>
      <visibility>0</visibility>
      <Snippet maxLines="0">
      </Snippet>
      <open>0</open>
      <MultiGeometry>
        <LineString>
          <gx:drawOrder>5</gx:drawOrder>
          <extrude>0</extrude>
          <tessellate>1</tessellate>
          <altitudeMode>clampToGround</altitudeMode>
          <coordinates>-150.51280,62.16688,0 -150.48780,62.16644,0 -150.46280,62.16780,0 -150.43780,62.17608,0 -150.41280,62.17951,0 -150.38780,62.17550,0 -150.36280,62.17025,0 -150.33780,62.16657,0 -150.31280,62.16404,0 -150.29656,62.16160,0 -150.28780,62.15959,0 -150.26280,62.14250,0 -150.25710,62.13660,0 -150.23780,62.12067,0 -150.22668,62.11160,0 -150.21280,62.10226,0 -150.18780,62.08920,0 -150.17836,62.08660,0 -150.16280,62.08119,0 -150.13780,62.08510,0 -150.11280,62.08630,0 -150.08780,62.06874,0 -150.08071,62.06160,0 -150.06280,62.04043,0 -150.05954,62.03660,0 -150.03780,62.01487,0 -150.03374,62.01160,0 -150.01280,61.99732,0 -150.00223,61.98660,0 -149.98780,61.96596,0 -149.98506,61.96160,0 -149.97168,61.93660,0 -149.96280,61.92045,0 -149.95555,61.91160,0 -149.93780,61.88733,0 -149.93733,61.88660,0 -149.93156,61.86160,0 -149.93446,61.83660,0 -149.93695,61.81160,0 -149.93667,61.78660,0 -149.93511,61.76160,0 -149.93575,61.73660,0 -149.93780,61.72974,0 -149.94549,61.71160,0 -149.95373,61.68660,0 -149.95045,61.66160,0 -149.93780,61.63968,0 -149.93554,61.63660,0 -149.92125,61.61160,0 -149.93369,61.58660,0 -149.93780,61.58344,0 -149.96280,61.56290,0 -149.96432,61.56160,0 -149.98780,61.54534,0 -150.00285,61.53660,0 -150.01280,61.53140,0 -150.03780,61.52359,0 -150.06280,61.51906,0 -150.08780,61.51519,0 -150.10474,61.51160,0 -150.11280,61.50958,0 -150.13780,61.50552,0 -150.16280,61.50627,0 -150.18780,61.49713,0 -150.19223,61.48660,0 -150.20070,61.46160,0 -150.21096,61.43660,0 -150.21280,61.43450,0 -150.23780,61.41330,0 -150.24167,61.41160,0 -150.26280,61.40238,0 -150.28780,61.39394,0 -150.30923,61.38660,0 -150.31280,61.38521,0 -150.33780,61.37107,0 -150.35553,61.36160,0 -150.36280,61.35896,0 -150.38780,61.36133,0 -150.39997,61.36160,0 -150.41280,61.36196,0 -150.41341,61.36160,0 -150.43780,61.35191,0 -150.46280,61.34446,0 -150.48780,61.34131,0 -150.51280,61.33888,0 -150.53301,61.33660,0 -150.53780,61.33579,0 -150.56280,61.32944,0 -150.58780,61.32197,0 -150.61280,61.31734,0 -150.63780,61.32530,0 -150.65106,61.33660,0 -150.66280,61.34571,0 -150.68780,61.35645,0 -150.69761,61.36160,0 -150.68780,61.37965,0 -150.68596,61.38660,0 -150.66280,61.40669,0 -150.65946,61.41160,0 -150.63780,61.43369,0 -150.63587,61.43660,0 -150.62859,61.46160,0 -150.63645,61.48660,0 -150.63780,61.48849,0 -150.65920,61.51160,0 -150.66280,61.51407,0 -150.68780,61.52680,0 -150.71140,61.53660,0 -150.71280,61.53706,0 -150.73780,61.54490,0 -150.76280,61.55430,0 -150.78393,61.56160,0 -150.78780,61.56267,0 -150.81280,61.56268,0 -150.81897,61.56160,0 -150.83780,61.55584,0 -150.86280,61.55691,0 -150.87237,61.56160,0 -150.88780,61.56728,0 -150.91280,61.57938,0 -150.93048,61.58660,0 -150.93780,61.58975,0 -150.96280,61.59407,0 -150.97622,61.58660,0 -150.98408,61.56160,0 -150.98780,61.55667,0 -151.01280,61.53733,0 -151.03780,61.54787,0 -151.04676,61.56160,0 -151.06280,61.58656,0 -151.06287,61.58660,0 -151.08780,61.59517,0 -151.11250,61.58660,0 -151.11280,61.58618,0 -151.12041,61.56160,0 -151.11280,61.53836,0 -151.11216,61.53660,0 -151.11108,61.51160,0 -151.11280,61.50969,0 -151.13251,61.48660,0 -151.13780,61.47962,0 -151.15065,61.46160,0 -151.16280,61.45045,0 -151.18545,61.46160,0 -151.18780,61.46340,0 -151.21280,61.48336,0 -151.23780,61.48245,0 -151.26280,61.48299,0 -151.26820,61.48660,0 -151.28780,61.50424,0 -151.29624,61.51160,0 -151.31280,61.52312,0 -151.33780,61.52941,0 -151.36280,61.53643,0 -151.36319,61.53660,0 -151.38780,61.54995,0 -151.40141,61.56160,0 -151.41280,61.58006,0 -151.41616,61.58660,0 -151.42115,61.61160,0 -151.41915,61.63660,0 -151.41280,61.64959,0 -151.40019,61.66160,0 -151.39303,61.68660,0 -151.41280,61.70207,0 -151.41730,61.71160,0 -151.42377,61.73660,0 -151.41588,61.76160,0 -151.41280,61.76670,0 -151.38780,61.76894,0 -151.38307,61.76160,0 -151.37075,61.73660,0 -151.36961,61.71160,0 -151.37117,61.68660,0 -151.36280,61.68406,0 -151.33780,61.66289,0 -151.33681,61.66160,0 -151.31417,61.63660,0 -151.31280,61.63522,0 -151.29654,61.61160,0 -151.28780,61.59926,0 -151.27556,61.58660,0 -151.26280,61.57435,0 -151.24617,61.56160,0 -151.23780,61.55351,0 -151.21280,61.54272,0 -151.19035,61.56160,0 -151.18780,61.56366,0 -151.16816,61.58660,0 -151.16280,61.59582,0 -151.15383,61.61160,0 -151.14478,61.63660,0 -151.13780,61.64688,0 -151.12213,61.66160,0 -151.11280,61.67129,0 -151.09660,61.68660,0 -151.11126,61.71160,0 -151.11280,61.71264,0 -151.13780,61.73008,0 -151.14626,61.73660,0 -151.16280,61.74477,0 -151.18780,61.75897,0 -151.19172,61.76160,0 -151.21280,61.77386,0 -151.23147,61.78660,0 -151.23780,61.79107,0 -151.26280,61.80622,0 -151.27300,61.81160,0 -151.28780,61.82022,0 -151.31280,61.83176,0 -151.33070,61.83660,0 -151.33780,61.83941,0 -151.36280,61.83810,0 -151.38202,61.83660,0 -151.38780,61.83611,0 -151.38823,61.83660,0 -151.38809,61.86160,0 -151.38780,61.86192,0 -151.37475,61.88660,0 -151.37245,61.91160,0 -151.37509,61.93660,0 -151.38122,61.96160,0 -151.38780,61.98126,0 -151.38970,61.98660,0 -151.39589,62.01160,0 -151.39964,62.03660,0 -151.38780,62.05738,0 -151.36280,62.05501,0 -151.33780,62.04560,0 -151.31945,62.03660,0 -151.31280,62.03326,0 -151.28780,62.02017,0 -151.26326,62.01160,0 -151.26280,62.01144,0 -151.23780,62.00690,0 -151.21280,62.00594,0 -151.18780,62.00692,0 -151.16280,62.00998,0 -151.15507,62.01160,0 -151.13780,62.01809,0 -151.11280,62.02983,0 -151.09715,62.03660,0 -151.08780,62.05713,0 -151.08295,62.06160,0 -151.08780,62.07194,0 -151.08967,62.08660,0 -151.08780,62.09034,0 -151.06980,62.11160,0 -151.06280,62.11560,0 -151.05365,62.11160,0 -151.04307,62.08660,0 -151.03780,62.07479,0 -151.02641,62.06160,0 -151.01280,62.05878,0 -150.98780,62.05770,0 -150.97482,62.06160,0 -150.96280,62.06611,0 -150.93780,62.08068,0 -150.92928,62.08660,0 -150.91280,62.10089,0 -150.90223,62.11160,0 -150.88780,62.12649,0 -150.86571,62.13660,0 -150.86280,62.13757,0 -150.85156,62.13660,0 -150.83780,62.13503,0 -150.81280,62.12971,0 -150.78780,62.13052,0 -150.76280,62.13374,0 -150.73780,62.13553,0 -150.71813,62.13660,0 -150.71280,62.13691,0 -150.68780,62.13688,0 -150.66750,62.13660,0 -150.66280,62.13653,0 -150.66211,62.13660,0 -150.63780,62.13862,0 -150.61280,62.13943,0 -150.58780,62.14126,0 -150.56280,62.14883,0 -150.53780,62.16041,0 -150.53393,62.16160,0 -150.51280,62.16688,0 </coordinates>
        </LineString>
      </MultiGeometry>
    </Placemark>
    <Placemark>
      <name>2.5</name>
      <styleUrl>#style_pgm</styleUrl>
      <visibility>0</visibility>
      <Point>
        <altitudeMode>clampToGround</altitudeMode>
        <coordinates>-150.51280,62.16688,0</coordinates>
      </Point>
    </Placemark>
    <Placemark>
      <name>2.5</name>
      <styleUrl>#style_pgm</styleUrl>
      <visibility>0</visibility>
      <Point>
        <altitudeMode>clampToGround</altitudeMode>
        <coordinates>-150.69761,61.36160,0</coordinates>
      </Point>
    </Placemark>
    <Placemark>
      <name>2.5</name>
      <styleUrl>#style_pgm</styleUrl>
      <visibility>0</visibility>
      <Point>
        <altitudeMode>clampToGround</altitudeMode>
        <coordinates>-151.16816,61.58660,0</coordinates>
      </Point>
    </Placemark>
    <Placemark>
      <name>psa03 3 %g Contour</name>
      <styleUrl>#style_pgm</styleUrl>
      <visibility>0</visibility>
      <Snippet maxLines="0">
      </Snippet>
      <open>0</open>
      <MultiGeometry>
        <LineString>
          <gx:drawOrder>5</gx:drawOrder>
          <extrude>0</extrude>
          <tessellate>1</tessellate>
          <altitudeMode>clampToGround</altitudeMode>
          <coordinates>-150.56280,62.04477,0 -150.54901,62.03660,0 -150.53780,62.03121,0 -150.51280,62.02953,0 -150.48780,62.03447,0 -150.47433,62.03660,0 -150.46280,62.03857,0 -150.43780,62.04020,0 -150.41280,62.04018,0 -150.38780,62.03861,0 -150.37901,62.03660,0 -150.36280,62.03051,0 -150.33780,62.01677,0 -150.32503,62.01160,0 -150.31280,62.00653,0 -150.28780,62.00235,0 -150.26280,61.99416,0 -150.25109,61.98660,0 -150.23780,61.97829,0 -150.21280,61.96276,0 -150.21109,61.96160,0 -150.18780,61.94509,0 -150.17042,61.93660,0 -150.16280,61.93094,0 -150.13780,61.92980,0 -150.12273,61.91160,0 -150.11989,61.88660,0 -150.11476,61.86160,0 -150.11280,61.85734,0 -150.08942,61.83660,0 -150.08780,61.83543,0 -150.06280,61.81475,0 -150.06109,61.81160,0 -150.06280,61.80468,0 -150.06645,61.78660,0 -150.07817,61.76160,0 -150.08228,61.73660,0 -150.08728,61.71160,0 -150.08780,61.71113,0 -150.11280,61.69557,0 -150.13780,61.69252,0 -150.15302,61.68660,0 -150.16280,61.68453,0 -150.18780,61.67204,0 -150.20815,61.66160,0 -150.21280,61.65918,0 -150.23780,61.64452,0 -150.24679,61.63660,0 -150.26080,61.61160,0 -150.26280,61.60383,0 -150.26625,61.58660,0 -150.26642,61.56160,0 -150.26280,61.54248,0 -150.26190,61.53660,0 -150.26025,61.51160,0 -150.26280,61.50242,0 -150.26963,61.48660,0 -150.28780,61.47168,0 -150.31280,61.46715,0 -150.33780,61.47425,0 -150.35729,61.48660,0 -150.36280,61.49031,0 -150.38780,61.50104,0 -150.41280,61.50579,0 -150.43780,61.50890,0 -150.46022,61.48660,0 -150.45926,61.46160,0 -150.46280,61.44837,0 -150.46684,61.43660,0 -150.48750,61.41160,0 -150.48780,61.41141,0 -150.51280,61.40332,0 -150.53780,61.39952,0 -150.56280,61.40703,0 -150.56587,61.41160,0 -150.56436,61.43660,0 -150.56854,61.46160,0 -150.58193,61.48660,0 -150.58780,61.49569,0 -150.59638,61.51160,0 -150.60870,61.53660,0 -150.61280,61.54754,0 -150.63125,61.56160,0 -150.63780,61.56601,0 -150.66280,61.57030,0 -150.68780,61.57323,0 -150.71280,61.57610,0 -150.73780,61.58097,0 -150.75380,61.58660,0 -150.76280,61.59027,0 -150.78780,61.60000,0 -150.81280,61.60504,0 -150.83780,61.60705,0 -150.86280,61.61087,0 -150.86489,61.61160,0 -150.88780,61.61959,0 -150.91280,61.63135,0 -150.92119,61.63660,0 -150.93780,61.64645,0 -150.95952,61.66160,0 -150.96280,61.66398,0 -150.98780,61.67962,0 -150.99944,61.68660,0 -151.01280,61.69473,0 -151.03410,61.71160,0 -151.03780,61.71510,0 -151.06158,61.73660,0 -151.06280,61.73781,0 -151.08780,61.75518,0 -151.09925,61.76160,0 -151.11280,61.76993,0 -151.13780,61.78386,0 -151.14301,61.78660,0 -151.16280,61.80162,0 -151.17683,61.81160,0 -151.18780,61.82437,0 -151.19949,61.83660,0 -151.21280,61.85621,0 -151.21739,61.86160,0 -151.23780,61.88650,0 -151.23794,61.88660,0 -151.26280,61.90819,0 -151.26657,61.91160,0 -151.26712,61.93660,0 -151.26280,61.93890,0 -151.23780,61.94000,0 -151.22433,61.93660,0 -151.21280,61.92900,0 -151.18780,61.92202,0 -151.16280,61.91943,0 -151.13780,61.92485,0 -151.12054,61.93660,0 -151.11280,61.93959,0 -151.08780,61.95057,0 -151.06280,61.95807,0 -151.05249,61.96160,0 -151.03780,61.96415,0 -151.01280,61.97051,0 -150.98780,61.97441,0 -150.96280,61.97527,0 -150.93780,61.97630,0 -150.91280,61.97970,0 -150.88780,61.98293,0 -150.86280,61.98323,0 -150.83780,61.98313,0 -150.82368,61.98660,0 -150.81280,61.99035,0 -150.78780,62.00908,0 -150.77770,62.01160,0 -150.76280,62.01525,0 -150.75476,62.01160,0 -150.73780,61.99877,0 -150.71280,61.99583,0 -150.69631,62.01160,0 -150.68780,62.01586,0 -150.66280,62.02506,0 -150.63780,62.02142,0 -150.61280,62.01642,0 -150.58780,62.02995,0 -150.57839,62.03660,0 -150.56280,62.04477,0 </coordinates>
        </LineString>
      </MultiGeometry>
    </Placemark>
    <Placemark>
      <name>3</name>
      <styleUrl>#style_pgm</styleUrl>
      <visibility>0</visibility>
      <Point>
        <altitudeMode>clampToGround</altitudeMode>
        <coordinates>-150.56280,62.04477,0</coordinates>
      </Point>
    </Placemark>
    <Placemark>
      <name>3</name>
      <styleUrl>#style_pgm</styleUrl>
      <visibility>0</visibility>
      <Point>
        <altitudeMode>clampToGround</altitudeMode>
        <coordinates>-150.60870,61.53660,0</coordinates>
      </Point>
    </Placemark>
    <Placemark>
      <name>psa03 3.5 %g Contour</name>
      <styleUrl>#style_pgm</styleUrl>
      <visibility>0</visibility>
      <Snippet maxLines="0">
      </Snippet>
      <open>0</open>
      <MultiGeometry>
        <LineString>
          <gx:drawOrder>5</gx:drawOrder>
          <extrude>0</extrude>
          <tessellate>1</tessellate>
          <altitudeMode>clampToGround</altitudeMode>
          <coordinates>-150.88780,61.91378,0 -150.86280,61.91878,0 -150.83780,61.91788,0 -150.81280,61.91414,0 -150.80320,61.91160,0 -150.78780,61.90813,0 -150.76280,61.90210,0 -150.73780,61.89739,0 -150.71280,61.89072,0 -150.70628,61.88660,0 -150.68780,61.86537,0 -150.68419,61.86160,0 -150.66280,61.83901,0 -150.63780,61.84229,0 -150.62840,61.86160,0 -150.62727,61.88660,0 -150.61532,61.91160,0 -150.61280,61.91347,0 -150.58780,61.91365,0 -150.58369,61.91160,0 -150.56280,61.90098,0 -150.54511,61.88660,0 -150.53780,61.87532,0 -150.52812,61.86160,0 -150.52598,61.83660,0 -150.51808,61.81160,0 -150.51280,61.80916,0 -150.48780,61.80888,0 -150.48500,61.81160,0 -150.46280,61.82668,0 -150.44436,61.83660,0 -150.43780,61.84291,0 -150.41280,61.83897,0 -150.41000,61.83660,0 -150.38780,61.82560,0 -150.36944,61.81160,0 -150.36280,61.80194,0 -150.33780,61.79991,0 -150.33521,61.81160,0 -150.32875,61.83660,0 -150.33320,61.86160,0 -150.32294,61.88660,0 -150.31280,61.89138,0 -150.28780,61.89004,0 -150.28327,61.88660,0 -150.27238,61.86160,0 -150.26876,61.83660,0 -150.26280,61.83187,0 -150.23780,61.81922,0 -150.21280,61.81422,0 -150.20779,61.81160,0 -150.19933,61.78660,0 -150.21280,61.76213,0 -150.21330,61.76160,0 -150.23780,61.74907,0 -150.26280,61.74108,0 -150.28780,61.74024,0 -150.31280,61.75599,0 -150.32253,61.76160,0 -150.33780,61.78234,0 -150.34981,61.76160,0 -150.36280,61.75020,0 -150.37165,61.73660,0 -150.38780,61.71339,0 -150.39062,61.71160,0 -150.41280,61.69098,0 -150.43780,61.69836,0 -150.44746,61.71160,0 -150.46280,61.73072,0 -150.48780,61.72716,0 -150.51280,61.71389,0 -150.52979,61.71160,0 -150.53780,61.70943,0 -150.54510,61.71160,0 -150.56280,61.71327,0 -150.58780,61.72021,0 -150.61280,61.73117,0 -150.63780,61.73464,0 -150.66280,61.72046,0 -150.67423,61.71160,0 -150.68780,61.70216,0 -150.71280,61.68699,0 -150.71526,61.68660,0 -150.73780,61.68186,0 -150.76280,61.68610,0 -150.78780,61.68396,0 -150.81280,61.67966,0 -150.83780,61.68107,0 -150.86280,61.68361,0 -150.88780,61.68228,0 -150.91280,61.68468,0 -150.91649,61.68660,0 -150.93780,61.70175,0 -150.95488,61.71160,0 -150.96280,61.71535,0 -150.98780,61.72748,0 -150.99980,61.73660,0 -151.01280,61.75333,0 -151.01859,61.76160,0 -151.02500,61.78660,0 -151.02190,61.81160,0 -151.01280,61.81920,0 -150.98780,61.82970,0 -150.98101,61.83660,0 -150.96280,61.84865,0 -150.94739,61.86160,0 -150.93780,61.86805,0 -150.91573,61.88660,0 -150.91280,61.88993,0 -150.89147,61.91160,0 -150.88780,61.91378,0 </coordinates>
        </LineString>
      </MultiGeometry>
    </Placemark>
    <Placemark>
      <name>3.5</name>
      <styleUrl>#style_pgm</styleUrl>
      <visibility>0</visibility>
      <Point>
        <altitudeMode>clampToGround</altitudeMode>
        <coordinates>-150.88780,61.91378,0</coordinates>
      </Point>
    </Placemark>
    <Placemark>
      <name>3.5</name>
      <styleUrl>#style_pgm</styleUrl>
      <visibility>0</visibility>
      <Point>
        <altitudeMode>clampToGround</altitudeMode>
        <coordinates>-150.26280,61.74108,0</coordinates>
      </Point>
    </Placemark>
  </Document>
</kml>

