<?xml version="1.0" encoding="UTF-8" standalone="yes"?>
<kml xmlns="http://www.opengis.net/kml/2.2" xmlns:gx="http://www.google.com/kml/ext/2.2" xmlns:kml="http://www.opengis.net/kml/2.2" xmlns:atom="http://www.w3.org/2005/Atom">
  <NetworkLinkControl>
    <minRefreshPeriod>300</minRefreshPeriod>
  </NetworkLinkControl>
  <Document>
    <Style id="style_mi_3.0">
      <IconStyle>
        <Icon>
        </Icon>
      </IconStyle>
      <LineStyle>
        <colorMode>normal</colorMode>
        <color>ffffe6a0</color>
        <width>1</width>
      </LineStyle>
      <LabelStyle>
        <color>ffffe6a0</color>
        <scale>1</scale>
      </LabelStyle>
      <BalloonStyle>
        <text>&lt;b&gt;$[name]&lt;/b&gt;</text>
      </BalloonStyle>
    </Style>
    <Style id="style_mi_7">
      <IconStyle>
        <Icon>
        </Icon>
      </IconStyle>
      <LineStyle>
        <colorMode>normal</colorMode>
        <color>ff00c8ff</color>
        <width>1</width>
      </LineStyle>
      <LabelStyle>
        <color>ff00c8ff</color>
        <scale>1</scale>
      </LabelStyle>
      <BalloonStyle>
        <text>&lt;b&gt;$[name]&lt;/b&gt;</text>
      </BalloonStyle>
    </Style>
    <Style id="style_mi_11.0">
      <IconStyle>
        <Icon>
        </Icon>
      </IconStyle>
      <LineStyle>
        <colorMode>normal</colorMode>
        <color>ff0000b0</color>
        <width>1</width>
      </LineStyle>
      <LabelStyle>
        <color>ff0000b0</color>
        <scale>1</scale>
      </LabelStyle>
      <BalloonStyle>
        <text>&lt;b&gt;$[name]&lt;/b&gt;</text>
      </BalloonStyle>
    </Style>
    <Style id="style_mi_4.0">
      <IconStyle>
        <Icon>
        </Icon>
      </IconStyle>
      <LineStyle>
        <colorMode>normal</colorMode>
        <color>ffffff80</color>
        <width>1</width>
      </LineStyle>
      <LabelStyle>
        <color>ffffff80</color>
        <scale>1</scale>
      </LabelStyle>
      <BalloonStyle>
        <text>&lt;b&gt;$[name]&lt;/b&gt;</text>
      </BalloonStyle>
    </Style>
    <Style id="style_mi_1.5">
      <IconStyle>
        <Icon>
        </Icon>
      </IconStyle>
      <LineStyle>
        <colorMode>normal</colorMode>
        <color>ffffe5df</color>
        <width>6</width>
      </LineStyle>
      <LabelStyle>
        <color>ffffe5df</color>
        <scale>1</scale>
      </LabelStyle>
      <BalloonStyle>
        <text>&lt;b&gt;$[name]&lt;/b&gt;</text>
      </BalloonStyle>
    </Style>
    <Style id="style_mi_10">
      <IconStyle>
        <Icon>
        </Icon>
      </IconStyle>
      <LineStyle>
        <colorMode>normal</colorMode>
        <color>ff0000c8</color>
        <width>1</width>
      </LineStyle>
      <LabelStyle>
        <color>ff0000c8</color>
        <scale>1</scale>
      </LabelStyle>
      <BalloonStyle>
        <text>&lt;b&gt;$[name]&lt;/b&gt;</text>
      </BalloonStyle>
    </Style>
    <Style id="style_mi_4.5">
      <IconStyle>
        <Icon>
        </Icon>
      </IconStyle>
      <LineStyle>
        <colorMode>normal</colorMode>
        <color>ffc9ff7d</color>
        <width>6</width>
      </LineStyle>
      <LabelStyle>
        <color>ffc9ff7d</color>
        <scale>1</scale>
      </LabelStyle>
      <BalloonStyle>
        <text>&lt;b&gt;$[name]&lt;/b&gt;</text>
      </BalloonStyle>
    </Style>
    <Style id="style_mi_11">
      <IconStyle>
        <Icon>
        </Icon>
      </IconStyle>
      <LineStyle>
        <colorMode>normal</colorMode>
        <color>ff0000b0</color>
        <width>1</width>
      </LineStyle>
      <LabelStyle>
        <color>ff0000b0</color>
        <scale>1</scale>
      </LabelStyle>
      <BalloonStyle>
        <text>&lt;b&gt;$[name]&lt;/b&gt;</text>
      </BalloonStyle>
    </Style>
    <Style id="style_mi_10.0">
      <IconStyle>
        <Icon>
        </Icon>
      </IconStyle>
      <LineStyle>
        <colorMode>normal</colorMode>
        <color>ff0000c8</color>
        <width>1</width>
      </LineStyle>
      <LabelStyle>
        <color>ff0000c8</color>
        <scale>1</scale>
      </LabelStyle>
      <BalloonStyle>
        <text>&lt;b&gt;$[name]&lt;/b&gt;</text>
      </BalloonStyle>
    </Style>
    <Style id="style_mi_9.0">
      <IconStyle>
        <Icon>
        </Icon>
      </IconStyle>
      <LineStyle>
        <colorMode>normal</colorMode>
        <color>ff0000ff</color>
        <width>1</width>
      </LineStyle>
      <LabelStyle>
        <color>ff0000ff</color>
        <scale>1</scale>
      </LabelStyle>
      <BalloonStyle>
        <text>&lt;b&gt;$[name]&lt;/b&gt;</text>
      </BalloonStyle>
    </Style>
    <Style id="style_mi_1.0">
      <IconStyle>
        <Icon>
        </Icon>
      </IconStyle>
      <LineStyle>
        <colorMode>normal</colorMode>
        <color>ffffffff</color>
        <width>1</width>
      </LineStyle>
      <LabelStyle>
        <color>ffffffff</color>
        <scale>1</scale>
      </LabelStyle>
      <BalloonStyle>
        <text>&lt;b&gt;$[name]&lt;/b&gt;</text>
      </BalloonStyle>
    </Style>
    <Style id="style_mi_0.5">
      <IconStyle>
        <Icon>
        </Icon>
      </IconStyle>
      <LineStyle>
        <colorMode>normal</colorMode>
        <color>ffffffff</color>
        <width>6</width>
      </LineStyle>
      <LabelStyle>
        <color>ffffffff</color>
        <scale>1</scale>
      </LabelStyle>
      <BalloonStyle>
        <text>&lt;b&gt;$[name]&lt;/b&gt;</text>
      </BalloonStyle>
    </Style>
    <Style id="style_mi_0.0">
      <IconStyle>
        <Icon>
        </Icon>
      </IconStyle>
      <LineStyle>
        <colorMode>normal</colorMode>
        <color>ffffffff</color>
        <width>1</width>
      </LineStyle>
      <LabelStyle>
        <color>ffffffff</color>
        <scale>1</scale>
      </LabelStyle>
      <BalloonStyle>
        <text>&lt;b&gt;$[name]&lt;/b&gt;</text>
      </BalloonStyle>
    </Style>
    <Style id="style_mi_7.5">
      <IconStyle>
        <Icon>
        </Icon>
      </IconStyle>
      <LineStyle>
        <colorMode>normal</colorMode>
        <color>ff00adff</color>
        <width>6</width>
      </LineStyle>
      <LabelStyle>
        <color>ff00adff</color>
        <scale>1</scale>
      </LabelStyle>
      <BalloonStyle>
        <text>&lt;b&gt;$[name]&lt;/b&gt;</text>
      </BalloonStyle>
    </Style>
    <Style id="style_mi_5.0">
      <IconStyle>
        <Icon>
        </Icon>
      </IconStyle>
      <LineStyle>
        <colorMode>normal</colorMode>
        <color>ff93ff7a</color>
        <width>1</width>
      </LineStyle>
      <LabelStyle>
        <color>ff93ff7a</color>
        <scale>1</scale>
      </LabelStyle>
      <BalloonStyle>
        <text>&lt;b&gt;$[name]&lt;/b&gt;</text>
      </BalloonStyle>
    </Style>
    <Style id="style_mi_2">
      <IconStyle>
        <Icon>
        </Icon>
      </IconStyle>
      <LineStyle>
        <colorMode>normal</colorMode>
        <color>ffffccbf</color>
        <width>1</width>
      </LineStyle>
      <LabelStyle>
        <color>ffffccbf</color>
        <scale>1</scale>
      </LabelStyle>
      <BalloonStyle>
        <text>&lt;b&gt;$[name]&lt;/b&gt;</text>
      </BalloonStyle>
    </Style>
    <Style id="style_mi_1">
      <IconStyle>
        <Icon>
        </Icon>
      </IconStyle>
      <LineStyle>
        <colorMode>normal</colorMode>
        <color>ffffffff</color>
        <width>1</width>
      </LineStyle>
      <LabelStyle>
        <color>ffffffff</color>
        <scale>1</scale>
      </LabelStyle>
      <BalloonStyle>
        <text>&lt;b&gt;$[name]&lt;/b&gt;</text>
      </BalloonStyle>
    </Style>
    <Style id="style_mi_3.5">
      <IconStyle>
        <Icon>
        </Icon>
      </IconStyle>
      <LineStyle>
        <colorMode>normal</colorMode>
        <color>fffff390</color>
        <width>6</width>
      </LineStyle>
      <LabelStyle>
        <color>fffff390</color>
        <scale>1</scale>
      </LabelStyle>
      <BalloonStyle>
        <text>&lt;b&gt;$[name]&lt;/b&gt;</text>
      </BalloonStyle>
    </Style>
    <Style id="style_mi_7.0">
      <IconStyle>
        <Icon>
        </Icon>
      </IconStyle>
      <LineStyle>
        <colorMode>normal</colorMode>
        <color>ff00c8ff</color>
        <width>1</width>
      </LineStyle>
      <LabelStyle>
        <color>ff00c8ff</color>
        <scale>1</scale>
      </LabelStyle>
      <BalloonStyle>
        <text>&lt;b&gt;$[name]&lt;/b&gt;</text>
      </BalloonStyle>
    </Style>
    <Style id="style_mi_2.0">
      <IconStyle>
        <Icon>
        </Icon>
      </IconStyle>
      <LineStyle>
        <colorMode>normal</colorMode>
        <color>ffffccbf</color>
        <width>1</width>
      </LineStyle>
      <LabelStyle>
        <color>ffffccbf</color>
        <scale>1</scale>
      </LabelStyle>
      <BalloonStyle>
        <text>&lt;b&gt;$[name]&lt;/b&gt;</text>
      </BalloonStyle>
    </Style>
    <Style id="style_mi_6.0">
      <IconStyle>
        <Icon>
        </Icon>
      </IconStyle>
      <LineStyle>
        <colorMode>normal</colorMode>
        <color>ff00ffff</color>
        <width>1</width>
      </LineStyle>
      <LabelStyle>
        <color>ff00ffff</color>
        <scale>1</scale>
      </LabelStyle>
      <BalloonStyle>
        <text>&lt;b&gt;$[name]&lt;/b&gt;</text>
      </BalloonStyle>
    </Style>
    <Style id="style_mi_10.5">
      <IconStyle>
        <Icon>
        </Icon>
      </IconStyle>
      <LineStyle>
        <colorMode>normal</colorMode>
        <color>ff0000bc</color>
        <width>6</width>
      </LineStyle>
      <LabelStyle>
        <color>ff0000bc</color>
        <scale>1</scale>
      </LabelStyle>
      <BalloonStyle>
        <text>&lt;b&gt;$[name]&lt;/b&gt;</text>
      </BalloonStyle>
    </Style>
    <Style id="style_mi_5.5">
      <IconStyle>
        <Icon>
        </Icon>
      </IconStyle>
      <LineStyle>
        <colorMode>normal</colorMode>
        <color>ff4affbc</color>
        <width>6</width>
      </LineStyle>
      <LabelStyle>
        <color>ff4affbc</color>
        <scale>1</scale>
      </LabelStyle>
      <BalloonStyle>
        <text>&lt;b&gt;$[name]&lt;/b&gt;</text>
      </BalloonStyle>
    </Style>
    <Style id="style_mi_8.0">
      <IconStyle>
        <Icon>
        </Icon>
      </IconStyle>
      <LineStyle>
        <colorMode>normal</colorMode>
        <color>ff0091ff</color>
        <width>1</width>
      </LineStyle>
      <LabelStyle>
        <color>ff0091ff</color>
        <scale>1</scale>
      </LabelStyle>
      <BalloonStyle>
        <text>&lt;b&gt;$[name]&lt;/b&gt;</text>
      </BalloonStyle>
    </Style>
    <Style id="style_mi_0">
      <IconStyle>
        <Icon>
        </Icon>
      </IconStyle>
      <LineStyle>
        <colorMode>normal</colorMode>
        <color>ffffffff</color>
        <width>1</width>
      </LineStyle>
      <LabelStyle>
        <color>ffffffff</color>
        <scale>1</scale>
      </LabelStyle>
      <BalloonStyle>
        <text>&lt;b&gt;$[name]&lt;/b&gt;</text>
      </BalloonStyle>
    </Style>
    <Style id="style_mi_2.5">
      <IconStyle>
        <Icon>
        </Icon>
      </IconStyle>
      <LineStyle>
        <colorMode>normal</colorMode>
        <color>ffffd9b0</color>
        <width>6</width>
      </LineStyle>
      <LabelStyle>
        <color>ffffd9b0</color>
        <scale>1</scale>
      </LabelStyle>
      <BalloonStyle>
        <text>&lt;b&gt;$[name]&lt;/b&gt;</text>
      </BalloonStyle>
    </Style>
    <Style id="style_mi_6">
      <IconStyle>
        <Icon>
        </Icon>
      </IconStyle>
      <LineStyle>
        <colorMode>normal</colorMode>
        <color>ff00ffff</color>
        <width>1</width>
      </LineStyle>
      <LabelStyle>
        <color>ff00ffff</color>
        <scale>1</scale>
      </LabelStyle>
      <BalloonStyle>
        <text>&lt;b&gt;$[name]&lt;/b&gt;</text>
      </BalloonStyle>
    </Style>
    <Style id="style_mi_8.5">
      <IconStyle>
        <Icon>
        </Icon>
      </IconStyle>
      <LineStyle>
        <colorMode>normal</colorMode>
        <color>ff0049ff</color>
        <width>6</width>
      </LineStyle>
      <LabelStyle>
        <color>ff0049ff</color>
        <scale>1</scale>
      </LabelStyle>
      <BalloonStyle>
        <text>&lt;b&gt;$[name]&lt;/b&gt;</text>
      </BalloonStyle>
    </Style>
    <Style id="style_mi_3">
      <IconStyle>
        <Icon>
        </Icon>
      </IconStyle>
      <LineStyle>
        <colorMode>normal</colorMode>
        <color>ffffe6a0</color>
        <width>1</width>
      </LineStyle>
      <LabelStyle>
        <color>ffffe6a0</color>
        <scale>1</scale>
      </LabelStyle>
      <BalloonStyle>
        <text>&lt;b&gt;$[name]&lt;/b&gt;</text>
      </BalloonStyle>
    </Style>
    <Style id="style_mi_9">
      <IconStyle>
        <Icon>
        </Icon>
      </IconStyle>
      <LineStyle>
        <colorMode>normal</colorMode>
        <color>ff0000ff</color>
        <width>1</width>
      </LineStyle>
      <LabelStyle>
        <color>ff0000ff</color>
        <scale>1</scale>
      </LabelStyle>
      <BalloonStyle>
        <text>&lt;b&gt;$[name]&lt;/b&gt;</text>
      </BalloonStyle>
    </Style>
    <Style id="style_mi_6.5">
      <IconStyle>
        <Icon>
        </Icon>
      </IconStyle>
      <LineStyle>
        <colorMode>normal</colorMode>
        <color>ff00e4ff</color>
        <width>6</width>
      </LineStyle>
      <LabelStyle>
        <color>ff00e4ff</color>
        <scale>1</scale>
      </LabelStyle>
      <BalloonStyle>
        <text>&lt;b&gt;$[name]&lt;/b&gt;</text>
      </BalloonStyle>
    </Style>
    <Style id="style_mi_8">
      <IconStyle>
        <Icon>
        </Icon>
      </IconStyle>
      <LineStyle>
        <colorMode>normal</colorMode>
        <color>ff0091ff</color>
        <width>1</width>
      </LineStyle>
      <LabelStyle>
        <color>ff0091ff</color>
        <scale>1</scale>
      </LabelStyle>
      <BalloonStyle>
        <text>&lt;b&gt;$[name]&lt;/b&gt;</text>
      </BalloonStyle>
    </Style>
    <Style id="style_mi_9.5">
      <IconStyle>
        <Icon>
        </Icon>
      </IconStyle>
      <LineStyle>
        <colorMode>normal</colorMode>
        <color>ff0000e4</color>
        <width>6</width>
      </LineStyle>
      <LabelStyle>
        <color>ff0000e4</color>
        <scale>1</scale>
      </LabelStyle>
      <BalloonStyle>
        <text>&lt;b&gt;$[name]&lt;/b&gt;</text>
      </BalloonStyle>
    </Style>
    <Style id="style_mi_4">
      <IconStyle>
        <Icon>
        </Icon>
      </IconStyle>
      <LineStyle>
        <colorMode>normal</colorMode>
        <color>ffffff80</color>
        <width>1</width>
      </LineStyle>
      <LabelStyle>
        <color>ffffff80</color>
        <scale>1</scale>
      </LabelStyle>
      <BalloonStyle>
        <text>&lt;b&gt;$[name]&lt;/b&gt;</text>
      </BalloonStyle>
    </Style>
    <Style id="style_mi_5">
      <IconStyle>
        <Icon>
        </Icon>
      </IconStyle>
      <LineStyle>
        <colorMode>normal</colorMode>
        <color>ff93ff7a</color>
        <width>1</width>
      </LineStyle>
      <LabelStyle>
        <color>ff93ff7a</color>
        <scale>1</scale>
      </LabelStyle>
      <BalloonStyle>
        <text>&lt;b&gt;$[name]&lt;/b&gt;</text>
      </BalloonStyle>
    </Style>
    <name>Intensity Contours</name>
    <visibility>1</visibility>
    <Placemark>
      <name>Intensity 1.5 Contour</name>
      <styleUrl>#style_mi_1.5</styleUrl>
      <visibility>1</visibility>
      <Snippet maxLines="0">
      </Snippet>
      <open>0</open>
      <MultiGeometry>
        <LineString>
          <gx:drawOrder>5</gx:drawOrder>
          <extrude>0</extrude>
          <tessellate>1</tessellate>
          <altitudeMode>clampToGround</altitudeMode>
          <coordinates>-150.36280,62.51299,0 -150.33780,62.51925,0 -150.31280,62.52459,0 -150.28780,62.52703,0 -150.26280,62.52539,0 -150.23780,62.52114,0 -150.21280,62.51621,0 -150.18780,62.51186,0 -150.18653,62.51160,0 -150.16280,62.50648,0 -150.13780,62.49825,0 -150.11280,62.48775,0 -150.11023,62.48660,0 -150.08780,62.47603,0 -150.06280,62.46524,0 -150.05580,62.46160,0 -150.03780,62.44965,0 -150.02509,62.43660,0 -150.01304,62.41160,0 -150.01667,62.38660,0 -150.03397,62.36160,0 -150.03780,62.35757,0 -150.05722,62.33660,0 -150.06280,62.33147,0 -150.08780,62.31363,0 -150.09106,62.31160,0 -150.11280,62.30088,0 -150.13780,62.29029,0 -150.15481,62.28660,0 -150.16280,62.28490,0 -150.18780,62.28235,0 -150.21280,62.27891,0 -150.23780,62.27636,0 -150.26280,62.27588,0 -150.28780,62.27758,0 -150.31280,62.28090,0 -150.33780,62.28408,0 -150.35479,62.28660,0 -150.36280,62.28788,0 -150.38780,62.29503,0 -150.41280,62.30491,0 -150.42862,62.31160,0 -150.43780,62.31605,0 -150.46280,62.33034,0 -150.47088,62.33660,0 -150.48780,62.35274,0 -150.49659,62.36160,0 -150.51280,62.38406,0 -150.51447,62.38660,0 -150.51923,62.41160,0 -150.51280,62.42881,0 -150.50845,62.43660,0 -150.48780,62.45360,0 -150.47601,62.46160,0 -150.46280,62.46868,0 -150.43780,62.48265,0 -150.43123,62.48660,0 -150.41280,62.49555,0 -150.38780,62.50509,0 -150.36759,62.51160,0 -150.36280,62.51299,0 </coordinates>
        </LineString>
      </MultiGeometry>
    </Placemark>
    <Placemark>
      <name>Intensity 1.5 Contour</name>
      <styleUrl>#style_mi_1.5</styleUrl>
      <visibility>1</visibility>
      <Snippet maxLines="0">
      </Snippet>
      <open>0</open>
      <MultiGeometry>
        <LineString>
          <gx:drawOrder>5</gx:drawOrder>
          <extrude>0</extrude>
          <tessellate>1</tessellate>
          <altitudeMode>clampToGround</altitudeMode>
          <coordinates>-150.51280,62.01207,0 -150.48780,62.01358,0 -150.46922,62.01160,0 -150.46280,62.01053,0 -150.43780,62.00229,0 -150.41280,61.99546,0 -150.38780,61.99018,0 -150.37415,61.98660,0 -150.36280,61.98150,0 -150.33780,61.97111,0 -150.31280,61.96346,0 -150.30781,61.96160,0 -150.28780,61.95274,0 -150.26280,61.94230,0 -150.24699,61.93660,0 -150.23780,61.93218,0 -150.21280,61.91806,0 -150.20459,61.91160,0 -150.18780,61.89942,0 -150.16280,61.88928,0 -150.15201,61.88660,0 -150.13780,61.88287,0 -150.11280,61.87696,0 -150.08780,61.87172,0 -150.06280,61.86698,0 -150.03780,61.86353,0 -150.02553,61.86160,0 -150.01280,61.85901,0 -149.98780,61.85043,0 -149.96280,61.83791,0 -149.96044,61.83660,0 -149.93780,61.81982,0 -149.92723,61.81160,0 -149.91280,61.79365,0 -149.90821,61.78660,0 -149.89959,61.76160,0 -149.89945,61.73660,0 -149.91069,61.71160,0 -149.91280,61.70951,0 -149.93780,61.68880,0 -149.94052,61.68660,0 -149.96280,61.67228,0 -149.97697,61.66160,0 -149.98780,61.65567,0 -150.01280,61.64639,0 -150.03780,61.64185,0 -150.06280,61.64031,0 -150.08780,61.64051,0 -150.11280,61.64182,0 -150.13780,61.64381,0 -150.16280,61.64539,0 -150.18780,61.64560,0 -150.21280,61.64405,0 -150.23780,61.64039,0 -150.25170,61.63660,0 -150.26280,61.63323,0 -150.28780,61.62206,0 -150.30066,61.61160,0 -150.31280,61.60306,0 -150.33319,61.58660,0 -150.33780,61.58402,0 -150.36280,61.57440,0 -150.38780,61.57018,0 -150.41280,61.56861,0 -150.43780,61.56387,0 -150.44667,61.56160,0 -150.46280,61.55825,0 -150.48780,61.55828,0 -150.50285,61.56160,0 -150.51280,61.56932,0 -150.53429,61.58660,0 -150.53780,61.59010,0 -150.56280,61.60540,0 -150.57141,61.61160,0 -150.58780,61.61731,0 -150.61280,61.63018,0 -150.62552,61.63660,0 -150.63780,61.64225,0 -150.65642,61.63660,0 -150.65882,61.61160,0 -150.65507,61.58660,0 -150.66280,61.58411,0 -150.68780,61.58171,0 -150.71280,61.58302,0 -150.73039,61.58660,0 -150.73780,61.58847,0 -150.76280,61.59965,0 -150.78780,61.60893,0 -150.80149,61.61160,0 -150.81280,61.61523,0 -150.83780,61.61809,0 -150.86280,61.62248,0 -150.88780,61.63071,0 -150.89969,61.63660,0 -150.91280,61.64280,0 -150.93780,61.65820,0 -150.94260,61.66160,0 -150.96280,61.67641,0 -150.97915,61.68660,0 -150.98780,61.69202,0 -151.01280,61.70767,0 -151.01776,61.71160,0 -151.03780,61.72997,0 -151.04549,61.73660,0 -151.06280,61.75216,0 -151.07944,61.76160,0 -151.08780,61.76661,0 -151.11280,61.77944,0 -151.12924,61.78660,0 -151.13780,61.79182,0 -151.16280,61.80611,0 -151.17258,61.81160,0 -151.18780,61.82627,0 -151.19556,61.83660,0 -151.19586,61.86160,0 -151.18780,61.87376,0 -151.17320,61.88660,0 -151.16280,61.89318,0 -151.13780,61.90385,0 -151.12204,61.91160,0 -151.11280,61.91539,0 -151.08780,61.92776,0 -151.06899,61.93660,0 -151.06280,61.93866,0 -151.03780,61.95047,0 -151.02061,61.96160,0 -151.01280,61.96405,0 -150.98780,61.96819,0 -150.96280,61.96722,0 -150.93780,61.96582,0 -150.91280,61.96906,0 -150.88780,61.97256,0 -150.86280,61.97135,0 -150.83780,61.96854,0 -150.81280,61.97185,0 -150.78780,61.98494,0 -150.76280,61.97847,0 -150.75026,61.96160,0 -150.73780,61.95560,0 -150.71280,61.95237,0 -150.69300,61.96160,0 -150.68780,61.97422,0 -150.68459,61.98660,0 -150.66280,62.00339,0 -150.63780,62.00283,0 -150.61280,61.99659,0 -150.58780,61.99699,0 -150.56280,62.00209,0 -150.53780,62.00631,0 -150.51765,62.01160,0 -150.51280,62.01207,0 </coordinates>
        </LineString>
      </MultiGeometry>
    </Placemark>
    <Placemark>
      <name>Intensity 1.5 Contour</name>
      <styleUrl>#style_mi_1.5</styleUrl>
      <visibility>1</visibility>
      <Snippet maxLines="0">
      </Snippet>
      <open>0</open>
      <MultiGeometry>
        <LineString>
          <gx:drawOrder>5</gx:drawOrder>
          <extrude>0</extrude>
          <tessellate>1</tessellate>
          <altitudeMode>clampToGround</altitudeMode>
          <coordinates>-149.58780,61.51386,0 -149.56280,61.51636,0 -149.53780,61.51813,0 -149.51280,61.51918,0 -149.48780,61.51949,0 -149.46280,61.51905,0 -149.43780,61.51768,0 -149.41280,61.51443,0 -149.40324,61.51160,0 -149.38780,61.50497,0 -149.36280,61.48791,0 -149.36106,61.48660,0 -149.35825,61.46160,0 -149.36280,61.45520,0 -149.38293,61.43660,0 -149.38780,61.43279,0 -149.41280,61.41717,0 -149.42401,61.41160,0 -149.43780,61.40247,0 -149.46280,61.39135,0 -149.47480,61.38660,0 -149.48780,61.37930,0 -149.51280,61.36609,0 -149.51993,61.36160,0 -149.53780,61.34474,0 -149.54508,61.33660,0 -149.56280,61.32285,0 -149.57972,61.31160,0 -149.58780,61.30822,0 -149.61280,61.29768,0 -149.63285,61.28660,0 -149.63780,61.28247,0 -149.65619,61.26160,0 -149.66280,61.25479,0 -149.68572,61.23660,0 -149.68780,61.23502,0 -149.71280,61.21712,0 -149.71832,61.21160,0 -149.73609,61.18660,0 -149.73780,61.18333,0 -149.74890,61.16160,0 -149.75945,61.13660,0 -149.76280,61.12967,0 -149.77297,61.11160,0 -149.78614,61.08660,0 -149.77916,61.06160,0 -149.76280,61.04596,0 -149.75232,61.03660,0 -149.73780,61.02590,0 -149.71568,61.01160,0 -149.71280,61.00722,0 -149.68780,60.98727,0 -149.68704,60.98660,0 -149.68780,60.98585,0 -149.71280,60.97705,0 -149.73780,60.97358,0 -149.76280,60.97121,0 -149.78780,60.96970,0 -149.81280,60.96863,0 -149.83780,60.96707,0 -149.86280,60.96371,0 -149.87527,60.96160,0 -149.88780,60.95907,0 -149.91280,60.95907,0 -149.92279,60.96160,0 -149.93780,60.96478,0 -149.96280,60.96987,0 -149.98780,60.97378,0 -150.01280,60.98040,0 -150.02785,60.98660,0 -150.03780,60.99025,0 -150.06280,60.99687,0 -150.08780,61.00287,0 -150.11280,61.00936,0 -150.13780,61.00927,0 -150.16280,61.00307,0 -150.18780,60.99886,0 -150.21280,60.99787,0 -150.23780,60.99907,0 -150.26280,61.00392,0 -150.28377,61.01160,0 -150.28780,61.01292,0 -150.31280,61.01985,0 -150.33780,61.02628,0 -150.36280,61.03496,0 -150.36733,61.03660,0 -150.38780,61.04274,0 -150.41280,61.04839,0 -150.43780,61.05736,0 -150.44391,61.06160,0 -150.46280,61.07887,0 -150.46882,61.08660,0 -150.48179,61.11160,0 -150.48780,61.12911,0 -150.49061,61.13660,0 -150.48933,61.16160,0 -150.48780,61.16439,0 -150.47536,61.18660,0 -150.46280,61.20066,0 -150.45222,61.21160,0 -150.43780,61.22477,0 -150.42068,61.23660,0 -150.41280,61.24163,0 -150.38780,61.25083,0 -150.36280,61.25832,0 -150.35343,61.26160,0 -150.33780,61.26766,0 -150.31280,61.27295,0 -150.28780,61.27444,0 -150.26280,61.27470,0 -150.23780,61.27518,0 -150.21280,61.27692,0 -150.18780,61.28131,0 -150.16871,61.28660,0 -150.16280,61.28873,0 -150.13780,61.29639,0 -150.11280,61.30332,0 -150.08780,61.31150,0 -150.08749,61.31160,0 -150.06280,61.32032,0 -150.03780,61.32750,0 -150.01280,61.33349,0 -149.99404,61.33660,0 -149.98780,61.33774,0 -149.96280,61.34179,0 -149.93780,61.34861,0 -149.91280,61.35872,0 -149.90566,61.36160,0 -149.88780,61.36800,0 -149.86280,61.37296,0 -149.83780,61.37609,0 -149.81280,61.38527,0 -149.81125,61.38660,0 -149.79032,61.41160,0 -149.78780,61.41471,0 -149.76940,61.43660,0 -149.76280,61.44279,0 -149.73780,61.46116,0 -149.73709,61.46160,0 -149.71280,61.47569,0 -149.68780,61.48570,0 -149.68533,61.48660,0 -149.66280,61.49500,0 -149.63780,61.50327,0 -149.61280,61.50971,0 -149.60068,61.51160,0 -149.58780,61.51386,0 </coordinates>
        </LineString>
      </MultiGeometry>
    </Placemark>
    <Placemark>
      <name>Intensity 1.5 Contour</name>
      <styleUrl>#style_mi_1.5</styleUrl>
      <visibility>1</visibility>
      <Snippet maxLines="0">
      </Snippet>
      <open>0</open>
      <MultiGeometry>
        <LineString>
          <gx:drawOrder>5</gx:drawOrder>
          <extrude>0</extrude>
          <tessellate>1</tessellate>
          <altitudeMode>clampToGround</altitudeMode>
          <coordinates>-149.41280,61.34255,0 -149.38780,61.34822,0 -149.36280,61.35063,0 -149.33780,61.35032,0 -149.31280,61.34722,0 -149.28780,61.34280,0 -149.26280,61.33863,0 -149.24900,61.33660,0 -149.23780,61.33453,0 -149.21280,61.33009,0 -149.18780,61.32556,0 -149.16280,61.32024,0 -149.13780,61.31291,0 -149.13478,61.31160,0 -149.11280,61.29930,0 -149.09516,61.28660,0 -149.08780,61.27777,0 -149.07736,61.26160,0 -149.07320,61.23660,0 -149.08221,61.21160,0 -149.08780,61.20535,0 -149.10988,61.18660,0 -149.11280,61.18485,0 -149.13780,61.17353,0 -149.16280,61.16309,0 -149.16699,61.16160,0 -149.18780,61.15638,0 -149.21280,61.15248,0 -149.23780,61.15036,0 -149.26280,61.14931,0 -149.28780,61.14920,0 -149.31280,61.14989,0 -149.33780,61.15123,0 -149.36280,61.15416,0 -149.38780,61.15992,0 -149.39273,61.16160,0 -149.41280,61.17040,0 -149.43780,61.18232,0 -149.44455,61.18660,0 -149.46280,61.20320,0 -149.46992,61.21160,0 -149.48109,61.23660,0 -149.48509,61.26160,0 -149.48354,61.28660,0 -149.47068,61.31160,0 -149.46280,61.31849,0 -149.43780,61.33244,0 -149.42700,61.33660,0 -149.41280,61.34255,0 </coordinates>
        </LineString>
      </MultiGeometry>
    </Placemark>
    <Placemark>
      <name>Intensity 1.5 Contour</name>
      <styleUrl>#style_mi_1.5</styleUrl>
      <visibility>1</visibility>
      <Snippet maxLines="0">
      </Snippet>
      <open>0</open>
      <MultiGeometry>
        <LineString>
          <gx:drawOrder>5</gx:drawOrder>
          <extrude>0</extrude>
          <tessellate>1</tessellate>
          <altitudeMode>clampToGround</altitudeMode>
          <coordinates>-151.26280,60.89373,0 -151.23780,60.89932,0 -151.21280,60.90120,0 -151.18780,60.90182,0 -151.16280,60.90204,0 -151.13780,60.90200,0 -151.11280,60.90170,0 -151.08780,60.90101,0 -151.06280,60.89904,0 -151.03780,60.89328,0 -151.02182,60.88660,0 -151.01280,60.88278,0 -150.98780,60.87303,0 -150.96662,60.86160,0 -150.96280,60.85832,0 -150.94353,60.83660,0 -150.93780,60.82780,0 -150.92646,60.81160,0 -150.91292,60.78660,0 -150.91280,60.78606,0 -150.90787,60.76160,0 -150.91280,60.74310,0 -150.91509,60.73660,0 -150.93602,60.71160,0 -150.93780,60.71011,0 -150.96280,60.69368,0 -150.97427,60.68660,0 -150.98780,60.67990,0 -151.01280,60.67066,0 -151.03780,60.66525,0 -151.05910,60.66160,0 -151.06280,60.66101,0 -151.08780,60.65508,0 -151.11280,60.64676,0 -151.13780,60.63897,0 -151.14972,60.63660,0 -151.16280,60.63445,0 -151.18780,60.63627,0 -151.18883,60.63660,0 -151.21280,60.64453,0 -151.23780,60.65103,0 -151.26280,60.65545,0 -151.28780,60.66081,0 -151.29000,60.66160,0 -151.31280,60.67132,0 -151.33780,60.68564,0 -151.33928,60.68660,0 -151.36280,60.70443,0 -151.37195,60.71160,0 -151.38780,60.72232,0 -151.40438,60.73660,0 -151.41280,60.74710,0 -151.41994,60.76160,0 -151.42233,60.78660,0 -151.41547,60.81160,0 -151.41280,60.81554,0 -151.39441,60.83660,0 -151.38780,60.84179,0 -151.36280,60.85584,0 -151.35129,60.86160,0 -151.33780,60.86829,0 -151.31280,60.87641,0 -151.28780,60.88394,0 -151.28069,60.88660,0 -151.26280,60.89373,0 </coordinates>
        </LineString>
      </MultiGeometry>
    </Placemark>
    <Placemark>
      <name>Intensity 1.5 Contour</name>
      <styleUrl>#style_mi_1.5</styleUrl>
      <visibility>1</visibility>
      <Snippet maxLines="0">
      </Snippet>
      <open>0</open>
      <MultiGeometry>
        <LineString>
          <gx:drawOrder>5</gx:drawOrder>
          <extrude>0</extrude>
          <tessellate>1</tessellate>
          <altitudeMode>clampToGround</altitudeMode>
          <coordinates>-150.41280,60.58947,0 -150.38780,60.59517,0 -150.36280,60.59783,0 -150.33780,60.59420,0 -150.32421,60.58660,0 -150.32075,60.56160,0 -150.32490,60.53660,0 -150.33308,60.51160,0 -150.33780,60.50064,0 -150.34449,60.48660,0 -150.34151,60.46160,0 -150.33780,60.44818,0 -150.33592,60.43660,0 -150.33780,60.43333,0 -150.36280,60.41563,0 -150.38780,60.42081,0 -150.41280,60.43248,0 -150.41942,60.43660,0 -150.43780,60.46082,0 -150.43831,60.46160,0 -150.44230,60.48660,0 -150.44966,60.51160,0 -150.45166,60.53660,0 -150.44435,60.56160,0 -150.43780,60.57019,0 -150.41858,60.58660,0 -150.41280,60.58947,0 </coordinates>
        </LineString>
      </MultiGeometry>
    </Placemark>
    <Placemark>
      <name>Intensity 2 Contour</name>
      <styleUrl>#style_mi_2</styleUrl>
      <visibility>1</visibility>
      <Snippet maxLines="0">
      </Snippet>
      <open>0</open>
      <MultiGeometry>
        <LineString>
          <gx:drawOrder>5</gx:drawOrder>
          <extrude>0</extrude>
          <tessellate>1</tessellate>
          <altitudeMode>clampToGround</altitudeMode>
          <coordinates>-150.33780,62.44017,0 -150.31280,62.44675,0 -150.30082,62.43660,0 -150.29440,62.41160,0 -150.29670,62.38660,0 -150.28780,62.36660,0 -150.26280,62.37372,0 -150.23780,62.37899,0 -150.21709,62.38660,0 -150.21280,62.38912,0 -150.18780,62.40446,0 -150.16280,62.40447,0 -150.13780,62.38964,0 -150.13538,62.38660,0 -150.13195,62.36160,0 -150.13780,62.35504,0 -150.16280,62.33876,0 -150.16953,62.33660,0 -150.18780,62.33466,0 -150.21280,62.32834,0 -150.23780,62.32026,0 -150.26280,62.32192,0 -150.28780,62.33513,0 -150.29134,62.33660,0 -150.30287,62.36160,0 -150.31280,62.36369,0 -150.31638,62.36160,0 -150.33780,62.35694,0 -150.36280,62.35515,0 -150.38780,62.36038,0 -150.38996,62.36160,0 -150.39557,62.38660,0 -150.38780,62.39628,0 -150.37022,62.41160,0 -150.36280,62.41738,0 -150.34308,62.43660,0 -150.33780,62.44017,0 </coordinates>
        </LineString>
      </MultiGeometry>
    </Placemark>
    <Placemark>
      <name>Intensity 2 Contour</name>
      <styleUrl>#style_mi_2</styleUrl>
      <visibility>1</visibility>
      <Snippet maxLines="0">
      </Snippet>
      <open>0</open>
      <MultiGeometry>
        <LineString>
          <gx:drawOrder>5</gx:drawOrder>
          <extrude>0</extrude>
          <tessellate>1</tessellate>
          <altitudeMode>clampToGround</altitudeMode>
          <coordinates>-149.63780,61.46491,0 -149.61280,61.47083,0 -149.58780,61.47513,0 -149.56280,61.47801,0 -149.53780,61.47976,0 -149.51280,61.47886,0 -149.48780,61.47192,0 -149.47379,61.46160,0 -149.48780,61.45456,0 -149.51280,61.43801,0 -149.51465,61.43660,0 -149.53780,61.42734,0 -149.56280,61.41936,0 -149.58776,61.41160,0 -149.58780,61.41159,0 -149.61280,61.40421,0 -149.63780,61.40005,0 -149.66280,61.39867,0 -149.68780,61.39754,0 -149.71280,61.39412,0 -149.73057,61.41160,0 -149.71280,61.42521,0 -149.70205,61.43660,0 -149.68780,61.44300,0 -149.66280,61.45434,0 -149.64920,61.46160,0 -149.63780,61.46491,0 </coordinates>
        </LineString>
      </MultiGeometry>
    </Placemark>
    <Placemark>
      <name>Intensity 2 Contour</name>
      <styleUrl>#style_mi_2</styleUrl>
      <visibility>1</visibility>
      <Snippet maxLines="0">
      </Snippet>
      <open>0</open>
      <MultiGeometry>
        <LineString>
          <gx:drawOrder>5</gx:drawOrder>
          <extrude>0</extrude>
          <tessellate>1</tessellate>
          <altitudeMode>clampToGround</altitudeMode>
          <coordinates>-149.88780,61.32262,0 -149.86280,61.32895,0 -149.84510,61.31160,0 -149.85498,61.28660,0 -149.86118,61.26160,0 -149.85450,61.23660,0 -149.84040,61.21160,0 -149.83780,61.19186,0 -149.83721,61.18660,0 -149.83780,61.18521,0 -149.85053,61.16160,0 -149.86280,61.14537,0 -149.86970,61.13660,0 -149.87427,61.11160,0 -149.86337,61.08660,0 -149.86280,61.08586,0 -149.84672,61.06160,0 -149.83780,61.05073,0 -149.82652,61.03660,0 -149.81554,61.01160,0 -149.83780,61.00441,0 -149.86280,60.99960,0 -149.88780,60.99531,0 -149.91280,60.99524,0 -149.93780,60.99999,0 -149.96280,61.00459,0 -149.98780,61.00925,0 -149.99648,61.01160,0 -150.01280,61.01753,0 -150.03780,61.02509,0 -150.06280,61.02997,0 -150.08780,61.03461,0 -150.10094,61.03660,0 -150.11280,61.03888,0 -150.13780,61.03845,0 -150.14700,61.03660,0 -150.16280,61.03413,0 -150.18780,61.03094,0 -150.21280,61.03049,0 -150.23780,61.03232,0 -150.26040,61.03660,0 -150.26280,61.03732,0 -150.28780,61.04645,0 -150.31280,61.05328,0 -150.33780,61.06000,0 -150.34307,61.06160,0 -150.36280,61.07017,0 -150.38780,61.07799,0 -150.41280,61.08523,0 -150.41548,61.08660,0 -150.43780,61.10701,0 -150.44085,61.11160,0 -150.44905,61.13660,0 -150.44588,61.16160,0 -150.43780,61.17411,0 -150.42756,61.18660,0 -150.41280,61.19928,0 -150.39482,61.21160,0 -150.38780,61.21474,0 -150.36280,61.22253,0 -150.33780,61.23186,0 -150.32404,61.23660,0 -150.31280,61.23907,0 -150.28780,61.24161,0 -150.26280,61.24300,0 -150.23780,61.24451,0 -150.21280,61.24685,0 -150.18780,61.25121,0 -150.16280,61.25863,0 -150.15384,61.26160,0 -150.13780,61.26579,0 -150.11280,61.27130,0 -150.08780,61.27711,0 -150.06280,61.28320,0 -150.04766,61.28660,0 -150.03780,61.28857,0 -150.01280,61.29278,0 -149.98780,61.29571,0 -149.96280,61.29664,0 -149.93780,61.29873,0 -149.91280,61.30918,0 -149.90896,61.31160,0 -149.88780,61.32262,0 </coordinates>
        </LineString>
      </MultiGeometry>
    </Placemark>
    <Placemark>
      <name>II</name>
      <styleUrl>#style_mi_2</styleUrl>
      <visibility>1</visibility>
      <Point>
        <altitudeMode>clampToGround</altitudeMode>
        <coordinates>-149.88780,61.32262,0</coordinates>
      </Point>
    </Placemark>
    <Placemark>
      <name>II</name>
      <styleUrl>#style_mi_2</styleUrl>
      <visibility>1</visibility>
      <Point>
        <altitudeMode>clampToGround</altitudeMode>
        <coordinates>-150.26280,61.03732,0</coordinates>
      </Point>
    </Placemark>
    <Placemark>
      <name>Intensity 2 Contour</name>
      <styleUrl>#style_mi_2</styleUrl>
      <visibility>1</visibility>
      <Snippet maxLines="0">
      </Snippet>
      <open>0</open>
      <MultiGeometry>
        <LineString>
          <gx:drawOrder>5</gx:drawOrder>
          <extrude>0</extrude>
          <tessellate>1</tessellate>
          <altitudeMode>clampToGround</altitudeMode>
          <coordinates>-151.23780,60.86337,0 -151.21280,60.86577,0 -151.18780,60.86671,0 -151.16280,60.86705,0 -151.13780,60.86698,0 -151.11280,60.86648,0 -151.08780,60.86532,0 -151.06280,60.86242,0 -151.05977,60.86160,0 -151.03780,60.84780,0 -151.02083,60.83660,0 -151.03185,60.81160,0 -151.03780,60.80817,0 -151.06280,60.79910,0 -151.08780,60.79640,0 -151.11280,60.79693,0 -151.13780,60.79749,0 -151.16280,60.79733,0 -151.18780,60.79732,0 -151.21280,60.79603,0 -151.23780,60.78957,0 -151.24364,60.78660,0 -151.26280,60.77507,0 -151.28780,60.76341,0 -151.29627,60.76160,0 -151.31280,60.75852,0 -151.33780,60.76156,0 -151.33794,60.76160,0 -151.36280,60.77437,0 -151.37183,60.78660,0 -151.36280,60.80844,0 -151.36100,60.81160,0 -151.33780,60.82503,0 -151.31902,60.83660,0 -151.31280,60.83884,0 -151.28780,60.84558,0 -151.26280,60.85465,0 -151.24563,60.86160,0 -151.23780,60.86337,0 </coordinates>
        </LineString>
      </MultiGeometry>
    </Placemark>
  </Document>
</kml>

