<?xml version="1.0" encoding="UTF-8" standalone="yes"?>
<kml xmlns="http://www.opengis.net/kml/2.2" xmlns:gx="http://www.google.com/kml/ext/2.2" xmlns:kml="http://www.opengis.net/kml/2.2" xmlns:atom="http://www.w3.org/2005/Atom">
  <NetworkLinkControl>
    <minRefreshPeriod>300</minRefreshPeriod>
  </NetworkLinkControl>
  <Document>
    <Placemark>
      <name>II</name>
      <Style>
        <IconStyle>
          <Icon>
          </Icon>
        </IconStyle>
        <LabelStyle>
          <color>4278190080</color>
          <scale>1</scale>
        </LabelStyle>
      </Style>
      <visibility>1</visibility>
      <Point>
        <altitudeMode>clampToGround</altitudeMode>
        <coordinates>-149.88780,61.32262,0</coordinates>
      </Point>
    </Placemark>
    <Placemark>
      <name>II</name>
      <Style>
        <IconStyle>
          <Icon>
          </Icon>
        </IconStyle>
        <LabelStyle>
          <color>4278190080</color>
          <scale>1</scale>
        </LabelStyle>
      </Style>
      <visibility>1</visibility>
      <Point>
        <altitudeMode>clampToGround</altitudeMode>
        <coordinates>-150.26280,61.03732,0</coordinates>
      </Point>
    </Placemark>
  </Document>
</kml>

