<?xml version="1.0" encoding="UTF-8" standalone="yes"?>
<kml xmlns="http://www.opengis.net/kml/2.2" xmlns:gx="http://www.google.com/kml/ext/2.2" xmlns:kml="http://www.opengis.net/kml/2.2" xmlns:atom="http://www.w3.org/2005/Atom">
  <NetworkLinkControl>
    <minRefreshPeriod>300</minRefreshPeriod>
  </NetworkLinkControl>
  <Document>
    <Style id="stationIconNormal">
      <IconStyle>
        <scale>0.6</scale>
        <Icon>
          <href>triangle.png</href>
        </Icon>
      </IconStyle>
      <LabelStyle>
        <scale>0.0</scale>
      </LabelStyle>
      <ListStyle>
        <listItemType>checkHideChildren</listItemType>
      </ListStyle>
      <BalloonStyle>
        <text>$[description]</text>
      </BalloonStyle>
    </Style>
    <Style id="stationIconHighlight">
      <IconStyle>
        <scale>0.8</scale>
        <Icon>
          <href>triangle.png</href>
        </Icon>
      </IconStyle>
      <LabelStyle>
        <scale>1.0</scale>
      </LabelStyle>
      <ListStyle>
        <listItemType>checkHideChildren</listItemType>
      </ListStyle>
      <BalloonStyle>
        <text>$[description]</text>
      </BalloonStyle>
    </Style>
    <Style id="dyfiIconNormal">
      <IconStyle>
        <scale>0.4</scale>
        <Icon>
          <href>icon18.png</href>
        </Icon>
      </IconStyle>
      <LabelStyle>
        <scale>0.0</scale>
      </LabelStyle>
      <ListStyle>
        <listItemType>checkHideChildren</listItemType>
      </ListStyle>
      <BalloonStyle>
        <text>$[description]</text>
      </BalloonStyle>
    </Style>
    <Style id="dyfiIconHighlight">
      <IconStyle>
        <scale>0.6</scale>
        <Icon>
          <href>icon18.png</href>
        </Icon>
      </IconStyle>
      <LabelStyle>
        <scale>1.0</scale>
      </LabelStyle>
      <ListStyle>
        <listItemType>checkHideChildren</listItemType>
      </ListStyle>
      <BalloonStyle>
        <text>$[description]</text>
      </BalloonStyle>
    </Style>
    <StyleMap id="stationIconMap">
      <Pair>
        <key>normal</key>
        <styleUrl>#stationIconNormal</styleUrl>
      </Pair>
      <Pair>
        <key>highlight</key>
        <styleUrl>#stationIconHighlight</styleUrl>
      </Pair>
    </StyleMap>
    <StyleMap id="dyfiIconMap">
      <Pair>
        <key>normal</key>
        <styleUrl>#dyfiIconNormal</styleUrl>
      </Pair>
      <Pair>
        <key>highlight</key>
        <styleUrl>#dyfiIconHighlight</styleUrl>
      </Pair>
    </StyleMap>
    <Placemark>
      <styleUrl>#stationIconMap</styleUrl>
      <Style>
        <IconStyle>
          <color>#ffffd1b9</color>
        </IconStyle>
      </Style>
      <name>NP.2704</name>
      <visibility>0</visibility>
<description><![CDATA[<dl><dt>Network:</dt><dd><b>NP</b></dd><dt>Station ID:</dt><dd><b>2704</b></dd><dt>Name:</dt><dd>Anchorage Old Federal Bldg, AK, USA</dd><dt>Location:</dt><dd></dd><dt>Lat:</dt><dd>61.2191</dd><dt>Lon:</dt><dd>-149.8941</dd><dt>Distance to source:</dt><dd>96.3 km</dd><dt>Intensity:</dt><dd><b>2.2</b></dd><dt>PGA:</dt><dd><b>NaN %g</b></dd><dt>PGV:</dt><dd> <b>NaN cm/sec</b></dd><dt>PSA 0.3sec:</dt><dd>NaN %g</dd><dt>PSA 1.0sec:</dt><dd>NaN %g</dd><dt>PSA 3.0sec:</dt><dd>NaN %g</dd>]]></description>      <Point>
        <altitudeMode>clampToGround</altitudeMode>
        <coordinates>-149.894100,61.219100,0</coordinates>
      </Point>
    </Placemark>
    <Placemark>
      <styleUrl>#stationIconMap</styleUrl>
      <Style>
        <IconStyle>
          <color>#ffffdcac</color>
        </IconStyle>
      </Style>
      <name>NP.8007</name>
      <visibility>0</visibility>
<description><![CDATA[<dl><dt>Network:</dt><dd><b>NP</b></dd><dt>Station ID:</dt><dd><b>8007</b></dd><dt>Name:</dt><dd>Anchorage International Airport, AK, USA</dd><dt>Location:</dt><dd></dd><dt>Lat:</dt><dd>61.1824</dd><dt>Lon:</dt><dd>-149.9967</dd><dt>Distance to source:</dt><dd>96.8 km</dd><dt>Intensity:</dt><dd><b>2.6</b></dd><dt>PGA:</dt><dd><b>0.23 %g</b></dd><dt>PGV:</dt><dd> <b>0.13 cm/sec</b></dd><dt>PSA 0.3sec:</dt><dd>0.59 %g</dd><dt>PSA 1.0sec:</dt><dd>0.09 %g</dd><dt>PSA 3.0sec:</dt><dd>0.01 %g</dd>]]></description>      <Point>
        <altitudeMode>clampToGround</altitudeMode>
        <coordinates>-149.996700,61.182400,0</coordinates>
      </Point>
    </Placemark>
    <Placemark>
      <styleUrl>#stationIconMap</styleUrl>
      <Style>
        <IconStyle>
          <color>#ffffd6cc</color>
        </IconStyle>
      </Style>
      <name>NP.8011</name>
      <visibility>0</visibility>
<description><![CDATA[<dl><dt>Network:</dt><dd><b>NP</b></dd><dt>Station ID:</dt><dd><b>8011</b></dd><dt>Name:</dt><dd>Russian Jack Springs State Park, Anchorage, AK, US</dd><dt>Location:</dt><dd></dd><dt>Lat:</dt><dd>61.2090</dd><dt>Lon:</dt><dd>-149.7857</dd><dt>Distance to source:</dt><dd>99.7 km</dd><dt>Intensity:</dt><dd><b>1.8</b></dd><dt>PGA:</dt><dd><b>NaN %g</b></dd><dt>PGV:</dt><dd> <b>NaN cm/sec</b></dd><dt>PSA 0.3sec:</dt><dd>NaN %g</dd><dt>PSA 1.0sec:</dt><dd>NaN %g</dd><dt>PSA 3.0sec:</dt><dd>NaN %g</dd>]]></description>      <Point>
        <altitudeMode>clampToGround</altitudeMode>
        <coordinates>-149.785700,61.209000,0</coordinates>
      </Point>
    </Placemark>
    <Placemark>
      <styleUrl>#stationIconMap</styleUrl>
      <Style>
        <IconStyle>
          <color>#ffffd6cc</color>
        </IconStyle>
      </Style>
      <name>NP.8021</name>
      <visibility>0</visibility>
<description><![CDATA[<dl><dt>Network:</dt><dd><b>NP</b></dd><dt>Station ID:</dt><dd><b>8021</b></dd><dt>Name:</dt><dd>Klatt Elementary, Anchorage, AK, USA</dd><dt>Location:</dt><dd></dd><dt>Lat:</dt><dd>61.1129</dd><dt>Lon:</dt><dd>-149.9095</dd><dt>Distance to source:</dt><dd>104.1 km</dd><dt>Intensity:</dt><dd><b>1.8</b></dd><dt>PGA:</dt><dd><b>0.11 %g</b></dd><dt>PGV:</dt><dd> <b>0.04 cm/sec</b></dd><dt>PSA 0.3sec:</dt><dd>0.36 %g</dd><dt>PSA 1.0sec:</dt><dd>0.05 %g</dd><dt>PSA 3.0sec:</dt><dd>0.00 %g</dd>]]></description>      <Point>
        <altitudeMode>clampToGround</altitudeMode>
        <coordinates>-149.909500,61.112900,0</coordinates>
      </Point>
    </Placemark>
    <Placemark>
      <styleUrl>#stationIconMap</styleUrl>
      <Style>
        <IconStyle>
          <color>#ffffcfbc</color>
        </IconStyle>
      </Style>
      <name>NP.8025</name>
      <visibility>0</visibility>
<description><![CDATA[<dl><dt>Network:</dt><dd><b>NP</b></dd><dt>Station ID:</dt><dd><b>8025</b></dd><dt>Name:</dt><dd>BS Lutheran Church, Anchorage, AK, USA</dd><dt>Location:</dt><dd></dd><dt>Lat:</dt><dd>61.1471</dd><dt>Lon:</dt><dd>-149.8939</dd><dt>Distance to source:</dt><dd>101.7 km</dd><dt>Intensity:</dt><dd><b>2.1</b></dd><dt>PGA:</dt><dd><b>0.11 %g</b></dd><dt>PGV:</dt><dd> <b>0.06 cm/sec</b></dd><dt>PSA 0.3sec:</dt><dd>0.29 %g</dd><dt>PSA 1.0sec:</dt><dd>0.06 %g</dd><dt>PSA 3.0sec:</dt><dd>0.00 %g</dd>]]></description>      <Point>
        <altitudeMode>clampToGround</altitudeMode>
        <coordinates>-149.893900,61.147100,0</coordinates>
      </Point>
    </Placemark>
    <Placemark>
      <styleUrl>#stationIconMap</styleUrl>
      <Style>
        <IconStyle>
          <color>#ffffd1c5</color>
        </IconStyle>
      </Style>
      <name>NP.8026</name>
      <visibility>0</visibility>
<description><![CDATA[<dl><dt>Network:</dt><dd><b>NP</b></dd><dt>Station ID:</dt><dd><b>8026</b></dd><dt>Name:</dt><dd>Baptist Church of Christ, Anchorage, AK, USA</dd><dt>Location:</dt><dd></dd><dt>Lat:</dt><dd>61.2089</dd><dt>Lon:</dt><dd>-149.8289</dd><dt>Distance to source:</dt><dd>98.6 km</dd><dt>Intensity:</dt><dd><b>1.9</b></dd><dt>PGA:</dt><dd><b>0.18 %g</b></dd><dt>PGV:</dt><dd> <b>0.05 cm/sec</b></dd><dt>PSA 0.3sec:</dt><dd>0.26 %g</dd><dt>PSA 1.0sec:</dt><dd>0.05 %g</dd><dt>PSA 3.0sec:</dt><dd>0.00 %g</dd>]]></description>      <Point>
        <altitudeMode>clampToGround</altitudeMode>
        <coordinates>-149.828900,61.208900,0</coordinates>
      </Point>
    </Placemark>
    <Placemark>
      <styleUrl>#stationIconMap</styleUrl>
      <Style>
        <IconStyle>
          <color>#ffffd6b3</color>
        </IconStyle>
      </Style>
      <name>NP.8027</name>
      <visibility>0</visibility>
<description><![CDATA[<dl><dt>Network:</dt><dd><b>NP</b></dd><dt>Station ID:</dt><dd><b>8027</b></dd><dt>Name:</dt><dd>State Fish and Game, Anchorage, AK, USA</dd><dt>Location:</dt><dd></dd><dt>Lat:</dt><dd>61.1609</dd><dt>Lon:</dt><dd>-149.8892</dd><dt>Distance to source:</dt><dd>100.8 km</dd><dt>Intensity:</dt><dd><b>2.4</b></dd><dt>PGA:</dt><dd><b>0.18 %g</b></dd><dt>PGV:</dt><dd> <b>0.09 cm/sec</b></dd><dt>PSA 0.3sec:</dt><dd>0.44 %g</dd><dt>PSA 1.0sec:</dt><dd>0.08 %g</dd><dt>PSA 3.0sec:</dt><dd>0.01 %g</dd>]]></description>      <Point>
        <altitudeMode>clampToGround</altitudeMode>
        <coordinates>-149.889200,61.160900,0</coordinates>
      </Point>
    </Placemark>
    <Placemark>
      <styleUrl>#stationIconMap</styleUrl>
      <Style>
        <IconStyle>
          <color>#ffffdbd2</color>
        </IconStyle>
      </Style>
      <name>NP.8028</name>
      <visibility>0</visibility>
<description><![CDATA[<dl><dt>Network:</dt><dd><b>NP</b></dd><dt>Station ID:</dt><dd><b>8028</b></dd><dt>Name:</dt><dd>College Gate Elem School, Anchorage, AK, USA</dd><dt>Location:</dt><dd></dd><dt>Lat:</dt><dd>61.1925</dd><dt>Lon:</dt><dd>-149.7820</dd><dt>Distance to source:</dt><dd>101.0 km</dd><dt>Intensity:</dt><dd><b>1.7</b></dd><dt>PGA:</dt><dd><b>0.14 %g</b></dd><dt>PGV:</dt><dd> <b>0.04 cm/sec</b></dd><dt>PSA 0.3sec:</dt><dd>0.26 %g</dd><dt>PSA 1.0sec:</dt><dd>0.03 %g</dd><dt>PSA 3.0sec:</dt><dd>0.00 %g</dd>]]></description>      <Point>
        <altitudeMode>clampToGround</altitudeMode>
        <coordinates>-149.782000,61.192500,0</coordinates>
      </Point>
    </Placemark>
    <Placemark>
      <styleUrl>#stationIconMap</styleUrl>
      <Style>
        <IconStyle>
          <color>#ffffcfbc</color>
        </IconStyle>
      </Style>
      <name>NP.8029</name>
      <visibility>0</visibility>
<description><![CDATA[<dl><dt>Network:</dt><dd><b>NP</b></dd><dt>Station ID:</dt><dd><b>8029</b></dd><dt>Name:</dt><dd>Tudor Elem School, Anchorage, AK, USA</dd><dt>Location:</dt><dd></dd><dt>Lat:</dt><dd>61.1739</dd><dt>Lon:</dt><dd>-149.8501</dd><dt>Distance to source:</dt><dd>100.7 km</dd><dt>Intensity:</dt><dd><b>2.1</b></dd><dt>PGA:</dt><dd><b>0.14 %g</b></dd><dt>PGV:</dt><dd> <b>0.06 cm/sec</b></dd><dt>PSA 0.3sec:</dt><dd>0.18 %g</dd><dt>PSA 1.0sec:</dt><dd>0.05 %g</dd><dt>PSA 3.0sec:</dt><dd>0.00 %g</dd>]]></description>      <Point>
        <altitudeMode>clampToGround</altitudeMode>
        <coordinates>-149.850100,61.173900,0</coordinates>
      </Point>
    </Placemark>
    <Placemark>
      <styleUrl>#stationIconMap</styleUrl>
      <Style>
        <IconStyle>
          <color>#ffffd1c5</color>
        </IconStyle>
      </Style>
      <name>NP.8030</name>
      <visibility>0</visibility>
<description><![CDATA[<dl><dt>Network:</dt><dd><b>NP</b></dd><dt>Station ID:</dt><dd><b>8030</b></dd><dt>Name:</dt><dd>Police HQ, Anchorage, AK, USA</dd><dt>Location:</dt><dd></dd><dt>Lat:</dt><dd>61.1795</dd><dt>Lon:</dt><dd>-149.8058</dd><dt>Distance to source:</dt><dd>101.3 km</dd><dt>Intensity:</dt><dd><b>1.9</b></dd><dt>PGA:</dt><dd><b>0.18 %g</b></dd><dt>PGV:</dt><dd> <b>0.05 cm/sec</b></dd><dt>PSA 0.3sec:</dt><dd>0.27 %g</dd><dt>PSA 1.0sec:</dt><dd>0.04 %g</dd><dt>PSA 3.0sec:</dt><dd>0.00 %g</dd>]]></description>      <Point>
        <altitudeMode>clampToGround</altitudeMode>
        <coordinates>-149.805800,61.179500,0</coordinates>
      </Point>
    </Placemark>
    <Placemark>
      <styleUrl>#stationIconMap</styleUrl>
      <Style>
        <IconStyle>
          <color>#ffffdea9</color>
        </IconStyle>
      </Style>
      <name>NP.8036</name>
      <visibility>0</visibility>
<description><![CDATA[<dl><dt>Network:</dt><dd><b>NP</b></dd><dt>Station ID:</dt><dd><b>8036</b></dd><dt>Name:</dt><dd>DOI Office of Aircraft Services, Anchorage, AK, US</dd><dt>Location:</dt><dd></dd><dt>Lat:</dt><dd>61.1779</dd><dt>Lon:</dt><dd>-149.9657</dd><dt>Distance to source:</dt><dd>97.8 km</dd><dt>Intensity:</dt><dd><b>2.7</b></dd><dt>PGA:</dt><dd><b>0.26 %g</b></dd><dt>PGV:</dt><dd> <b>0.15 cm/sec</b></dd><dt>PSA 0.3sec:</dt><dd>0.66 %g</dd><dt>PSA 1.0sec:</dt><dd>0.10 %g</dd><dt>PSA 3.0sec:</dt><dd>0.01 %g</dd>]]></description>      <Point>
        <altitudeMode>clampToGround</altitudeMode>
        <coordinates>-149.965700,61.177900,0</coordinates>
      </Point>
    </Placemark>
    <Placemark>
      <styleUrl>#stationIconMap</styleUrl>
      <Style>
        <IconStyle>
          <color>#ffffd6b3</color>
        </IconStyle>
      </Style>
      <name>NP.8037</name>
      <visibility>0</visibility>
<description><![CDATA[<dl><dt>Network:</dt><dd><b>NP</b></dd><dt>Station ID:</dt><dd><b>8037</b></dd><dt>Name:</dt><dd>NOAA Weather Facility, Anchorage, AK, USA</dd><dt>Location:</dt><dd></dd><dt>Lat:</dt><dd>61.1562</dd><dt>Lon:</dt><dd>-149.9849</dd><dt>Distance to source:</dt><dd>99.1 km</dd><dt>Intensity:</dt><dd><b>2.4</b></dd><dt>PGA:</dt><dd><b>0.16 %g</b></dd><dt>PGV:</dt><dd> <b>0.10 cm/sec</b></dd><dt>PSA 0.3sec:</dt><dd>0.43 %g</dd><dt>PSA 1.0sec:</dt><dd>0.07 %g</dd><dt>PSA 3.0sec:</dt><dd>0.01 %g</dd>]]></description>      <Point>
        <altitudeMode>clampToGround</altitudeMode>
        <coordinates>-149.984900,61.156200,0</coordinates>
      </Point>
    </Placemark>
    <Placemark>
      <styleUrl>#stationIconMap</styleUrl>
      <Style>
        <IconStyle>
          <color>#ffffdcac</color>
        </IconStyle>
      </Style>
      <name>NP.8041</name>
      <visibility>0</visibility>
<description><![CDATA[<dl><dt>Network:</dt><dd><b>NP</b></dd><dt>Station ID:</dt><dd><b>8041</b></dd><dt>Name:</dt><dd>Turnagain Elem School, Anchorage, AK, USA</dd><dt>Location:</dt><dd></dd><dt>Lat:</dt><dd>61.1944</dd><dt>Lon:</dt><dd>-149.9471</dd><dt>Distance to source:</dt><dd>96.9 km</dd><dt>Intensity:</dt><dd><b>2.6</b></dd><dt>PGA:</dt><dd><b>0.24 %g</b></dd><dt>PGV:</dt><dd> <b>0.13 cm/sec</b></dd><dt>PSA 0.3sec:</dt><dd>0.58 %g</dd><dt>PSA 1.0sec:</dt><dd>0.09 %g</dd><dt>PSA 3.0sec:</dt><dd>0.01 %g</dd>]]></description>      <Point>
        <altitudeMode>clampToGround</altitudeMode>
        <coordinates>-149.947100,61.194400,0</coordinates>
      </Point>
    </Placemark>
    <Placemark>
      <styleUrl>#stationIconMap</styleUrl>
      <Style>
        <IconStyle>
          <color>#ffffe3a3</color>
        </IconStyle>
      </Style>
      <name>NP.AJKS</name>
      <visibility>0</visibility>
<description><![CDATA[<dl><dt>Network:</dt><dd><b>NP</b></dd><dt>Station ID:</dt><dd><b>AJKS</b></dd><dt>Name:</dt><dd>Mt Kiliak, Eagle River, AK</dd><dt>Location:</dt><dd></dd><dt>Lat:</dt><dd>61.2417</dd><dt>Lon:</dt><dd>-149.2762</dd><dt>Distance to source:</dt><dd>113.1 km</dd><dt>Intensity:</dt><dd><b>2.9</b></dd><dt>PGA:</dt><dd><b>0.32 %g</b></dd><dt>PGV:</dt><dd> <b>0.22 cm/sec</b></dd><dt>PSA 0.3sec:</dt><dd>NaN %g</dd><dt>PSA 1.0sec:</dt><dd>NaN %g</dd><dt>PSA 3.0sec:</dt><dd>NaN %g</dd>]]></description>      <Point>
        <altitudeMode>clampToGround</altitudeMode>
        <coordinates>-149.276200,61.241700,0</coordinates>
      </Point>
    </Placemark>
    <Placemark>
      <styleUrl>#stationIconMap</styleUrl>
      <Style>
        <IconStyle>
          <color>#</color>
        </IconStyle>
      </Style>
      <name>NP.ARTY</name>
      <visibility>0</visibility>
<description><![CDATA[<dl><dt>Network:</dt><dd><b>NP</b></dd><dt>Station ID:</dt><dd><b>ARTY</b></dd><dt>Name:</dt><dd>Chugach Park, Peters Creek, AK</dd><dt>Location:</dt><dd></dd><dt>Lat:</dt><dd>61.3970</dd><dt>Lon:</dt><dd>-149.4375</dd><dt>Distance to source:</dt><dd>98.8 km</dd><dt>Intensity:</dt><dd><b>NaN</b></dd><dt>PGA:</dt><dd><b>NaN %g</b></dd><dt>PGV:</dt><dd> <b>NaN cm/sec</b></dd><dt>PSA 0.3sec:</dt><dd>NaN %g</dd><dt>PSA 1.0sec:</dt><dd>NaN %g</dd><dt>PSA 3.0sec:</dt><dd>NaN %g</dd>]]></description>      <Point>
        <altitudeMode>clampToGround</altitudeMode>
        <coordinates>-149.437500,61.397000,0</coordinates>
      </Point>
    </Placemark>
    <Placemark>
      <styleUrl>#stationIconMap</styleUrl>
      <Style>
        <IconStyle>
          <color>#ffffd1b9</color>
        </IconStyle>
      </Style>
      <name>AK.CAPN</name>
      <visibility>0</visibility>
<description><![CDATA[<dl><dt>Network:</dt><dd><b>AK</b></dd><dt>Station ID:</dt><dd><b>CAPN</b></dd><dt>Name:</dt><dd>Captain Cook Nikiski, AK, USA</dd><dt>Location:</dt><dd></dd><dt>Lat:</dt><dd>60.7683</dd><dt>Lon:</dt><dd>-151.1539</dd><dt>Distance to source:</dt><dd>130.2 km</dd><dt>Intensity:</dt><dd><b>2.2</b></dd><dt>PGA:</dt><dd><b>0.17 %g</b></dd><dt>PGV:</dt><dd> <b>0.08 cm/sec</b></dd><dt>PSA 0.3sec:</dt><dd>0.61 %g</dd><dt>PSA 1.0sec:</dt><dd>0.07 %g</dd><dt>PSA 3.0sec:</dt><dd>0.00 %g</dd>]]></description>      <Point>
        <altitudeMode>clampToGround</altitudeMode>
        <coordinates>-151.153900,60.768300,0</coordinates>
      </Point>
    </Placemark>
    <Placemark>
      <styleUrl>#stationIconMap</styleUrl>
      <Style>
        <IconStyle>
          <color>#ffffffff</color>
        </IconStyle>
      </Style>
      <name>AK.CAST</name>
      <visibility>0</visibility>
<description><![CDATA[<dl><dt>Network:</dt><dd><b>AK</b></dd><dt>Station ID:</dt><dd><b>CAST</b></dd><dt>Name:</dt><dd>Castle Rocks, AK, USA</dd><dt>Location:</dt><dd></dd><dt>Lat:</dt><dd>63.4188</dd><dt>Lon:</dt><dd>-152.0844</dd><dt>Distance to source:</dt><dd>203.9 km</dd><dt>Intensity:</dt><dd><b>1.0</b></dd><dt>PGA:</dt><dd><b>0.01 %g</b></dd><dt>PGV:</dt><dd> <b>0.01 cm/sec</b></dd><dt>PSA 0.3sec:</dt><dd>0.03 %g</dd><dt>PSA 1.0sec:</dt><dd>0.01 %g</dd><dt>PSA 3.0sec:</dt><dd>0.00 %g</dd>]]></description>      <Point>
        <altitudeMode>clampToGround</altitudeMode>
        <coordinates>-152.084400,63.418800,0</coordinates>
      </Point>
    </Placemark>
    <Placemark>
      <styleUrl>#stationIconMap</styleUrl>
      <Style>
        <IconStyle>
          <color>#ffffd9b0</color>
        </IconStyle>
      </Style>
      <name>AK.CUT</name>
      <visibility>0</visibility>
<description><![CDATA[<dl><dt>Network:</dt><dd><b>AK</b></dd><dt>Station ID:</dt><dd><b>CUT</b></dd><dt>Name:</dt><dd>Chulitna, AK, USA</dd><dt>Location:</dt><dd></dd><dt>Lat:</dt><dd>62.4058</dd><dt>Lon:</dt><dd>-150.2625</dd><dt>Distance to source:</dt><dd>93.5 km</dd><dt>Intensity:</dt><dd><b>2.5</b></dd><dt>PGA:</dt><dd><b>0.30 %g</b></dd><dt>PGV:</dt><dd> <b>0.11 cm/sec</b></dd><dt>PSA 0.3sec:</dt><dd>0.44 %g</dd><dt>PSA 1.0sec:</dt><dd>0.04 %g</dd><dt>PSA 3.0sec:</dt><dd>0.00 %g</dd>]]></description>      <Point>
        <altitudeMode>clampToGround</altitudeMode>
        <coordinates>-150.262500,62.405800,0</coordinates>
      </Point>
    </Placemark>
    <Placemark>
      <styleUrl>#stationIconMap</styleUrl>
      <Style>
        <IconStyle>
          <color>#ffffd6b3</color>
        </IconStyle>
      </Style>
      <name>AK.FIRE</name>
      <visibility>0</visibility>
<description><![CDATA[<dl><dt>Network:</dt><dd><b>AK</b></dd><dt>Station ID:</dt><dd><b>FIRE</b></dd><dt>Name:</dt><dd>Fire Island, AK, USA</dd><dt>Location:</dt><dd></dd><dt>Lat:</dt><dd>61.1426</dd><dt>Lon:</dt><dd>-150.2164</dd><dt>Distance to source:</dt><dd>96.3 km</dd><dt>Intensity:</dt><dd><b>2.4</b></dd><dt>PGA:</dt><dd><b>0.24 %g</b></dd><dt>PGV:</dt><dd> <b>0.09 cm/sec</b></dd><dt>PSA 0.3sec:</dt><dd>0.61 %g</dd><dt>PSA 1.0sec:</dt><dd>0.09 %g</dd><dt>PSA 3.0sec:</dt><dd>0.01 %g</dd>]]></description>      <Point>
        <altitudeMode>clampToGround</altitudeMode>
        <coordinates>-150.216400,61.142600,0</coordinates>
      </Point>
    </Placemark>
    <Placemark>
      <styleUrl>#stationIconMap</styleUrl>
      <Style>
        <IconStyle>
          <color>#ffffdbd2</color>
        </IconStyle>
      </Style>
      <name>AK.K203</name>
      <visibility>0</visibility>
<description><![CDATA[<dl><dt>Network:</dt><dd><b>AK</b></dd><dt>Station ID:</dt><dd><b>K203</b></dd><dt>Name:</dt><dd>Anchorage, St Christopher Episcopal Church, AK, US</dd><dt>Location:</dt><dd></dd><dt>Lat:</dt><dd>61.2201</dd><dt>Lon:</dt><dd>-149.7453</dd><dt>Distance to source:</dt><dd>99.9 km</dd><dt>Intensity:</dt><dd><b>1.7</b></dd><dt>PGA:</dt><dd><b>0.16 %g</b></dd><dt>PGV:</dt><dd> <b>0.04 cm/sec</b></dd><dt>PSA 0.3sec:</dt><dd>0.19 %g</dd><dt>PSA 1.0sec:</dt><dd>0.02 %g</dd><dt>PSA 3.0sec:</dt><dd>0.00 %g</dd>]]></description>      <Point>
        <altitudeMode>clampToGround</altitudeMode>
        <coordinates>-149.745300,61.220100,0</coordinates>
      </Point>
    </Placemark>
    <Placemark>
      <styleUrl>#stationIconMap</styleUrl>
      <Style>
        <IconStyle>
          <color>#ffffd1b9</color>
        </IconStyle>
      </Style>
      <name>AK.K204</name>
      <visibility>0</visibility>
<description><![CDATA[<dl><dt>Network:</dt><dd><b>AK</b></dd><dt>Station ID:</dt><dd><b>K204</b></dd><dt>Name:</dt><dd>Anchorage, Signature Flight Support, AK, USA</dd><dt>Location:</dt><dd></dd><dt>Lat:</dt><dd>61.1758</dd><dt>Lon:</dt><dd>-150.0115</dd><dt>Distance to source:</dt><dd>97.1 km</dd><dt>Intensity:</dt><dd><b>2.2</b></dd><dt>PGA:</dt><dd><b>0.20 %g</b></dd><dt>PGV:</dt><dd> <b>0.07 cm/sec</b></dd><dt>PSA 0.3sec:</dt><dd>0.33 %g</dd><dt>PSA 1.0sec:</dt><dd>0.08 %g</dd><dt>PSA 3.0sec:</dt><dd>0.00 %g</dd>]]></description>      <Point>
        <altitudeMode>clampToGround</altitudeMode>
        <coordinates>-150.011500,61.175800,0</coordinates>
      </Point>
    </Placemark>
    <Placemark>
      <styleUrl>#stationIconMap</styleUrl>
      <Style>
        <IconStyle>
          <color>#ffffd9b0</color>
        </IconStyle>
      </Style>
      <name>AK.K205</name>
      <visibility>0</visibility>
<description><![CDATA[<dl><dt>Network:</dt><dd><b>AK</b></dd><dt>Station ID:</dt><dd><b>K205</b></dd><dt>Name:</dt><dd>Anchorage, West High School, AK, USA</dd><dt>Location:</dt><dd></dd><dt>Lat:</dt><dd>61.1994</dd><dt>Lon:</dt><dd>-149.9163</dd><dt>Distance to source:</dt><dd>97.2 km</dd><dt>Intensity:</dt><dd><b>2.5</b></dd><dt>PGA:</dt><dd><b>0.21 %g</b></dd><dt>PGV:</dt><dd> <b>0.12 cm/sec</b></dd><dt>PSA 0.3sec:</dt><dd>0.48 %g</dd><dt>PSA 1.0sec:</dt><dd>0.10 %g</dd><dt>PSA 3.0sec:</dt><dd>0.01 %g</dd>]]></description>      <Point>
        <altitudeMode>clampToGround</altitudeMode>
        <coordinates>-149.916300,61.199400,0</coordinates>
      </Point>
    </Placemark>
    <Placemark>
      <styleUrl>#stationIconMap</styleUrl>
      <Style>
        <IconStyle>
          <color>#ffffebe5</color>
        </IconStyle>
      </Style>
      <name>AK.K209</name>
      <visibility>0</visibility>
<description><![CDATA[<dl><dt>Network:</dt><dd><b>AK</b></dd><dt>Station ID:</dt><dd><b>K209</b></dd><dt>Name:</dt><dd>Anchorage, Scenic Park Bible Church, AK, USA</dd><dt>Location:</dt><dd></dd><dt>Lat:</dt><dd>61.1846</dd><dt>Lon:</dt><dd>-149.7472</dd><dt>Distance to source:</dt><dd>102.4 km</dd><dt>Intensity:</dt><dd><b>1.4</b></dd><dt>PGA:</dt><dd><b>NaN %g</b></dd><dt>PGV:</dt><dd> <b>NaN cm/sec</b></dd><dt>PSA 0.3sec:</dt><dd>NaN %g</dd><dt>PSA 1.0sec:</dt><dd>NaN %g</dd><dt>PSA 3.0sec:</dt><dd>NaN %g</dd>]]></description>      <Point>
        <altitudeMode>clampToGround</altitudeMode>
        <coordinates>-149.747200,61.184600,0</coordinates>
      </Point>
    </Placemark>
    <Placemark>
      <styleUrl>#stationIconMap</styleUrl>
      <Style>
        <IconStyle>
          <color>#ffffe0d9</color>
        </IconStyle>
      </Style>
      <name>AK.K210</name>
      <visibility>0</visibility>
<description><![CDATA[<dl><dt>Network:</dt><dd><b>AK</b></dd><dt>Station ID:</dt><dd><b>K210</b></dd><dt>Name:</dt><dd>Anchorage, Mears Jr High School, AK, USA</dd><dt>Location:</dt><dd></dd><dt>Lat:</dt><dd>61.1292</dd><dt>Lon:</dt><dd>-149.9310</dd><dt>Distance to source:</dt><dd>102.4 km</dd><dt>Intensity:</dt><dd><b>1.6</b></dd><dt>PGA:</dt><dd><b>NaN %g</b></dd><dt>PGV:</dt><dd> <b>NaN cm/sec</b></dd><dt>PSA 0.3sec:</dt><dd>NaN %g</dd><dt>PSA 1.0sec:</dt><dd>NaN %g</dd><dt>PSA 3.0sec:</dt><dd>NaN %g</dd>]]></description>      <Point>
        <altitudeMode>clampToGround</altitudeMode>
        <coordinates>-149.931000,61.129200,0</coordinates>
      </Point>
    </Placemark>
    <Placemark>
      <styleUrl>#stationIconMap</styleUrl>
      <Style>
        <IconStyle>
          <color>#ffffebe5</color>
        </IconStyle>
      </Style>
      <name>AK.K212</name>
      <visibility>0</visibility>
<description><![CDATA[<dl><dt>Network:</dt><dd><b>AK</b></dd><dt>Station ID:</dt><dd><b>K212</b></dd><dt>Name:</dt><dd>Anchorage, BLM Office, AK, USA</dd><dt>Location:</dt><dd></dd><dt>Lat:</dt><dd>61.1556</dd><dt>Lon:</dt><dd>-149.7934</dd><dt>Distance to source:</dt><dd>103.4 km</dd><dt>Intensity:</dt><dd><b>1.4</b></dd><dt>PGA:</dt><dd><b>0.09 %g</b></dd><dt>PGV:</dt><dd> <b>0.03 cm/sec</b></dd><dt>PSA 0.3sec:</dt><dd>0.15 %g</dd><dt>PSA 1.0sec:</dt><dd>0.03 %g</dd><dt>PSA 3.0sec:</dt><dd>0.00 %g</dd>]]></description>      <Point>
        <altitudeMode>clampToGround</altitudeMode>
        <coordinates>-149.793400,61.155600,0</coordinates>
      </Point>
    </Placemark>
    <Placemark>
      <styleUrl>#stationIconMap</styleUrl>
      <Style>
        <IconStyle>
          <color>#ffffd4b6</color>
        </IconStyle>
      </Style>
      <name>AK.K213</name>
      <visibility>0</visibility>
<description><![CDATA[<dl><dt>Network:</dt><dd><b>AK</b></dd><dt>Station ID:</dt><dd><b>K213</b></dd><dt>Name:</dt><dd>Anchorage, ASD Operation Center, AK, USA</dd><dt>Location:</dt><dd></dd><dt>Lat:</dt><dd>61.1128</dd><dt>Lon:</dt><dd>-149.8595</dd><dt>Distance to source:</dt><dd>105.2 km</dd><dt>Intensity:</dt><dd><b>2.3</b></dd><dt>PGA:</dt><dd><b>0.25 %g</b></dd><dt>PGV:</dt><dd> <b>0.08 cm/sec</b></dd><dt>PSA 0.3sec:</dt><dd>0.72 %g</dd><dt>PSA 1.0sec:</dt><dd>0.06 %g</dd><dt>PSA 3.0sec:</dt><dd>0.00 %g</dd>]]></description>      <Point>
        <altitudeMode>clampToGround</altitudeMode>
        <coordinates>-149.859500,61.112800,0</coordinates>
      </Point>
    </Placemark>
    <Placemark>
      <styleUrl>#stationIconMap</styleUrl>
      <Style>
        <IconStyle>
          <color>#ffffcfbc</color>
        </IconStyle>
      </Style>
      <name>AK.K217</name>
      <visibility>0</visibility>
<description><![CDATA[<dl><dt>Network:</dt><dd><b>AK</b></dd><dt>Station ID:</dt><dd><b>K217</b></dd><dt>Name:</dt><dd>Chugiak Fire Station, AK, USA</dd><dt>Location:</dt><dd></dd><dt>Lat:</dt><dd>61.3960</dd><dt>Lon:</dt><dd>-149.5155</dd><dt>Distance to source:</dt><dd>96.2 km</dd><dt>Intensity:</dt><dd><b>2.1</b></dd><dt>PGA:</dt><dd><b>0.24 %g</b></dd><dt>PGV:</dt><dd> <b>0.06 cm/sec</b></dd><dt>PSA 0.3sec:</dt><dd>0.29 %g</dd><dt>PSA 1.0sec:</dt><dd>0.03 %g</dd><dt>PSA 3.0sec:</dt><dd>0.00 %g</dd>]]></description>      <Point>
        <altitudeMode>clampToGround</altitudeMode>
        <coordinates>-149.515500,61.396000,0</coordinates>
      </Point>
    </Placemark>
    <Placemark>
      <styleUrl>#stationIconMap</styleUrl>
      <Style>
        <IconStyle>
          <color>#ffffdcac</color>
        </IconStyle>
      </Style>
      <name>AK.K220</name>
      <visibility>0</visibility>
<description><![CDATA[<dl><dt>Network:</dt><dd><b>AK</b></dd><dt>Station ID:</dt><dd><b>K220</b></dd><dt>Name:</dt><dd>Anchorage, Kincaid Park, AK, USA</dd><dt>Location:</dt><dd></dd><dt>Lat:</dt><dd>61.1540</dd><dt>Lon:</dt><dd>-150.0552</dd><dt>Distance to source:</dt><dd>97.9 km</dd><dt>Intensity:</dt><dd><b>2.6</b></dd><dt>PGA:</dt><dd><b>0.32 %g</b></dd><dt>PGV:</dt><dd> <b>0.14 cm/sec</b></dd><dt>PSA 0.3sec:</dt><dd>0.87 %g</dd><dt>PSA 1.0sec:</dt><dd>0.08 %g</dd><dt>PSA 3.0sec:</dt><dd>0.01 %g</dd>]]></description>      <Point>
        <altitudeMode>clampToGround</altitudeMode>
        <coordinates>-150.055200,61.154000,0</coordinates>
      </Point>
    </Placemark>
    <Placemark>
      <styleUrl>#stationIconMap</styleUrl>
      <Style>
        <IconStyle>
          <color>#ffffd1b9</color>
        </IconStyle>
      </Style>
      <name>AK.K222</name>
      <visibility>0</visibility>
<description><![CDATA[<dl><dt>Network:</dt><dd><b>AK</b></dd><dt>Station ID:</dt><dd><b>K222</b></dd><dt>Name:</dt><dd>Anchorage, Chapel by the Sea, AK, USA</dd><dt>Location:</dt><dd></dd><dt>Lat:</dt><dd>61.0876</dd><dt>Lon:</dt><dd>-149.8366</dd><dt>Distance to source:</dt><dd>107.7 km</dd><dt>Intensity:</dt><dd><b>2.2</b></dd><dt>PGA:</dt><dd><b>0.16 %g</b></dd><dt>PGV:</dt><dd> <b>0.07 cm/sec</b></dd><dt>PSA 0.3sec:</dt><dd>0.37 %g</dd><dt>PSA 1.0sec:</dt><dd>0.10 %g</dd><dt>PSA 3.0sec:</dt><dd>0.00 %g</dd>]]></description>      <Point>
        <altitudeMode>clampToGround</altitudeMode>
        <coordinates>-149.836600,61.087600,0</coordinates>
      </Point>
    </Placemark>
    <Placemark>
      <styleUrl>#stationIconMap</styleUrl>
      <Style>
        <IconStyle>
          <color>#ffffd1b9</color>
        </IconStyle>
      </Style>
      <name>AK.K223</name>
      <visibility>0</visibility>
<description><![CDATA[<dl><dt>Network:</dt><dd><b>AK</b></dd><dt>Station ID:</dt><dd><b>K223</b></dd><dt>Name:</dt><dd>Anchorage, Government Hill Elem. School, AK, USA</dd><dt>Location:</dt><dd></dd><dt>Lat:</dt><dd>61.2338</dd><dt>Lon:</dt><dd>-149.8675</dd><dt>Distance to source:</dt><dd>95.9 km</dd><dt>Intensity:</dt><dd><b>2.2</b></dd><dt>PGA:</dt><dd><b>0.12 %g</b></dd><dt>PGV:</dt><dd> <b>0.08 cm/sec</b></dd><dt>PSA 0.3sec:</dt><dd>0.21 %g</dd><dt>PSA 1.0sec:</dt><dd>0.11 %g</dd><dt>PSA 3.0sec:</dt><dd>0.01 %g</dd>]]></description>      <Point>
        <altitudeMode>clampToGround</altitudeMode>
        <coordinates>-149.867500,61.233800,0</coordinates>
      </Point>
    </Placemark>
    <Placemark>
      <styleUrl>#stationIconMap</styleUrl>
      <Style>
        <IconStyle>
          <color>#ffffe0d9</color>
        </IconStyle>
      </Style>
      <name>AK.KNK</name>
      <visibility>0</visibility>
<description><![CDATA[<dl><dt>Network:</dt><dd><b>AK</b></dd><dt>Station ID:</dt><dd><b>KNK</b></dd><dt>Name:</dt><dd>Knik Glacier, AK, USA</dd><dt>Location:</dt><dd></dd><dt>Lat:</dt><dd>61.4131</dd><dt>Lon:</dt><dd>-148.4585</dd><dt>Distance to source:</dt><dd>138.3 km</dd><dt>Intensity:</dt><dd><b>1.6</b></dd><dt>PGA:</dt><dd><b>0.07 %g</b></dd><dt>PGV:</dt><dd> <b>0.04 cm/sec</b></dd><dt>PSA 0.3sec:</dt><dd>0.08 %g</dd><dt>PSA 1.0sec:</dt><dd>0.02 %g</dd><dt>PSA 3.0sec:</dt><dd>0.00 %g</dd>]]></description>      <Point>
        <altitudeMode>clampToGround</altitudeMode>
        <coordinates>-148.458500,61.413100,0</coordinates>
      </Point>
    </Placemark>
    <Placemark>
      <styleUrl>#stationIconMap</styleUrl>
      <Style>
        <IconStyle>
          <color>#fffff0ec</color>
        </IconStyle>
      </Style>
      <name>AK.KTH</name>
      <visibility>0</visibility>
<description><![CDATA[<dl><dt>Network:</dt><dd><b>AK</b></dd><dt>Station ID:</dt><dd><b>KTH</b></dd><dt>Name:</dt><dd>Kantishna Hills, AK, USA</dd><dt>Location:</dt><dd></dd><dt>Lat:</dt><dd>63.5527</dd><dt>Lon:</dt><dd>-150.9233</dd><dt>Distance to source:</dt><dd>205.5 km</dd><dt>Intensity:</dt><dd><b>1.3</b></dd><dt>PGA:</dt><dd><b>0.04 %g</b></dd><dt>PGV:</dt><dd> <b>0.03 cm/sec</b></dd><dt>PSA 0.3sec:</dt><dd>0.07 %g</dd><dt>PSA 1.0sec:</dt><dd>0.05 %g</dd><dt>PSA 3.0sec:</dt><dd>0.00 %g</dd>]]></description>      <Point>
        <altitudeMode>clampToGround</altitudeMode>
        <coordinates>-150.923300,63.552700,0</coordinates>
      </Point>
    </Placemark>
    <Placemark>
      <styleUrl>#stationIconMap</styleUrl>
      <Style>
        <IconStyle>
          <color>#ffffffff</color>
        </IconStyle>
      </Style>
      <name>TA.L19K</name>
      <visibility>0</visibility>
<description><![CDATA[<dl><dt>Network:</dt><dd><b>TA</b></dd><dt>Station ID:</dt><dd><b>L19K</b></dd><dt>Name:</dt><dd>White Mountain, AK, USA</dd><dt>Location:</dt><dd></dd><dt>Lat:</dt><dd>62.1816</dd><dt>Lon:</dt><dd>-154.8543</dd><dt>Distance to source:</dt><dd>229.7 km</dd><dt>Intensity:</dt><dd><b>1.0</b></dd><dt>PGA:</dt><dd><b>0.01 %g</b></dd><dt>PGV:</dt><dd> <b>0.01 cm/sec</b></dd><dt>PSA 0.3sec:</dt><dd>NaN %g</dd><dt>PSA 1.0sec:</dt><dd>NaN %g</dd><dt>PSA 3.0sec:</dt><dd>NaN %g</dd>]]></description>      <Point>
        <altitudeMode>clampToGround</altitudeMode>
        <coordinates>-154.854300,62.181600,0</coordinates>
      </Point>
    </Placemark>
    <Placemark>
      <styleUrl>#stationIconMap</styleUrl>
      <Style>
        <IconStyle>
          <color>#ffffffff</color>
        </IconStyle>
      </Style>
      <name>TA.L20K</name>
      <visibility>0</visibility>
<description><![CDATA[<dl><dt>Network:</dt><dd><b>TA</b></dd><dt>Station ID:</dt><dd><b>L20K</b></dd><dt>Name:</dt><dd>Farewell, AK, USA</dd><dt>Location:</dt><dd></dd><dt>Lat:</dt><dd>62.4787</dd><dt>Lon:</dt><dd>-153.8798</dd><dt>Distance to source:</dt><dd>192.2 km</dd><dt>Intensity:</dt><dd><b>1.0</b></dd><dt>PGA:</dt><dd><b>0.02 %g</b></dd><dt>PGV:</dt><dd> <b>0.01 cm/sec</b></dd><dt>PSA 0.3sec:</dt><dd>0.03 %g</dd><dt>PSA 1.0sec:</dt><dd>0.01 %g</dd><dt>PSA 3.0sec:</dt><dd>0.00 %g</dd>]]></description>      <Point>
        <altitudeMode>clampToGround</altitudeMode>
        <coordinates>-153.879800,62.478700,0</coordinates>
      </Point>
    </Placemark>
    <Placemark>
      <styleUrl>#stationIconMap</styleUrl>
      <Style>
        <IconStyle>
          <color>#ffffd1b9</color>
        </IconStyle>
      </Style>
      <name>TA.M22K</name>
      <visibility>0</visibility>
<description><![CDATA[<dl><dt>Network:</dt><dd><b>TA</b></dd><dt>Station ID:</dt><dd><b>M22K</b></dd><dt>Name:</dt><dd>Willow, AK, USA</dd><dt>Location:</dt><dd></dd><dt>Lat:</dt><dd>61.7531</dd><dt>Lon:</dt><dd>-150.1205</dd><dt>Distance to source:</dt><dd>66.5 km</dd><dt>Intensity:</dt><dd><b>2.2</b></dd><dt>PGA:</dt><dd><b>NaN %g</b></dd><dt>PGV:</dt><dd> <b>NaN cm/sec</b></dd><dt>PSA 0.3sec:</dt><dd>NaN %g</dd><dt>PSA 1.0sec:</dt><dd>NaN %g</dd><dt>PSA 3.0sec:</dt><dd>NaN %g</dd>]]></description>      <Point>
        <altitudeMode>clampToGround</altitudeMode>
        <coordinates>-150.120500,61.753100,0</coordinates>
      </Point>
    </Placemark>
    <Placemark>
      <styleUrl>#stationIconMap</styleUrl>
      <Style>
        <IconStyle>
          <color>#ffffffff</color>
        </IconStyle>
      </Style>
      <name>AV.NCT</name>
      <visibility>0</visibility>
<description><![CDATA[<dl><dt>Network:</dt><dd><b>AV</b></dd><dt>Station ID:</dt><dd><b>NCT</b></dd><dt>Name:</dt><dd>North Crescent, Redoubt Volcano, Alaska</dd><dt>Location:</dt><dd></dd><dt>Lat:</dt><dd>60.5621</dd><dt>Lon:</dt><dd>-152.9293</dd><dt>Distance to source:</dt><dd>191.0 km</dd><dt>Intensity:</dt><dd><b>1.0</b></dd><dt>PGA:</dt><dd><b>0.01 %g</b></dd><dt>PGV:</dt><dd> <b>0.01 cm/sec</b></dd><dt>PSA 0.3sec:</dt><dd>0.02 %g</dd><dt>PSA 1.0sec:</dt><dd>0.01 %g</dd><dt>PSA 3.0sec:</dt><dd>0.00 %g</dd>]]></description>      <Point>
        <altitudeMode>clampToGround</altitudeMode>
        <coordinates>-152.929300,60.562100,0</coordinates>
      </Point>
    </Placemark>
    <Placemark>
      <styleUrl>#stationIconMap</styleUrl>
      <Style>
        <IconStyle>
          <color>#ffffffff</color>
        </IconStyle>
      </Style>
      <name>TA.O20K</name>
      <visibility>0</visibility>
<description><![CDATA[<dl><dt>Network:</dt><dd><b>TA</b></dd><dt>Station ID:</dt><dd><b>O20K</b></dd><dt>Name:</dt><dd>Slope Mountain, AK, USA</dd><dt>Location:</dt><dd></dd><dt>Lat:</dt><dd>60.0815</dd><dt>Lon:</dt><dd>-152.6240</dd><dt>Distance to source:</dt><dd>224.5 km</dd><dt>Intensity:</dt><dd><b>1.0</b></dd><dt>PGA:</dt><dd><b>0.02 %g</b></dd><dt>PGV:</dt><dd> <b>0.01 cm/sec</b></dd><dt>PSA 0.3sec:</dt><dd>NaN %g</dd><dt>PSA 1.0sec:</dt><dd>NaN %g</dd><dt>PSA 3.0sec:</dt><dd>NaN %g</dd>]]></description>      <Point>
        <altitudeMode>clampToGround</altitudeMode>
        <coordinates>-152.624000,60.081500,0</coordinates>
      </Point>
    </Placemark>
    <Placemark>
      <styleUrl>#stationIconMap</styleUrl>
      <Style>
        <IconStyle>
          <color>#ffffccbf</color>
        </IconStyle>
      </Style>
      <name>TA.O22K</name>
      <visibility>0</visibility>
<description><![CDATA[<dl><dt>Network:</dt><dd><b>TA</b></dd><dt>Station ID:</dt><dd><b>O22K</b></dd><dt>Name:</dt><dd>Cooper Landing, AK, USA</dd><dt>Location:</dt><dd></dd><dt>Lat:</dt><dd>60.4814</dd><dt>Lon:</dt><dd>-149.7241</dd><dt>Distance to source:</dt><dd>165.1 km</dd><dt>Intensity:</dt><dd><b>2.0</b></dd><dt>PGA:</dt><dd><b>0.12 %g</b></dd><dt>PGV:</dt><dd> <b>0.05 cm/sec</b></dd><dt>PSA 0.3sec:</dt><dd>0.33 %g</dd><dt>PSA 1.0sec:</dt><dd>0.08 %g</dd><dt>PSA 3.0sec:</dt><dd>0.00 %g</dd>]]></description>      <Point>
        <altitudeMode>clampToGround</altitudeMode>
        <coordinates>-149.724100,60.481400,0</coordinates>
      </Point>
    </Placemark>
    <Placemark>
      <styleUrl>#stationIconMap</styleUrl>
      <Style>
        <IconStyle>
          <color>#fffff5f2</color>
        </IconStyle>
      </Style>
      <name>AT.PMR</name>
      <visibility>0</visibility>
<description><![CDATA[<dl><dt>Network:</dt><dd><b>AT</b></dd><dt>Station ID:</dt><dd><b>PMR</b></dd><dt>Name:</dt><dd>Palmer, Alaska</dd><dt>Location:</dt><dd></dd><dt>Lat:</dt><dd>61.5922</dd><dt>Lon:</dt><dd>-149.1308</dd><dt>Distance to source:</dt><dd>103.6 km</dd><dt>Intensity:</dt><dd><b>1.2</b></dd><dt>PGA:</dt><dd><b>NaN %g</b></dd><dt>PGV:</dt><dd> <b>NaN cm/sec</b></dd><dt>PSA 0.3sec:</dt><dd>NaN %g</dd><dt>PSA 1.0sec:</dt><dd>NaN %g</dd><dt>PSA 3.0sec:</dt><dd>NaN %g</dd>]]></description>      <Point>
        <altitudeMode>clampToGround</altitudeMode>
        <coordinates>-149.130800,61.592200,0</coordinates>
      </Point>
    </Placemark>
    <Placemark>
      <styleUrl>#stationIconMap</styleUrl>
      <Style>
        <IconStyle>
          <color>#ffffffff</color>
        </IconStyle>
      </Style>
      <name>AK.PPLA</name>
      <visibility>0</visibility>
<description><![CDATA[<dl><dt>Network:</dt><dd><b>AK</b></dd><dt>Station ID:</dt><dd><b>PPLA</b></dd><dt>Name:</dt><dd>Purkeypile, AK, USA</dd><dt>Location:</dt><dd></dd><dt>Lat:</dt><dd>62.8962</dd><dt>Lon:</dt><dd>-152.1894</dd><dt>Distance to source:</dt><dd>157.3 km</dd><dt>Intensity:</dt><dd><b>1.0</b></dd><dt>PGA:</dt><dd><b>0.02 %g</b></dd><dt>PGV:</dt><dd> <b>0.01 cm/sec</b></dd><dt>PSA 0.3sec:</dt><dd>0.03 %g</dd><dt>PSA 1.0sec:</dt><dd>0.01 %g</dd><dt>PSA 3.0sec:</dt><dd>0.00 %g</dd>]]></description>      <Point>
        <altitudeMode>clampToGround</altitudeMode>
        <coordinates>-152.189400,62.896200,0</coordinates>
      </Point>
    </Placemark>
    <Placemark>
      <styleUrl>#stationIconMap</styleUrl>
      <Style>
        <IconStyle>
          <color>#ffffffff</color>
        </IconStyle>
      </Style>
      <name>AK.PWL</name>
      <visibility>0</visibility>
<description><![CDATA[<dl><dt>Network:</dt><dd><b>AK</b></dd><dt>Station ID:</dt><dd><b>PWL</b></dd><dt>Name:</dt><dd>Port Wells, AK, USA</dd><dt>Location:</dt><dd></dd><dt>Lat:</dt><dd>60.8584</dd><dt>Lon:</dt><dd>-148.3334</dd><dt>Distance to source:</dt><dd>173.1 km</dd><dt>Intensity:</dt><dd><b>1.0</b></dd><dt>PGA:</dt><dd><b>0.04 %g</b></dd><dt>PGV:</dt><dd> <b>0.01 cm/sec</b></dd><dt>PSA 0.3sec:</dt><dd>0.08 %g</dd><dt>PSA 1.0sec:</dt><dd>0.01 %g</dd><dt>PSA 3.0sec:</dt><dd>0.00 %g</dd>]]></description>      <Point>
        <altitudeMode>clampToGround</altitudeMode>
        <coordinates>-148.333400,60.858400,0</coordinates>
      </Point>
    </Placemark>
    <Placemark>
      <styleUrl>#stationIconMap</styleUrl>
      <Style>
        <IconStyle>
          <color>#fffff5f2</color>
        </IconStyle>
      </Style>
      <name>AK.RC01</name>
      <visibility>0</visibility>
<description><![CDATA[<dl><dt>Network:</dt><dd><b>AK</b></dd><dt>Station ID:</dt><dd><b>RC01</b></dd><dt>Name:</dt><dd>Rabbit Creek, AK, USA</dd><dt>Location:</dt><dd></dd><dt>Lat:</dt><dd>61.0889</dd><dt>Lon:</dt><dd>-149.7390</dd><dt>Distance to source:</dt><dd>109.9 km</dd><dt>Intensity:</dt><dd><b>1.2</b></dd><dt>PGA:</dt><dd><b>0.13 %g</b></dd><dt>PGV:</dt><dd> <b>0.02 cm/sec</b></dd><dt>PSA 0.3sec:</dt><dd>0.13 %g</dd><dt>PSA 1.0sec:</dt><dd>0.02 %g</dd><dt>PSA 3.0sec:</dt><dd>0.00 %g</dd>]]></description>      <Point>
        <altitudeMode>clampToGround</altitudeMode>
        <coordinates>-149.739000,61.088900,0</coordinates>
      </Point>
    </Placemark>
    <Placemark>
      <styleUrl>#stationIconMap</styleUrl>
      <Style>
        <IconStyle>
          <color>#ffffffff</color>
        </IconStyle>
      </Style>
      <name>AV.RDJH</name>
      <visibility>0</visibility>
<description><![CDATA[<dl><dt>Network:</dt><dd><b>AV</b></dd><dt>Station ID:</dt><dd><b>RDJH</b></dd><dt>Name:</dt><dd>Redoubt, Jurgen's Hut, Redoubt Alaska</dd><dt>Location:</dt><dd></dd><dt>Lat:</dt><dd>60.5905</dd><dt>Lon:</dt><dd>-152.8058</dd><dt>Distance to source:</dt><dd>184.6 km</dd><dt>Intensity:</dt><dd><b>1.0</b></dd><dt>PGA:</dt><dd><b>0.01 %g</b></dd><dt>PGV:</dt><dd> <b>0.01 cm/sec</b></dd><dt>PSA 0.3sec:</dt><dd>0.04 %g</dd><dt>PSA 1.0sec:</dt><dd>0.01 %g</dd><dt>PSA 3.0sec:</dt><dd>0.00 %g</dd>]]></description>      <Point>
        <altitudeMode>clampToGround</altitudeMode>
        <coordinates>-152.805800,60.590500,0</coordinates>
      </Point>
    </Placemark>
    <Placemark>
      <styleUrl>#stationIconMap</styleUrl>
      <Style>
        <IconStyle>
          <color>#ffffffff</color>
        </IconStyle>
      </Style>
      <name>AV.RDWB</name>
      <visibility>0</visibility>
<description><![CDATA[<dl><dt>Network:</dt><dd><b>AV</b></dd><dt>Station ID:</dt><dd><b>RDWB</b></dd><dt>Name:</dt><dd>Redoubt, Jurgen's Hut, Redoubt Alaska</dd><dt>Location:</dt><dd></dd><dt>Lat:</dt><dd>60.4875</dd><dt>Lon:</dt><dd>-152.8425</dd><dt>Distance to source:</dt><dd>194.3 km</dd><dt>Intensity:</dt><dd><b>1.0</b></dd><dt>PGA:</dt><dd><b>0.02 %g</b></dd><dt>PGV:</dt><dd> <b>0.01 cm/sec</b></dd><dt>PSA 0.3sec:</dt><dd>0.05 %g</dd><dt>PSA 1.0sec:</dt><dd>0.01 %g</dd><dt>PSA 3.0sec:</dt><dd>0.00 %g</dd>]]></description>      <Point>
        <altitudeMode>clampToGround</altitudeMode>
        <coordinates>-152.842500,60.487500,0</coordinates>
      </Point>
    </Placemark>
    <Placemark>
      <styleUrl>#stationIconMap</styleUrl>
      <Style>
        <IconStyle>
          <color>#ffffffff</color>
        </IconStyle>
      </Style>
      <name>AV.RED</name>
      <visibility>0</visibility>
<description><![CDATA[<dl><dt>Network:</dt><dd><b>AV</b></dd><dt>Station ID:</dt><dd><b>RED</b></dd><dt>Name:</dt><dd>Redoubt Volcano, Redoubt Volcano, Alaska</dd><dt>Location:</dt><dd></dd><dt>Lat:</dt><dd>60.4196</dd><dt>Lon:</dt><dd>-152.7742</dd><dt>Distance to source:</dt><dd>197.9 km</dd><dt>Intensity:</dt><dd><b>1.0</b></dd><dt>PGA:</dt><dd><b>0.01 %g</b></dd><dt>PGV:</dt><dd> <b>0.01 cm/sec</b></dd><dt>PSA 0.3sec:</dt><dd>0.03 %g</dd><dt>PSA 1.0sec:</dt><dd>0.01 %g</dd><dt>PSA 3.0sec:</dt><dd>0.00 %g</dd>]]></description>      <Point>
        <altitudeMode>clampToGround</altitudeMode>
        <coordinates>-152.774200,60.419600,0</coordinates>
      </Point>
    </Placemark>
    <Placemark>
      <styleUrl>#stationIconMap</styleUrl>
      <Style>
        <IconStyle>
          <color>#ffffffff</color>
        </IconStyle>
      </Style>
      <name>AK.RND</name>
      <visibility>0</visibility>
<description><![CDATA[<dl><dt>Network:</dt><dd><b>AK</b></dd><dt>Station ID:</dt><dd><b>RND</b></dd><dt>Name:</dt><dd>Reindeer, AK, USA</dd><dt>Location:</dt><dd></dd><dt>Lat:</dt><dd>63.4056</dd><dt>Lon:</dt><dd>-148.8602</dd><dt>Distance to source:</dt><dd>211.3 km</dd><dt>Intensity:</dt><dd><b>1.0</b></dd><dt>PGA:</dt><dd><b>0.01 %g</b></dd><dt>PGV:</dt><dd> <b>0.00 cm/sec</b></dd><dt>PSA 0.3sec:</dt><dd>0.02 %g</dd><dt>PSA 1.0sec:</dt><dd>0.00 %g</dd><dt>PSA 3.0sec:</dt><dd>0.00 %g</dd>]]></description>      <Point>
        <altitudeMode>clampToGround</altitudeMode>
        <coordinates>-148.860200,63.405600,0</coordinates>
      </Point>
    </Placemark>
    <Placemark>
      <styleUrl>#stationIconMap</styleUrl>
      <Style>
        <IconStyle>
          <color>#fffffaf9</color>
        </IconStyle>
      </Style>
      <name>AK.SAW</name>
      <visibility>0</visibility>
<description><![CDATA[<dl><dt>Network:</dt><dd><b>AK</b></dd><dt>Station ID:</dt><dd><b>SAW</b></dd><dt>Name:</dt><dd>Sawmill, AK, USA</dd><dt>Location:</dt><dd></dd><dt>Lat:</dt><dd>61.8070</dd><dt>Lon:</dt><dd>-148.3316</dd><dt>Distance to source:</dt><dd>137.3 km</dd><dt>Intensity:</dt><dd><b>1.1</b></dd><dt>PGA:</dt><dd><b>0.04 %g</b></dd><dt>PGV:</dt><dd> <b>0.02 cm/sec</b></dd><dt>PSA 0.3sec:</dt><dd>0.06 %g</dd><dt>PSA 1.0sec:</dt><dd>0.03 %g</dd><dt>PSA 3.0sec:</dt><dd>0.00 %g</dd>]]></description>      <Point>
        <altitudeMode>clampToGround</altitudeMode>
        <coordinates>-148.331600,61.807000,0</coordinates>
      </Point>
    </Placemark>
    <Placemark>
      <styleUrl>#stationIconMap</styleUrl>
      <Style>
        <IconStyle>
          <color>#ffffffff</color>
        </IconStyle>
      </Style>
      <name>AK.SCM</name>
      <visibility>0</visibility>
<description><![CDATA[<dl><dt>Network:</dt><dd><b>AK</b></dd><dt>Station ID:</dt><dd><b>SCM</b></dd><dt>Name:</dt><dd>Sheep Mountain, AK, USA</dd><dt>Location:</dt><dd></dd><dt>Lat:</dt><dd>61.8320</dd><dt>Lon:</dt><dd>-147.3290</dd><dt>Distance to source:</dt><dd>186.2 km</dd><dt>Intensity:</dt><dd><b>1.0</b></dd><dt>PGA:</dt><dd><b>0.02 %g</b></dd><dt>PGV:</dt><dd> <b>0.01 cm/sec</b></dd><dt>PSA 0.3sec:</dt><dd>0.03 %g</dd><dt>PSA 1.0sec:</dt><dd>0.02 %g</dd><dt>PSA 3.0sec:</dt><dd>0.00 %g</dd>]]></description>      <Point>
        <altitudeMode>clampToGround</altitudeMode>
        <coordinates>-147.329000,61.832000,0</coordinates>
      </Point>
    </Placemark>
    <Placemark>
      <styleUrl>#stationIconMap</styleUrl>
      <Style>
        <IconStyle>
          <color>#fffff5f2</color>
        </IconStyle>
      </Style>
      <name>AK.SLK</name>
      <visibility>0</visibility>
<description><![CDATA[<dl><dt>Network:</dt><dd><b>AK</b></dd><dt>Station ID:</dt><dd><b>SLK</b></dd><dt>Name:</dt><dd>Skilak Lake, AK, USA</dd><dt>Location:</dt><dd></dd><dt>Lat:</dt><dd>60.5117</dd><dt>Lon:</dt><dd>-150.2231</dd><dt>Distance to source:</dt><dd>155.7 km</dd><dt>Intensity:</dt><dd><b>1.2</b></dd><dt>PGA:</dt><dd><b>0.11 %g</b></dd><dt>PGV:</dt><dd> <b>0.02 cm/sec</b></dd><dt>PSA 0.3sec:</dt><dd>0.15 %g</dd><dt>PSA 1.0sec:</dt><dd>0.01 %g</dd><dt>PSA 3.0sec:</dt><dd>0.00 %g</dd>]]></description>      <Point>
        <altitudeMode>clampToGround</altitudeMode>
        <coordinates>-150.223100,60.511700,0</coordinates>
      </Point>
    </Placemark>
    <Placemark>
      <styleUrl>#stationIconMap</styleUrl>
      <Style>
        <IconStyle>
          <color>#ffffffff</color>
        </IconStyle>
      </Style>
      <name>AV.SPBG</name>
      <visibility>0</visibility>
<description><![CDATA[<dl><dt>Network:</dt><dd><b>AV</b></dd><dt>Station ID:</dt><dd><b>SPBG</b></dd><dt>Name:</dt><dd>Barrier Glacier, Mount Spurr, Alaska</dd><dt>Location:</dt><dd></dd><dt>Lat:</dt><dd>61.2591</dd><dt>Lon:</dt><dd>-152.3722</dd><dt>Distance to source:</dt><dd>122.2 km</dd><dt>Intensity:</dt><dd><b>1.0</b></dd><dt>PGA:</dt><dd><b>0.03 %g</b></dd><dt>PGV:</dt><dd> <b>0.02 cm/sec</b></dd><dt>PSA 0.3sec:</dt><dd>0.10 %g</dd><dt>PSA 1.0sec:</dt><dd>0.03 %g</dd><dt>PSA 3.0sec:</dt><dd>0.00 %g</dd>]]></description>      <Point>
        <altitudeMode>clampToGround</altitudeMode>
        <coordinates>-152.372200,61.259100,0</coordinates>
      </Point>
    </Placemark>
    <Placemark>
      <styleUrl>#stationIconMap</styleUrl>
      <Style>
        <IconStyle>
          <color>#ffffffff</color>
        </IconStyle>
      </Style>
      <name>AV.SPCG</name>
      <visibility>0</visibility>
<description><![CDATA[<dl><dt>Network:</dt><dd><b>AV</b></dd><dt>Station ID:</dt><dd><b>SPCG</b></dd><dt>Name:</dt><dd>Capps Glacier, Mount Spurr, Alaska</dd><dt>Location:</dt><dd></dd><dt>Lat:</dt><dd>61.2913</dd><dt>Lon:</dt><dd>-152.0228</dd><dt>Distance to source:</dt><dd>107.5 km</dd><dt>Intensity:</dt><dd><b>1.0</b></dd><dt>PGA:</dt><dd><b>NaN %g</b></dd><dt>PGV:</dt><dd> <b>NaN cm/sec</b></dd><dt>PSA 0.3sec:</dt><dd>NaN %g</dd><dt>PSA 1.0sec:</dt><dd>NaN %g</dd><dt>PSA 3.0sec:</dt><dd>NaN %g</dd>]]></description>      <Point>
        <altitudeMode>clampToGround</altitudeMode>
        <coordinates>-152.022800,61.291300,0</coordinates>
      </Point>
    </Placemark>
    <Placemark>
      <styleUrl>#stationIconMap</styleUrl>
      <Style>
        <IconStyle>
          <color>#ffffdea9</color>
        </IconStyle>
      </Style>
      <name>AV.SPCN</name>
      <visibility>0</visibility>
<description><![CDATA[<dl><dt>Network:</dt><dd><b>AV</b></dd><dt>Station ID:</dt><dd><b>SPCN</b></dd><dt>Name:</dt><dd>Ckakachatna North Broadband, Mount Spurr, Alaska</dd><dt>Location:</dt><dd></dd><dt>Lat:</dt><dd>61.2244</dd><dt>Lon:</dt><dd>-152.1854</dd><dt>Distance to source:</dt><dd>117.2 km</dd><dt>Intensity:</dt><dd><b>2.7</b></dd><dt>PGA:</dt><dd><b>0.27 %g</b></dd><dt>PGV:</dt><dd> <b>0.16 cm/sec</b></dd><dt>PSA 0.3sec:</dt><dd>0.68 %g</dd><dt>PSA 1.0sec:</dt><dd>0.13 %g</dd><dt>PSA 3.0sec:</dt><dd>0.01 %g</dd>]]></description>      <Point>
        <altitudeMode>clampToGround</altitudeMode>
        <coordinates>-152.185400,61.224400,0</coordinates>
      </Point>
    </Placemark>
    <Placemark>
      <styleUrl>#stationIconMap</styleUrl>
      <Style>
        <IconStyle>
          <color>#fffffaf9</color>
        </IconStyle>
      </Style>
      <name>AV.SPCR</name>
      <visibility>0</visibility>
<description><![CDATA[<dl><dt>Network:</dt><dd><b>AV</b></dd><dt>Station ID:</dt><dd><b>SPCR</b></dd><dt>Name:</dt><dd>Ckakachatna River, Mount Spurr, Alaska</dd><dt>Location:</dt><dd></dd><dt>Lat:</dt><dd>61.2003</dd><dt>Lon:</dt><dd>-152.2091</dd><dt>Distance to source:</dt><dd>119.5 km</dd><dt>Intensity:</dt><dd><b>1.1</b></dd><dt>PGA:</dt><dd><b>0.08 %g</b></dd><dt>PGV:</dt><dd> <b>0.02 cm/sec</b></dd><dt>PSA 0.3sec:</dt><dd>0.10 %g</dd><dt>PSA 1.0sec:</dt><dd>0.01 %g</dd><dt>PSA 3.0sec:</dt><dd>0.00 %g</dd>]]></description>      <Point>
        <altitudeMode>clampToGround</altitudeMode>
        <coordinates>-152.209100,61.200300,0</coordinates>
      </Point>
    </Placemark>
    <Placemark>
      <styleUrl>#stationIconMap</styleUrl>
      <Style>
        <IconStyle>
          <color>#ffffffff</color>
        </IconStyle>
      </Style>
      <name>AV.SPNN</name>
      <visibility>0</visibility>
<description><![CDATA[<dl><dt>Network:</dt><dd><b>AV</b></dd><dt>Station ID:</dt><dd><b>SPNN</b></dd><dt>Name:</dt><dd>North Nagishlamina, Mount Spurr, Alaska</dd><dt>Location:</dt><dd></dd><dt>Lat:</dt><dd>61.3662</dd><dt>Lon:</dt><dd>-152.7012</dd><dt>Distance to source:</dt><dd>130.6 km</dd><dt>Intensity:</dt><dd><b>1.0</b></dd><dt>PGA:</dt><dd><b>0.03 %g</b></dd><dt>PGV:</dt><dd> <b>0.02 cm/sec</b></dd><dt>PSA 0.3sec:</dt><dd>0.10 %g</dd><dt>PSA 1.0sec:</dt><dd>0.02 %g</dd><dt>PSA 3.0sec:</dt><dd>0.00 %g</dd>]]></description>      <Point>
        <altitudeMode>clampToGround</altitudeMode>
        <coordinates>-152.701200,61.366200,0</coordinates>
      </Point>
    </Placemark>
    <Placemark>
      <styleUrl>#stationIconMap</styleUrl>
      <Style>
        <IconStyle>
          <color>#ffffffff</color>
        </IconStyle>
      </Style>
      <name>AK.SWD</name>
      <visibility>0</visibility>
<description><![CDATA[<dl><dt>Network:</dt><dd><b>AK</b></dd><dt>Station ID:</dt><dd><b>SWD</b></dd><dt>Name:</dt><dd>Seward, AK, USA</dd><dt>Location:</dt><dd></dd><dt>Lat:</dt><dd>60.1043</dd><dt>Lon:</dt><dd>-149.4526</dd><dt>Distance to source:</dt><dd>207.3 km</dd><dt>Intensity:</dt><dd><b>1.0</b></dd><dt>PGA:</dt><dd><b>0.08 %g</b></dd><dt>PGV:</dt><dd> <b>0.01 cm/sec</b></dd><dt>PSA 0.3sec:</dt><dd>0.11 %g</dd><dt>PSA 1.0sec:</dt><dd>0.01 %g</dd><dt>PSA 3.0sec:</dt><dd>0.00 %g</dd>]]></description>      <Point>
        <altitudeMode>clampToGround</altitudeMode>
        <coordinates>-149.452600,60.104300,0</coordinates>
      </Point>
    </Placemark>
    <Placemark>
      <styleUrl>#stationIconMap</styleUrl>
      <Style>
        <IconStyle>
          <color>#ffffffff</color>
        </IconStyle>
      </Style>
      <name>AK.TRF</name>
      <visibility>0</visibility>
<description><![CDATA[<dl><dt>Network:</dt><dd><b>AK</b></dd><dt>Station ID:</dt><dd><b>TRF</b></dd><dt>Name:</dt><dd>Thorofare Mountian, AK, USA</dd><dt>Location:</dt><dd></dd><dt>Lat:</dt><dd>63.4502</dd><dt>Lon:</dt><dd>-150.2893</dd><dt>Distance to source:</dt><dd>195.3 km</dd><dt>Intensity:</dt><dd><b>1.0</b></dd><dt>PGA:</dt><dd><b>0.04 %g</b></dd><dt>PGV:</dt><dd> <b>0.02 cm/sec</b></dd><dt>PSA 0.3sec:</dt><dd>0.09 %g</dd><dt>PSA 1.0sec:</dt><dd>0.02 %g</dd><dt>PSA 3.0sec:</dt><dd>0.00 %g</dd>]]></description>      <Point>
        <altitudeMode>clampToGround</altitudeMode>
        <coordinates>-150.289300,63.450200,0</coordinates>
      </Point>
    </Placemark>
    <Placemark>
      <styleUrl>#stationIconMap</styleUrl>
      <Style>
        <IconStyle>
          <color>#ffffffff</color>
        </IconStyle>
      </Style>
      <name>AK.WAT6</name>
      <visibility>0</visibility>
<description><![CDATA[<dl><dt>Network:</dt><dd><b>AK</b></dd><dt>Station ID:</dt><dd><b>WAT6</b></dd><dt>Name:</dt><dd>Susitna Watana 6, AK, USA</dd><dt>Location:</dt><dd></dd><dt>Lat:</dt><dd>62.5808</dd><dt>Lon:</dt><dd>-147.7400</dd><dt>Distance to source:</dt><dd>186.3 km</dd><dt>Intensity:</dt><dd><b>1.0</b></dd><dt>PGA:</dt><dd><b>0.03 %g</b></dd><dt>PGV:</dt><dd> <b>0.01 cm/sec</b></dd><dt>PSA 0.3sec:</dt><dd>0.03 %g</dd><dt>PSA 1.0sec:</dt><dd>0.01 %g</dd><dt>PSA 3.0sec:</dt><dd>0.00 %g</dd>]]></description>      <Point>
        <altitudeMode>clampToGround</altitudeMode>
        <coordinates>-147.740000,62.580800,0</coordinates>
      </Point>
    </Placemark>
    <Placemark>
      <styleUrl>#stationIconMap</styleUrl>
      <Style>
        <IconStyle>
          <color>#ffffffff</color>
        </IconStyle>
      </Style>
      <name>AK.WAT7</name>
      <visibility>0</visibility>
<description><![CDATA[<dl><dt>Network:</dt><dd><b>AK</b></dd><dt>Station ID:</dt><dd><b>WAT7</b></dd><dt>Name:</dt><dd>Susitna Watana 7, AK, USA</dd><dt>Location:</dt><dd></dd><dt>Lat:</dt><dd>62.8331</dd><dt>Lon:</dt><dd>-148.8476</dd><dt>Distance to source:</dt><dd>161.5 km</dd><dt>Intensity:</dt><dd><b>1.0</b></dd><dt>PGA:</dt><dd><b>0.03 %g</b></dd><dt>PGV:</dt><dd> <b>0.01 cm/sec</b></dd><dt>PSA 0.3sec:</dt><dd>0.03 %g</dd><dt>PSA 1.0sec:</dt><dd>0.01 %g</dd><dt>PSA 3.0sec:</dt><dd>0.00 %g</dd>]]></description>      <Point>
        <altitudeMode>clampToGround</altitudeMode>
        <coordinates>-148.847600,62.833100,0</coordinates>
      </Point>
    </Placemark>
  </Document>
</kml>

