<?xml version="1.0" encoding="UTF-8"?>
<kml xmlns="http://www.opengis.net/kml/2.2" xmlns:gx="http://www.google.com/kml/ext/2.2" xmlns:kml="http://www.opengis.net/kml/2.2" xmlns:atom="http://www.w3.org/2005/Atom">
<Document>
	<name>Forecast.kmz</name>
	<Style id="TropicalBalloonStyle">
		<LabelStyle>
			<scale>1.2</scale>
		</LabelStyle>
		<BalloonStyle>
			<text><![CDATA[<table width="300" bgcolor="white" border="1" padding ="1">
</table><b><font size="+3">$[name]</font></b><br/><font face="Courier">$[description]</font>]]></text>
			<bgColor>ffd9d1d1</bgColor>
		</BalloonStyle>
		<LineStyle id="IDstormtrack">
			<color>ffff00ff</color>
			<width>2</width>
		</LineStyle>
		<PolyStyle>
			<color>7f7faaaa</color>
			<colorMode>random</colorMode>
		</PolyStyle>
	</Style>
	<Style id="sh_ylw-pushpin">
		<IconStyle>
			<scale>1.3</scale>
			<Icon>
				<href>http://maps.google.com/mapfiles/kml/pushpin/ylw-pushpin.png</href>
			</Icon>
			<hotSpot x="20" y="2" xunits="pixels" yunits="pixels"/>
		</IconStyle>
		<LineStyle>
			<color>ff0000ac</color>
			<width>3.1</width>
		</LineStyle>
		<PolyStyle>
			<color>400000ff</color>
			<fill>0</fill>
		</PolyStyle>
	</Style>
	<Style id="WindRadii64">
		<LineStyle>
			<color>ff0000ff</color>
			<width>2</width>
		</LineStyle>
		<PolyStyle>
			<fill>0</fill>
		</PolyStyle>
	</Style>
	<Style id="WindRadii34">
		<LineStyle>
			<color>ffff00ff</color>
			<width>2</width>
		</LineStyle>
		<PolyStyle>
			<fill>0</fill>
		</PolyStyle>
	</Style>
	<StyleMap id="msn_ylw-pushpin">
		<Pair>
			<key>normal</key>
			<styleUrl>#sn_ylw-pushpin</styleUrl>
		</Pair>
		<Pair>
			<key>highlight</key>
			<styleUrl>#sh_ylw-pushpin</styleUrl>
		</Pair>
	</StyleMap>
	<Style id="WindRadii50">
		<LineStyle>
			<color>ff5f1faf</color>
			<width>2</width>
		</LineStyle>
		<PolyStyle>
			<fill>0</fill>
		</PolyStyle>
	</Style>
	<Style id="sn_ylw-pushpin">
		<IconStyle>
			<scale>1.1</scale>
			<Icon>
				<href>http://maps.google.com/mapfiles/kml/pushpin/ylw-pushpin.png</href>
			</Icon>
			<hotSpot x="20" y="2" xunits="pixels" yunits="pixels"/>
		</IconStyle>
		<LineStyle>
			<color>ff0000ac</color>
			<width>3.1</width>
		</LineStyle>
		<PolyStyle>
			<color>400000ff</color>
			<fill>0</fill>
		</PolyStyle>
	</Style>
	<Folder>
		<name>Forecast</name>
		<open>1</open>
		<Placemark>
			<name>19/06Z (TROPICAL CYCLONE 11P (WINSTON) WARNING NR 025- 125 knots)</name>
			<Snippet maxLines="0">empty</Snippet>
			<description><![CDATA[<pre>
TROPICAL CYCLONE 11P (WINSTON) WARNING #25
WTPS31 PHNC 190900    
190600Z POSIT: NEAR 17.5S 175.9W
MOVING 270 DEGREES TRUE AT 12 KNOTS
MAXIMUM SIGNIFICANT WAVE HEIGHT: 35 FEET 
19/06Z, WINDS 125 KTS, GUSTS TO 150 KTS
19/18Z, WINDS 135 KTS, GUSTS TO 165 KTS
20/06Z, WINDS 130 KTS, GUSTS TO 160 KTS
20/18Z, WINDS 115 KTS, GUSTS TO 140 KTS
21/06Z, WINDS 105 KTS, GUSTS TO 130 KTS
22/06Z, WINDS 100 KTS, GUSTS TO 125 KTS
23/06Z, WINDS 080 KTS, GUSTS TO 100 KTS
24/06Z, WINDS 055 KTS, GUSTS TO 070 KTS
________________________________________
          
CPA TO:               NM     DTG
Suva                   13  20/18Z
________________________________________
          
Bearing and Distance      Dir  Dist  TAU
                               (nm) (hrs)
Suva                      074   107   24
Tonga                     308   334   24               </pre>]]></description>
			<styleUrl>#TropicalBalloonStyle</styleUrl>
			<Style>
				<IconStyle>
					<color>ffffffff</color>
					<scale>1</scale>
					<heading>0</heading>
					<Icon>
						<href>files/TYgraySH.png</href>
					</Icon>
				</IconStyle>
			</Style>
			<Point>
				<coordinates>-175.9,-17.5,0</coordinates>
			</Point>
		</Placemark>
		<Placemark>
			<name>RADIUS OF 34 KT WINDS</name>
			<styleUrl>#WindRadii34</styleUrl>
			<Polygon>
				<tessellate>1</tessellate>
				<outerBoundaryIs>
					<LinearRing>
						<coordinates>
							-175.9,-15.334,0 -175.821,-15.336,0 -175.743,-15.34,0 -175.665,-15.346,0 -175.587,-15.355,0 -175.51,-15.367,0 -175.433,-15.381,0 -175.356,-15.398,0 -175.281,-15.417,0 -175.206,-15.439,0 -175.131,-15.463,0 -175.058,-15.49,0 -174.986,-15.519,0 -174.914,-15.551,0 -174.844,-15.585,0 -174.776,-15.621,0 -174.708,-15.66,0 -174.642,-15.701,0 -174.577,-15.744,0 -174.514,-15.789,0 -174.453,-15.836,0 -174.393,-15.885,0 -174.335,-15.936,0 -174.279,-15.989,0 -174.225,-16.044,0 -174.173,-16.1,0 -174.123,-16.159,0 -174.075,-16.219,0 -174.03,-16.28,0 -173.986,-16.343,0 -173.945,-16.407,0 -173.906,-16.473,0 -173.869,-16.54,0 -173.835,-16.608,0 -173.804,-16.678,0 -173.775,-16.748,0 -173.748,-16.819,0 -173.724,-16.891,0 -173.703,-16.964,0 -173.684,-17.037,0 -173.668,-17.111,0 -173.655,-17.186,0 -173.645,-17.26,0 -173.637,-17.336,0 -173.632,-17.411,0 -173.629,-17.487,0 -173.629,-17.487,0 -173.633,-17.638,0 -173.639,-17.713,0 -173.648,-17.788,0 -173.659,-17.863,0 -173.673,-17.937,0 -173.69,-18.011,0 -173.71,-18.084,0 -173.732,-18.157,0 -173.757,-18.228,0 -173.785,-18.299,0 -173.815,-18.369,0 -173.848,-18.438,0 -173.884,-18.506,0 -173.921,-18.572,0 -173.962,-18.637,0 -174.005,-18.701,0 -174.05,-18.763,0 -174.097,-18.824,0 -174.147,-18.883,0 -174.198,-18.941,0 -174.252,-18.997,0 -174.308,-19.051,0 -174.366,-19.103,0 -174.426,-19.153,0 -174.488,-19.201,0 -174.552,-19.247,0 -174.617,-19.29,0 -174.684,-19.332,0 -174.752,-19.371,0 -174.822,-19.408,0 -174.893,-19.443,0 -174.966,-19.475,0 -175.039,-19.505,0 -175.114,-19.533,0 -175.19,-19.557,0 -175.266,-19.58,0 -175.344,-19.6,0 -175.422,-19.617,0 -175.5,-19.631,0 -175.58,-19.643,0 -175.659,-19.653,0 -175.739,-19.659,0 -175.819,-19.663,0 -175.899,-19.665,0 -175.899,-19.498,0 -176.047,-19.493,0 -176.121,-19.487,0 -176.194,-19.478,0 -176.268,-19.467,0 -176.34,-19.454,0 -176.412,-19.438,0 -176.484,-19.42,0 -176.554,-19.399,0 -176.624,-19.376,0 -176.693,-19.351,0 -176.761,-19.323,0 -176.828,-19.294,0 -176.893,-19.262,0 -176.958,-19.228,0 -177.021,-19.191,0 -177.082,-19.153,0 -177.143,-19.112,0 -177.201,-19.07,0 -177.258,-19.026,0 -177.314,-18.98,0 -177.367,-18.932,0 -177.419,-18.882,0 -177.469,-18.831,0 -177.517,-18.778,0 -177.562,-18.723,0 -177.606,-18.667,0 -177.648,-18.609,0 -177.687,-18.551,0 -177.725,-18.49,0 -177.76,-18.429,0 -177.792,-18.367,0 -177.823,-18.303,0 -177.851,-18.239,0 -177.876,-18.173,0 -177.899,-18.107,0 -177.92,-18.04,0 -177.938,-17.973,0 -177.954,-17.904,0 -177.967,-17.836,0 -177.978,-17.767,0 -177.986,-17.697,0 -177.992,-17.628,0 -177.995,-17.558,0 -177.995,-17.489,0 -177.995,-17.489,0 -177.988,-17.349,0 -177.981,-17.28,0 -177.972,-17.211,0 -177.959,-17.142,0 -177.945,-17.074,0 -177.927,-17.006,0 -177.908,-16.939,0 -177.886,-16.872,0 -177.861,-16.806,0 -177.835,-16.742,0 -177.806,-16.678,0 -177.774,-16.615,0 -177.74,-16.553,0 -177.705,-16.492,0 -177.667,-16.433,0 -177.626,-16.375,0 -177.584,-16.318,0 -177.54,-16.262,0 -177.494,-16.209,0 -177.446,-16.156,0 -177.396,-16.106,0 -177.344,-16.057,0 -177.291,-16.009,0 -177.236,-15.964,0 -177.179,-15.921,0 -177.121,-15.879,0 -177.061,-15.839,0 -177,-15.802,0 -176.938,-15.766,0 -176.874,-15.732,0 -176.809,-15.701,0 -176.744,-15.672,0 -176.677,-15.645,0 -176.609,-15.62,0 -176.541,-15.598,0 -176.471,-15.577,0 -176.401,-15.56,0 -176.331,-15.544,0 -176.26,-15.531,0 -176.188,-15.52,0 -176.116,-15.512,0 -176.044,-15.506,0 -175.972,-15.502,0 -175.9,-15.501,0 -175.9,-15.334,0 
						</coordinates>
					</LinearRing>
				</outerBoundaryIs>
			</Polygon>
		</Placemark>
		<Placemark>
			<name>RADIUS OF 50 KT WINDS</name>
			<styleUrl>#WindRadii50</styleUrl>
			<Polygon>
				<tessellate>1</tessellate>
				<outerBoundaryIs>
					<LinearRing>
						<coordinates>
							-175.9,-16.667,0 -175.869,-16.667,0 -175.839,-16.669,0 -175.809,-16.671,0 -175.779,-16.675,0 -175.749,-16.679,0 -175.719,-16.685,0 -175.689,-16.691,0 -175.66,-16.699,0 -175.631,-16.707,0 -175.602,-16.717,0 -175.574,-16.727,0 -175.546,-16.738,0 -175.518,-16.751,0 -175.491,-16.764,0 -175.465,-16.778,0 -175.439,-16.793,0 -175.413,-16.809,0 -175.388,-16.825,0 -175.364,-16.843,0 -175.34,-16.861,0 -175.317,-16.88,0 -175.295,-16.9,0 -175.273,-16.92,0 -175.253,-16.941,0 -175.233,-16.963,0 -175.213,-16.986,0 -175.195,-17.009,0 -175.177,-17.033,0 -175.161,-17.057,0 -175.145,-17.082,0 -175.13,-17.107,0 -175.116,-17.133,0 -175.103,-17.159,0 -175.091,-17.186,0 -175.08,-17.213,0 -175.07,-17.24,0 -175.061,-17.268,0 -175.053,-17.296,0 -175.046,-17.325,0 -175.04,-17.353,0 -175.035,-17.382,0 -175.032,-17.411,0 -175.029,-17.44,0 -175.027,-17.469,0 -175.026,-17.498,0 -175.026,-17.498,0 -175.028,-17.556,0 -175.031,-17.585,0 -175.034,-17.614,0 -175.039,-17.642,0 -175.045,-17.671,0 -175.051,-17.699,0 -175.059,-17.727,0 -175.068,-17.755,0 -175.078,-17.783,0 -175.089,-17.81,0 -175.1,-17.837,0 -175.113,-17.863,0 -175.127,-17.889,0 -175.142,-17.914,0 -175.157,-17.939,0 -175.174,-17.964,0 -175.191,-17.988,0 -175.209,-18.011,0 -175.229,-18.034,0 -175.249,-18.056,0 -175.269,-18.077,0 -175.291,-18.098,0 -175.313,-18.118,0 -175.336,-18.137,0 -175.36,-18.155,0 -175.384,-18.173,0 -175.409,-18.189,0 -175.435,-18.205,0 -175.461,-18.22,0 -175.488,-18.234,0 -175.515,-18.248,0 -175.543,-18.26,0 -175.571,-18.271,0 -175.6,-18.282,0 -175.628,-18.291,0 -175.658,-18.3,0 -175.687,-18.307,0 -175.717,-18.314,0 -175.747,-18.32,0 -175.777,-18.324,0 -175.808,-18.328,0 -175.838,-18.33,0 -175.869,-18.332,0 -175.899,-18.332,0 -175.899,-18.166,0 -175.948,-18.164,0 -175.973,-18.162,0 -175.997,-18.159,0 -176.021,-18.156,0 -176.045,-18.151,0 -176.069,-18.146,0 -176.093,-18.14,0 -176.116,-18.133,0 -176.139,-18.125,0 -176.162,-18.117,0 -176.185,-18.108,0 -176.207,-18.098,0 -176.229,-18.087,0 -176.25,-18.076,0 -176.271,-18.064,0 -176.291,-18.051,0 -176.311,-18.038,0 -176.331,-18.024,0 -176.35,-18.009,0 -176.368,-17.994,0 -176.386,-17.978,0 -176.403,-17.962,0 -176.42,-17.945,0 -176.436,-17.927,0 -176.451,-17.909,0 -176.466,-17.89,0 -176.48,-17.871,0 -176.493,-17.852,0 -176.506,-17.832,0 -176.517,-17.811,0 -176.528,-17.791,0 -176.539,-17.769,0 -176.548,-17.748,0 -176.557,-17.726,0 -176.565,-17.704,0 -176.572,-17.682,0 -176.578,-17.66,0 -176.583,-17.637,0 -176.588,-17.614,0 -176.592,-17.591,0 -176.594,-17.568,0 -176.597,-17.545,0 -176.598,-17.522,0 -176.598,-17.498,0 -176.598,-17.498,0 -176.596,-17.452,0 -176.594,-17.429,0 -176.591,-17.406,0 -176.587,-17.383,0 -176.582,-17.36,0 -176.577,-17.337,0 -176.57,-17.315,0 -176.563,-17.293,0 -176.555,-17.271,0 -176.546,-17.249,0 -176.537,-17.228,0 -176.526,-17.206,0 -176.515,-17.186,0 -176.503,-17.165,0 -176.491,-17.146,0 -176.477,-17.126,0 -176.463,-17.107,0 -176.449,-17.089,0 -176.433,-17.071,0 -176.417,-17.053,0 -176.401,-17.036,0 -176.383,-17.02,0 -176.366,-17.004,0 -176.347,-16.989,0 -176.328,-16.974,0 -176.309,-16.96,0 -176.289,-16.947,0 -176.269,-16.934,0 -176.248,-16.922,0 -176.226,-16.911,0 -176.205,-16.9,0 -176.183,-16.891,0 -176.16,-16.882,0 -176.138,-16.873,0 -176.115,-16.866,0 -176.091,-16.859,0 -176.068,-16.853,0 -176.044,-16.848,0 -176.02,-16.843,0 -175.996,-16.84,0 -175.972,-16.837,0 -175.948,-16.835,0 -175.924,-16.834,0 -175.9,-16.833,0 -175.9,-16.667,0 
						</coordinates>
					</LinearRing>
				</outerBoundaryIs>
			</Polygon>
		</Placemark>
		<Placemark>
			<name>RADIUS OF 64 KT WINDS</name>
			<styleUrl>#WindRadii64</styleUrl>
			<Polygon>
				<tessellate>1</tessellate>
				<outerBoundaryIs>
					<LinearRing>
						<coordinates>
							-175.9,-17.166,0 -175.887,-17.167,0 -175.875,-17.167,0 -175.863,-17.168,0 -175.851,-17.17,0 -175.839,-17.171,0 -175.827,-17.174,0 -175.815,-17.176,0 -175.803,-17.179,0 -175.792,-17.183,0 -175.78,-17.186,0 -175.769,-17.191,0 -175.758,-17.195,0 -175.747,-17.2,0 -175.736,-17.205,0 -175.725,-17.211,0 -175.715,-17.217,0 -175.704,-17.223,0 -175.695,-17.23,0 -175.685,-17.237,0 -175.675,-17.244,0 -175.666,-17.252,0 -175.657,-17.26,0 -175.649,-17.268,0 -175.64,-17.276,0 -175.632,-17.285,0 -175.625,-17.294,0 -175.617,-17.304,0 -175.61,-17.313,0 -175.604,-17.323,0 -175.597,-17.333,0 -175.591,-17.343,0 -175.586,-17.353,0 -175.581,-17.364,0 -175.576,-17.374,0 -175.571,-17.385,0 -175.568,-17.396,0 -175.564,-17.407,0 -175.561,-17.419,0 -175.558,-17.43,0 -175.556,-17.441,0 -175.554,-17.453,0 -175.552,-17.464,0 -175.551,-17.476,0 -175.55,-17.488,0 -175.55,-17.499,0 -175.55,-17.499,0 -175.551,-17.522,0 -175.552,-17.534,0 -175.554,-17.546,0 -175.555,-17.557,0 -175.558,-17.568,0 -175.56,-17.58,0 -175.564,-17.591,0 -175.567,-17.602,0 -175.571,-17.613,0 -175.575,-17.624,0 -175.58,-17.635,0 -175.585,-17.645,0 -175.591,-17.656,0 -175.597,-17.666,0 -175.603,-17.676,0 -175.61,-17.686,0 -175.617,-17.695,0 -175.624,-17.704,0 -175.632,-17.713,0 -175.64,-17.722,0 -175.648,-17.731,0 -175.657,-17.739,0 -175.665,-17.747,0 -175.675,-17.755,0 -175.684,-17.762,0 -175.694,-17.769,0 -175.704,-17.776,0 -175.714,-17.782,0 -175.725,-17.788,0 -175.735,-17.794,0 -175.746,-17.799,0 -175.757,-17.804,0 -175.768,-17.808,0 -175.78,-17.812,0 -175.791,-17.816,0 -175.803,-17.82,0 -175.815,-17.823,0 -175.827,-17.825,0 -175.839,-17.828,0 -175.851,-17.829,0 -175.863,-17.831,0 -175.875,-17.832,0 -175.887,-17.832,0 -175.899,-17.833,0 -175.899,-17.833,0 -175.924,-17.832,0 -175.936,-17.831,0 -175.948,-17.829,0 -175.96,-17.828,0 -175.972,-17.825,0 -175.984,-17.823,0 -175.996,-17.82,0 -176.008,-17.816,0 -176.019,-17.812,0 -176.031,-17.808,0 -176.042,-17.804,0 -176.053,-17.799,0 -176.064,-17.794,0 -176.074,-17.788,0 -176.085,-17.782,0 -176.095,-17.776,0 -176.105,-17.769,0 -176.115,-17.762,0 -176.124,-17.755,0 -176.134,-17.747,0 -176.142,-17.739,0 -176.151,-17.731,0 -176.159,-17.722,0 -176.167,-17.713,0 -176.175,-17.704,0 -176.182,-17.695,0 -176.189,-17.686,0 -176.196,-17.676,0 -176.202,-17.666,0 -176.208,-17.656,0 -176.214,-17.645,0 -176.219,-17.635,0 -176.224,-17.624,0 -176.228,-17.613,0 -176.232,-17.602,0 -176.235,-17.591,0 -176.239,-17.58,0 -176.241,-17.568,0 -176.244,-17.557,0 -176.245,-17.546,0 -176.247,-17.534,0 -176.248,-17.522,0 -176.249,-17.511,0 -176.249,-17.499,0 -176.249,-17.499,0 -176.248,-17.476,0 -176.247,-17.464,0 -176.245,-17.453,0 -176.243,-17.441,0 -176.241,-17.43,0 -176.238,-17.419,0 -176.235,-17.407,0 -176.231,-17.396,0 -176.228,-17.385,0 -176.223,-17.374,0 -176.218,-17.364,0 -176.213,-17.353,0 -176.208,-17.343,0 -176.202,-17.333,0 -176.195,-17.323,0 -176.189,-17.313,0 -176.182,-17.304,0 -176.174,-17.294,0 -176.167,-17.285,0 -176.159,-17.276,0 -176.15,-17.268,0 -176.142,-17.26,0 -176.133,-17.252,0 -176.124,-17.244,0 -176.114,-17.237,0 -176.104,-17.23,0 -176.095,-17.223,0 -176.084,-17.217,0 -176.074,-17.211,0 -176.063,-17.205,0 -176.052,-17.2,0 -176.041,-17.195,0 -176.03,-17.191,0 -176.019,-17.186,0 -176.007,-17.183,0 -175.996,-17.179,0 -175.984,-17.176,0 -175.972,-17.174,0 -175.96,-17.171,0 -175.948,-17.17,0 -175.936,-17.168,0 -175.924,-17.167,0 -175.912,-17.167,0 -175.9,-17.166,0 -175.9,-17.166,0 
						</coordinates>
					</LinearRing>
				</outerBoundaryIs>
			</Polygon>
		</Placemark>
		<Placemark>
			<name>19/18Z - 135 knots</name>
			<Snippet maxLines="0">empty</Snippet>
			<description><![CDATA[<html>
<head>
<title>Requested Information</title>
</head>
<table width="400" bgcolor="white" border="1">
<tr><td><B>NAME</B></td><td><B>WINSTON</B></td></tr>
<tr><td><B>TIME</B></td><td><B>TAU 12 - 2016021918Z</B></td></tr>
<tr><td><B>POSIT</B></td><td><B>-17.5 S, -177.9 W</B></td></tr>
<tr><td><B>WRNG NMBR</B></td><td><B>025</B></td></tr>
<tr><td><B>WIND SPD</B></td><td><B>135 KTS</B></td></tr>
<tr><td><B>MOVEMENT</B></td><td><B></B></td></tr>
</table></body></html>]]></description>
			<styleUrl>#TropicalBalloonStyle</styleUrl>
			<Style>
				<IconStyle>
					<color>ffffffff</color>
					<scale>1</scale>
					<heading>0</heading>
					<Icon>
						<href>files/TYSH.png</href>
					</Icon>
				</IconStyle>
			</Style>
			<Point>
				<coordinates>-177.9,-17.5,0</coordinates>
			</Point>
		</Placemark>
		<Placemark>
			<name>RADIUS OF 34 KT WINDS</name>
			<styleUrl>#WindRadii34</styleUrl>
			<Polygon>
				<tessellate>1</tessellate>
				<outerBoundaryIs>
					<LinearRing>
						<coordinates>
							-177.9,-15.334,0 -177.821,-15.336,0 -177.743,-15.34,0 -177.665,-15.346,0 -177.587,-15.355,0 -177.51,-15.367,0 -177.433,-15.381,0 -177.356,-15.398,0 -177.281,-15.417,0 -177.206,-15.439,0 -177.131,-15.463,0 -177.058,-15.49,0 -176.986,-15.519,0 -176.914,-15.551,0 -176.844,-15.585,0 -176.776,-15.621,0 -176.708,-15.66,0 -176.642,-15.701,0 -176.577,-15.744,0 -176.514,-15.789,0 -176.453,-15.836,0 -176.393,-15.885,0 -176.335,-15.936,0 -176.279,-15.989,0 -176.225,-16.044,0 -176.173,-16.1,0 -176.123,-16.159,0 -176.075,-16.219,0 -176.03,-16.28,0 -175.986,-16.343,0 -175.945,-16.407,0 -175.906,-16.473,0 -175.869,-16.54,0 -175.835,-16.608,0 -175.804,-16.678,0 -175.775,-16.748,0 -175.748,-16.819,0 -175.724,-16.891,0 -175.703,-16.964,0 -175.684,-17.037,0 -175.668,-17.111,0 -175.655,-17.186,0 -175.645,-17.26,0 -175.637,-17.336,0 -175.632,-17.411,0 -175.629,-17.487,0 -175.629,-17.487,0 -175.633,-17.638,0 -175.639,-17.713,0 -175.648,-17.788,0 -175.659,-17.863,0 -175.673,-17.937,0 -175.69,-18.011,0 -175.71,-18.084,0 -175.732,-18.157,0 -175.757,-18.228,0 -175.785,-18.299,0 -175.815,-18.369,0 -175.848,-18.438,0 -175.884,-18.506,0 -175.921,-18.572,0 -175.962,-18.637,0 -176.005,-18.701,0 -176.05,-18.763,0 -176.097,-18.824,0 -176.147,-18.883,0 -176.198,-18.941,0 -176.252,-18.997,0 -176.308,-19.051,0 -176.366,-19.103,0 -176.426,-19.153,0 -176.488,-19.201,0 -176.552,-19.247,0 -176.617,-19.29,0 -176.684,-19.332,0 -176.752,-19.371,0 -176.822,-19.408,0 -176.893,-19.443,0 -176.966,-19.475,0 -177.039,-19.505,0 -177.114,-19.533,0 -177.19,-19.557,0 -177.266,-19.58,0 -177.344,-19.6,0 -177.422,-19.617,0 -177.5,-19.631,0 -177.58,-19.643,0 -177.659,-19.653,0 -177.739,-19.659,0 -177.819,-19.663,0 -177.899,-19.665,0 -177.899,-19.498,0 -178.047,-19.493,0 -178.121,-19.487,0 -178.194,-19.478,0 -178.268,-19.467,0 -178.34,-19.454,0 -178.412,-19.438,0 -178.484,-19.42,0 -178.554,-19.399,0 -178.624,-19.376,0 -178.693,-19.351,0 -178.761,-19.323,0 -178.828,-19.294,0 -178.893,-19.262,0 -178.958,-19.228,0 -179.021,-19.191,0 -179.082,-19.153,0 -179.143,-19.112,0 -179.201,-19.07,0 -179.258,-19.026,0 -179.314,-18.98,0 -179.367,-18.932,0 -179.419,-18.882,0 -179.469,-18.831,0 -179.517,-18.778,0 -179.562,-18.723,0 -179.606,-18.667,0 -179.648,-18.609,0 -179.687,-18.551,0 -179.725,-18.49,0 -179.76,-18.429,0 -179.792,-18.367,0 -179.823,-18.303,0 -179.851,-18.239,0 -179.876,-18.173,0 -179.899,-18.107,0 -179.92,-18.04,0 -179.938,-17.973,0 -179.954,-17.904,0 -179.967,-17.836,0 -179.978,-17.767,0 -179.986,-17.697,0 -179.992,-17.628,0 -179.995,-17.558,0 -179.995,-17.489,0 -179.995,-17.489,0 -179.988,-17.349,0 -179.981,-17.28,0 -179.972,-17.211,0 -179.959,-17.142,0 -179.945,-17.074,0 -179.927,-17.006,0 -179.908,-16.939,0 -179.886,-16.872,0 -179.861,-16.806,0 -179.835,-16.742,0 -179.806,-16.678,0 -179.774,-16.615,0 -179.74,-16.553,0 -179.705,-16.492,0 -179.667,-16.433,0 -179.626,-16.375,0 -179.584,-16.318,0 -179.54,-16.262,0 -179.494,-16.209,0 -179.446,-16.156,0 -179.396,-16.106,0 -179.344,-16.057,0 -179.291,-16.009,0 -179.236,-15.964,0 -179.179,-15.921,0 -179.121,-15.879,0 -179.061,-15.839,0 -179,-15.802,0 -178.938,-15.766,0 -178.874,-15.732,0 -178.809,-15.701,0 -178.744,-15.672,0 -178.677,-15.645,0 -178.609,-15.62,0 -178.541,-15.598,0 -178.471,-15.577,0 -178.401,-15.56,0 -178.331,-15.544,0 -178.26,-15.531,0 -178.188,-15.52,0 -178.116,-15.512,0 -178.044,-15.506,0 -177.972,-15.502,0 -177.9,-15.501,0 -177.9,-15.334,0 
						</coordinates>
					</LinearRing>
				</outerBoundaryIs>
			</Polygon>
		</Placemark>
		<Placemark>
			<name>RADIUS OF 50 KT WINDS</name>
			<styleUrl>#WindRadii50</styleUrl>
			<Polygon>
				<tessellate>1</tessellate>
				<outerBoundaryIs>
					<LinearRing>
						<coordinates>
							-177.9,-16.667,0 -177.869,-16.667,0 -177.839,-16.669,0 -177.809,-16.671,0 -177.779,-16.675,0 -177.749,-16.679,0 -177.719,-16.685,0 -177.689,-16.691,0 -177.66,-16.699,0 -177.631,-16.707,0 -177.602,-16.717,0 -177.574,-16.727,0 -177.546,-16.738,0 -177.518,-16.751,0 -177.491,-16.764,0 -177.465,-16.778,0 -177.439,-16.793,0 -177.413,-16.809,0 -177.388,-16.825,0 -177.364,-16.843,0 -177.34,-16.861,0 -177.317,-16.88,0 -177.295,-16.9,0 -177.273,-16.92,0 -177.253,-16.941,0 -177.233,-16.963,0 -177.213,-16.986,0 -177.195,-17.009,0 -177.177,-17.033,0 -177.161,-17.057,0 -177.145,-17.082,0 -177.13,-17.107,0 -177.116,-17.133,0 -177.103,-17.159,0 -177.091,-17.186,0 -177.08,-17.213,0 -177.07,-17.24,0 -177.061,-17.268,0 -177.053,-17.296,0 -177.046,-17.325,0 -177.04,-17.353,0 -177.035,-17.382,0 -177.032,-17.411,0 -177.029,-17.44,0 -177.027,-17.469,0 -177.026,-17.498,0 -177.026,-17.498,0 -177.028,-17.556,0 -177.031,-17.585,0 -177.034,-17.614,0 -177.039,-17.642,0 -177.045,-17.671,0 -177.051,-17.699,0 -177.059,-17.727,0 -177.068,-17.755,0 -177.078,-17.783,0 -177.089,-17.81,0 -177.1,-17.837,0 -177.113,-17.863,0 -177.127,-17.889,0 -177.142,-17.914,0 -177.157,-17.939,0 -177.174,-17.964,0 -177.191,-17.988,0 -177.209,-18.011,0 -177.229,-18.034,0 -177.249,-18.056,0 -177.269,-18.077,0 -177.291,-18.098,0 -177.313,-18.118,0 -177.336,-18.137,0 -177.36,-18.155,0 -177.384,-18.173,0 -177.409,-18.189,0 -177.435,-18.205,0 -177.461,-18.22,0 -177.488,-18.234,0 -177.515,-18.248,0 -177.543,-18.26,0 -177.571,-18.271,0 -177.6,-18.282,0 -177.628,-18.291,0 -177.658,-18.3,0 -177.687,-18.307,0 -177.717,-18.314,0 -177.747,-18.32,0 -177.777,-18.324,0 -177.808,-18.328,0 -177.838,-18.33,0 -177.869,-18.332,0 -177.899,-18.332,0 -177.899,-18.166,0 -177.948,-18.164,0 -177.973,-18.162,0 -177.997,-18.159,0 -178.021,-18.156,0 -178.045,-18.151,0 -178.069,-18.146,0 -178.093,-18.14,0 -178.116,-18.133,0 -178.139,-18.125,0 -178.162,-18.117,0 -178.185,-18.108,0 -178.207,-18.098,0 -178.229,-18.087,0 -178.25,-18.076,0 -178.271,-18.064,0 -178.291,-18.051,0 -178.311,-18.038,0 -178.331,-18.024,0 -178.35,-18.009,0 -178.368,-17.994,0 -178.386,-17.978,0 -178.403,-17.962,0 -178.42,-17.945,0 -178.436,-17.927,0 -178.451,-17.909,0 -178.466,-17.89,0 -178.48,-17.871,0 -178.493,-17.852,0 -178.506,-17.832,0 -178.517,-17.811,0 -178.528,-17.791,0 -178.539,-17.769,0 -178.548,-17.748,0 -178.557,-17.726,0 -178.565,-17.704,0 -178.572,-17.682,0 -178.578,-17.66,0 -178.583,-17.637,0 -178.588,-17.614,0 -178.592,-17.591,0 -178.594,-17.568,0 -178.597,-17.545,0 -178.598,-17.522,0 -178.598,-17.498,0 -178.598,-17.498,0 -178.596,-17.452,0 -178.594,-17.429,0 -178.591,-17.406,0 -178.587,-17.383,0 -178.582,-17.36,0 -178.577,-17.337,0 -178.57,-17.315,0 -178.563,-17.293,0 -178.555,-17.271,0 -178.546,-17.249,0 -178.537,-17.228,0 -178.526,-17.206,0 -178.515,-17.186,0 -178.503,-17.165,0 -178.491,-17.146,0 -178.477,-17.126,0 -178.463,-17.107,0 -178.449,-17.089,0 -178.433,-17.071,0 -178.417,-17.053,0 -178.401,-17.036,0 -178.383,-17.02,0 -178.366,-17.004,0 -178.347,-16.989,0 -178.328,-16.974,0 -178.309,-16.96,0 -178.289,-16.947,0 -178.269,-16.934,0 -178.248,-16.922,0 -178.226,-16.911,0 -178.205,-16.9,0 -178.183,-16.891,0 -178.16,-16.882,0 -178.138,-16.873,0 -178.115,-16.866,0 -178.091,-16.859,0 -178.068,-16.853,0 -178.044,-16.848,0 -178.02,-16.843,0 -177.996,-16.84,0 -177.972,-16.837,0 -177.948,-16.835,0 -177.924,-16.834,0 -177.9,-16.833,0 -177.9,-16.667,0 
						</coordinates>
					</LinearRing>
				</outerBoundaryIs>
			</Polygon>
		</Placemark>
		<Placemark>
			<name>RADIUS OF 64 KT WINDS</name>
			<styleUrl>#WindRadii64</styleUrl>
			<Polygon>
				<tessellate>1</tessellate>
				<outerBoundaryIs>
					<LinearRing>
						<coordinates>
							-177.9,-17.166,0 -177.887,-17.167,0 -177.875,-17.167,0 -177.863,-17.168,0 -177.851,-17.17,0 -177.839,-17.171,0 -177.827,-17.174,0 -177.815,-17.176,0 -177.803,-17.179,0 -177.792,-17.183,0 -177.78,-17.186,0 -177.769,-17.191,0 -177.758,-17.195,0 -177.747,-17.2,0 -177.736,-17.205,0 -177.725,-17.211,0 -177.715,-17.217,0 -177.704,-17.223,0 -177.695,-17.23,0 -177.685,-17.237,0 -177.675,-17.244,0 -177.666,-17.252,0 -177.657,-17.26,0 -177.649,-17.268,0 -177.64,-17.276,0 -177.632,-17.285,0 -177.625,-17.294,0 -177.617,-17.304,0 -177.61,-17.313,0 -177.604,-17.323,0 -177.597,-17.333,0 -177.591,-17.343,0 -177.586,-17.353,0 -177.581,-17.364,0 -177.576,-17.374,0 -177.571,-17.385,0 -177.568,-17.396,0 -177.564,-17.407,0 -177.561,-17.419,0 -177.558,-17.43,0 -177.556,-17.441,0 -177.554,-17.453,0 -177.552,-17.464,0 -177.551,-17.476,0 -177.55,-17.488,0 -177.55,-17.499,0 -177.55,-17.499,0 -177.551,-17.522,0 -177.552,-17.534,0 -177.554,-17.546,0 -177.555,-17.557,0 -177.558,-17.568,0 -177.56,-17.58,0 -177.564,-17.591,0 -177.567,-17.602,0 -177.571,-17.613,0 -177.575,-17.624,0 -177.58,-17.635,0 -177.585,-17.645,0 -177.591,-17.656,0 -177.597,-17.666,0 -177.603,-17.676,0 -177.61,-17.686,0 -177.617,-17.695,0 -177.624,-17.704,0 -177.632,-17.713,0 -177.64,-17.722,0 -177.648,-17.731,0 -177.657,-17.739,0 -177.665,-17.747,0 -177.675,-17.755,0 -177.684,-17.762,0 -177.694,-17.769,0 -177.704,-17.776,0 -177.714,-17.782,0 -177.725,-17.788,0 -177.735,-17.794,0 -177.746,-17.799,0 -177.757,-17.804,0 -177.768,-17.808,0 -177.78,-17.812,0 -177.791,-17.816,0 -177.803,-17.82,0 -177.815,-17.823,0 -177.827,-17.825,0 -177.839,-17.828,0 -177.851,-17.829,0 -177.863,-17.831,0 -177.875,-17.832,0 -177.887,-17.832,0 -177.899,-17.833,0 -177.899,-17.833,0 -177.924,-17.832,0 -177.936,-17.831,0 -177.948,-17.829,0 -177.96,-17.828,0 -177.972,-17.825,0 -177.984,-17.823,0 -177.996,-17.82,0 -178.008,-17.816,0 -178.019,-17.812,0 -178.031,-17.808,0 -178.042,-17.804,0 -178.053,-17.799,0 -178.064,-17.794,0 -178.074,-17.788,0 -178.085,-17.782,0 -178.095,-17.776,0 -178.105,-17.769,0 -178.115,-17.762,0 -178.124,-17.755,0 -178.134,-17.747,0 -178.142,-17.739,0 -178.151,-17.731,0 -178.159,-17.722,0 -178.167,-17.713,0 -178.175,-17.704,0 -178.182,-17.695,0 -178.189,-17.686,0 -178.196,-17.676,0 -178.202,-17.666,0 -178.208,-17.656,0 -178.214,-17.645,0 -178.219,-17.635,0 -178.224,-17.624,0 -178.228,-17.613,0 -178.232,-17.602,0 -178.235,-17.591,0 -178.239,-17.58,0 -178.241,-17.568,0 -178.244,-17.557,0 -178.245,-17.546,0 -178.247,-17.534,0 -178.248,-17.522,0 -178.249,-17.511,0 -178.249,-17.499,0 -178.249,-17.499,0 -178.248,-17.476,0 -178.247,-17.464,0 -178.245,-17.453,0 -178.243,-17.441,0 -178.241,-17.43,0 -178.238,-17.419,0 -178.235,-17.407,0 -178.231,-17.396,0 -178.228,-17.385,0 -178.223,-17.374,0 -178.218,-17.364,0 -178.213,-17.353,0 -178.208,-17.343,0 -178.202,-17.333,0 -178.195,-17.323,0 -178.189,-17.313,0 -178.182,-17.304,0 -178.174,-17.294,0 -178.167,-17.285,0 -178.159,-17.276,0 -178.15,-17.268,0 -178.142,-17.26,0 -178.133,-17.252,0 -178.124,-17.244,0 -178.114,-17.237,0 -178.104,-17.23,0 -178.095,-17.223,0 -178.084,-17.217,0 -178.074,-17.211,0 -178.063,-17.205,0 -178.052,-17.2,0 -178.041,-17.195,0 -178.03,-17.191,0 -178.019,-17.186,0 -178.007,-17.183,0 -177.996,-17.179,0 -177.984,-17.176,0 -177.972,-17.174,0 -177.96,-17.171,0 -177.948,-17.17,0 -177.936,-17.168,0 -177.924,-17.167,0 -177.912,-17.167,0 -177.9,-17.166,0 -177.9,-17.166,0 
						</coordinates>
					</LinearRing>
				</outerBoundaryIs>
			</Polygon>
		</Placemark>
		<Placemark>
			<name>20/06Z - 130 knots</name>
			<Snippet maxLines="0">empty</Snippet>
			<description><![CDATA[<html>
<head>
<title>Requested Information</title>
</head>
<table width="400" bgcolor="white" border="1">
<tr><td><B>NAME</B></td><td><B>WINSTON</B></td></tr>
<tr><td><B>TIME</B></td><td><B>TAU 24 - 2016022006Z</B></td></tr>
<tr><td><B>POSIT</B></td><td><B>-17.6 S, -179.8 W</B></td></tr>
<tr><td><B>WRNG NMBR</B></td><td><B>025</B></td></tr>
<tr><td><B>WIND SPD</B></td><td><B>130 KTS</B></td></tr>
<tr><td><B>MOVEMENT</B></td><td><B>265 DEG AT 09 KTS</B></td></tr>
</table></body></html>]]></description>
			<styleUrl>#TropicalBalloonStyle</styleUrl>
			<Style>
				<IconStyle>
					<color>ffffffff</color>
					<scale>1</scale>
					<heading>0</heading>
					<Icon>
						<href>files/TYSH.png</href>
					</Icon>
				</IconStyle>
			</Style>
			<Point>
				<coordinates>-179.8,-17.6,0</coordinates>
			</Point>
		</Placemark>
		<Placemark>
			<name>RADIUS OF 34 KT WINDS</name>
			<styleUrl>#WindRadii34</styleUrl>
			<Polygon>
				<tessellate>1</tessellate>
				<outerBoundaryIs>
					<LinearRing>
						<coordinates>
							-179.8,-15.434,0 -179.721,-15.436,0 -179.643,-15.44,0 -179.565,-15.446,0 -179.487,-15.455,0 -179.409,-15.467,0 -179.332,-15.481,0 -179.256,-15.498,0 -179.18,-15.517,0 -179.105,-15.539,0 -179.031,-15.563,0 -178.958,-15.59,0 -178.885,-15.619,0 -178.814,-15.651,0 -178.744,-15.685,0 -178.675,-15.721,0 -178.607,-15.76,0 -178.541,-15.801,0 -178.477,-15.844,0 -178.414,-15.889,0 -178.352,-15.936,0 -178.293,-15.985,0 -178.235,-16.036,0 -178.179,-16.089,0 -178.125,-16.144,0 -178.072,-16.2,0 -178.022,-16.259,0 -177.974,-16.319,0 -177.929,-16.38,0 -177.885,-16.443,0 -177.844,-16.507,0 -177.805,-16.573,0 -177.768,-16.64,0 -177.734,-16.708,0 -177.703,-16.777,0 -177.674,-16.848,0 -177.647,-16.919,0 -177.623,-16.991,0 -177.602,-17.064,0 -177.583,-17.137,0 -177.567,-17.211,0 -177.554,-17.286,0 -177.543,-17.36,0 -177.535,-17.436,0 -177.53,-17.511,0 -177.528,-17.587,0 -177.528,-17.587,0 -177.532,-17.738,0 -177.538,-17.813,0 -177.546,-17.888,0 -177.558,-17.963,0 -177.572,-18.037,0 -177.589,-18.111,0 -177.609,-18.184,0 -177.631,-18.257,0 -177.656,-18.328,0 -177.684,-18.399,0 -177.714,-18.469,0 -177.747,-18.538,0 -177.782,-18.606,0 -177.82,-18.672,0 -177.861,-18.737,0 -177.903,-18.801,0 -177.949,-18.863,0 -177.996,-18.924,0 -178.046,-18.983,0 -178.097,-19.041,0 -178.151,-19.097,0 -178.207,-19.151,0 -178.266,-19.203,0 -178.325,-19.253,0 -178.387,-19.301,0 -178.451,-19.347,0 -178.516,-19.39,0 -178.583,-19.432,0 -178.651,-19.471,0 -178.721,-19.508,0 -178.792,-19.543,0 -178.865,-19.575,0 -178.939,-19.605,0 -179.013,-19.633,0 -179.089,-19.657,0 -179.166,-19.68,0 -179.243,-19.7,0 -179.321,-19.717,0 -179.4,-19.731,0 -179.479,-19.743,0 -179.559,-19.753,0 -179.639,-19.759,0 -179.719,-19.763,0 -179.799,-19.765,0 -179.799,-19.598,0 -179.947,-19.593,0 179.979,-19.587,0 179.905,-19.578,0 179.832,-19.567,0 179.76,-19.554,0 179.688,-19.538,0 179.616,-19.52,0 179.545,-19.499,0 179.476,-19.476,0 179.407,-19.451,0 179.339,-19.423,0 179.272,-19.394,0 179.206,-19.362,0 179.142,-19.328,0 179.079,-19.291,0 179.017,-19.253,0 178.957,-19.212,0 178.898,-19.17,0 178.841,-19.126,0 178.786,-19.08,0 178.732,-19.032,0 178.68,-18.982,0 178.63,-18.931,0 178.583,-18.878,0 178.537,-18.823,0 178.493,-18.767,0 178.451,-18.709,0 178.412,-18.65,0 178.374,-18.59,0 178.339,-18.529,0 178.307,-18.467,0 178.276,-18.403,0 178.248,-18.339,0 178.223,-18.273,0 178.199,-18.207,0 178.179,-18.14,0 178.161,-18.072,0 178.145,-18.004,0 178.132,-17.936,0 178.121,-17.867,0 178.113,-17.797,0 178.107,-17.728,0 178.104,-17.658,0 178.104,-17.588,0 178.104,-17.588,0 178.111,-17.449,0 178.118,-17.38,0 178.127,-17.311,0 178.14,-17.242,0 178.154,-17.173,0 178.171,-17.106,0 178.191,-17.039,0 178.213,-16.972,0 178.238,-16.906,0 178.264,-16.841,0 178.293,-16.778,0 178.325,-16.715,0 178.359,-16.653,0 178.394,-16.592,0 178.433,-16.533,0 178.473,-16.474,0 178.515,-16.418,0 178.559,-16.362,0 178.605,-16.309,0 178.653,-16.256,0 178.703,-16.206,0 178.755,-16.157,0 178.809,-16.109,0 178.864,-16.064,0 178.92,-16.021,0 178.979,-15.979,0 179.038,-15.939,0 179.099,-15.902,0 179.162,-15.866,0 179.225,-15.832,0 179.29,-15.801,0 179.356,-15.772,0 179.423,-15.745,0 179.49,-15.72,0 179.559,-15.698,0 179.628,-15.677,0 179.698,-15.66,0 179.769,-15.644,0 179.84,-15.631,0 179.912,-15.62,0 179.984,-15.612,0 -179.944,-15.606,0 -179.872,-15.602,0 -179.8,-15.601,0 -179.8,-15.434,0 
						</coordinates>
					</LinearRing>
				</outerBoundaryIs>
			</Polygon>
		</Placemark>
		<Placemark>
			<name>RADIUS OF 50 KT WINDS</name>
			<styleUrl>#WindRadii50</styleUrl>
			<Polygon>
				<tessellate>1</tessellate>
				<outerBoundaryIs>
					<LinearRing>
						<coordinates>
							-179.8,-16.767,0 -179.769,-16.767,0 -179.739,-16.769,0 -179.709,-16.771,0 -179.678,-16.775,0 -179.648,-16.779,0 -179.619,-16.785,0 -179.589,-16.791,0 -179.56,-16.799,0 -179.531,-16.807,0 -179.502,-16.817,0 -179.474,-16.827,0 -179.446,-16.838,0 -179.418,-16.851,0 -179.391,-16.864,0 -179.364,-16.878,0 -179.338,-16.893,0 -179.313,-16.909,0 -179.288,-16.925,0 -179.264,-16.943,0 -179.24,-16.961,0 -179.217,-16.98,0 -179.195,-17,0 -179.173,-17.02,0 -179.152,-17.041,0 -179.132,-17.063,0 -179.113,-17.086,0 -179.095,-17.109,0 -179.077,-17.133,0 -179.06,-17.157,0 -179.045,-17.182,0 -179.03,-17.207,0 -179.016,-17.233,0 -179.003,-17.259,0 -178.991,-17.286,0 -178.98,-17.313,0 -178.97,-17.34,0 -178.961,-17.368,0 -178.953,-17.396,0 -178.946,-17.425,0 -178.94,-17.453,0 -178.935,-17.482,0 -178.931,-17.511,0 -178.928,-17.54,0 -178.927,-17.569,0 -178.926,-17.598,0 -178.926,-17.598,0 -178.928,-17.656,0 -178.93,-17.685,0 -178.934,-17.714,0 -178.938,-17.742,0 -178.944,-17.771,0 -178.951,-17.799,0 -178.959,-17.827,0 -178.967,-17.855,0 -178.977,-17.883,0 -178.988,-17.91,0 -179,-17.937,0 -179.013,-17.963,0 -179.026,-17.989,0 -179.041,-18.014,0 -179.057,-18.039,0 -179.073,-18.064,0 -179.091,-18.088,0 -179.109,-18.111,0 -179.128,-18.134,0 -179.148,-18.156,0 -179.169,-18.177,0 -179.191,-18.198,0 -179.213,-18.217,0 -179.236,-18.237,0 -179.26,-18.255,0 -179.284,-18.273,0 -179.309,-18.289,0 -179.335,-18.305,0 -179.361,-18.32,0 -179.388,-18.334,0 -179.415,-18.348,0 -179.443,-18.36,0 -179.471,-18.371,0 -179.499,-18.382,0 -179.528,-18.391,0 -179.558,-18.4,0 -179.587,-18.407,0 -179.617,-18.414,0 -179.647,-18.42,0 -179.677,-18.424,0 -179.708,-18.428,0 -179.738,-18.43,0 -179.769,-18.432,0 -179.799,-18.432,0 -179.799,-18.266,0 -179.848,-18.264,0 -179.873,-18.262,0 -179.897,-18.259,0 -179.921,-18.256,0 -179.945,-18.251,0 -179.969,-18.246,0 -179.993,-18.24,0 179.984,-18.233,0 179.961,-18.225,0 179.938,-18.217,0 179.915,-18.208,0 179.893,-18.198,0 179.871,-18.187,0 179.85,-18.176,0 179.829,-18.164,0 179.808,-18.151,0 179.788,-18.138,0 179.769,-18.124,0 179.75,-18.109,0 179.732,-18.094,0 179.714,-18.078,0 179.696,-18.062,0 179.68,-18.045,0 179.664,-18.027,0 179.648,-18.009,0 179.634,-17.99,0 179.62,-17.971,0 179.607,-17.952,0 179.594,-17.932,0 179.582,-17.911,0 179.571,-17.891,0 179.561,-17.869,0 179.552,-17.848,0 179.543,-17.826,0 179.535,-17.804,0 179.528,-17.782,0 179.522,-17.76,0 179.516,-17.737,0 179.512,-17.714,0 179.508,-17.691,0 179.505,-17.668,0 179.503,-17.645,0 179.502,-17.622,0 179.502,-17.598,0 179.502,-17.598,0 179.503,-17.552,0 179.506,-17.529,0 179.509,-17.506,0 179.513,-17.483,0 179.517,-17.46,0 179.523,-17.437,0 179.529,-17.415,0 179.537,-17.393,0 179.545,-17.371,0 179.553,-17.349,0 179.563,-17.328,0 179.573,-17.306,0 179.584,-17.286,0 179.596,-17.265,0 179.609,-17.246,0 179.622,-17.226,0 179.636,-17.207,0 179.651,-17.189,0 179.666,-17.171,0 179.682,-17.153,0 179.699,-17.136,0 179.716,-17.12,0 179.734,-17.104,0 179.752,-17.089,0 179.771,-17.074,0 179.791,-17.06,0 179.811,-17.047,0 179.831,-17.034,0 179.852,-17.022,0 179.873,-17.011,0 179.895,-17,0 179.917,-16.991,0 179.94,-16.982,0 179.962,-16.973,0 179.985,-16.966,0 -179.991,-16.959,0 -179.968,-16.953,0 -179.944,-16.948,0 -179.92,-16.943,0 -179.896,-16.94,0 -179.872,-16.937,0 -179.848,-16.935,0 -179.824,-16.934,0 -179.8,-16.933,0 -179.8,-16.767,0 
						</coordinates>
					</LinearRing>
				</outerBoundaryIs>
			</Polygon>
		</Placemark>
		<Placemark>
			<name>RADIUS OF 64 KT WINDS</name>
			<styleUrl>#WindRadii64</styleUrl>
			<Polygon>
				<tessellate>1</tessellate>
				<outerBoundaryIs>
					<LinearRing>
						<coordinates>
							-179.8,-17.266,0 -179.787,-17.267,0 -179.775,-17.267,0 -179.763,-17.268,0 -179.751,-17.27,0 -179.739,-17.271,0 -179.727,-17.274,0 -179.715,-17.276,0 -179.703,-17.279,0 -179.692,-17.283,0 -179.68,-17.286,0 -179.669,-17.291,0 -179.658,-17.295,0 -179.647,-17.3,0 -179.636,-17.305,0 -179.625,-17.311,0 -179.615,-17.317,0 -179.604,-17.323,0 -179.594,-17.33,0 -179.585,-17.337,0 -179.575,-17.344,0 -179.566,-17.352,0 -179.557,-17.36,0 -179.548,-17.368,0 -179.54,-17.376,0 -179.532,-17.385,0 -179.524,-17.394,0 -179.517,-17.404,0 -179.51,-17.413,0 -179.503,-17.423,0 -179.497,-17.433,0 -179.491,-17.443,0 -179.486,-17.453,0 -179.48,-17.464,0 -179.476,-17.474,0 -179.471,-17.485,0 -179.467,-17.496,0 -179.464,-17.507,0 -179.461,-17.519,0 -179.458,-17.53,0 -179.455,-17.541,0 -179.454,-17.553,0 -179.452,-17.564,0 -179.451,-17.576,0 -179.45,-17.588,0 -179.45,-17.599,0 -179.45,-17.599,0 -179.451,-17.622,0 -179.452,-17.634,0 -179.453,-17.646,0 -179.455,-17.657,0 -179.458,-17.668,0 -179.46,-17.68,0 -179.463,-17.691,0 -179.467,-17.702,0 -179.471,-17.713,0 -179.475,-17.724,0 -179.48,-17.735,0 -179.485,-17.745,0 -179.491,-17.756,0 -179.497,-17.766,0 -179.503,-17.776,0 -179.509,-17.786,0 -179.516,-17.795,0 -179.524,-17.804,0 -179.531,-17.813,0 -179.539,-17.822,0 -179.548,-17.831,0 -179.556,-17.839,0 -179.565,-17.847,0 -179.575,-17.855,0 -179.584,-17.862,0 -179.594,-17.869,0 -179.604,-17.876,0 -179.614,-17.882,0 -179.624,-17.888,0 -179.635,-17.894,0 -179.646,-17.899,0 -179.657,-17.904,0 -179.668,-17.908,0 -179.68,-17.912,0 -179.691,-17.916,0 -179.703,-17.92,0 -179.715,-17.923,0 -179.727,-17.925,0 -179.739,-17.928,0 -179.751,-17.929,0 -179.763,-17.931,0 -179.775,-17.932,0 -179.787,-17.932,0 -179.799,-17.933,0 -179.799,-17.933,0 -179.824,-17.932,0 -179.836,-17.931,0 -179.848,-17.929,0 -179.86,-17.928,0 -179.872,-17.925,0 -179.884,-17.923,0 -179.896,-17.92,0 -179.908,-17.916,0 -179.919,-17.912,0 -179.931,-17.908,0 -179.942,-17.904,0 -179.953,-17.899,0 -179.964,-17.894,0 -179.975,-17.888,0 -179.985,-17.882,0 -179.995,-17.876,0 179.995,-17.869,0 179.985,-17.862,0 179.976,-17.855,0 179.966,-17.847,0 179.957,-17.839,0 179.949,-17.831,0 179.94,-17.822,0 179.932,-17.813,0 179.925,-17.804,0 179.917,-17.795,0 179.91,-17.786,0 179.904,-17.776,0 179.898,-17.766,0 179.892,-17.756,0 179.886,-17.745,0 179.881,-17.735,0 179.876,-17.724,0 179.872,-17.713,0 179.868,-17.702,0 179.864,-17.691,0 179.861,-17.68,0 179.859,-17.668,0 179.856,-17.657,0 179.854,-17.646,0 179.853,-17.634,0 179.852,-17.622,0 179.851,-17.611,0 179.851,-17.599,0 179.851,-17.599,0 179.852,-17.576,0 179.853,-17.564,0 179.855,-17.553,0 179.856,-17.541,0 179.859,-17.53,0 179.862,-17.519,0 179.865,-17.507,0 179.868,-17.496,0 179.872,-17.485,0 179.877,-17.474,0 179.881,-17.464,0 179.887,-17.453,0 179.892,-17.443,0 179.898,-17.433,0 179.904,-17.423,0 179.911,-17.413,0 179.918,-17.404,0 179.925,-17.394,0 179.933,-17.385,0 179.941,-17.376,0 179.949,-17.368,0 179.958,-17.36,0 179.967,-17.352,0 179.976,-17.344,0 179.986,-17.337,0 179.995,-17.33,0 -179.995,-17.323,0 -179.984,-17.317,0 -179.974,-17.311,0 -179.963,-17.305,0 -179.952,-17.3,0 -179.941,-17.295,0 -179.93,-17.291,0 -179.919,-17.286,0 -179.907,-17.283,0 -179.896,-17.279,0 -179.884,-17.276,0 -179.872,-17.274,0 -179.86,-17.271,0 -179.848,-17.27,0 -179.836,-17.268,0 -179.824,-17.267,0 -179.812,-17.267,0 -179.8,-17.266,0 -179.8,-17.266,0 
						</coordinates>
					</LinearRing>
				</outerBoundaryIs>
			</Polygon>
		</Placemark>
		<Placemark>
			<name>20/18Z - 115 knots</name>
			<Snippet maxLines="0">empty</Snippet>
			<description><![CDATA[<html>
<head>
<title>Requested Information</title>
</head>
<table width="400" bgcolor="white" border="1">
<tr><td><B>NAME</B></td><td><B>WINSTON</B></td></tr>
<tr><td><B>TIME</B></td><td><B>TAU 36 - 2016022018Z</B></td></tr>
<tr><td><B>POSIT</B></td><td><B>-17.9 S, 178.3 E</B></td></tr>
<tr><td><B>WRNG NMBR</B></td><td><B>025</B></td></tr>
<tr><td><B>WIND SPD</B></td><td><B>115 KTS</B></td></tr>
<tr><td><B>MOVEMENT</B></td><td><B>260 DEG AT 09 KTS</B></td></tr>
</table></body></html>]]></description>
			<styleUrl>#TropicalBalloonStyle</styleUrl>
			<Style>
				<IconStyle>
					<color>ffffffff</color>
					<scale>1</scale>
					<heading>0</heading>
					<Icon>
						<href>files/TYSH.png</href>
					</Icon>
				</IconStyle>
			</Style>
			<Point>
				<coordinates>178.3,-17.9,0</coordinates>
			</Point>
		</Placemark>
		<Placemark>
			<name>RADIUS OF 34 KT WINDS</name>
			<styleUrl>#WindRadii34</styleUrl>
			<Polygon>
				<tessellate>1</tessellate>
				<outerBoundaryIs>
					<LinearRing>
						<coordinates>
							178.3,-15.734,0 178.378,-15.736,0 178.456,-15.74,0 178.535,-15.746,0 178.613,-15.755,0 178.69,-15.767,0 178.767,-15.781,0 178.844,-15.798,0 178.92,-15.817,0 178.995,-15.839,0 179.069,-15.863,0 179.143,-15.89,0 179.215,-15.919,0 179.286,-15.951,0 179.357,-15.985,0 179.426,-16.021,0 179.493,-16.06,0 179.56,-16.101,0 179.624,-16.143,0 179.687,-16.188,0 179.749,-16.236,0 179.809,-16.285,0 179.867,-16.336,0 179.923,-16.389,0 179.977,-16.444,0 -179.971,-16.5,0 -179.921,-16.559,0 -179.873,-16.618,0 -179.827,-16.68,0 -179.783,-16.743,0 -179.742,-16.807,0 -179.703,-16.873,0 -179.666,-16.94,0 -179.632,-17.008,0 -179.6,-17.077,0 -179.571,-17.147,0 -179.545,-17.219,0 -179.521,-17.291,0 -179.499,-17.363,0 -179.481,-17.437,0 -179.465,-17.511,0 -179.451,-17.585,0 -179.441,-17.66,0 -179.433,-17.735,0 -179.428,-17.811,0 -179.425,-17.886,0 -179.425,-17.886,0 -179.429,-18.037,0 -179.435,-18.113,0 -179.444,-18.188,0 -179.455,-18.263,0 -179.469,-18.337,0 -179.486,-18.411,0 -179.506,-18.484,0 -179.528,-18.556,0 -179.553,-18.628,0 -179.581,-18.699,0 -179.611,-18.769,0 -179.644,-18.838,0 -179.68,-18.905,0 -179.718,-18.972,0 -179.758,-19.037,0 -179.801,-19.101,0 -179.846,-19.163,0 -179.894,-19.224,0 -179.943,-19.283,0 -179.995,-19.341,0 179.951,-19.396,0 179.894,-19.45,0 179.836,-19.502,0 179.776,-19.552,0 179.714,-19.6,0 179.651,-19.646,0 179.585,-19.69,0 179.518,-19.732,0 179.45,-19.771,0 179.38,-19.808,0 179.308,-19.843,0 179.236,-19.875,0 179.162,-19.905,0 179.087,-19.933,0 179.011,-19.957,0 178.934,-19.98,0 178.857,-20,0 178.779,-20.017,0 178.7,-20.031,0 178.62,-20.043,0 178.54,-20.053,0 178.46,-20.059,0 178.38,-20.063,0 178.3,-20.065,0 178.3,-19.898,0 178.151,-19.893,0 178.077,-19.887,0 178.004,-19.878,0 177.931,-19.867,0 177.858,-19.854,0 177.786,-19.838,0 177.714,-19.82,0 177.643,-19.799,0 177.573,-19.776,0 177.504,-19.751,0 177.436,-19.723,0 177.369,-19.694,0 177.303,-19.662,0 177.239,-19.627,0 177.175,-19.591,0 177.114,-19.553,0 177.053,-19.512,0 176.995,-19.47,0 176.937,-19.426,0 176.882,-19.38,0 176.828,-19.332,0 176.776,-19.282,0 176.727,-19.23,0 176.679,-19.177,0 176.633,-19.123,0 176.589,-19.067,0 176.547,-19.009,0 176.507,-18.95,0 176.47,-18.89,0 176.435,-18.829,0 176.402,-18.766,0 176.372,-18.703,0 176.344,-18.638,0 176.318,-18.573,0 176.295,-18.507,0 176.274,-18.44,0 176.256,-18.372,0 176.24,-18.304,0 176.227,-18.236,0 176.216,-18.167,0 176.208,-18.097,0 176.203,-18.028,0 176.2,-17.958,0 176.199,-17.888,0 176.199,-17.888,0 176.206,-17.749,0 176.213,-17.68,0 176.223,-17.61,0 176.235,-17.542,0 176.25,-17.473,0 176.267,-17.406,0 176.287,-17.338,0 176.309,-17.272,0 176.333,-17.206,0 176.36,-17.141,0 176.389,-17.077,0 176.421,-17.014,0 176.455,-16.953,0 176.491,-16.892,0 176.529,-16.832,0 176.569,-16.774,0 176.611,-16.718,0 176.656,-16.662,0 176.702,-16.608,0 176.75,-16.556,0 176.8,-16.505,0 176.852,-16.457,0 176.905,-16.409,0 176.961,-16.364,0 177.017,-16.32,0 177.076,-16.279,0 177.136,-16.239,0 177.197,-16.202,0 177.259,-16.166,0 177.323,-16.132,0 177.388,-16.101,0 177.454,-16.072,0 177.521,-16.045,0 177.588,-16.02,0 177.657,-15.998,0 177.727,-15.977,0 177.797,-15.96,0 177.867,-15.944,0 177.939,-15.931,0 178.01,-15.92,0 178.082,-15.912,0 178.155,-15.906,0 178.227,-15.902,0 178.299,-15.901,0 178.3,-15.734,0 
						</coordinates>
					</LinearRing>
				</outerBoundaryIs>
			</Polygon>
		</Placemark>
		<Placemark>
			<name>RADIUS OF 50 KT WINDS</name>
			<styleUrl>#WindRadii50</styleUrl>
			<Polygon>
				<tessellate>1</tessellate>
				<outerBoundaryIs>
					<LinearRing>
						<coordinates>
							178.3,-17.067,0 178.33,-17.067,0 178.36,-17.069,0 178.391,-17.071,0 178.421,-17.075,0 178.451,-17.079,0 178.481,-17.085,0 178.51,-17.091,0 178.54,-17.099,0 178.569,-17.107,0 178.598,-17.117,0 178.626,-17.127,0 178.654,-17.138,0 178.682,-17.151,0 178.709,-17.164,0 178.735,-17.178,0 178.761,-17.193,0 178.787,-17.209,0 178.812,-17.225,0 178.836,-17.243,0 178.86,-17.261,0 178.883,-17.28,0 178.905,-17.3,0 178.927,-17.32,0 178.948,-17.341,0 178.968,-17.363,0 178.987,-17.386,0 179.006,-17.409,0 179.023,-17.432,0 179.04,-17.457,0 179.056,-17.482,0 179.071,-17.507,0 179.084,-17.533,0 179.097,-17.559,0 179.109,-17.586,0 179.121,-17.613,0 179.131,-17.64,0 179.14,-17.668,0 179.148,-17.696,0 179.155,-17.724,0 179.161,-17.753,0 179.166,-17.782,0 179.169,-17.811,0 179.172,-17.839,0 179.174,-17.868,0 179.175,-17.898,0 179.175,-17.898,0 179.173,-17.956,0 179.17,-17.985,0 179.167,-18.013,0 179.162,-18.042,0 179.156,-18.071,0 179.15,-18.099,0 179.142,-18.127,0 179.133,-18.155,0 179.123,-18.183,0 179.112,-18.21,0 179.101,-18.237,0 179.088,-18.263,0 179.074,-18.289,0 179.059,-18.314,0 179.044,-18.339,0 179.027,-18.364,0 179.009,-18.388,0 178.991,-18.411,0 178.972,-18.434,0 178.952,-18.456,0 178.931,-18.477,0 178.909,-18.498,0 178.887,-18.517,0 178.864,-18.537,0 178.84,-18.555,0 178.816,-18.573,0 178.791,-18.589,0 178.765,-18.605,0 178.739,-18.62,0 178.712,-18.634,0 178.685,-18.648,0 178.657,-18.66,0 178.629,-18.671,0 178.6,-18.682,0 178.571,-18.691,0 178.542,-18.7,0 178.512,-18.707,0 178.482,-18.714,0 178.452,-18.72,0 178.422,-18.724,0 178.391,-18.728,0 178.361,-18.73,0 178.33,-18.732,0 178.3,-18.732,0 178.3,-18.566,0 178.25,-18.564,0 178.226,-18.562,0 178.202,-18.559,0 178.177,-18.556,0 178.153,-18.551,0 178.13,-18.546,0 178.106,-18.54,0 178.082,-18.533,0 178.059,-18.525,0 178.036,-18.517,0 178.014,-18.508,0 177.992,-18.498,0 177.97,-18.487,0 177.948,-18.476,0 177.927,-18.464,0 177.907,-18.451,0 177.887,-18.438,0 177.867,-18.424,0 177.848,-18.409,0 177.83,-18.394,0 177.812,-18.378,0 177.795,-18.362,0 177.778,-18.345,0 177.762,-18.327,0 177.747,-18.309,0 177.732,-18.29,0 177.718,-18.271,0 177.705,-18.252,0 177.692,-18.232,0 177.68,-18.211,0 177.669,-18.191,0 177.659,-18.169,0 177.649,-18.148,0 177.641,-18.126,0 177.633,-18.104,0 177.626,-18.082,0 177.62,-18.059,0 177.614,-18.037,0 177.61,-18.014,0 177.606,-17.991,0 177.603,-17.968,0 177.601,-17.945,0 177.6,-17.922,0 177.599,-17.898,0 177.599,-17.898,0 177.601,-17.852,0 177.604,-17.829,0 177.607,-17.806,0 177.61,-17.783,0 177.615,-17.76,0 177.621,-17.737,0 177.627,-17.715,0 177.634,-17.693,0 177.642,-17.671,0 177.651,-17.649,0 177.661,-17.627,0 177.671,-17.606,0 177.682,-17.586,0 177.694,-17.565,0 177.707,-17.546,0 177.72,-17.526,0 177.734,-17.507,0 177.749,-17.489,0 177.764,-17.471,0 177.781,-17.453,0 177.797,-17.436,0 177.814,-17.42,0 177.832,-17.404,0 177.851,-17.389,0 177.87,-17.374,0 177.889,-17.36,0 177.909,-17.347,0 177.93,-17.334,0 177.951,-17.322,0 177.972,-17.311,0 177.994,-17.3,0 178.016,-17.291,0 178.038,-17.282,0 178.061,-17.273,0 178.084,-17.266,0 178.107,-17.259,0 178.131,-17.253,0 178.154,-17.248,0 178.178,-17.243,0 178.202,-17.24,0 178.227,-17.237,0 178.251,-17.235,0 178.275,-17.234,0 178.299,-17.233,0 178.3,-17.067,0 
						</coordinates>
					</LinearRing>
				</outerBoundaryIs>
			</Polygon>
		</Placemark>
		<Placemark>
			<name>RADIUS OF 64 KT WINDS</name>
			<styleUrl>#WindRadii64</styleUrl>
			<Polygon>
				<tessellate>1</tessellate>
				<outerBoundaryIs>
					<LinearRing>
						<coordinates>
							178.3,-17.566,0 178.312,-17.567,0 178.324,-17.567,0 178.336,-17.568,0 178.348,-17.57,0 178.36,-17.571,0 178.372,-17.574,0 178.384,-17.576,0 178.396,-17.579,0 178.407,-17.583,0 178.419,-17.586,0 178.43,-17.591,0 178.442,-17.595,0 178.453,-17.6,0 178.464,-17.605,0 178.474,-17.611,0 178.485,-17.617,0 178.495,-17.623,0 178.505,-17.63,0 178.515,-17.637,0 178.524,-17.644,0 178.533,-17.652,0 178.542,-17.66,0 178.551,-17.668,0 178.559,-17.676,0 178.567,-17.685,0 178.575,-17.694,0 178.582,-17.704,0 178.589,-17.713,0 178.596,-17.723,0 178.602,-17.733,0 178.608,-17.743,0 178.614,-17.753,0 178.619,-17.764,0 178.624,-17.774,0 178.628,-17.785,0 178.632,-17.796,0 178.636,-17.807,0 178.639,-17.819,0 178.642,-17.83,0 178.644,-17.841,0 178.646,-17.853,0 178.648,-17.864,0 178.649,-17.876,0 178.649,-17.888,0 178.65,-17.899,0 178.65,-17.899,0 178.649,-17.922,0 178.648,-17.934,0 178.646,-17.946,0 178.644,-17.957,0 178.642,-17.968,0 178.639,-17.98,0 178.636,-17.991,0 178.633,-18.002,0 178.629,-18.013,0 178.624,-18.024,0 178.62,-18.035,0 178.614,-18.045,0 178.609,-18.056,0 178.603,-18.066,0 178.597,-18.076,0 178.59,-18.086,0 178.583,-18.095,0 178.576,-18.104,0 178.568,-18.113,0 178.56,-18.122,0 178.552,-18.131,0 178.543,-18.139,0 178.534,-18.147,0 178.525,-18.155,0 178.515,-18.162,0 178.506,-18.169,0 178.496,-18.176,0 178.485,-18.182,0 178.475,-18.188,0 178.464,-18.194,0 178.453,-18.199,0 178.442,-18.204,0 178.431,-18.208,0 178.419,-18.212,0 178.408,-18.216,0 178.396,-18.22,0 178.384,-18.223,0 178.372,-18.225,0 178.36,-18.228,0 178.348,-18.229,0 178.336,-18.231,0 178.324,-18.232,0 178.312,-18.232,0 178.3,-18.233,0 178.3,-18.233,0 178.275,-18.232,0 178.263,-18.231,0 178.251,-18.229,0 178.239,-18.228,0 178.227,-18.225,0 178.215,-18.223,0 178.203,-18.22,0 178.191,-18.216,0 178.18,-18.212,0 178.168,-18.208,0 178.157,-18.204,0 178.146,-18.199,0 178.135,-18.194,0 178.124,-18.188,0 178.114,-18.182,0 178.103,-18.176,0 178.093,-18.169,0 178.084,-18.162,0 178.074,-18.155,0 178.065,-18.147,0 178.056,-18.139,0 178.047,-18.131,0 178.039,-18.122,0 178.031,-18.113,0 178.023,-18.104,0 178.016,-18.095,0 178.009,-18.086,0 178.002,-18.076,0 177.996,-18.066,0 177.99,-18.056,0 177.985,-18.045,0 177.979,-18.035,0 177.975,-18.024,0 177.97,-18.013,0 177.966,-18.002,0 177.963,-17.991,0 177.96,-17.98,0 177.957,-17.968,0 177.955,-17.957,0 177.953,-17.946,0 177.951,-17.934,0 177.95,-17.922,0 177.95,-17.911,0 177.949,-17.899,0 177.949,-17.899,0 177.95,-17.876,0 177.951,-17.864,0 177.953,-17.853,0 177.955,-17.841,0 177.957,-17.83,0 177.96,-17.819,0 177.963,-17.807,0 177.967,-17.796,0 177.971,-17.785,0 177.975,-17.774,0 177.98,-17.764,0 177.985,-17.753,0 177.991,-17.743,0 177.997,-17.733,0 178.003,-17.723,0 178.01,-17.713,0 178.017,-17.704,0 178.024,-17.694,0 178.032,-17.685,0 178.04,-17.676,0 178.048,-17.668,0 178.057,-17.66,0 178.066,-17.652,0 178.075,-17.644,0 178.084,-17.637,0 178.094,-17.63,0 178.104,-17.623,0 178.114,-17.617,0 178.125,-17.611,0 178.135,-17.605,0 178.146,-17.6,0 178.157,-17.595,0 178.169,-17.591,0 178.18,-17.586,0 178.192,-17.583,0 178.203,-17.579,0 178.215,-17.576,0 178.227,-17.574,0 178.239,-17.571,0 178.251,-17.57,0 178.263,-17.568,0 178.275,-17.567,0 178.287,-17.567,0 178.299,-17.566,0 178.3,-17.566,0 
						</coordinates>
					</LinearRing>
				</outerBoundaryIs>
			</Polygon>
		</Placemark>
		<Placemark>
			<name>21/06Z - 105 knots</name>
			<Snippet maxLines="0">empty</Snippet>
			<description><![CDATA[<html>
<head>
<title>Requested Information</title>
</head>
<table width="400" bgcolor="white" border="1">
<tr><td><B>NAME</B></td><td><B>WINSTON</B></td></tr>
<tr><td><B>TIME</B></td><td><B>TAU 48 - 2016022106Z</B></td></tr>
<tr><td><B>POSIT</B></td><td><B>-18.2 S, 177.0 E</B></td></tr>
<tr><td><B>WRNG NMBR</B></td><td><B>025</B></td></tr>
<tr><td><B>WIND SPD</B></td><td><B>105 KTS</B></td></tr>
<tr><td><B>MOVEMENT</B></td><td><B>255 DEG AT 06 KTS</B></td></tr>
</table></body></html>]]></description>
			<styleUrl>#TropicalBalloonStyle</styleUrl>
			<Style>
				<IconStyle>
					<color>ffffffff</color>
					<scale>1</scale>
					<heading>0</heading>
					<Icon>
						<href>files/TYSH.png</href>
					</Icon>
				</IconStyle>
			</Style>
			<Point>
				<coordinates>177,-18.2,0</coordinates>
			</Point>
		</Placemark>
		<Placemark>
			<name>RADIUS OF 34 KT WINDS</name>
			<styleUrl>#WindRadii34</styleUrl>
			<Polygon>
				<tessellate>1</tessellate>
				<outerBoundaryIs>
					<LinearRing>
						<coordinates>
							177,-15.868,0 177.084,-15.869,0 177.169,-15.873,0 177.253,-15.88,0 177.337,-15.89,0 177.42,-15.903,0 177.503,-15.918,0 177.586,-15.936,0 177.668,-15.957,0 177.749,-15.98,0 177.829,-16.007,0 177.908,-16.035,0 177.986,-16.067,0 178.063,-16.101,0 178.139,-16.137,0 178.213,-16.176,0 178.286,-16.218,0 178.357,-16.262,0 178.427,-16.308,0 178.495,-16.356,0 178.562,-16.407,0 178.626,-16.46,0 178.689,-16.515,0 178.749,-16.572,0 178.808,-16.631,0 178.864,-16.692,0 178.918,-16.755,0 178.97,-16.819,0 179.02,-16.885,0 179.067,-16.953,0 179.111,-17.022,0 179.153,-17.093,0 179.193,-17.165,0 179.23,-17.238,0 179.264,-17.313,0 179.296,-17.388,0 179.324,-17.465,0 179.35,-17.543,0 179.373,-17.621,0 179.394,-17.7,0 179.411,-17.78,0 179.426,-17.86,0 179.437,-17.94,0 179.446,-18.021,0 179.451,-18.103,0 179.454,-18.184,0 179.454,-18.184,0 179.45,-18.347,0 179.444,-18.428,0 179.435,-18.509,0 179.422,-18.589,0 179.407,-18.669,0 179.389,-18.749,0 179.368,-18.828,0 179.344,-18.906,0 179.317,-18.983,0 179.287,-19.059,0 179.254,-19.135,0 179.219,-19.209,0 179.181,-19.282,0 179.14,-19.353,0 179.096,-19.424,0 179.05,-19.492,0 179.001,-19.56,0 178.95,-19.625,0 178.896,-19.689,0 178.84,-19.751,0 178.782,-19.811,0 178.722,-19.869,0 178.659,-19.925,0 178.594,-19.979,0 178.527,-20.031,0 178.459,-20.08,0 178.388,-20.128,0 178.316,-20.172,0 178.242,-20.215,0 178.166,-20.255,0 178.089,-20.292,0 178.011,-20.327,0 177.931,-20.359,0 177.85,-20.389,0 177.768,-20.416,0 177.685,-20.44,0 177.601,-20.461,0 177.517,-20.48,0 177.432,-20.495,0 177.346,-20.508,0 177.26,-20.518,0 177.173,-20.525,0 177.086,-20.53,0 177,-20.531,0 177,-20.365,0 176.838,-20.359,0 176.758,-20.353,0 176.678,-20.343,0 176.599,-20.331,0 176.52,-20.317,0 176.441,-20.3,0 176.363,-20.28,0 176.286,-20.257,0 176.21,-20.232,0 176.135,-20.205,0 176.061,-20.175,0 175.989,-20.143,0 175.917,-20.108,0 175.847,-20.071,0 175.778,-20.032,0 175.711,-19.99,0 175.646,-19.946,0 175.582,-19.9,0 175.52,-19.852,0 175.46,-19.802,0 175.402,-19.75,0 175.345,-19.696,0 175.291,-19.641,0 175.239,-19.583,0 175.189,-19.524,0 175.142,-19.463,0 175.097,-19.401,0 175.054,-19.337,0 175.013,-19.272,0 174.975,-19.205,0 174.94,-19.138,0 174.907,-19.069,0 174.876,-18.999,0 174.849,-18.928,0 174.823,-18.856,0 174.801,-18.784,0 174.781,-18.71,0 174.764,-18.637,0 174.75,-18.562,0 174.739,-18.488,0 174.73,-18.412,0 174.724,-18.337,0 174.721,-18.262,0 174.72,-18.186,0 174.72,-18.186,0 174.728,-18.035,0 174.736,-17.96,0 174.746,-17.885,0 174.76,-17.811,0 174.776,-17.737,0 174.795,-17.663,0 174.816,-17.59,0 174.84,-17.518,0 174.867,-17.447,0 174.896,-17.377,0 174.928,-17.308,0 174.962,-17.24,0 174.999,-17.173,0 175.038,-17.107,0 175.079,-17.043,0 175.123,-16.98,0 175.169,-16.918,0 175.217,-16.858,0 175.267,-16.8,0 175.319,-16.744,0 175.374,-16.689,0 175.43,-16.636,0 175.488,-16.585,0 175.548,-16.536,0 175.609,-16.488,0 175.673,-16.443,0 175.738,-16.4,0 175.804,-16.36,0 175.872,-16.321,0 175.941,-16.285,0 176.011,-16.251,0 176.083,-16.219,0 176.155,-16.19,0 176.229,-16.163,0 176.303,-16.139,0 176.378,-16.117,0 176.454,-16.098,0 176.531,-16.081,0 176.608,-16.067,0 176.686,-16.055,0 176.764,-16.046,0 176.842,-16.04,0 176.921,-16.036,0 176.999,-16.034,0 177,-15.868,0 
						</coordinates>
					</LinearRing>
				</outerBoundaryIs>
			</Polygon>
		</Placemark>
		<Placemark>
			<name>RADIUS OF 50 KT WINDS</name>
			<styleUrl>#WindRadii50</styleUrl>
			<Polygon>
				<tessellate>1</tessellate>
				<outerBoundaryIs>
					<LinearRing>
						<coordinates>
							177,-17.2,0 177.036,-17.201,0 177.072,-17.203,0 177.109,-17.206,0 177.145,-17.21,0 177.181,-17.215,0 177.217,-17.222,0 177.253,-17.23,0 177.288,-17.239,0 177.323,-17.249,0 177.357,-17.26,0 177.392,-17.273,0 177.425,-17.286,0 177.458,-17.301,0 177.491,-17.317,0 177.523,-17.333,0 177.554,-17.351,0 177.585,-17.37,0 177.615,-17.39,0 177.644,-17.411,0 177.673,-17.433,0 177.7,-17.456,0 177.727,-17.479,0 177.753,-17.504,0 177.778,-17.529,0 177.802,-17.555,0 177.826,-17.583,0 177.848,-17.61,0 177.869,-17.639,0 177.889,-17.668,0 177.908,-17.698,0 177.926,-17.728,0 177.943,-17.759,0 177.958,-17.791,0 177.973,-17.823,0 177.986,-17.855,0 177.998,-17.888,0 178.009,-17.921,0 178.019,-17.955,0 178.027,-17.989,0 178.034,-18.023,0 178.04,-18.058,0 178.045,-18.092,0 178.048,-18.127,0 178.051,-18.162,0 178.051,-18.197,0 178.051,-18.197,0 178.049,-18.266,0 178.046,-18.301,0 178.042,-18.336,0 178.036,-18.37,0 178.03,-18.405,0 178.022,-18.439,0 178.012,-18.472,0 178.002,-18.506,0 177.99,-18.539,0 177.977,-18.571,0 177.963,-18.604,0 177.947,-18.635,0 177.931,-18.666,0 177.913,-18.697,0 177.894,-18.727,0 177.874,-18.756,0 177.853,-18.785,0 177.831,-18.813,0 177.808,-18.84,0 177.784,-18.867,0 177.759,-18.892,0 177.733,-18.917,0 177.706,-18.941,0 177.679,-18.964,0 177.65,-18.986,0 177.621,-19.007,0 177.591,-19.027,0 177.56,-19.046,0 177.528,-19.064,0 177.496,-19.081,0 177.463,-19.097,0 177.43,-19.112,0 177.396,-19.126,0 177.361,-19.138,0 177.326,-19.15,0 177.291,-19.16,0 177.255,-19.169,0 177.219,-19.177,0 177.183,-19.184,0 177.147,-19.189,0 177.11,-19.193,0 177.073,-19.196,0 177.036,-19.198,0 177,-19.199,0 177,-19.032,0 176.938,-19.03,0 176.907,-19.028,0 176.877,-19.024,0 176.847,-19.02,0 176.816,-19.014,0 176.786,-19.007,0 176.757,-19,0 176.727,-18.991,0 176.698,-18.982,0 176.67,-18.971,0 176.641,-18.96,0 176.614,-18.948,0 176.586,-18.934,0 176.559,-18.92,0 176.533,-18.905,0 176.507,-18.889,0 176.482,-18.873,0 176.458,-18.855,0 176.434,-18.837,0 176.411,-18.817,0 176.388,-18.798,0 176.367,-18.777,0 176.346,-18.756,0 176.326,-18.734,0 176.307,-18.711,0 176.288,-18.688,0 176.271,-18.664,0 176.254,-18.639,0 176.238,-18.614,0 176.224,-18.589,0 176.21,-18.563,0 176.197,-18.537,0 176.185,-18.51,0 176.174,-18.483,0 176.165,-18.455,0 176.156,-18.427,0 176.148,-18.399,0 176.141,-18.371,0 176.135,-18.342,0 176.131,-18.313,0 176.127,-18.285,0 176.125,-18.256,0 176.123,-18.227,0 176.123,-18.198,0 176.123,-18.198,0 176.125,-18.139,0 176.128,-18.11,0 176.132,-18.082,0 176.137,-18.053,0 176.143,-18.024,0 176.15,-17.996,0 176.158,-17.968,0 176.167,-17.94,0 176.177,-17.913,0 176.188,-17.886,0 176.2,-17.859,0 176.213,-17.833,0 176.227,-17.807,0 176.242,-17.782,0 176.258,-17.757,0 176.275,-17.732,0 176.292,-17.709,0 176.311,-17.686,0 176.33,-17.663,0 176.35,-17.641,0 176.371,-17.62,0 176.393,-17.6,0 176.415,-17.58,0 176.438,-17.561,0 176.462,-17.543,0 176.486,-17.525,0 176.511,-17.508,0 176.537,-17.493,0 176.563,-17.478,0 176.59,-17.464,0 176.617,-17.451,0 176.644,-17.438,0 176.673,-17.427,0 176.701,-17.417,0 176.73,-17.407,0 176.759,-17.399,0 176.788,-17.391,0 176.818,-17.385,0 176.848,-17.379,0 176.878,-17.375,0 176.908,-17.371,0 176.939,-17.369,0 176.969,-17.367,0 176.999,-17.367,0 177,-17.2,0 
						</coordinates>
					</LinearRing>
				</outerBoundaryIs>
			</Polygon>
		</Placemark>
		<Placemark>
			<name>RADIUS OF 64 KT WINDS</name>
			<styleUrl>#WindRadii64</styleUrl>
			<Polygon>
				<tessellate>1</tessellate>
				<outerBoundaryIs>
					<LinearRing>
						<coordinates>
							177,-17.783,0 177.015,-17.783,0 177.03,-17.784,0 177.045,-17.785,0 177.06,-17.787,0 177.075,-17.789,0 177.09,-17.792,0 177.105,-17.795,0 177.12,-17.799,0 177.135,-17.803,0 177.149,-17.808,0 177.163,-17.813,0 177.177,-17.819,0 177.191,-17.825,0 177.205,-17.832,0 177.218,-17.839,0 177.231,-17.846,0 177.244,-17.854,0 177.257,-17.862,0 177.269,-17.871,0 177.281,-17.88,0 177.292,-17.89,0 177.303,-17.9,0 177.314,-17.91,0 177.325,-17.921,0 177.335,-17.932,0 177.344,-17.943,0 177.354,-17.954,0 177.362,-17.966,0 177.371,-17.978,0 177.379,-17.991,0 177.386,-18.004,0 177.393,-18.017,0 177.4,-18.03,0 177.406,-18.043,0 177.411,-18.057,0 177.416,-18.07,0 177.421,-18.084,0 177.425,-18.098,0 177.428,-18.112,0 177.431,-18.127,0 177.433,-18.141,0 177.435,-18.155,0 177.437,-18.17,0 177.438,-18.184,0 177.438,-18.199,0 177.438,-18.199,0 177.437,-18.228,0 177.436,-18.243,0 177.434,-18.257,0 177.431,-18.271,0 177.428,-18.286,0 177.425,-18.3,0 177.421,-18.314,0 177.417,-18.328,0 177.412,-18.341,0 177.406,-18.355,0 177.4,-18.368,0 177.394,-18.382,0 177.387,-18.395,0 177.38,-18.407,0 177.372,-18.42,0 177.363,-18.432,0 177.355,-18.444,0 177.345,-18.456,0 177.336,-18.467,0 177.326,-18.478,0 177.315,-18.488,0 177.305,-18.499,0 177.293,-18.509,0 177.282,-18.518,0 177.27,-18.527,0 177.258,-18.536,0 177.245,-18.545,0 177.232,-18.552,0 177.219,-18.56,0 177.206,-18.567,0 177.192,-18.574,0 177.178,-18.58,0 177.164,-18.585,0 177.15,-18.591,0 177.135,-18.595,0 177.121,-18.6,0 177.106,-18.603,0 177.091,-18.607,0 177.076,-18.61,0 177.061,-18.612,0 177.045,-18.614,0 177.03,-18.615,0 177.015,-18.616,0 177,-18.616,0 177,-18.616,0 176.969,-18.615,0 176.954,-18.614,0 176.938,-18.612,0 176.923,-18.61,0 176.908,-18.607,0 176.893,-18.603,0 176.878,-18.6,0 176.864,-18.595,0 176.849,-18.591,0 176.835,-18.585,0 176.821,-18.58,0 176.807,-18.574,0 176.793,-18.567,0 176.78,-18.56,0 176.767,-18.552,0 176.754,-18.545,0 176.741,-18.536,0 176.729,-18.527,0 176.717,-18.518,0 176.706,-18.509,0 176.694,-18.499,0 176.684,-18.488,0 176.673,-18.478,0 176.663,-18.467,0 176.654,-18.456,0 176.644,-18.444,0 176.636,-18.432,0 176.627,-18.42,0 176.619,-18.407,0 176.612,-18.395,0 176.605,-18.382,0 176.599,-18.368,0 176.593,-18.355,0 176.587,-18.341,0 176.582,-18.328,0 176.578,-18.314,0 176.574,-18.3,0 176.571,-18.286,0 176.568,-18.271,0 176.565,-18.257,0 176.563,-18.243,0 176.562,-18.228,0 176.561,-18.214,0 176.561,-18.199,0 176.561,-18.199,0 176.562,-18.17,0 176.564,-18.155,0 176.566,-18.141,0 176.568,-18.127,0 176.571,-18.112,0 176.574,-18.098,0 176.578,-18.084,0 176.583,-18.07,0 176.588,-18.057,0 176.593,-18.043,0 176.599,-18.03,0 176.606,-18.017,0 176.613,-18.004,0 176.62,-17.991,0 176.628,-17.978,0 176.637,-17.966,0 176.645,-17.954,0 176.655,-17.943,0 176.664,-17.932,0 176.674,-17.921,0 176.685,-17.91,0 176.696,-17.9,0 176.707,-17.89,0 176.718,-17.88,0 176.73,-17.871,0 176.742,-17.862,0 176.755,-17.854,0 176.768,-17.846,0 176.781,-17.839,0 176.794,-17.832,0 176.808,-17.825,0 176.822,-17.819,0 176.836,-17.813,0 176.85,-17.808,0 176.864,-17.803,0 176.879,-17.799,0 176.894,-17.795,0 176.909,-17.792,0 176.924,-17.789,0 176.939,-17.787,0 176.954,-17.785,0 176.969,-17.784,0 176.984,-17.783,0 176.999,-17.783,0 177,-17.783,0 
						</coordinates>
					</LinearRing>
				</outerBoundaryIs>
			</Polygon>
		</Placemark>
		<Placemark>
			<name>22/06Z - 100 knots</name>
			<Snippet maxLines="0">empty</Snippet>
			<description><![CDATA[<html>
<head>
<title>Requested Information</title>
</head>
<table width="400" bgcolor="white" border="1">
<tr><td><B>NAME</B></td><td><B>WINSTON</B></td></tr>
<tr><td><B>TIME</B></td><td><B>TAU 72 - 2016022206Z</B></td></tr>
<tr><td><B>POSIT</B></td><td><B>-18.8 S, 176.4 E</B></td></tr>
<tr><td><B>WRNG NMBR</B></td><td><B>025</B></td></tr>
<tr><td><B>WIND SPD</B></td><td><B>100 KTS</B></td></tr>
<tr><td><B>MOVEMENT</B></td><td><B>225 DEG AT 02 KTS</B></td></tr>
</table></body></html>]]></description>
			<styleUrl>#TropicalBalloonStyle</styleUrl>
			<Style>
				<IconStyle>
					<color>ffffffff</color>
					<scale>1</scale>
					<heading>0</heading>
					<Icon>
						<href>files/TYSH.png</href>
					</Icon>
				</IconStyle>
			</Style>
			<Point>
				<coordinates>176.4,-18.8,0</coordinates>
			</Point>
		</Placemark>
		<Placemark>
			<name>RADIUS OF 34 KT WINDS</name>
			<styleUrl>#WindRadii34</styleUrl>
			<Polygon>
				<tessellate>1</tessellate>
				<outerBoundaryIs>
					<LinearRing>
						<coordinates>
							176.4,-16.468,0 176.484,-16.469,0 176.569,-16.473,0 176.654,-16.48,0 176.738,-16.49,0 176.822,-16.503,0 176.905,-16.518,0 176.988,-16.536,0 177.07,-16.557,0 177.151,-16.58,0 177.232,-16.607,0 177.311,-16.635,0 177.389,-16.667,0 177.466,-16.701,0 177.542,-16.737,0 177.617,-16.776,0 177.69,-16.818,0 177.762,-16.862,0 177.832,-16.908,0 177.9,-16.956,0 177.967,-17.007,0 178.031,-17.06,0 178.094,-17.115,0 178.155,-17.172,0 178.214,-17.231,0 178.27,-17.292,0 178.324,-17.354,0 178.376,-17.419,0 178.426,-17.485,0 178.473,-17.553,0 178.518,-17.622,0 178.56,-17.693,0 178.6,-17.765,0 178.637,-17.838,0 178.672,-17.912,0 178.703,-17.988,0 178.732,-18.065,0 178.758,-18.142,0 178.781,-18.22,0 178.802,-18.299,0 178.819,-18.379,0 178.834,-18.459,0 178.845,-18.54,0 178.854,-18.621,0 178.86,-18.702,0 178.863,-18.783,0 179.038,-18.781,0 179.035,-18.955,0 179.028,-19.042,0 179.018,-19.129,0 179.005,-19.215,0 178.989,-19.301,0 178.969,-19.386,0 178.947,-19.471,0 178.921,-19.554,0 178.892,-19.637,0 178.86,-19.719,0 178.825,-19.8,0 178.787,-19.879,0 178.746,-19.958,0 178.702,-20.034,0 178.656,-20.11,0 178.606,-20.183,0 178.554,-20.255,0 178.499,-20.326,0 178.441,-20.394,0 178.381,-20.461,0 178.318,-20.525,0 178.253,-20.587,0 178.186,-20.647,0 178.116,-20.705,0 178.044,-20.761,0 177.97,-20.814,0 177.894,-20.865,0 177.816,-20.913,0 177.737,-20.958,0 177.656,-21.001,0 177.573,-21.041,0 177.488,-21.079,0 177.402,-21.113,0 177.315,-21.145,0 177.227,-21.174,0 177.138,-21.2,0 177.048,-21.222,0 176.957,-21.242,0 176.865,-21.259,0 176.773,-21.273,0 176.68,-21.284,0 176.586,-21.292,0 176.493,-21.296,0 176.4,-21.298,0 176.4,-21.298,0 176.213,-21.292,0 176.119,-21.284,0 176.026,-21.273,0 175.934,-21.259,0 175.842,-21.242,0 175.751,-21.222,0 175.661,-21.2,0 175.572,-21.174,0 175.484,-21.145,0 175.397,-21.113,0 175.311,-21.079,0 175.226,-21.041,0 175.143,-21.001,0 175.062,-20.958,0 174.983,-20.913,0 174.905,-20.865,0 174.829,-20.814,0 174.755,-20.761,0 174.683,-20.705,0 174.613,-20.647,0 174.546,-20.587,0 174.481,-20.525,0 174.418,-20.461,0 174.358,-20.394,0 174.3,-20.326,0 174.245,-20.255,0 174.193,-20.183,0 174.143,-20.11,0 174.097,-20.034,0 174.053,-19.958,0 174.012,-19.879,0 173.974,-19.8,0 173.939,-19.719,0 173.907,-19.637,0 173.878,-19.554,0 173.852,-19.471,0 173.83,-19.386,0 173.81,-19.301,0 173.794,-19.215,0 173.781,-19.129,0 173.771,-19.042,0 173.764,-18.955,0 173.761,-18.868,0 173.761,-18.781,0 174.112,-18.786,0 174.12,-18.635,0 174.128,-18.559,0 174.139,-18.485,0 174.152,-18.41,0 174.168,-18.336,0 174.187,-18.263,0 174.209,-18.19,0 174.233,-18.118,0 174.26,-18.047,0 174.289,-17.977,0 174.321,-17.907,0 174.355,-17.839,0 174.392,-17.772,0 174.431,-17.707,0 174.473,-17.642,0 174.517,-17.579,0 174.563,-17.518,0 174.611,-17.458,0 174.661,-17.4,0 174.714,-17.343,0 174.768,-17.288,0 174.825,-17.236,0 174.883,-17.184,0 174.943,-17.135,0 175.005,-17.088,0 175.069,-17.043,0 175.134,-17,0 175.2,-16.96,0 175.268,-16.921,0 175.337,-16.885,0 175.408,-16.851,0 175.48,-16.819,0 175.552,-16.79,0 175.626,-16.763,0 175.701,-16.739,0 175.776,-16.717,0 175.853,-16.698,0 175.93,-16.681,0 176.007,-16.667,0 176.085,-16.655,0 176.163,-16.646,0 176.242,-16.64,0 176.321,-16.636,0 176.399,-16.634,0 176.4,-16.468,0 
						</coordinates>
					</LinearRing>
				</outerBoundaryIs>
			</Polygon>
		</Placemark>
		<Placemark>
			<name>RADIUS OF 50 KT WINDS</name>
			<styleUrl>#WindRadii50</styleUrl>
			<Polygon>
				<tessellate>1</tessellate>
				<outerBoundaryIs>
					<LinearRing>
						<coordinates>
							176.4,-17.8,0 176.436,-17.801,0 176.473,-17.803,0 176.509,-17.806,0 176.546,-17.81,0 176.582,-17.815,0 176.618,-17.822,0 176.653,-17.83,0 176.689,-17.839,0 176.724,-17.849,0 176.759,-17.86,0 176.793,-17.873,0 176.827,-17.886,0 176.86,-17.901,0 176.893,-17.917,0 176.925,-17.933,0 176.956,-17.951,0 176.987,-17.97,0 177.017,-17.99,0 177.046,-18.011,0 177.075,-18.033,0 177.103,-18.056,0 177.13,-18.079,0 177.156,-18.104,0 177.181,-18.129,0 177.205,-18.155,0 177.228,-18.182,0 177.251,-18.21,0 177.272,-18.239,0 177.292,-18.268,0 177.311,-18.298,0 177.329,-18.328,0 177.346,-18.359,0 177.362,-18.391,0 177.376,-18.423,0 177.389,-18.455,0 177.402,-18.488,0 177.413,-18.521,0 177.422,-18.555,0 177.431,-18.589,0 177.438,-18.623,0 177.444,-18.658,0 177.449,-18.692,0 177.452,-18.727,0 177.454,-18.762,0 177.455,-18.797,0 177.631,-18.795,0 177.629,-18.877,0 177.625,-18.917,0 177.62,-18.958,0 177.614,-18.998,0 177.606,-19.038,0 177.596,-19.078,0 177.586,-19.117,0 177.573,-19.156,0 177.56,-19.195,0 177.544,-19.233,0 177.528,-19.27,0 177.51,-19.307,0 177.49,-19.344,0 177.47,-19.379,0 177.448,-19.414,0 177.425,-19.449,0 177.4,-19.482,0 177.374,-19.515,0 177.347,-19.547,0 177.319,-19.577,0 177.29,-19.607,0 177.259,-19.636,0 177.228,-19.664,0 177.195,-19.691,0 177.162,-19.717,0 177.128,-19.741,0 177.092,-19.765,0 177.056,-19.787,0 177.019,-19.808,0 176.981,-19.828,0 176.943,-19.847,0 176.904,-19.864,0 176.864,-19.88,0 176.824,-19.895,0 176.783,-19.908,0 176.741,-19.92,0 176.7,-19.931,0 176.657,-19.94,0 176.615,-19.948,0 176.572,-19.954,0 176.529,-19.959,0 176.486,-19.963,0 176.443,-19.965,0 176.4,-19.965,0 176.4,-19.965,0 176.313,-19.963,0 176.27,-19.959,0 176.227,-19.954,0 176.184,-19.948,0 176.142,-19.94,0 176.099,-19.931,0 176.058,-19.92,0 176.016,-19.908,0 175.975,-19.895,0 175.935,-19.88,0 175.895,-19.864,0 175.856,-19.847,0 175.818,-19.828,0 175.78,-19.808,0 175.743,-19.787,0 175.707,-19.765,0 175.671,-19.741,0 175.637,-19.717,0 175.604,-19.691,0 175.571,-19.664,0 175.54,-19.636,0 175.509,-19.607,0 175.48,-19.577,0 175.452,-19.547,0 175.425,-19.515,0 175.399,-19.482,0 175.374,-19.449,0 175.351,-19.414,0 175.329,-19.379,0 175.309,-19.344,0 175.289,-19.307,0 175.271,-19.27,0 175.255,-19.233,0 175.239,-19.195,0 175.226,-19.156,0 175.213,-19.117,0 175.203,-19.078,0 175.193,-19.038,0 175.185,-18.998,0 175.179,-18.958,0 175.174,-18.917,0 175.17,-18.877,0 175.168,-18.836,0 175.168,-18.795,0 175.344,-18.797,0 175.347,-18.727,0 175.35,-18.692,0 175.355,-18.658,0 175.361,-18.623,0 175.368,-18.589,0 175.377,-18.555,0 175.386,-18.521,0 175.397,-18.488,0 175.41,-18.455,0 175.423,-18.423,0 175.437,-18.391,0 175.453,-18.359,0 175.47,-18.328,0 175.488,-18.298,0 175.507,-18.268,0 175.527,-18.239,0 175.548,-18.21,0 175.571,-18.182,0 175.594,-18.155,0 175.618,-18.129,0 175.643,-18.104,0 175.669,-18.079,0 175.696,-18.056,0 175.724,-18.033,0 175.753,-18.011,0 175.782,-17.99,0 175.812,-17.97,0 175.843,-17.951,0 175.874,-17.933,0 175.906,-17.917,0 175.939,-17.901,0 175.972,-17.886,0 176.006,-17.873,0 176.04,-17.86,0 176.075,-17.849,0 176.11,-17.839,0 176.146,-17.83,0 176.181,-17.822,0 176.217,-17.815,0 176.253,-17.81,0 176.29,-17.806,0 176.326,-17.803,0 176.363,-17.801,0 176.399,-17.8,0 176.4,-17.8,0 
						</coordinates>
					</LinearRing>
				</outerBoundaryIs>
			</Polygon>
		</Placemark>
		<Placemark>
			<name>RADIUS OF 64 KT WINDS</name>
			<styleUrl>#WindRadii64</styleUrl>
			<Polygon>
				<tessellate>1</tessellate>
				<outerBoundaryIs>
					<LinearRing>
						<coordinates>
							176.4,-18.3,0 176.418,-18.3,0 176.436,-18.301,0 176.455,-18.303,0 176.473,-18.305,0 176.491,-18.307,0 176.509,-18.311,0 176.527,-18.315,0 176.545,-18.319,0 176.562,-18.324,0 176.58,-18.33,0 176.597,-18.336,0 176.614,-18.343,0 176.63,-18.35,0 176.647,-18.358,0 176.663,-18.367,0 176.679,-18.376,0 176.694,-18.385,0 176.709,-18.395,0 176.724,-18.405,0 176.738,-18.416,0 176.752,-18.428,0 176.765,-18.44,0 176.778,-18.452,0 176.791,-18.465,0 176.803,-18.478,0 176.815,-18.491,0 176.826,-18.505,0 176.836,-18.52,0 176.846,-18.534,0 176.856,-18.549,0 176.865,-18.564,0 176.873,-18.58,0 176.881,-18.596,0 176.888,-18.612,0 176.895,-18.628,0 176.901,-18.644,0 176.906,-18.661,0 176.911,-18.678,0 176.915,-18.695,0 176.919,-18.712,0 176.922,-18.729,0 176.924,-18.747,0 176.926,-18.764,0 176.927,-18.781,0 176.927,-18.799,0 176.927,-18.799,0 176.926,-18.834,0 176.925,-18.851,0 176.922,-18.868,0 176.92,-18.886,0 176.916,-18.903,0 176.912,-18.92,0 176.907,-18.937,0 176.902,-18.953,0 176.896,-18.97,0 176.889,-18.986,0 176.882,-19.002,0 176.875,-19.018,0 176.866,-19.033,0 176.857,-19.049,0 176.848,-19.064,0 176.838,-19.078,0 176.827,-19.093,0 176.816,-19.107,0 176.805,-19.12,0 176.793,-19.133,0 176.78,-19.146,0 176.767,-19.159,0 176.753,-19.17,0 176.74,-19.182,0 176.725,-19.193,0 176.71,-19.203,0 176.695,-19.214,0 176.68,-19.223,0 176.664,-19.232,0 176.648,-19.241,0 176.632,-19.248,0 176.615,-19.256,0 176.598,-19.263,0 176.581,-19.269,0 176.563,-19.275,0 176.545,-19.28,0 176.528,-19.284,0 176.51,-19.288,0 176.491,-19.292,0 176.473,-19.294,0 176.455,-19.296,0 176.436,-19.298,0 176.418,-19.299,0 176.4,-19.299,0 176.4,-19.299,0 176.363,-19.298,0 176.344,-19.296,0 176.326,-19.294,0 176.308,-19.292,0 176.289,-19.288,0 176.271,-19.284,0 176.254,-19.28,0 176.236,-19.275,0 176.218,-19.269,0 176.201,-19.263,0 176.184,-19.256,0 176.167,-19.248,0 176.151,-19.241,0 176.135,-19.232,0 176.119,-19.223,0 176.104,-19.214,0 176.089,-19.203,0 176.074,-19.193,0 176.059,-19.182,0 176.046,-19.17,0 176.032,-19.159,0 176.019,-19.146,0 176.006,-19.133,0 175.994,-19.12,0 175.983,-19.107,0 175.972,-19.093,0 175.961,-19.078,0 175.951,-19.064,0 175.942,-19.049,0 175.933,-19.033,0 175.924,-19.018,0 175.917,-19.002,0 175.91,-18.986,0 175.903,-18.97,0 175.897,-18.953,0 175.892,-18.937,0 175.887,-18.92,0 175.883,-18.903,0 175.879,-18.886,0 175.877,-18.868,0 175.874,-18.851,0 175.873,-18.834,0 175.872,-18.816,0 175.872,-18.799,0 175.872,-18.799,0 175.873,-18.764,0 175.875,-18.747,0 175.877,-18.729,0 175.88,-18.712,0 175.884,-18.695,0 175.888,-18.678,0 175.893,-18.661,0 175.898,-18.644,0 175.904,-18.628,0 175.911,-18.612,0 175.918,-18.596,0 175.926,-18.58,0 175.934,-18.564,0 175.943,-18.549,0 175.953,-18.534,0 175.963,-18.52,0 175.973,-18.505,0 175.984,-18.491,0 175.996,-18.478,0 176.008,-18.465,0 176.021,-18.452,0 176.034,-18.44,0 176.047,-18.428,0 176.061,-18.416,0 176.075,-18.405,0 176.09,-18.395,0 176.105,-18.385,0 176.12,-18.376,0 176.136,-18.367,0 176.152,-18.358,0 176.169,-18.35,0 176.185,-18.343,0 176.202,-18.336,0 176.219,-18.33,0 176.237,-18.324,0 176.254,-18.319,0 176.272,-18.315,0 176.29,-18.311,0 176.308,-18.307,0 176.326,-18.305,0 176.344,-18.303,0 176.363,-18.301,0 176.381,-18.3,0 176.399,-18.3,0 176.4,-18.3,0 
						</coordinates>
					</LinearRing>
				</outerBoundaryIs>
			</Polygon>
		</Placemark>
		<Placemark>
			<name>23/06Z - 80 knots</name>
			<Snippet maxLines="0">empty</Snippet>
			<description><![CDATA[<html>
<head>
<title>Requested Information</title>
</head>
<table width="400" bgcolor="white" border="1">
<tr><td><B>NAME</B></td><td><B>WINSTON</B></td></tr>
<tr><td><B>TIME</B></td><td><B>TAU 96 - 2016022306Z</B></td></tr>
<tr><td><B>POSIT</B></td><td><B>-21 S, 177.3 E</B></td></tr>
<tr><td><B>WRNG NMBR</B></td><td><B>025</B></td></tr>
<tr><td><B>WIND SPD</B></td><td><B>80 KTS</B></td></tr>
<tr><td><B>MOVEMENT</B></td><td><B>160 DEG AT 06 KTS</B></td></tr>
</table></body></html>]]></description>
			<styleUrl>#TropicalBalloonStyle</styleUrl>
			<Style>
				<IconStyle>
					<color>ffffffff</color>
					<scale>1</scale>
					<heading>0</heading>
					<Icon>
						<href>files/TYSH.png</href>
					</Icon>
				</IconStyle>
			</Style>
			<Point>
				<coordinates>177.3,-21,0</coordinates>
			</Point>
		</Placemark>
		<Placemark>
			<name>24/06Z - 55 knots</name>
			<Snippet maxLines="0">empty</Snippet>
			<description><![CDATA[<html>
<head>
<title>Requested Information</title>
</head>
<table width="400" bgcolor="white" border="1">
<tr><td><B>NAME</B></td><td><B>WINSTON</B></td></tr>
<tr><td><B>TIME</B></td><td><B>TAU 120 - 2016022406Z</B></td></tr>
<tr><td><B>POSIT</B></td><td><B>-24 S, 178.5 E</B></td></tr>
<tr><td><B>WRNG NMBR</B></td><td><B>025</B></td></tr>
<tr><td><B>WIND SPD</B></td><td><B>55 KTS</B></td></tr>
<tr><td><B>MOVEMENT</B></td><td><B>160 DEG AT 08 KTS</B></td></tr>
</table></body></html>]]></description>
			<styleUrl>#TropicalBalloonStyle</styleUrl>
			<Style>
				<IconStyle>
					<color>ffffffff</color>
					<scale>1</scale>
					<heading>0</heading>
					<Icon>
						<href>files/TSSH.png</href>
					</Icon>
				</IconStyle>
			</Style>
			<Point>
				<coordinates>178.5,-24,0</coordinates>
			</Point>
		</Placemark>
		<Placemark>
			<name>sh11 Storm Track</name>
			<styleUrl>#TropicalBalloonStyle</styleUrl>
			<LineString>
				<tessellate>1</tessellate>
				<coordinates>
					-175.9,-17.5,0 -177.9,-17.5,0 -179.8,-17.6,0 178.3,-17.9,0 177,-18.2,0 176.4,-18.8,0 177.3,-21,0 178.5,-24,0 
				</coordinates>
			</LineString>
		</Placemark>
		<Placemark>
			<name>Error Swath</name>
			<styleUrl>#msn_ylw-pushpin</styleUrl>
			<Polygon>
				<tessellate>1</tessellate>
				<outerBoundaryIs>
					<LinearRing>
						<coordinates>
							176.75,-13.97,0 176.8325,-13.9725,0 176.92,-13.98,0 177.0075,-13.99,0 177.0925,-14,0 177.1775,-14.0125,0 177.2625,-14.0275,0 177.3475,-14.0425,0 177.4132,-14.0557,0 177.4539,-14.0639,0 177.5082,-14.0732,0 177.5875,-14.09,0 177.6725,-14.11,0 177.7502,-14.1298,0 177.8105,-14.147,0 177.8577,-14.161,0 177.895,-14.1725,0 177.93,-14.1838,0 177.975,-14.1975,0 178.03,-14.215,0 178.0875,-14.235,0 178.1325,-14.25,0 178.18,-14.265,0 178.235,-14.285,0 178.265,-14.2975,0 178.29,-14.3075,0 178.35,-14.33,0 178.43,-14.3625,0 178.51,-14.3975,0 178.5796,-14.428,0 178.6241,-14.4484,0 178.6646,-14.468,0 178.7175,-14.49,0 178.7541,-14.5002,0 178.7657,-14.5005,0 178.7791,-14.5002,0 178.81,-14.5025,0 178.8525,-14.505,0 178.9725,-14.5025,0 179.1675,-14.5025,0 179.29,-14.505,0 179.36,-14.5025,0 179.4475,-14.5025,0 179.5125,-14.505,0 179.56,-14.505,0 179.645,-14.5075,0 179.7575,-14.5125,0 179.8147,-14.5196,0 179.8295,-14.5241,0 179.8647,-14.5221,0 179.9175,-14.5175,0 179.9684,-14.5125,0 -179.9982,-14.5075,0 -179.9791,-14.505,0 -179.8675,-14.5075,0 -179.6575,-14.5125,0 -179.5225,-14.5175,0 -179.4675,-14.5225,0 -179.4125,-14.53,0 -179.3575,-14.5375,0 -179.3025,-14.5425,0 -179.2475,-14.55,0 -179.1925,-14.56,0 -179.1375,-14.57,0 -179.0825,-14.5825,0 -179.03,-14.5975,0 -178.99,-14.6075,0 -178.9675,-14.6112,0 -178.9475,-14.615,0 -178.9217,-14.6211,0 -178.8908,-14.6247,0 -178.8517,-14.6248,0 -178.81,-14.63,0 -178.7675,-14.6375,0 -178.725,-14.6425,0 -178.6775,-14.6475,0 -178.6175,-14.6525,0 -178.5625,-14.66,0 -178.5125,-14.6675,0 -178.455,-14.6725,0 -178.4025,-14.6775,0 -178.36,-14.6825,0 -178.3225,-14.69,0 -178.285,-14.6975,0 -178.2425,-14.7025,0 -178.1875,-14.7075,0 -178.125,-14.7125,0 -178.075,-14.7175,0 -178.0525,-14.7225,0 -178.0604,-14.7291,0 -178.0633,-14.7356,0 -178.0229,-14.7391,0 -177.96,-14.7375,0 -177.9241,-14.735,0 -177.8731,-14.7375,0 -177.774,-14.7425,0 -177.685,-14.7475,0 -177.6125,-14.7525,0 -177.55,-14.76,0 -177.5,-14.7675,0 -177.45,-14.7725,0 -177.4,-14.78,0 -177.35,-14.79,0 -177.3,-14.8,0 -177.2525,-14.81,0 -177.2075,-14.82,0 -177.16,-14.8325,0 -177.11,-14.8475,0 -177.0625,-14.86,0 -177.0175,-14.8725,0 -176.9742,-14.8871,0 -176.9408,-14.8967,0 -176.9142,-14.8996,0 -176.88,-14.9025,0 -176.8535,-14.9092,0 -176.8456,-14.916,0 -176.8207,-14.9192,0 -176.7686,-14.9225,0 -176.733,-14.929,0 -176.7229,-14.9355,0 -176.6967,-14.939,0 -176.6468,-14.9425,0 -176.6,-14.95,0 -176.56,-14.9575,0 -176.52,-14.9625,0 -176.48,-14.97,0 -176.44,-14.9775,0 -176.4025,-14.9825,0 -176.3781,-14.9881,0 -176.3602,-14.9938,0 -176.3259,-14.9981,0 -176.2814,-15.0025,0 -176.2513,-15.0082,0 -176.2321,-15.0138,0 -176.2029,-15.0182,0 -176.178,-15.021,0 -176.1471,-15.0269,0 -176.0889,-15.036,0 -176.0377,-15.0425,0 -176.0084,-15.048,0 -175.9668,-15.0561,0 -175.8909,-15.0655,0 -175.8175,-15.0725,0 -175.755,-15.0775,0 -175.685,-15.0825,0 -175.6275,-15.0875,0 -175.5825,-15.0925,0 -175.54,-15.0975,0 -175.4975,-15.1025,0 -175.4525,-15.11,0 -175.41,-15.12,0 -175.3725,-15.1275,0 -175.335,-15.1325,0 -175.2925,-15.14,0 -175.2525,-15.1512,0 -175.2225,-15.1625,0 -175.195,-15.1712,0 -175.1575,-15.18,0 -175.1192,-15.1892,0 -175.0958,-15.1958,0 -175.0767,-15.2029,0 -175.0525,-15.2125,0 -175.0325,-15.22,0 -175.0175,-15.225,0 -174.9975,-15.2325,0 -174.9725,-15.2425,0 -174.9525,-15.25,0 -174.9375,-15.255,0 -174.9175,-15.2625,0 -174.8925,-15.2725,0 -174.865,-15.2838,0 -174.8375,-15.2962,0 -174.8175,-15.305,0 -174.795,-15.3137,0 -174.76,-15.33,0 -174.7225,-15.35,0 -174.6931,-15.3672,0 -174.6712,-15.3794,0 -174.6456,-15.3922,0 -174.615,-15.4087,0 -174.5875,-15.425,0 -174.5625,-15.44,0 -174.5425,-15.4525,0 -174.525,-15.4638,0 -174.5025,-15.4787,0 -174.4775,-15.495,0 -174.4525,-15.5112,0 -174.435,-15.525,0 -174.42,-15.535,0 -174.3975,-15.5475,0 -174.3825,-15.5575,0 -174.375,-15.565,0 -174.36,-15.5788,0 -174.3375,-15.595,0 -174.3125,-15.6112,0 -174.295,-15.625,0 -174.28,-15.6375,0 -174.2575,-15.655,0 -174.2425,-15.6675,0 -174.2325,-15.6775,0 -174.21,-15.6975,0 -174.1825,-15.72,0 -174.155,-15.7425,0 -174.1225,-15.77,0 -174.09,-15.8,0 -174.063,-15.827,0 -174.0411,-15.8489,0 -174.018,-15.8745,0 -173.9925,-15.9075,0 -173.97,-15.9375,0 -173.9475,-15.9625,0 -173.9275,-15.9825,0 -173.9175,-15.9925,0 -173.905,-16.0075,0 -173.8825,-16.0375,0 -173.86,-16.0675,0 -173.845,-16.085,0 -173.8375,-16.0925,0 -173.8313,-16.1,0 -173.8225,-16.1125,0 -173.8087,-16.1325,0 -173.795,-16.1525,0 -173.7875,-16.1625,0 -173.7775,-16.1775,0 -173.76,-16.205,0 -173.7412,-16.2325,0 -173.725,-16.2575,0 -173.7088,-16.285,0 -173.69,-16.3175,0 -173.67,-16.3525,0 -173.65,-16.39,0 -173.63,-16.43,0 -173.6125,-16.465,0 -173.6025,-16.485,0 -173.5976,-16.4948,0 -173.5927,-16.5047,0 -173.5851,-16.5173,0 -173.5737,-16.5375,0 -173.565,-16.5575,0 -173.56,-16.5725,0 -173.5525,-16.5925,0 -173.5387,-16.6225,0 -173.5237,-16.655,0 -173.515,-16.6775,0 -173.5087,-16.6975,0 -173.5013,-16.725,0 -173.4925,-16.7525,0 -173.4825,-16.7775,0 -173.475,-16.7975,0 -173.4688,-16.8175,0 -173.46,-16.85,0 -173.45,-16.89,0 -173.44,-16.93,0 -173.43,-16.97,0 -173.42,-17.01,0 -173.41,-17.0525,0 -173.4025,-17.09,0 -173.3975,-17.1175,0 -173.3925,-17.1475,0 -173.3875,-17.1825,0 -173.3825,-17.22,0 -173.3775,-17.2625,0 -173.3725,-17.3,0 -173.37,-17.3275,0 -173.37,-17.36,0 -173.37,-17.4,0 -173.37,-17.4425,0 -173.37,-17.4875,0 -173.37,-17.53,0 -173.37,-17.57,0 -173.37,-17.6125,0 -173.37,-17.6575,0 -173.3725,-17.7,0 -173.3775,-17.74,0 -173.3825,-17.78,0 -173.3875,-17.82,0 -173.3925,-17.8625,0 -173.4,-17.9075,0 -173.4075,-17.9475,0 -173.4125,-17.9825,0 -173.42,-18.02,0 -173.43,-18.06,0 -173.4413,-18.0975,0 -173.4525,-18.1275,0 -173.4612,-18.155,0 -173.47,-18.19,0 -173.4787,-18.2225,0 -173.485,-18.2425,0 -173.4925,-18.2625,0 -173.5025,-18.2875,0 -173.51,-18.3075,0 -173.515,-18.3225,0 -173.5225,-18.3425,0 -173.5325,-18.3675,0 -173.5437,-18.395,0 -173.5562,-18.4225,0 -173.565,-18.4425,0 -173.5737,-18.465,0 -173.5887,-18.4975,0 -173.6025,-18.5275,0 -173.6137,-18.555,0 -173.63,-18.5875,0 -173.6487,-18.6175,0 -173.6625,-18.6375,0 -173.6738,-18.6575,0 -173.69,-18.6875,0 -173.7087,-18.7175,0 -173.725,-18.7425,0 -173.7437,-18.7725,0 -173.7625,-18.8,0 -173.7725,-18.815,0 -173.78,-18.8275,0 -173.7875,-18.8375,0 -173.7975,-18.85,0 -173.8125,-18.87,0 -173.8225,-18.885,0 -173.83,-18.8975,0 -173.8375,-18.9075,0 -173.845,-18.915,0 -173.8587,-18.93,0 -173.875,-18.9525,0 -173.8937,-18.98,0 -173.9175,-19.0075,0 -173.9425,-19.035,0 -173.965,-19.0625,0 -173.9775,-19.0775,0 -173.9875,-19.0875,0 -174.01,-19.11,0 -174.04,-19.14,0 -174.07,-19.17,0 -174.1,-19.2,0 -174.125,-19.225,0 -174.14,-19.24,0 -174.1475,-19.2475,0 -174.1525,-19.2525,0 -174.1675,-19.265,0 -174.1975,-19.29,0 -174.23,-19.3175,0 -174.2625,-19.3425,0 -174.295,-19.3675,0 -174.315,-19.385,0 -174.3225,-19.3925,0 -174.3375,-19.4025,0 -174.3675,-19.4225,0 -174.4025,-19.4475,0 -174.44,-19.4725,0 -174.48,-19.4975,0 -174.5175,-19.52,0 -174.545,-19.5362,0 -174.5625,-19.5475,0 -174.5825,-19.56,0 -174.6075,-19.575,0 -174.635,-19.5912,0 -174.67,-19.61,0 -174.71,-19.63,0 -174.745,-19.6462,0 -174.7675,-19.655,0 -174.7875,-19.6637,0 -174.815,-19.6763,0 -174.8425,-19.6875,0 -174.8725,-19.7013,0 -174.905,-19.7162,0 -174.9275,-19.725,0 -174.9425,-19.73,0 -174.9625,-19.7375,0 -174.9875,-19.7475,0 -175.0075,-19.755,0 -175.0242,-19.7604,0 -175.0483,-19.7683,0 -175.075,-19.7775,0 -175.0942,-19.7842,0 -175.1158,-19.7908,0 -175.1467,-19.7992,0 -175.1783,-19.8083,0 -175.2042,-19.8173,0 -175.21,-19.8312,0 -175.1775,-19.8756,0 -175.11,-19.96,0 -175.0325,-20.06,0 -174.96,-20.1625,0 -174.89,-20.2675,0 -174.82,-20.3725,0 -174.75,-20.48,0 -174.6825,-20.59,0 -174.6175,-20.7,0 -174.5525,-20.81,0 -174.49,-20.92,0 -174.4325,-21.03,0 -174.3775,-21.1425,0 -174.3246,-21.2529,0 -174.2867,-21.3308,0 -174.2732,-21.358,0 -174.2722,-21.3627,0 -174.2711,-21.3676,0 -174.2575,-21.3975,0 -174.22,-21.4825,0 -174.17,-21.5975,0 -174.1225,-21.7125,0 -174.0858,-21.8125,0 -174.0592,-21.8875,0 -174.0283,-21.97,0 -173.9925,-22.0775,0 -173.9675,-22.1625,0 -173.95,-22.22,0 -173.9225,-22.31,0 -173.895,-22.41,0 -173.875,-22.4825,0 -173.85,-22.5675,0 -173.8237,-22.6725,0 -173.8075,-22.7525,0 -173.7937,-22.8175,0 -173.7725,-22.9175,0 -173.75,-23.04,0 -173.73,-23.16250000000001,0 -173.7125,-23.2875,0 -173.6975,-23.4125,0 -173.6825,-23.5375,0 -173.67,-23.66,0 -173.6625,-23.7825,0 -173.6575,-23.9075,0 -173.6525,-24.0025,0 -173.65,-24.0375,0 -173.65,-24.07,0 -173.65,-24.1625,0 -173.65,-24.2875,0 -173.6525,-24.4125,0 -173.66,-24.53750000000001,0 -173.67,-24.66250000000001,0 -173.68,-24.7875,0 -173.6925,-24.9125,0 -173.7075,-25.0375,0 -173.7225,-25.16,0 -173.735,-25.25,0 -173.745,-25.31,0 -173.7612,-25.395,0 -173.78,-25.4825,0 -173.7962,-25.5525,0 -173.8135,-25.624,0 -173.827,-25.688,0 -173.8441,-25.7684,0 -173.8662,-25.8512,0 -173.8856,-25.9219,0 -173.9125,-26.02,0 -173.95,-26.14,0 -173.99,-26.26,0 -174.03,-26.3775,0 -174.0725,-26.4925,0 -174.12,-26.61,0 -174.17,-26.7275,0 -174.22,-26.8425,0 -174.2619,-26.9381,0 -174.2913,-27.0037,0 -174.3269,-27.0781,0 -174.38,-27.18,0 -174.4425,-27.2925,0 -174.4925,-27.38,0 -174.525,-27.4375,0 -174.5725,-27.52,0 -174.64,-27.63,0 -174.71,-27.74,0 -174.7703,-27.8322,0 -174.813,-27.89440000000001,0 -174.8525,-27.95,0 -174.8944,-28.0081,0 -174.9422,-28.0728,0 -175.01,-28.1625,0 -175.09,-28.2675,0 -175.168,-28.365,0 -175.226,-28.4325,0 -175.2705,-28.48250000000001,0 -175.34,-28.56,0 -175.43,-28.6575,0 -175.52,-28.7525,0 -175.6006,-28.8368,0 -175.6613,-28.8987,0 -175.7231,-28.9593,0 -175.81,-29.04,0 -175.91,-29.13,0 -176.01,-29.2175,0 -176.1125,-29.3025,0 -176.1975,-29.3711,0 -176.255,-29.4172,0 -176.3275,-29.4736,0 -176.43,-29.55,0 -176.54,-29.63,0 -176.6425,-29.7027,0 -176.72,-29.7555,0 -176.77,-29.7886,0 -176.8175,-29.8192,0 -176.8925,-29.8658,0 -176.9975,-29.93,0 -177.1125,-30,0 -177.2325,-30.07,0 -177.3575,-30.1375,0 -177.4675,-30.1938,0 -177.5475,-30.235,0 -177.61,-30.2682,0 -177.67,-30.2988,0 -177.7258,-30.3261,0 -177.7841,-30.3533,0 -177.8708,-30.3917,0 -177.9575,-30.4275,0 -178.0225,-30.455,0 -178.12,-30.4975,0 -178.25,-30.55,0 -178.38,-30.6,0 -178.5125,-30.65,0 -178.6475,-30.6975,0 -178.7825,-30.74,0 -178.92,-30.78,0 -179.06,-30.82,0 -179.2,-30.86,0 -179.34,-30.8975,0 -179.48,-30.93,0 -179.62,-30.96,0 -179.76,-30.99,0 -179.9,-31.0175,0 179.9575,-31.04,0 179.8125,-31.06,0 179.67,-31.08,0 179.5275,-31.0975,0 179.3825,-31.1125,0 179.2375,-31.1275,0 179.09,-31.14,0 178.9425,-31.1475,0 178.7975,-31.1525,0 178.6125,-31.1575,0 178.39,-31.1575,0 178.2075,-31.1525,0 178.0625,-31.1475,0 177.9175,-31.14,0 177.8053,-31.1322,0 177.7306,-31.1269,0 177.63,-31.1175,0 177.5269,-31.1056,0 177.4497,-31.0953,0 177.3375,-31.08,0 177.1925,-31.06,0 177.05,-31.04,0 176.91,-31.0175,0 176.7675,-30.99,0 176.6225,-30.96,0 176.48,-30.93,0 176.34,-30.8975,0 176.2293,-30.8682,0 176.156,-30.849,0 176.0643,-30.8257,0 175.9475,-30.7911,0 175.8525,-30.7596,0 175.77,-30.7336,0 175.6575,-30.6975,0 175.5478,-30.6597,0 175.4731,-30.6344,0 175.3913,-30.6062,0 175.3071,-30.5729,0 175.2286,-30.5415,0 175.14,-30.5067,0 175.065,-30.476,0 174.9975,-30.4475,0 174.925,-30.4165,0 174.845,-30.3808,0 174.7375,-30.33,0 174.633,-30.2795,0 174.561,-30.2439,0 174.49,-30.2075,0 174.4165,-30.16860000000001,0 174.357,-30.1368,0 174.3025,-30.1075,0 174.2325,-30.0687,0 174.13,-30.01000000000001,0 174.01,-29.9375,0 173.92,-29.88,0 173.86,-29.8425,0 173.7725,-29.7875,0 173.6875,-29.73,0 173.6325,-29.6925,0 173.55,-29.6375,0 173.44,-29.56,0 173.33,-29.4775,0 173.2225,-29.3925,0 173.14,-29.3255,0 173.0825,-29.2785,0 173.0075,-29.2155,0 172.91,-29.13,0 172.81,-29.04,0 172.7243,-28.9607,0 172.6662,-28.9038,0 172.6093,-28.8457,0 172.53,-28.7625,0 172.4625,-28.6925,0 172.4375,-28.6675,0 172.4125,-28.64,0 172.3475,-28.5675,0 172.26,-28.47,0 172.1725,-28.37,0 172.0995,-28.2805,0 172.049,-28.2161,0 172.0055,-28.1605,0 171.962,-28.1025,0 171.9312,-28.06,0 171.903,-28.02,0 171.865,-27.9653,0 171.8244,-27.90810000000001,0 171.7825,-27.85,0 171.7431,-27.7944,0 171.7003,-27.7322,0 171.6479,-27.65,0 171.6034,-27.575,0 171.5725,-27.5225,0 171.5441,-27.47500000000001,0 171.5045,-27.4075,0 171.45,-27.3075,0 171.39,-27.1925,0 171.3382,-27.0925,0 171.3014,-27.02,0 171.2719,-26.96,0 171.245,-26.9025,0 171.2137,-26.8325,0 171.17,-26.7325,0 171.1283,-26.635,0 171.0992,-26.5625,0 171.0683,-26.4825,0 171.03,-26.3775,0 170.99,-26.26,0 170.95,-26.14,0 170.9125,-26.02,0 170.88,-25.8975,0 170.85,-25.7725,0 170.82,-25.65,0 170.7925,-25.53,0 170.7675,-25.4075,0 170.7425,-25.2825,0 170.7225,-25.16,0 170.7075,-25.0375,0 170.6925,-24.9125,0 170.68,-24.7875,0 170.67,-24.66250000000001,0 170.66,-24.53750000000001,0 170.6525,-24.4125,0 170.65,-24.2875,0 170.65,-24.1625,0 170.6525,-24.04,0 170.6575,-23.9175,0 170.6625,-23.7925,0 170.67,-23.6675,0 170.6825,-23.5425,0 170.6975,-23.4175,0 170.7125,-23.2925,0 170.73,-23.17,0 170.75,-23.0475,0 170.7725,-22.9225,0 170.7975,-22.8,0 170.8225,-22.68,0 170.8525,-22.56,0 170.8875,-22.44,0 170.9225,-22.3175,0 170.9575,-22.195,0 170.9925,-22.0775,0 171.0325,-21.96,0 171.0775,-21.84,0 171.1225,-21.72,0 171.17,-21.6025,0 171.2117,-21.5075,0 171.2308,-21.4525,0 171.2242,-21.405,0 171.2025,-21.3275,0 171.18,-21.2275,0 171.16,-21.1225,0 171.1375,-21.02,0 171.115,-20.9175,0 171.0975,-20.81,0 171.0825,-20.6975,0 171.07,-20.5825,0 171.0575,-20.4675,0 171.0425,-20.3525,0 171.0275,-20.235,0 171.0175,-20.1125,0 171.0125,-19.99,0 170.9925,-19.865,0 170.98,-19.7325,0 171,-19.6,0 171.0175,-19.47,0 171.0275,-19.3375,0 171.045,-19.2,0 171.0675,-19.06,0 171.0925,-18.92,0 171.12,-18.78,0 171.15,-18.64,0 171.18,-18.4975,0 171.215,-18.3525,0 171.26,-18.2075,0 171.295,-18.06,0 171.3125,-17.9125,0 171.3495,-17.8069,0 171.3991,-17.7737,0 171.4245,-17.7519,0 171.4357,-17.7082,0 171.4439,-17.6764,0 171.4538,-17.6432,0 171.4688,-17.5975,0 171.48,-17.5625,0 171.4863,-17.5425,0 171.4896,-17.5316,0 171.493,-17.5181,0 171.4977,-17.499,0 171.5025,-17.48,0 171.515,-17.4375,0 171.5344,-17.3775,0 171.5462,-17.3425,0 171.5569,-17.3125,0 171.58,-17.25,0 171.61,-17.17,0 171.64,-17.09,0 171.6661,-17.0236,0 171.6823,-16.9873,0 171.6974,-16.9561,0 171.72,-16.9075,0 171.7462,-16.85,0 171.7736,-16.7936,0 171.7923,-16.7573,0 171.8086,-16.7236,0 171.84,-16.6625,0 171.88,-16.5875,0 171.9142,-16.5242,0 171.9333,-16.4908,0 171.9445,-16.4742,0 171.9632,-16.445,0 171.9954,-16.3925,0 172.0382,-16.325,0 172.0764,-16.2675,0 172.0999,-16.2308,0 172.1158,-16.2042,0 172.1292,-16.1823,0 172.14,-16.1655,0 172.16,-16.1365,0 172.19,-16.0945,0 172.2125,-16.064,0 172.2375,-16.0295,0 172.2713,-15.9837,0 172.2975,-15.95,0 172.3288,-15.9112,0 172.3675,-15.8645,0 172.3925,-15.834,0 172.4062,-15.8158,0 172.42,-15.7975,0 172.4475,-15.765,0 172.4875,-15.72,0 172.5275,-15.675,0 172.5675,-15.63,0 172.5963,-15.5963,0 172.6075,-15.5825,0 172.625,-15.565,0 172.6597,-15.5303,0 172.6919,-15.4981,0 172.7272,-15.4628,0 172.7825,-15.41,0 172.835,-15.3625,0 172.8725,-15.3275,0 172.9085,-15.2925,0 172.9395,-15.265,0 172.9785,-15.2325,0 173.025,-15.1925,0 173.065,-15.1575,0 173.1175,-15.1125,0 173.1825,-15.06,0 173.25,-15.01,0 173.32,-14.96,0 173.39,-14.91,0 173.46,-14.86,0 173.5205,-14.8175,0 173.5611,-14.79,0 173.588,-14.7725,0 173.605,-14.7625,0 173.6275,-14.75,0 173.68,-14.7175,0 173.7475,-14.675,0 173.795,-14.6475,0 173.815,-14.6375,0 173.8425,-14.6225,0 173.9025,-14.59,0 173.98,-14.55,0 174.06,-14.51,0 174.1375,-14.47,0 174.2125,-14.4325,0 174.29,-14.3975,0 174.37,-14.3625,0 174.45,-14.33,0 174.53,-14.3,0 174.6125,-14.27,0 174.6975,-14.24,0 174.765,-14.2162,0 174.805,-14.2025,0 174.8423,-14.191,0 174.8895,-14.177,0 174.9375,-14.1625,0 174.978,-14.1505,0 175.0227,-14.1377,0 175.0925,-14.12,0 175.1775,-14.1,0 175.2625,-14.08,0 175.3375,-14.0637,0 175.395,-14.0525,0 175.4475,-14.0424,0 175.4925,-14.0347,0 175.525,-14.0299,0 175.565,-14.0225,0 175.6175,-14.0124,0 175.6625,-14.0047,0 175.7075,-13.9986,0 175.7775,-13.99,0 175.845,-13.9825,0 175.8975,-13.9775,0 175.965,-13.9725,0 176.0425,-13.9675,0 176.235,-13.9625,0 176.5475,-13.9625,0 176.75,-13.97,0 
						</coordinates>
					</LinearRing>
				</outerBoundaryIs>
			</Polygon>
		</Placemark>
	</Folder>

	<ScreenOverlay>
		<name>Intensity Legend</name>
		<Icon>
			<href>files/shakemap.png</href>
		</Icon>
		<overlayXY x="0" y="90" xunits="pixels" yunits="pixels" />
		<screenXY x="5" y="1" xunits="pixels" yunits="fraction" />
		<size x="0" y="0" xunits="pixels" yunits="pixels" />
	</ScreenOverlay>
</Document>
</kml>
