<?xml version="1.0" encoding="UTF-8" standalone="yes"?>
<kml xmlns="http://www.opengis.net/kml/2.2" xmlns:gx="http://www.google.com/kml/ext/2.2" xmlns:kml="http://www.opengis.net/kml/2.2" xmlns:atom="http://www.w3.org/2005/Atom">
  <NetworkLinkControl>
    <minRefreshPeriod>604800</minRefreshPeriod>
  </NetworkLinkControl>
  <Document>
    <Style id="style_pgm">
      <IconStyle>
        <Icon>
        </Icon>
      </IconStyle>
      <LineStyle>
        <colorMode>normal</colorMode>
        <color>ffffffff</color>
        <width>6</width>
      </LineStyle>
      <LabelStyle>
        <color>ffffffff</color>
        <scale>1</scale>
      </LabelStyle>
      <BalloonStyle>
        <text>&lt;b&gt;$[name]&lt;/b&gt;</text>
      </BalloonStyle>
    </Style>
    <name>PGA Contours</name>
    <visibility>0</visibility>
    <Placemark>
      <name>pga 10 %g Contour</name>
      <styleUrl>#style_pgm</styleUrl>
      <visibility>0</visibility>
      <Snippet maxLines="0">
      </Snippet>
      <open>0</open>
      <MultiGeometry>
        <LineString>
          <gx:drawOrder>5</gx:drawOrder>
          <extrude>0</extrude>
          <tessellate>1</tessellate>
          <altitudeMode>clampToGround</altitudeMode>
          <coordinates>-122.60337,38.81852,0 -122.59636,38.81550,0 -122.59503,38.81469,0 -122.58889,38.80717,0 -122.58670,38.80385,0 -122.58388,38.79883,0 -122.58161,38.79050,0 -122.58076,38.78217,0 -122.58079,38.77383,0 -122.58345,38.76550,0 -122.58670,38.75984,0 -122.59064,38.75717,0 -122.59503,38.75520,0 -122.60337,38.75548,0 -122.61170,38.75418,0 -122.62003,38.74914,0 -122.62837,38.75125,0 -122.63360,38.75717,0 -122.63574,38.76550,0 -122.63278,38.77383,0 -122.63076,38.78217,0 -122.62837,38.78848,0 -122.62764,38.79050,0 -122.62096,38.79883,0 -122.62003,38.79974,0 -122.61431,38.80717,0 -122.61170,38.81168,0 -122.60890,38.81550,0 -122.60337,38.81852,0 </coordinates>
        </LineString>
      </MultiGeometry>
    </Placemark>
    <Placemark>
      <name>pga 10 %g Contour</name>
      <styleUrl>#style_pgm</styleUrl>
      <visibility>0</visibility>
      <Snippet maxLines="0">
      </Snippet>
      <open>0</open>
      <MultiGeometry>
        <LineString>
          <gx:drawOrder>5</gx:drawOrder>
          <extrude>0</extrude>
          <tessellate>1</tessellate>
          <altitudeMode>clampToGround</altitudeMode>
          <coordinates>-122.42837,38.47517,0 -122.42003,38.47388,0 -122.41971,38.47383,0 -122.41170,38.47252,0 -122.40337,38.47052,0 -122.39503,38.46744,0 -122.39099,38.46550,0 -122.38670,38.46326,0 -122.37886,38.45717,0 -122.37837,38.45661,0 -122.37199,38.44883,0 -122.37003,38.44733,0 -122.36170,38.44284,0 -122.35739,38.44050,0 -122.35337,38.43895,0 -122.34503,38.43561,0 -122.33670,38.43286,0 -122.33328,38.43217,0 -122.32837,38.43125,0 -122.32003,38.43046,0 -122.31170,38.43006,0 -122.30337,38.42951,0 -122.29503,38.42874,0 -122.28670,38.42800,0 -122.27837,38.42727,0 -122.27003,38.42617,0 -122.26170,38.42410,0 -122.26096,38.42383,0 -122.25337,38.42125,0 -122.24503,38.41815,0 -122.23817,38.41550,0 -122.23670,38.41493,0 -122.22837,38.41178,0 -122.22003,38.40845,0 -122.21712,38.40717,0 -122.21170,38.40486,0 -122.20337,38.40013,0 -122.20172,38.39883,0 -122.19503,38.39302,0 -122.19237,38.39050,0 -122.18670,38.38592,0 -122.18173,38.38217,0 -122.17837,38.37928,0 -122.17281,38.37383,0 -122.17003,38.36965,0 -122.16698,38.36550,0 -122.16201,38.35717,0 -122.16170,38.35670,0 -122.15706,38.34883,0 -122.15350,38.34050,0 -122.15337,38.34006,0 -122.15100,38.33217,0 -122.14942,38.32383,0 -122.14998,38.31550,0 -122.15337,38.30868,0 -122.15435,38.30717,0 -122.16170,38.29994,0 -122.16322,38.29883,0 -122.16493,38.29050,0 -122.16706,38.28217,0 -122.17003,38.27940,0 -122.17719,38.27383,0 -122.17837,38.27245,0 -122.18256,38.26550,0 -122.17837,38.25729,0 -122.17828,38.25717,0 -122.17003,38.25040,0 -122.16840,38.24883,0 -122.16201,38.24050,0 -122.16170,38.23985,0 -122.15839,38.23217,0 -122.15435,38.22383,0 -122.15337,38.22216,0 -122.14791,38.21550,0 -122.14503,38.21264,0 -122.13927,38.20717,0 -122.13670,38.20448,0 -122.12837,38.19948,0 -122.12638,38.19883,0 -122.12003,38.19673,0 -122.11170,38.19161,0 -122.11044,38.19050,0 -122.10418,38.18217,0 -122.10337,38.18126,0 -122.09503,38.17576,0 -122.09219,38.17383,0 -122.08670,38.16860,0 -122.08480,38.16550,0 -122.08244,38.15717,0 -122.07968,38.14883,0 -122.07837,38.14589,0 -122.07140,38.14050,0 -122.07512,38.13217,0 -122.07837,38.12975,0 -122.08668,38.12383,0 -122.08670,38.12382,0 -122.09503,38.12374,0 -122.09538,38.12383,0 -122.10337,38.12508,0 -122.10567,38.12383,0 -122.11170,38.12129,0 -122.11460,38.11550,0 -122.11833,38.10717,0 -122.11863,38.09883,0 -122.11170,38.09559,0 -122.10337,38.09460,0 -122.09503,38.09343,0 -122.09199,38.09050,0 -122.08918,38.08217,0 -122.09271,38.07383,0 -122.09503,38.07107,0 -122.10013,38.06550,0 -122.10337,38.06220,0 -122.11170,38.05774,0 -122.11443,38.05717,0 -122.12003,38.05065,0 -122.12055,38.04883,0 -122.12003,38.04815,0 -122.11578,38.04050,0 -122.11257,38.03217,0 -122.11170,38.02814,0 -122.10973,38.02383,0 -122.11170,38.02142,0 -122.11583,38.01550,0 -122.12003,38.01287,0 -122.12837,38.00817,0 -122.12999,38.00717,0 -122.13622,37.99883,0 -122.13670,37.99792,0 -122.14233,37.99050,0 -122.14503,37.98807,0 -122.15317,37.98217,0 -122.15337,37.98205,0 -122.16170,37.97875,0 -122.17003,37.97597,0 -122.17705,37.97383,0 -122.17837,37.97344,0 -122.18670,37.97082,0 -122.19503,37.97003,0 -122.20337,37.97340,0 -122.20466,37.97383,0 -122.21170,37.97612,0 -122.21635,37.97383,0 -122.22003,37.97193,0 -122.22837,37.96680,0 -122.23319,37.96550,0 -122.23670,37.96476,0 -122.24503,37.96438,0 -122.25337,37.96465,0 -122.25888,37.96550,0 -122.26170,37.96596,0 -122.27003,37.97093,0 -122.27275,37.97383,0 -122.27837,37.97993,0 -122.28097,37.98217,0 -122.28670,37.98829,0 -122.28910,37.99050,0 -122.29503,37.99557,0 -122.30030,37.99883,0 -122.30337,38.00153,0 -122.31149,38.00717,0 -122.31170,38.00738,0 -122.32003,38.01398,0 -122.32177,38.01550,0 -122.32837,38.02128,0 -122.33132,38.02383,0 -122.33670,38.02746,0 -122.34273,38.03217,0 -122.34503,38.03396,0 -122.35244,38.04050,0 -122.35337,38.04163,0 -122.35974,38.04883,0 -122.36170,38.05054,0 -122.37003,38.05640,0 -122.37091,38.05717,0 -122.37837,38.06435,0 -122.37916,38.06550,0 -122.38382,38.07383,0 -122.38670,38.07989,0 -122.38770,38.08217,0 -122.39093,38.09050,0 -122.39295,38.09883,0 -122.39426,38.10717,0 -122.39503,38.11059,0 -122.39643,38.11550,0 -122.40337,38.12349,0 -122.40401,38.12383,0 -122.41170,38.12628,0 -122.42003,38.12850,0 -122.42724,38.13217,0 -122.42837,38.13305,0 -122.43430,38.14050,0 -122.43670,38.14405,0 -122.43942,38.14883,0 -122.44452,38.15717,0 -122.44503,38.15826,0 -122.44839,38.16550,0 -122.44942,38.17383,0 -122.44907,38.18217,0 -122.45027,38.19050,0 -122.45300,38.19883,0 -122.45337,38.19948,0 -122.45919,38.20717,0 -122.46170,38.21006,0 -122.46843,38.21550,0 -122.47003,38.21709,0 -122.47718,38.22383,0 -122.47837,38.22518,0 -122.48458,38.23217,0 -122.48670,38.23495,0 -122.49091,38.24050,0 -122.49503,38.24704,0 -122.49621,38.24883,0 -122.50198,38.25717,0 -122.50337,38.25915,0 -122.50811,38.26550,0 -122.51091,38.27383,0 -122.51170,38.27571,0 -122.51476,38.28217,0 -122.51925,38.29050,0 -122.52003,38.29522,0 -122.52071,38.29883,0 -122.52117,38.30717,0 -122.52337,38.31550,0 -122.52645,38.32383,0 -122.52837,38.32879,0 -122.53017,38.33217,0 -122.53261,38.34050,0 -122.53409,38.34883,0 -122.53670,38.35359,0 -122.53931,38.35717,0 -122.54503,38.36219,0 -122.54988,38.36550,0 -122.55337,38.36957,0 -122.55697,38.37383,0 -122.55473,38.38217,0 -122.55337,38.38359,0 -122.54674,38.39050,0 -122.54503,38.39223,0 -122.53670,38.39785,0 -122.53276,38.39883,0 -122.52837,38.40042,0 -122.52003,38.40522,0 -122.51845,38.40717,0 -122.51381,38.41550,0 -122.51170,38.42040,0 -122.51000,38.42383,0 -122.50881,38.43217,0 -122.50906,38.44050,0 -122.50491,38.44883,0 -122.50337,38.44986,0 -122.49503,38.45095,0 -122.48878,38.44883,0 -122.48670,38.44785,0 -122.47837,38.44157,0 -122.47680,38.44050,0 -122.47003,38.43468,0 -122.46275,38.43217,0 -122.46170,38.43191,0 -122.45337,38.43121,0 -122.44645,38.43217,0 -122.44503,38.43242,0 -122.43838,38.44050,0 -122.43817,38.44883,0 -122.43888,38.45717,0 -122.43859,38.46550,0 -122.43670,38.47312,0 -122.43584,38.47383,0 -122.42837,38.47517,0 </coordinates>
        </LineString>
      </MultiGeometry>
    </Placemark>
    <Placemark>
      <name>10</name>
      <styleUrl>#style_pgm</styleUrl>
      <visibility>0</visibility>
      <Point>
        <altitudeMode>clampToGround</altitudeMode>
        <coordinates>-122.42837,38.47517,0</coordinates>
      </Point>
    </Placemark>
    <Placemark>
      <name>10</name>
      <styleUrl>#style_pgm</styleUrl>
      <visibility>0</visibility>
      <Point>
        <altitudeMode>clampToGround</altitudeMode>
        <coordinates>-122.07968,38.14883,0</coordinates>
      </Point>
    </Placemark>
    <Placemark>
      <name>10</name>
      <styleUrl>#style_pgm</styleUrl>
      <visibility>0</visibility>
      <Point>
        <altitudeMode>clampToGround</altitudeMode>
        <coordinates>-122.38770,38.08217,0</coordinates>
      </Point>
    </Placemark>
    <Placemark>
      <name>pga 20 %g Contour</name>
      <styleUrl>#style_pgm</styleUrl>
      <visibility>0</visibility>
      <Snippet maxLines="0">
      </Snippet>
      <open>0</open>
      <MultiGeometry>
        <LineString>
          <gx:drawOrder>5</gx:drawOrder>
          <extrude>0</extrude>
          <tessellate>1</tessellate>
          <altitudeMode>clampToGround</altitudeMode>
          <coordinates>-122.35337,38.40020,0 -122.34503,38.40003,0 -122.33670,38.39951,0 -122.33095,38.39883,0 -122.32837,38.39860,0 -122.32003,38.39755,0 -122.31170,38.39742,0 -122.30337,38.39729,0 -122.29503,38.39629,0 -122.28670,38.39464,0 -122.27837,38.39236,0 -122.27293,38.39050,0 -122.27003,38.38901,0 -122.26170,38.38392,0 -122.25913,38.38217,0 -122.25337,38.37526,0 -122.25220,38.37383,0 -122.24673,38.36550,0 -122.24503,38.36327,0 -122.24040,38.35717,0 -122.23670,38.35230,0 -122.23423,38.34883,0 -122.22913,38.34050,0 -122.22837,38.33901,0 -122.22512,38.33217,0 -122.22276,38.32383,0 -122.22184,38.31550,0 -122.22193,38.30717,0 -122.22303,38.29883,0 -122.22504,38.29050,0 -122.22698,38.28217,0 -122.22722,38.27383,0 -122.22618,38.26550,0 -122.22590,38.25717,0 -122.22548,38.24883,0 -122.22143,38.24050,0 -122.22003,38.23896,0 -122.21380,38.23217,0 -122.21170,38.22974,0 -122.20687,38.22383,0 -122.20337,38.21855,0 -122.20111,38.21550,0 -122.19647,38.20717,0 -122.19503,38.20253,0 -122.19347,38.19883,0 -122.18958,38.19050,0 -122.18670,38.18755,0 -122.18314,38.18217,0 -122.17873,38.17383,0 -122.17837,38.17320,0 -122.17352,38.16550,0 -122.17003,38.16204,0 -122.16400,38.15717,0 -122.16170,38.15489,0 -122.15648,38.14883,0 -122.15337,38.14525,0 -122.15039,38.14050,0 -122.14675,38.13217,0 -122.14503,38.12821,0 -122.14347,38.12383,0 -122.14021,38.11550,0 -122.14148,38.10717,0 -122.14503,38.09969,0 -122.14546,38.09883,0 -122.14967,38.09050,0 -122.15252,38.08217,0 -122.15337,38.07996,0 -122.15616,38.07383,0 -122.16014,38.06550,0 -122.16110,38.05717,0 -122.15861,38.04883,0 -122.15337,38.04306,0 -122.15103,38.04050,0 -122.15337,38.03451,0 -122.16170,38.03701,0 -122.16824,38.04050,0 -122.17003,38.04172,0 -122.17837,38.04294,0 -122.18529,38.04050,0 -122.18670,38.03995,0 -122.19503,38.03453,0 -122.19845,38.03217,0 -122.20337,38.02904,0 -122.21170,38.02534,0 -122.21677,38.02383,0 -122.22003,38.02245,0 -122.22837,38.02008,0 -122.23670,38.01972,0 -122.24503,38.02379,0 -122.24506,38.02383,0 -122.24733,38.03217,0 -122.24999,38.04050,0 -122.25337,38.04394,0 -122.26170,38.04834,0 -122.26293,38.04883,0 -122.27003,38.05114,0 -122.27837,38.05393,0 -122.28670,38.05673,0 -122.28913,38.05717,0 -122.29503,38.05807,0 -122.30337,38.05975,0 -122.31170,38.06421,0 -122.31327,38.06550,0 -122.31904,38.07383,0 -122.32003,38.07564,0 -122.32415,38.08217,0 -122.32837,38.08583,0 -122.33301,38.09050,0 -122.33670,38.09450,0 -122.33977,38.09883,0 -122.34503,38.10284,0 -122.35047,38.10717,0 -122.35337,38.10870,0 -122.36170,38.11522,0 -122.36194,38.11550,0 -122.36951,38.12383,0 -122.37003,38.12470,0 -122.37495,38.13217,0 -122.37837,38.13808,0 -122.38021,38.14050,0 -122.38548,38.14883,0 -122.38670,38.15096,0 -122.39094,38.15717,0 -122.39503,38.16417,0 -122.39587,38.16550,0 -122.40086,38.17383,0 -122.40337,38.17756,0 -122.40714,38.18217,0 -122.41170,38.18688,0 -122.41509,38.19050,0 -122.42003,38.19579,0 -122.42233,38.19883,0 -122.42837,38.20704,0 -122.42844,38.20717,0 -122.43246,38.21550,0 -122.43456,38.22383,0 -122.43172,38.23217,0 -122.42837,38.23654,0 -122.42407,38.24050,0 -122.42153,38.24883,0 -122.42404,38.25717,0 -122.42780,38.26550,0 -122.42837,38.26719,0 -122.43064,38.27383,0 -122.43190,38.28217,0 -122.43097,38.29050,0 -122.42908,38.29883,0 -122.42837,38.30384,0 -122.42803,38.30717,0 -122.42708,38.31550,0 -122.42487,38.32383,0 -122.42041,38.33217,0 -122.42003,38.33288,0 -122.41570,38.34050,0 -122.41254,38.34883,0 -122.41170,38.35042,0 -122.40798,38.35717,0 -122.40337,38.36139,0 -122.39653,38.36550,0 -122.39503,38.36634,0 -122.38670,38.37035,0 -122.38047,38.37383,0 -122.37837,38.37577,0 -122.37389,38.38217,0 -122.37003,38.38782,0 -122.36816,38.39050,0 -122.36170,38.39741,0 -122.35834,38.39883,0 -122.35337,38.40020,0 </coordinates>
        </LineString>
      </MultiGeometry>
    </Placemark>
    <Placemark>
      <name>20</name>
      <styleUrl>#style_pgm</styleUrl>
      <visibility>0</visibility>
      <Point>
        <altitudeMode>clampToGround</altitudeMode>
        <coordinates>-122.35337,38.40020,0</coordinates>
      </Point>
    </Placemark>
    <Placemark>
      <name>20</name>
      <styleUrl>#style_pgm</styleUrl>
      <visibility>0</visibility>
      <Point>
        <altitudeMode>clampToGround</altitudeMode>
        <coordinates>-122.21677,38.02383,0</coordinates>
      </Point>
    </Placemark>
    <Placemark>
      <name>pga 30 %g Contour</name>
      <styleUrl>#style_pgm</styleUrl>
      <visibility>0</visibility>
      <Snippet maxLines="0">
      </Snippet>
      <open>0</open>
      <MultiGeometry>
        <LineString>
          <gx:drawOrder>5</gx:drawOrder>
          <extrude>0</extrude>
          <tessellate>1</tessellate>
          <altitudeMode>clampToGround</altitudeMode>
          <coordinates>-122.32837,38.37548,0 -122.32003,38.37586,0 -122.31384,38.37383,0 -122.31170,38.37296,0 -122.30337,38.36819,0 -122.29933,38.36550,0 -122.29503,38.36226,0 -122.28931,38.35717,0 -122.28670,38.35458,0 -122.28146,38.34883,0 -122.27837,38.34500,0 -122.27529,38.34050,0 -122.27057,38.33217,0 -122.27003,38.33115,0 -122.26621,38.32383,0 -122.26289,38.31550,0 -122.26170,38.31147,0 -122.26028,38.30717,0 -122.25824,38.29883,0 -122.25715,38.29050,0 -122.25689,38.28217,0 -122.25688,38.27383,0 -122.25715,38.26550,0 -122.25819,38.25717,0 -122.25953,38.24883,0 -122.25783,38.24050,0 -122.25353,38.23217,0 -122.25337,38.23194,0 -122.24651,38.22383,0 -122.24503,38.22119,0 -122.24197,38.21550,0 -122.24161,38.20717,0 -122.24392,38.19883,0 -122.24503,38.19581,0 -122.24715,38.19050,0 -122.24871,38.18217,0 -122.24787,38.17383,0 -122.24547,38.16550,0 -122.24503,38.16442,0 -122.23976,38.15717,0 -122.23670,38.15499,0 -122.22837,38.14980,0 -122.22680,38.14883,0 -122.22003,38.14063,0 -122.21992,38.14050,0 -122.22003,38.13958,0 -122.22056,38.13217,0 -122.22348,38.12383,0 -122.22710,38.11550,0 -122.22837,38.11381,0 -122.23453,38.10717,0 -122.23670,38.10510,0 -122.24459,38.09883,0 -122.24503,38.09752,0 -122.24692,38.09050,0 -122.24847,38.08217,0 -122.25337,38.07857,0 -122.26170,38.08143,0 -122.26282,38.08217,0 -122.27003,38.08601,0 -122.27837,38.08650,0 -122.28670,38.08854,0 -122.29061,38.09050,0 -122.29503,38.09273,0 -122.30272,38.09883,0 -122.30337,38.09945,0 -122.30975,38.10717,0 -122.31170,38.10869,0 -122.32003,38.11431,0 -122.32259,38.11550,0 -122.32837,38.11843,0 -122.33670,38.12183,0 -122.34075,38.12383,0 -122.34503,38.12944,0 -122.34667,38.13217,0 -122.34777,38.14050,0 -122.35057,38.14883,0 -122.35337,38.15460,0 -122.35449,38.15717,0 -122.35495,38.16550,0 -122.35337,38.16932,0 -122.35128,38.17383,0 -122.35337,38.17959,0 -122.35429,38.18217,0 -122.36170,38.18854,0 -122.36360,38.19050,0 -122.37003,38.19643,0 -122.37218,38.19883,0 -122.37646,38.20717,0 -122.37596,38.21550,0 -122.37491,38.22383,0 -122.37689,38.23217,0 -122.37837,38.23584,0 -122.38019,38.24050,0 -122.38140,38.24883,0 -122.38083,38.25717,0 -122.38187,38.26550,0 -122.38628,38.27383,0 -122.38670,38.27456,0 -122.39175,38.28217,0 -122.39503,38.28811,0 -122.39643,38.29050,0 -122.40014,38.29883,0 -122.40074,38.30717,0 -122.39805,38.31550,0 -122.39503,38.31968,0 -122.39188,38.32383,0 -122.38670,38.32878,0 -122.38360,38.33217,0 -122.37837,38.33967,0 -122.37776,38.34050,0 -122.37003,38.34700,0 -122.36612,38.34883,0 -122.36170,38.35081,0 -122.35337,38.35556,0 -122.35064,38.35717,0 -122.34503,38.36219,0 -122.34033,38.36550,0 -122.33670,38.36900,0 -122.33113,38.37383,0 -122.32837,38.37548,0 </coordinates>
        </LineString>
      </MultiGeometry>
    </Placemark>
    <Placemark>
      <name>30</name>
      <styleUrl>#style_pgm</styleUrl>
      <visibility>0</visibility>
      <Point>
        <altitudeMode>clampToGround</altitudeMode>
        <coordinates>-122.32837,38.37548,0</coordinates>
      </Point>
    </Placemark>
    <Placemark>
      <name>30</name>
      <styleUrl>#style_pgm</styleUrl>
      <visibility>0</visibility>
      <Point>
        <altitudeMode>clampToGround</altitudeMode>
        <coordinates>-122.27837,38.08650,0</coordinates>
      </Point>
    </Placemark>
    <Placemark>
      <name>pga 40 %g Contour</name>
      <styleUrl>#style_pgm</styleUrl>
      <visibility>0</visibility>
      <Snippet maxLines="0">
      </Snippet>
      <open>0</open>
      <MultiGeometry>
        <LineString>
          <gx:drawOrder>5</gx:drawOrder>
          <extrude>0</extrude>
          <tessellate>1</tessellate>
          <altitudeMode>clampToGround</altitudeMode>
          <coordinates>-122.34503,38.34076,0 -122.33670,38.34236,0 -122.32837,38.34324,0 -122.32003,38.34250,0 -122.31533,38.34050,0 -122.31170,38.33918,0 -122.30337,38.33350,0 -122.30180,38.33217,0 -122.29503,38.32597,0 -122.29302,38.32383,0 -122.28670,38.31656,0 -122.28591,38.31550,0 -122.27983,38.30717,0 -122.27837,38.30316,0 -122.27697,38.29883,0 -122.27790,38.29050,0 -122.27837,38.28887,0 -122.28024,38.28217,0 -122.28119,38.27383,0 -122.28104,38.26550,0 -122.28100,38.25717,0 -122.28096,38.24883,0 -122.28025,38.24050,0 -122.27837,38.23285,0 -122.27814,38.23217,0 -122.27457,38.22383,0 -122.27300,38.21550,0 -122.27554,38.20717,0 -122.27837,38.20152,0 -122.27933,38.19883,0 -122.28394,38.19050,0 -122.28670,38.18757,0 -122.29503,38.18412,0 -122.30337,38.18416,0 -122.31170,38.18541,0 -122.32003,38.18722,0 -122.32561,38.19050,0 -122.32837,38.19210,0 -122.33449,38.19883,0 -122.33670,38.20073,0 -122.34356,38.20717,0 -122.34503,38.20851,0 -122.35048,38.21550,0 -122.35268,38.22383,0 -122.35337,38.22993,0 -122.35371,38.23217,0 -122.35650,38.24050,0 -122.35971,38.24883,0 -122.36170,38.25680,0 -122.36180,38.25717,0 -122.36413,38.26550,0 -122.36719,38.27383,0 -122.37003,38.28200,0 -122.37011,38.28217,0 -122.37305,38.29050,0 -122.37572,38.29883,0 -122.37697,38.30717,0 -122.37502,38.31550,0 -122.37003,38.32321,0 -122.36967,38.32383,0 -122.36292,38.33217,0 -122.36170,38.33333,0 -122.35337,38.33839,0 -122.34584,38.34050,0 -122.34503,38.34076,0 </coordinates>
        </LineString>
      </MultiGeometry>
    </Placemark>
    <Placemark>
      <name>pga 50 %g Contour</name>
      <styleUrl>#style_pgm</styleUrl>
      <visibility>0</visibility>
      <Snippet maxLines="0">
      </Snippet>
      <open>0</open>
      <MultiGeometry>
        <LineString>
          <gx:drawOrder>5</gx:drawOrder>
          <extrude>0</extrude>
          <tessellate>1</tessellate>
          <altitudeMode>clampToGround</altitudeMode>
          <coordinates>-122.35337,38.32470,0 -122.34503,38.32950,0 -122.33670,38.33122,0 -122.32837,38.33119,0 -122.32003,38.32903,0 -122.31200,38.32383,0 -122.31170,38.32358,0 -122.30443,38.31550,0 -122.30337,38.31376,0 -122.29830,38.30717,0 -122.29503,38.30058,0 -122.29397,38.29883,0 -122.29449,38.29050,0 -122.29503,38.28649,0 -122.29540,38.28217,0 -122.29503,38.27642,0 -122.29484,38.27383,0 -122.29382,38.26550,0 -122.29366,38.25717,0 -122.29346,38.24883,0 -122.29279,38.24050,0 -122.29199,38.23217,0 -122.29124,38.22383,0 -122.29083,38.21550,0 -122.29234,38.20717,0 -122.29503,38.20313,0 -122.30337,38.19989,0 -122.31170,38.20165,0 -122.32003,38.20590,0 -122.32172,38.20717,0 -122.32837,38.21176,0 -122.33340,38.21550,0 -122.33670,38.21859,0 -122.34041,38.22383,0 -122.34245,38.23217,0 -122.34386,38.24050,0 -122.34503,38.24432,0 -122.34675,38.24883,0 -122.34975,38.25717,0 -122.35220,38.26550,0 -122.35337,38.26939,0 -122.35493,38.27383,0 -122.35738,38.28217,0 -122.35903,38.29050,0 -122.36081,38.29883,0 -122.36170,38.30505,0 -122.36209,38.30717,0 -122.36170,38.30889,0 -122.36040,38.31550,0 -122.35434,38.32383,0 -122.35337,38.32470,0 </coordinates>
        </LineString>
      </MultiGeometry>
    </Placemark>
    <Placemark>
      <name>pga 60 %g Contour</name>
      <styleUrl>#style_pgm</styleUrl>
      <visibility>0</visibility>
      <Snippet maxLines="0">
      </Snippet>
      <open>0</open>
      <MultiGeometry>
        <LineString>
          <gx:drawOrder>5</gx:drawOrder>
          <extrude>0</extrude>
          <tessellate>1</tessellate>
          <altitudeMode>clampToGround</altitudeMode>
          <coordinates>-122.34503,38.31903,0 -122.33670,38.32276,0 -122.32837,38.32252,0 -122.32003,38.31866,0 -122.31648,38.31550,0 -122.31170,38.30867,0 -122.31071,38.30717,0 -122.30753,38.29883,0 -122.30637,38.29050,0 -122.30537,38.28217,0 -122.30395,38.27383,0 -122.30337,38.27039,0 -122.30254,38.26550,0 -122.30229,38.25717,0 -122.30208,38.24883,0 -122.30114,38.24050,0 -122.30025,38.23217,0 -122.29993,38.22383,0 -122.30129,38.21550,0 -122.30337,38.21262,0 -122.31170,38.21176,0 -122.31817,38.21550,0 -122.32003,38.21672,0 -122.32837,38.22340,0 -122.32882,38.22383,0 -122.33314,38.23217,0 -122.33480,38.24050,0 -122.33670,38.24664,0 -122.33737,38.24883,0 -122.34039,38.25717,0 -122.34289,38.26550,0 -122.34503,38.27271,0 -122.34539,38.27383,0 -122.34776,38.28217,0 -122.34926,38.29050,0 -122.35069,38.29883,0 -122.35141,38.30717,0 -122.34865,38.31550,0 -122.34503,38.31903,0 </coordinates>
        </LineString>
      </MultiGeometry>
    </Placemark>
    <Placemark>
      <name>pga 70 %g Contour</name>
      <styleUrl>#style_pgm</styleUrl>
      <visibility>0</visibility>
      <Snippet maxLines="0">
      </Snippet>
      <open>0</open>
      <MultiGeometry>
        <LineString>
          <gx:drawOrder>5</gx:drawOrder>
          <extrude>0</extrude>
          <tessellate>1</tessellate>
          <altitudeMode>clampToGround</altitudeMode>
          <coordinates>-122.33670,38.31275,0 -122.32837,38.31328,0 -122.32088,38.30717,0 -122.32003,38.30575,0 -122.31743,38.29883,0 -122.31601,38.29050,0 -122.31454,38.28217,0 -122.31282,38.27383,0 -122.31170,38.26937,0 -122.31103,38.26550,0 -122.31091,38.25717,0 -122.31127,38.24883,0 -122.31064,38.24050,0 -122.31030,38.23217,0 -122.31170,38.22741,0 -122.32003,38.23018,0 -122.32160,38.23217,0 -122.32393,38.24050,0 -122.32695,38.24883,0 -122.32837,38.25070,0 -122.33086,38.25717,0 -122.33355,38.26550,0 -122.33618,38.27383,0 -122.33670,38.27515,0 -122.33864,38.28217,0 -122.34015,38.29050,0 -122.34134,38.29883,0 -122.34100,38.30717,0 -122.33670,38.31275,0 </coordinates>
        </LineString>
      </MultiGeometry>
    </Placemark>
  </Document>
</kml>

